threshold;Purity;MutualInformation;Accuracy;Clusters
0.6;0.02197802197802198;0.059430515484596234;0.02197802197802198;2
0.601010101010101;0.02197802197802198;0.07978104334562273;0.02197802197802198;3
0.602020202020202;0.02197802197802198;0.07978104334562273;0.02197802197802198;3
0.603030303030303;0.02197802197802198;0.07978104334562273;0.02197802197802198;3
0.604040404040404;0.02197802197802198;0.07978104334562273;0.02197802197802198;3
0.6050505050505051;0.02197802197802198;0.07978104334562273;0.02197802197802198;3
0.6060606060606061;0.02197802197802198;0.07978104334562273;0.02197802197802198;3
0.6070707070707071;0.02197802197802198;0.07978104334562273;0.02197802197802198;3
0.6080808080808081;0.02197802197802198;0.07978104334562273;0.02197802197802198;3
0.609090909090909;0.02197802197802198;0.07978104334562273;0.02197802197802198;3
0.61010101010101;0.02197802197802198;0.07978104334562273;0.02197802197802198;3
0.611111111111111;0.02197802197802198;0.07978104334562273;0.02197802197802198;3
0.6121212121212121;0.02197802197802198;0.07978104334562273;0.02197802197802198;3
0.6131313131313131;0.02197802197802198;0.07978104334562273;0.02197802197802198;3
0.6141414141414141;0.03610675039246468;0.12196001232862429;0.03610675039246468;3
0.6151515151515151;0.03610675039246468;0.12196001232862429;0.03610675039246468;3
0.6161616161616161;0.03610675039246468;0.12196001232862429;0.03610675039246468;3
0.6171717171717171;0.03610675039246468;0.12196001232862429;0.03610675039246468;3
0.6181818181818182;0.03610675039246468;0.12196001232862429;0.03610675039246468;3
0.6191919191919192;0.03610675039246468;0.12196001232862429;0.03610675039246468;3
0.6202020202020202;0.03610675039246468;0.12196001232862429;0.03610675039246468;3
0.6212121212121212;0.03610675039246468;0.12196001232862429;0.03610675039246468;3
0.6222222222222222;0.03610675039246468;0.12196001232862429;0.03610675039246468;3
0.6232323232323232;0.03610675039246468;0.12196001232862429;0.03610675039246468;3
0.6242424242424243;0.03610675039246468;0.12196001232862429;0.03610675039246468;3
0.6252525252525252;0.03924646781789639;0.15709699131129687;0.03924646781789639;4
0.6262626262626262;0.03924646781789639;0.15709699131129687;0.03924646781789639;4
0.6272727272727272;0.03924646781789639;0.15709699131129687;0.03924646781789639;4
0.6282828282828282;0.03924646781789639;0.15709699131129687;0.03924646781789639;4
0.6292929292929292;0.03924646781789639;0.15709699131129687;0.03924646781789639;4
0.6303030303030303;0.03924646781789639;0.15709699131129687;0.03924646781789639;4
0.6313131313131313;0.03924646781789639;0.15709699131129687;0.03924646781789639;4
0.6323232323232323;0.03924646781789639;0.15709699131129687;0.03924646781789639;4
0.6333333333333333;0.03924646781789639;0.15709699131129687;0.03924646781789639;4
0.6343434343434343;0.03924646781789639;0.15709699131129687;0.03924646781789639;4
0.6353535353535353;0.03924646781789639;0.15709699131129687;0.03924646781789639;4
0.6363636363636364;0.03924646781789639;0.15709699131129687;0.03924646781789639;4
0.6373737373737374;0.03924646781789639;0.15709699131129687;0.03924646781789639;4
0.6383838383838384;0.03924646781789639;0.15709699131129687;0.03924646781789639;4
0.6393939393939394;0.03924646781789639;0.15709699131129687;0.03924646781789639;4
0.6404040404040404;0.03924646781789639;0.15709699131129687;0.03924646781789639;4
0.6414141414141414;0.03924646781789639;0.15709699131129687;0.03924646781789639;4
0.6424242424242423;0.03924646781789639;0.15709699131129687;0.03924646781789639;4
0.6434343434343434;0.04395604395604396;0.16900974190574938;0.04395604395604396;5
0.6444444444444444;0.04552590266875981;0.17562740064030924;0.04552590266875981;6
0.6454545454545454;0.04552590266875981;0.17562740064030924;0.04552590266875981;6
0.6464646464646464;0.04552590266875981;0.17562740064030924;0.04552590266875981;6
0.6474747474747474;0.04552590266875981;0.17562740064030924;0.04552590266875981;6
0.6484848484848484;0.04552590266875981;0.17562740064030924;0.04552590266875981;6
0.6494949494949495;0.04552590266875981;0.17562740064030924;0.04552590266875981;6
0.6505050505050505;0.04552590266875981;0.17562740064030924;0.04552590266875981;6
0.6515151515151515;0.04552590266875981;0.17562740064030924;0.04552590266875981;6
0.6525252525252525;0.05337519623233909;0.2004540196673239;0.05337519623233909;7
0.6535353535353535;0.05337519623233909;0.2004540196673239;0.05337519623233909;7
0.6545454545454545;0.05337519623233909;0.2004540196673239;0.05337519623233909;7
0.6555555555555556;0.05337519623233909;0.2004540196673239;0.05337519623233909;7
0.6565656565656566;0.05337519623233909;0.2004540196673239;0.05337519623233909;7
0.6575757575757576;0.05337519623233909;0.2004540196673239;0.05337519623233909;7
0.6585858585858586;0.05337519623233909;0.2004540196673239;0.05337519623233909;7
0.6595959595959595;0.05337519623233909;0.2004540196673239;0.05337519623233909;7
0.6606060606060605;0.05337519623233909;0.2004540196673239;0.05337519623233909;7
0.6616161616161615;0.05337519623233909;0.2004540196673239;0.05337519623233909;7
0.6626262626262626;0.05337519623233909;0.2004540196673239;0.05337519623233909;7
0.6636363636363636;0.05337519623233909;0.2004540196673239;0.05337519623233909;7
0.6646464646464646;0.05337519623233909;0.2004540196673239;0.05337519623233909;7
0.6656565656565656;0.058084772370486655;0.23712516315661145;0.058084772370486655;8
0.6666666666666666;0.0565149136577708;0.2285641803843788;0.054945054945054944;9
0.6676767676767676;0.05337519623233909;0.19069784851172306;0.05180533751962323;8
0.6686868686868687;0.05337519623233909;0.19069784851172306;0.05180533751962323;8
0.6696969696969697;0.05337519623233909;0.19069784851172306;0.05180533751962323;8
0.6707070707070707;0.06593406593406594;0.25720963804660935;0.06436420722135008;9
0.6717171717171717;0.06593406593406594;0.25720963804660935;0.06436420722135008;9
0.6727272727272727;0.06593406593406594;0.25720963804660935;0.06436420722135008;9
0.6737373737373737;0.06750392464678179;0.24771419411598772;0.06750392464678179;9
0.6747474747474747;0.06750392464678179;0.20823050513537555;0.06750392464678179;8
0.6757575757575758;0.06750392464678179;0.20823050513537555;0.06750392464678179;8
0.6767676767676767;0.06750392464678179;0.20823050513537555;0.06750392464678179;8
0.6777777777777777;0.06750392464678179;0.19060794204177328;0.06750392464678179;8
0.6787878787878787;0.06750392464678179;0.19060794204177328;0.06750392464678179;8
0.6797979797979797;0.07378335949764521;0.21733795262030134;0.07221350078492936;9
0.6808080808080808;0.07378335949764521;0.21733795262030134;0.07221350078492936;9
0.6818181818181818;0.07378335949764521;0.21733795262030134;0.07221350078492936;9
0.6828282828282828;0.07378335949764521;0.21733795262030134;0.07221350078492936;9
0.6838383838383838;0.07378335949764521;0.21733795262030134;0.07221350078492936;9
0.6848484848484848;0.07378335949764521;0.21733795262030134;0.07221350078492936;9
0.6858585858585858;0.07692307692307693;0.24116654051710334;0.07535321821036106;10
0.6868686868686869;0.07692307692307693;0.22731104899617194;0.07535321821036106;10
0.6878787878787879;0.07692307692307693;0.22731104899617194;0.07535321821036106;10
0.6888888888888889;0.09105180533751962;0.261686736049222;0.08948194662480377;11
0.6898989898989899;0.09105180533751962;0.261686736049222;0.08948194662480377;11
0.6909090909090909;0.09576138147566719;0.3023095347240854;0.09419152276295134;11
0.6919191919191918;0.09576138147566719;0.3023095347240854;0.09419152276295134;11
0.6929292929292928;0.09576138147566719;0.3023095347240854;0.09419152276295134;11
0.6939393939393939;0.09576138147566719;0.3023095347240854;0.09419152276295134;11
0.6949494949494949;0.09733124018838304;0.33638725492713545;0.09576138147566719;12
0.6959595959595959;0.10518053375196232;0.35221091870686916;0.10361067503924647;13
0.6969696969696969;0.10518053375196232;0.35221091870686916;0.10361067503924647;13
0.6979797979797979;0.10518053375196232;0.3481876560712307;0.0989010989010989;14
0.6989898989898989;0.10518053375196232;0.3481876560712307;0.0989010989010989;14
0.7;0.10675039246467818;0.35405792929794627;0.10047095761381476;14
