idnum|extra|percent|title|clusterid|real_author|label|filename
2|||TheVirginians|Cluster 2|William Makepeace Thackeray|William Makepeace Thackeray|corpora/baseline/corpus1/pg8123.epub
2|||TheNewcomesMemoirsofaMostRespectableFamily|Cluster 2|William Makepeace Thackeray|William Makepeace Thackeray|corpora/baseline/corpus1/pg7467.epub
2|||TheHistoryofPendennis|Cluster 2|William Makepeace Thackeray|William Makepeace Thackeray|corpora/baseline/corpus1/pg7265.epub
2|||TheHistoryofHenryEsmondEsqaColonelintheServiceofHerMajestyQueenAnne|Cluster 2|William Makepeace Thackeray|William Makepeace Thackeray|corpora/baseline/corpus1/pg2511.epub
2|||VanityFair|Cluster 2|William Makepeace Thackeray|William Makepeace Thackeray|corpora/baseline/corpus1/pg599.epub
2|||CatherineAStory|Cluster 2|William Makepeace Thackeray|William Makepeace Thackeray|corpora/baseline/corpus1/pg1969.epub
0|||OurMutualFriend|Cluster 0|Charles Dickens|Charles Dickens|corpora/baseline/corpus1/pg883.epub
0|||MartinChuzzlewit|Cluster 0|Charles Dickens|Charles Dickens|corpora/baseline/corpus1/pg968.epub
0|||DombeyandSon|Cluster 0|Charles Dickens|Charles Dickens|corpora/baseline/corpus1/pg821.epub
0|||LittleDorrit|Cluster 0|Charles Dickens|Charles Dickens|corpora/baseline/corpus1/pg963.epub
0|||HardTimes|Cluster 0|Charles Dickens|Charles Dickens|corpora/baseline/corpus1/pg786.epub
0|||TheMysteryofEdwinDrood|Cluster 0|Charles Dickens|Charles Dickens|corpora/baseline/corpus1/pg564.epub
3|||AdamBede|Cluster 3|George Eliot|George Eliot|corpora/baseline/corpus1/pg507.epub
3|||Romola|Cluster 3|George Eliot|George Eliot|corpora/baseline/corpus1/pg24020.epub
3|||Middlemarch|Cluster 3|George Eliot|George Eliot|corpora/baseline/corpus1/pg145.epub
3|||FelixHolttheRadical|Cluster 3|George Eliot|George Eliot|corpora/baseline/corpus1/pg40882.epub
3|||SilasMarner|Cluster 3|George Eliot|George Eliot|corpora/baseline/corpus1/pg550.epub
3|||TheMillontheFloss|Cluster 3|George Eliot|George Eliot|corpora/baseline/corpus1/pg6688.epub
3|||DanielDeronda|Cluster 3|George Eliot|George Eliot|corpora/baseline/corpus1/pg7469.epub
1|||Emma|Cluster 1|Jane Austen|Jane Austen|corpora/baseline/corpus1/pg158.epub
1|||Cranford|Cluster 1|Elizabeth Cleghorn Gaskell|Jane Austen|corpora/baseline/corpus1/pg394.epub
1|||NorthandSouth|Cluster 1|Elizabeth Cleghorn Gaskell|Jane Austen|corpora/baseline/corpus1/pg4276.epub
1|||MansfieldPark|Cluster 1|Jane Austen|Jane Austen|corpora/baseline/corpus1/pg141.epub
1|||PrideandPrejudice|Cluster 1|Jane Austen|Jane Austen|corpora/baseline/corpus1/pg42671.epub
1|||NorthangerAbbey|Cluster 1|Jane Austen|Jane Austen|corpora/baseline/corpus1/pg121.epub
1|||MaryBarton|Cluster 1|Elizabeth Cleghorn Gaskell|Jane Austen|corpora/baseline/corpus1/pg2153.epub
1|||Ruth|Cluster 1|Elizabeth Cleghorn Gaskell|Jane Austen|corpora/baseline/corpus1/pg4275.epub
1|||SenseandSensibility|Cluster 1|Jane Austen|Jane Austen|corpora/baseline/corpus1/pg161.epub
1|||Persuasion|Cluster 1|Jane Austen|Jane Austen|corpora/baseline/corpus1/pg105.epub
4|||BarnabyRudgeATaleoftheRiotsofEighty|Cluster 4|Charles Dickens|unknown_5|corpora/baseline/corpus1/pg917.epub
4|||ATaleofTwoCities|Cluster 4|Charles Dickens|unknown_5|corpora/baseline/corpus1/pg98.epub
4|||ThePickwickPapers|Cluster 4|Charles Dickens|unknown_5|corpora/baseline/corpus1/pg580.epub
4|||SylviasLovers—Complete|Cluster 4|Elizabeth Cleghorn Gaskell|unknown_5|corpora/baseline/corpus1/pg4537.epub
4|||NicholasNickleby|Cluster 4|Charles Dickens|unknown_5|corpora/baseline/corpus1/pg967.epub
4|||OliverTwist|Cluster 4|Charles Dickens|unknown_5|corpora/baseline/corpus1/pg730.epub
