idnum|extra|title|percent|clusterid|real_author|label|filename
0|929aa|OurMutualFriend|100.0|Cluster 0|Charles Dickens|Charles Dickens|corpora/baseline/corpus1/pg883.epub
1|929aa|MartinChuzzlewit|0.66|Cluster 0|Charles Dickens|Charles Dickens|corpora/baseline/corpus1/pg968.epub
2|929aa|DombeyandSon|0.91|Cluster 0|Charles Dickens|Charles Dickens|corpora/baseline/corpus1/pg821.epub
3|929aa|LittleDorrit|0.01|Cluster 0|Charles Dickens|Charles Dickens|corpora/baseline/corpus1/pg963.epub
4|929aa|HardTimes|0.32|Cluster 0|Charles Dickens|Charles Dickens|corpora/baseline/corpus1/pg786.epub
5|929aa|TheMysteryofEdwinDrood|0.34|Cluster 0|Charles Dickens|Charles Dickens|corpora/baseline/corpus1/pg564.epub
0|929aa|TheVirginians|100.0|Cluster 1|William Makepeace Thackeray|William Makepeace Thackeray|corpora/baseline/corpus1/pg8123.epub
1|929aa|TheNewcomesMemoirsofaMostRespectableFamily|0.67|Cluster 1|William Makepeace Thackeray|William Makepeace Thackeray|corpora/baseline/corpus1/pg7467.epub
2|929aa|TheHistoryofPendennis|0.6|Cluster 1|William Makepeace Thackeray|William Makepeace Thackeray|corpora/baseline/corpus1/pg7265.epub
3|929aa|TheHistoryofHenryEsmondEsqaColonelintheServiceofHerMajestyQueenAnne|0.32|Cluster 1|William Makepeace Thackeray|William Makepeace Thackeray|corpora/baseline/corpus1/pg2511.epub
4|929aa|VanityFair|0.58|Cluster 1|William Makepeace Thackeray|William Makepeace Thackeray|corpora/baseline/corpus1/pg599.epub
5|929aa|CatherineAStory|0.72|Cluster 1|William Makepeace Thackeray|William Makepeace Thackeray|corpora/baseline/corpus1/pg1969.epub
0|929aa|Emma|100.0|Cluster 2|Jane Austen|Jane Austen|corpora/baseline/corpus1/pg158.epub
1|929aa|MansfieldPark|0.52|Cluster 2|Jane Austen|Jane Austen|corpora/baseline/corpus1/pg141.epub
2|929aa|PrideandPrejudice|0.64|Cluster 2|Jane Austen|Jane Austen|corpora/baseline/corpus1/pg42671.epub
3|929aa|NorthangerAbbey|0.98|Cluster 2|Jane Austen|Jane Austen|corpora/baseline/corpus1/pg121.epub
4|929aa|SenseandSensibility|0.72|Cluster 2|Jane Austen|Jane Austen|corpora/baseline/corpus1/pg161.epub
5|929aa|Persuasion|0.46|Cluster 2|Jane Austen|Jane Austen|corpora/baseline/corpus1/pg105.epub
0|929aa|AdamBede|100.0|Cluster 3|George Eliot|George Eliot|corpora/baseline/corpus1/pg507.epub
1|929aa|Romola|0.98|Cluster 3|George Eliot|George Eliot|corpora/baseline/corpus1/pg24020.epub
2|929aa|Middlemarch|0.29|Cluster 3|George Eliot|George Eliot|corpora/baseline/corpus1/pg145.epub
3|929aa|FelixHolttheRadical|0.48|Cluster 3|George Eliot|George Eliot|corpora/baseline/corpus1/pg40882.epub
4|929aa|SilasMarner|0.52|Cluster 3|George Eliot|George Eliot|corpora/baseline/corpus1/pg550.epub
5|929aa|TheMillontheFloss|0.53|Cluster 3|George Eliot|George Eliot|corpora/baseline/corpus1/pg6688.epub
6|929aa|DanielDeronda|0.05|Cluster 3|George Eliot|George Eliot|corpora/baseline/corpus1/pg7469.epub
0|929aa|Cranford|100.0|Cluster 4|Elizabeth Cleghorn Gaskell|Elizabeth Cleghorn Gaskell|corpora/baseline/corpus1/pg394.epub
1|929aa|NorthandSouth|0.11|Cluster 4|Elizabeth Cleghorn Gaskell|Elizabeth Cleghorn Gaskell|corpora/baseline/corpus1/pg4276.epub
2|929aa|MaryBarton|0.11|Cluster 4|Elizabeth Cleghorn Gaskell|Elizabeth Cleghorn Gaskell|corpora/baseline/corpus1/pg2153.epub
3|929aa|Ruth|0.71|Cluster 4|Elizabeth Cleghorn Gaskell|Elizabeth Cleghorn Gaskell|corpora/baseline/corpus1/pg4275.epub
4|929aa|SylviasLovers—Complete|0.93|Cluster 4|Elizabeth Cleghorn Gaskell|Elizabeth Cleghorn Gaskell|corpora/baseline/corpus1/pg4537.epub
0|929aa|BarnabyRudgeATaleoftheRiotsofEighty|100.0|Cluster 5|Charles Dickens|unknown_6|corpora/baseline/corpus1/pg917.epub
1|929aa|ATaleofTwoCities|0.08|Cluster 5|Charles Dickens|unknown_6|corpora/baseline/corpus1/pg98.epub
2|929aa|ThePickwickPapers|0.31|Cluster 5|Charles Dickens|unknown_6|corpora/baseline/corpus1/pg580.epub
3|929aa|NicholasNickleby|0.32|Cluster 5|Charles Dickens|unknown_6|corpora/baseline/corpus1/pg967.epub
4|929aa|OliverTwist|0.66|Cluster 5|Charles Dickens|unknown_6|corpora/baseline/corpus1/pg730.epub
