%!PS-Adobe-3.0 EPSF-3.0
%%DocumentNeededResources: font Helvetica
%%+ font Helvetica-Bold
%%+ font Helvetica-Oblique
%%+ font Helvetica-BoldOblique
%%+ font Symbol
%%Title: R Graphics Output
%%Creator: R Software
%%Pages: (atend)
%%BoundingBox: 0 0 646 379
%%EndComments
%%BeginProlog
/bp  { gs sRGB gs } def
% begin .ps.prolog
/gs  { gsave } bind def
/gr  { grestore } bind def
/ep  { showpage gr gr } bind def
/m   { moveto } bind def
/l  { rlineto } bind def
/np  { newpath } bind def
/cp  { closepath } bind def
/f   { fill } bind def
/o   { stroke } bind def
/c   { newpath 0 360 arc } bind def
/r   { 4 2 roll moveto 1 copy 3 -1 roll exch 0 exch rlineto 0 rlineto -1 mul 0 exch rlineto closepath } bind def
/p1  { stroke } bind def
/p2  { gsave bg fill grestore newpath } bind def
/p3  { gsave bg fill grestore stroke } bind def
/p6  { gsave bg eofill grestore newpath } bind def
/p7  { gsave bg eofill grestore stroke } bind def
/t   { 5 -2 roll moveto gsave rotate
       1 index stringwidth pop
       mul neg 0 rmoveto show grestore } bind def
/ta  { 4 -2 roll moveto gsave rotate show } bind def
/tb  { 2 -1 roll 0 rmoveto show } bind def
/cl  { grestore gsave newpath 3 index 3 index moveto 1 index
       4 -1 roll lineto  exch 1 index lineto lineto
       closepath clip newpath } bind def
/rgb { setrgbcolor } bind def
/s   { scalefont setfont } bind def
% end   .ps.prolog
/sRGB { [ /CIEBasedABC
          << /DecodeLMN
               [ { dup 0.03928 le
                        {12.92321 div}
                        {0.055 add 1.055 div 2.4 exp }
                     ifelse
                 } bind dup dup
               ]
             /MatrixLMN [0.412457 0.212673 0.019334
                         0.357576 0.715152 0.119192
                         0.180437 0.072175 0.950301]
             /WhitePoint [0.9505 1.0 1.0890]
           >>
         ] setcolorspace } bind def
/srgb { setcolor } bind def
%%IncludeResource: font Helvetica
/Helvetica findfont
dup length dict begin
  {1 index /FID ne {def} {pop pop} ifelse} forall
  /Encoding ISOLatin1Encoding def
  currentdict
  end
/Font1 exch definefont pop
%%IncludeResource: font Helvetica-Bold
/Helvetica-Bold findfont
dup length dict begin
  {1 index /FID ne {def} {pop pop} ifelse} forall
  /Encoding ISOLatin1Encoding def
  currentdict
  end
/Font2 exch definefont pop
%%IncludeResource: font Helvetica-Oblique
/Helvetica-Oblique findfont
dup length dict begin
  {1 index /FID ne {def} {pop pop} ifelse} forall
  /Encoding ISOLatin1Encoding def
  currentdict
  end
/Font3 exch definefont pop
%%IncludeResource: font Helvetica-BoldOblique
/Helvetica-BoldOblique findfont
dup length dict begin
  {1 index /FID ne {def} {pop pop} ifelse} forall
  /Encoding ISOLatin1Encoding def
  currentdict
  end
/Font4 exch definefont pop
%%IncludeResource: font Symbol
/Symbol findfont
dup length dict begin
  {1 index /FID ne {def} {pop pop} ifelse} forall
  currentdict
  end
/Font5 exch definefont pop
%%EndProlog
%%Page: 1 1
bp
/bg { 1 1 1 srgb } def
0.00 0.00 645.75 379.50 r p2
59.04 73.44 615.51 320.46 cl
0 0 0 srgb
0.75 setlinewidth
[] 0 setdash
1 setlinecap
1 setlinejoin
10.00 setmiterlimit
np
79.65 82.59 m
1.01 0 l
1.01 0.01 l
1.00 0 l
1.01 0.01 l
1.01 0.01 l
1.01 0.01 l
1.01 0.01 l
1.01 0.02 l
1.00 0.01 l
1.01 0.03 l
1.01 0.02 l
1.01 0.03 l
1.01 0.03 l
1.01 0.04 l
1.00 0.04 l
1.01 0.05 l
1.01 0.05 l
1.01 0.06 l
1.01 0.07 l
1.01 0.07 l
1.00 0.07 l
1.01 0.09 l
1.01 0.08 l
1.01 0.10 l
1.01 0.09 l
1.01 0.11 l
1.00 0.10 l
1.01 0.11 l
1.01 0.11 l
1.01 0.11 l
1.01 0.12 l
1.01 0.12 l
1.00 0.12 l
1.01 0.13 l
1.01 0.12 l
1.01 0.14 l
1.01 0.14 l
1.01 0.15 l
1.00 0.15 l
1.01 0.17 l
1.01 0.19 l
1.01 0.20 l
1.01 0.23 l
1.01 0.25 l
1.00 0.28 l
1.01 0.32 l
1.01 0.35 l
1.01 0.38 l
1.01 0.44 l
1.01 0.48 l
1.00 0.53 l
1.01 0.58 l
1.01 0.63 l
1.01 0.68 l
1.01 0.74 l
1.01 0.80 l
1.00 0.84 l
1.01 0.90 l
1.01 0.95 l
1.01 1.00 l
1.01 1.05 l
1.01 1.10 l
1.00 1.14 l
1.01 1.19 l
1.01 1.23 l
1.01 1.28 l
1.01 1.32 l
1.01 1.37 l
1.00 1.43 l
1.01 1.48 l
1.01 1.55 l
1.01 1.61 l
1.01 1.68 l
1.01 1.76 l
1.00 1.87 l
1.01 1.97 l
1.01 2.09 l
1.01 2.20 l
1.01 2.33 l
1.01 2.47 l
1.00 2.62 l
1.01 2.79 l
1.01 2.95 l
1.01 3.11 l
1.01 3.27 l
1.01 3.43 l
1.00 3.58 l
1.01 3.77 l
1.01 3.91 l
1.01 4.04 l
1.01 4.15 l
1.01 4.27 l
1.00 4.35 l
1.01 4.43 l
1.01 4.49 l
1.01 4.52 l
1.01 4.53 l
1.01 4.53 l
1.00 4.49 l
180.48 206.07 lineto
1.01 4.37 l
1.01 4.29 l
1.01 4.19 l
1.00 4.08 l
1.01 3.95 l
1.01 3.82 l
1.01 3.66 l
1.01 3.50 l
1.01 3.35 l
1.00 3.20 l
1.01 3.05 l
1.01 2.91 l
1.01 2.77 l
1.01 2.60 l
1.01 2.49 l
1.00 2.39 l
1.01 2.29 l
1.01 2.21 l
1.01 2.14 l
1.01 2.09 l
1.01 2.05 l
1.00 2.02 l
1.01 2.03 l
1.01 2.02 l
1.01 2.04 l
1.01 2.05 l
1.01 2.08 l
1.00 2.10 l
1.01 2.11 l
1.01 2.13 l
1.01 2.14 l
1.01 2.12 l
1.01 2.09 l
1.00 2.05 l
1.01 1.97 l
1.01 1.88 l
1.01 1.77 l
1.01 1.64 l
1.01 1.47 l
1.00 1.25 l
1.01 1.05 l
1.01 0.82 l
1.01 0.59 l
1.01 0.34 l
1.01 0.08 l
1.00 -0.21 l
1.01 -0.49 l
1.01 -0.75 l
1.01 -0.98 l
1.01 -1.21 l
1.01 -1.42 l
1.00 -1.62 l
1.01 -1.80 l
1.01 -1.94 l
1.01 -2.03 l
1.01 -2.11 l
1.01 -2.15 l
1.00 -2.17 l
1.01 -2.15 l
1.01 -2.11 l
1.01 -2.04 l
1.01 -1.96 l
1.01 -1.86 l
1.00 -1.75 l
1.01 -1.62 l
1.01 -1.47 l
1.01 -1.35 l
1.01 -1.23 l
1.01 -1.12 l
1.00 -1.02 l
1.01 -0.92 l
1.01 -0.84 l
1.01 -0.78 l
1.01 -0.74 l
1.01 -0.73 l
1.00 -0.72 l
1.01 -0.73 l
1.01 -0.77 l
1.01 -0.82 l
1.01 -0.87 l
1.01 -0.95 l
1.00 -1.02 l
1.01 -1.10 l
1.01 -1.19 l
1.01 -1.29 l
1.01 -1.38 l
1.01 -1.46 l
1.00 -1.53 l
1.01 -1.61 l
1.01 -1.67 l
1.01 -1.73 l
1.01 -1.80 l
1.01 -1.83 l
1.00 -1.87 l
1.01 -1.90 l
1.01 -1.92 l
1.01 -1.95 l
1.01 -1.97 l
1.01 -1.98 l
281.31 232.67 lineto
1.01 -2.02 l
1.01 -2.04 l
1.01 -2.07 l
1.01 -2.09 l
1.00 -2.13 l
1.01 -2.17 l
1.01 -2.22 l
1.01 -2.25 l
1.01 -2.31 l
1.01 -2.36 l
1.00 -2.41 l
1.01 -2.48 l
1.01 -2.52 l
1.01 -2.58 l
1.01 -2.62 l
1.01 -2.65 l
1.00 -2.69 l
1.01 -2.72 l
1.01 -2.73 l
1.01 -2.73 l
1.01 -2.73 l
1.01 -2.71 l
1.00 -2.69 l
1.01 -2.64 l
1.01 -2.59 l
1.01 -2.53 l
1.01 -2.47 l
1.01 -2.39 l
1.00 -2.32 l
1.01 -2.22 l
1.01 -2.13 l
1.01 -2.03 l
1.01 -1.93 l
1.01 -1.84 l
1.00 -1.75 l
1.01 -1.65 l
1.01 -1.53 l
1.01 -1.43 l
1.01 -1.35 l
1.01 -1.25 l
1.00 -1.18 l
1.01 -1.09 l
1.01 -1.00 l
1.01 -0.93 l
1.01 -0.87 l
1.01 -0.82 l
1.00 -0.76 l
1.01 -0.73 l
1.01 -0.70 l
1.01 -0.67 l
1.01 -0.67 l
1.01 -0.66 l
1.00 -0.67 l
1.01 -0.68 l
1.01 -0.70 l
1.01 -0.74 l
1.01 -0.77 l
1.01 -0.81 l
1.00 -0.85 l
1.01 -0.89 l
1.01 -0.93 l
1.01 -0.96 l
1.01 -1.01 l
1.01 -1.04 l
1.00 -1.07 l
1.01 -1.08 l
1.01 -1.10 l
1.01 -1.10 l
1.01 -1.10 l
1.01 -1.09 l
1.00 -1.08 l
1.01 -1.06 l
1.01 -1.04 l
1.01 -1.00 l
1.01 -0.98 l
1.01 -0.93 l
1.00 -0.89 l
1.01 -0.85 l
1.01 -0.82 l
1.01 -0.78 l
1.01 -0.74 l
1.01 -0.69 l
1.00 -0.67 l
1.01 -0.63 l
1.01 -0.60 l
1.01 -0.58 l
1.01 -0.55 l
1.01 -0.54 l
1.00 -0.51 l
1.01 -0.51 l
1.01 -0.49 l
1.01 -0.49 l
1.01 -0.48 l
1.01 -0.48 l
1.00 -0.48 l
1.01 -0.47 l
1.01 -0.48 l
1.01 -0.47 l
1.01 -0.47 l
382.15 95.80 lineto
1.00 -0.46 l
1.01 -0.46 l
1.01 -0.45 l
1.01 -0.44 l
1.01 -0.42 l
1.01 -0.41 l
1.00 -0.39 l
1.01 -0.37 l
1.01 -0.34 l
1.01 -0.33 l
1.01 -0.29 l
1.00 -0.27 l
1.01 -0.24 l
1.01 -0.22 l
1.01 -0.18 l
1.01 -0.16 l
1.01 -0.14 l
1.00 -0.11 l
1.01 -0.10 l
1.01 -0.08 l
1.01 -0.06 l
1.01 -0.05 l
1.01 -0.04 l
1.00 -0.03 l
1.01 -0.03 l
1.01 -0.04 l
1.01 -0.03 l
1.01 -0.04 l
1.01 -0.05 l
1.00 -0.05 l
1.01 -0.07 l
1.01 -0.08 l
1.01 -0.08 l
1.01 -0.11 l
1.01 -0.11 l
1.00 -0.12 l
1.01 -0.14 l
1.01 -0.15 l
1.01 -0.15 l
1.01 -0.16 l
1.01 -0.17 l
1.00 -0.18 l
1.01 -0.18 l
1.01 -0.18 l
1.01 -0.18 l
1.01 -0.17 l
1.01 -0.18 l
1.00 -0.17 l
1.01 -0.16 l
1.01 -0.15 l
1.01 -0.14 l
1.01 -0.13 l
1.01 -0.12 l
1.00 -0.10 l
1.01 -0.09 l
1.01 -0.08 l
1.01 -0.05 l
1.01 -0.05 l
1.01 -0.03 l
1.00 -0.02 l
1.01 0 l
1.01 0 l
1.01 0.02 l
1.01 0.02 l
1.01 0.02 l
1.00 0.03 l
1.01 0.03 l
1.01 0.02 l
1.01 0.02 l
1.01 0.02 l
1.01 0 l
1.00 0 l
1.01 -0.01 l
1.01 -0.02 l
1.01 -0.03 l
1.01 -0.05 l
1.01 -0.05 l
1.00 -0.06 l
1.01 -0.07 l
1.01 -0.08 l
1.01 -0.08 l
1.01 -0.09 l
1.01 -0.09 l
1.00 -0.09 l
1.01 -0.09 l
1.01 -0.09 l
1.01 -0.09 l
1.01 -0.08 l
1.01 -0.08 l
1.00 -0.07 l
1.01 -0.06 l
1.01 -0.06 l
1.01 -0.05 l
1.01 -0.03 l
1.01 -0.03 l
1.00 -0.03 l
1.01 -0.01 l
1.01 -0.01 l
1.01 0.01 l
482.98 84.51 lineto
1.01 0.01 l
1.00 0.02 l
1.01 0.01 l
1.01 0.02 l
1.01 0.01 l
1.01 0.01 l
1.01 0.01 l
1.00 0 l
1.01 -0.01 l
1.01 -0.01 l
1.01 -0.02 l
1.01 -0.03 l
1.00 -0.04 l
1.01 -0.05 l
1.01 -0.05 l
1.01 -0.07 l
1.01 -0.07 l
1.01 -0.07 l
1.00 -0.09 l
1.01 -0.09 l
1.01 -0.09 l
1.01 -0.09 l
1.01 -0.10 l
1.01 -0.09 l
1.00 -0.09 l
1.01 -0.09 l
1.01 -0.09 l
1.01 -0.08 l
1.01 -0.08 l
1.01 -0.07 l
1.00 -0.07 l
1.01 -0.06 l
1.01 -0.06 l
1.01 -0.05 l
1.01 -0.04 l
1.01 -0.04 l
1.00 -0.04 l
1.01 -0.03 l
1.01 -0.02 l
1.01 -0.03 l
1.01 -0.01 l
1.01 -0.02 l
1.00 -0.01 l
1.01 0 l
1.01 -0.01 l
1.01 0 l
1.01 0.01 l
1.01 0 l
1.00 0.01 l
1.01 0.01 l
1.01 0.01 l
1.01 0.02 l
1.01 0.02 l
1.01 0.02 l
1.00 0.03 l
1.01 0.03 l
1.01 0.03 l
1.01 0.04 l
1.01 0.04 l
1.01 0.04 l
1.00 0.05 l
1.01 0.05 l
1.01 0.04 l
1.01 0.05 l
1.01 0.05 l
1.01 0.05 l
1.00 0.05 l
1.01 0.05 l
1.01 0.04 l
1.01 0.04 l
1.01 0.03 l
1.01 0.03 l
1.00 0.03 l
1.01 0.01 l
1.01 0.01 l
1.01 0.01 l
1.01 -0.01 l
1.01 -0.01 l
1.00 -0.01 l
1.01 -0.03 l
1.01 -0.03 l
1.01 -0.03 l
1.01 -0.04 l
1.01 -0.04 l
1.00 -0.05 l
1.01 -0.05 l
1.01 -0.04 l
1.01 -0.05 l
1.01 -0.05 l
1.01 -0.05 l
1.00 -0.05 l
1.01 -0.05 l
1.01 -0.04 l
1.01 -0.04 l
1.01 -0.04 l
1.01 -0.03 l
1.00 -0.03 l
1.01 -0.03 l
1.01 -0.02 l
583.81 82.69 lineto
1.01 -0.01 l
1.01 -0.02 l
1.00 -0.02 l
1.01 -0.01 l
1.01 -0.01 l
1.01 -0.01 l
1.01 0 l
1.01 -0.01 l
1.00 0 l
1.01 -0.01 l
1.01 0 l
o
0.00 0.00 645.75 379.50 cl
0 0 0 srgb
0.75 setlinewidth
[] 0 setdash
1 setlinecap
1 setlinejoin
10.00 setmiterlimit
np
116.19 73.44 m
439.16 0 l
o
np
116.19 73.44 m
0 -7.20 l
o
np
189.38 73.44 m
0 -7.20 l
o
np
262.58 73.44 m
0 -7.20 l
o
np
335.77 73.44 m
0 -7.20 l
o
np
408.96 73.44 m
0 -7.20 l
o
np
482.16 73.44 m
0 -7.20 l
o
np
555.35 73.44 m
0 -7.20 l
o
/Font1 findfont 12 s
116.19 47.52 (330) .5 0 t
189.38 47.52 (332) .5 0 t
262.58 47.52 (334) .5 0 t
335.77 47.52 (336) .5 0 t
408.96 47.52 (338) .5 0 t
482.16 47.52 (340) .5 0 t
555.35 47.52 (342) .5 0 t
np
59.04 82.58 m
0 232.03 l
o
np
59.04 82.58 m
-7.20 0 l
o
np
59.04 121.25 m
-7.20 0 l
o
np
59.04 159.92 m
-7.20 0 l
o
np
59.04 198.60 m
-7.20 0 l
o
np
59.04 237.27 m
-7.20 0 l
o
np
59.04 275.94 m
-7.20 0 l
o
np
59.04 314.61 m
-7.20 0 l
o
41.76 82.58 (0.00) .5 90 t
41.76 121.25 (0.05) .5 90 t
41.76 159.92 (0.10) .5 90 t
41.76 198.60 (0.15) .5 90 t
41.76 237.27 (0.20) .5 90 t
41.76 275.94 (0.25) .5 90 t
41.76 314.61 (0.30) .5 90 t
np
59.04 73.44 m
556.47 0 l
0 247.02 l
-556.47 0 l
0 -247.02 l
o
0.00 0.00 645.75 379.50 cl
/Font2 findfont 14 s
0 0 0 srgb
337.28 344.95 (Result mantel test) .5 0 t
/Font1 findfont 12 s
337.28 18.72 (N = 999   Bandwidth = 0.3213) .5 0 t
12.96 196.95 (Density) .5 90 t
59.04 73.44 615.51 320.46 cl
0.7451 0.7451 0.7451 srgb
0.08 setlinewidth
[] 0 setdash
1 setlinecap
1 setlinejoin
10.00 setmiterlimit
np
59.04 82.58 m
556.47 0 l
o
ep
%%Trailer
%%Pages: 1
%%EOF
