idnum|extra|title|percent|clusterid|real_author|label|filename
0|929aa|AdamBede|100.0|Cluster 0|George Eliot|George Eliot|corpora/baseline/corpus1/pg507.epub
1|929aa|SilasMarner|0.52|Cluster 0|George Eliot|George Eliot|corpora/baseline/corpus1/pg550.epub
2|929aa|Romola|0.98|Cluster 0|George Eliot|George Eliot|corpora/baseline/corpus1/pg24020.epub
3|929aa|DanielDeronda|0.05|Cluster 0|George Eliot|George Eliot|corpora/baseline/corpus1/pg7469.epub
4|929aa|TheMillontheFloss|0.53|Cluster 0|George Eliot|George Eliot|corpora/baseline/corpus1/pg6688.epub
5|929aa|Middlemarch|0.29|Cluster 0|George Eliot|George Eliot|corpora/baseline/corpus1/pg145.epub
6|929aa|FelixHolttheRadical|0.48|Cluster 0|George Eliot|George Eliot|corpora/baseline/corpus1/pg40882.epub
0|929aa|NorthandSouth|100.0|Cluster 1|Elizabeth Cleghorn Gaskell|Elizabeth Cleghorn Gaskell|corpora/baseline/corpus1/pg4276.epub
1|929aa|MaryBarton|0.83|Cluster 1|Elizabeth Cleghorn Gaskell|Elizabeth Cleghorn Gaskell|corpora/baseline/corpus1/pg2153.epub
2|929aa|Cranford|0.11|Cluster 1|Elizabeth Cleghorn Gaskell|Elizabeth Cleghorn Gaskell|corpora/baseline/corpus1/pg394.epub
3|929aa|SylviasLovers—Complete|0.23|Cluster 1|Elizabeth Cleghorn Gaskell|Elizabeth Cleghorn Gaskell|corpora/baseline/corpus1/pg4537.epub
4|929aa|Ruth|0.3|Cluster 1|Elizabeth Cleghorn Gaskell|Elizabeth Cleghorn Gaskell|corpora/baseline/corpus1/pg4275.epub
0|929aa|OurMutualFriend|100.0|Cluster 2|Charles Dickens|unknown_3|corpora/baseline/corpus1/pg883.epub
1|929aa|TheMysteryofEdwinDrood|0.34|Cluster 2|Charles Dickens|unknown_3|corpora/baseline/corpus1/pg564.epub
2|929aa|HardTimes|0.32|Cluster 2|Charles Dickens|unknown_3|corpora/baseline/corpus1/pg786.epub
3|929aa|DombeyandSon|0.91|Cluster 2|Charles Dickens|unknown_3|corpora/baseline/corpus1/pg821.epub
4|929aa|LittleDorrit|0.01|Cluster 2|Charles Dickens|unknown_3|corpora/baseline/corpus1/pg963.epub
0|929aa|NorthangerAbbey|100.0|Cluster 3|Jane Austen|Jane Austen|corpora/baseline/corpus1/pg121.epub
1|929aa|Emma|0.98|Cluster 3|Jane Austen|Jane Austen|corpora/baseline/corpus1/pg158.epub
2|929aa|MansfieldPark|0.33|Cluster 3|Jane Austen|Jane Austen|corpora/baseline/corpus1/pg141.epub
3|929aa|PrideandPrejudice|0.49|Cluster 3|Jane Austen|Jane Austen|corpora/baseline/corpus1/pg42671.epub
4|929aa|SenseandSensibility|0.0|Cluster 3|Jane Austen|Jane Austen|corpora/baseline/corpus1/pg161.epub
5|929aa|Persuasion|0.49|Cluster 3|Jane Austen|Jane Austen|corpora/baseline/corpus1/pg105.epub
0|929aa|TheVirginians|100.0|Cluster 4|William Makepeace Thackeray|William Makepeace Thackeray|corpora/baseline/corpus1/pg8123.epub
1|929aa|TheNewcomesMemoirsofaMostRespectableFamily|0.67|Cluster 4|William Makepeace Thackeray|William Makepeace Thackeray|corpora/baseline/corpus1/pg7467.epub
2|929aa|TheHistoryofPendennis|0.6|Cluster 4|William Makepeace Thackeray|William Makepeace Thackeray|corpora/baseline/corpus1/pg7265.epub
3|929aa|TheHistoryofHenryEsmondEsqaColonelintheServiceofHerMajestyQueenAnne|0.32|Cluster 4|William Makepeace Thackeray|William Makepeace Thackeray|corpora/baseline/corpus1/pg2511.epub
4|929aa|CatherineAStory|0.72|Cluster 4|William Makepeace Thackeray|William Makepeace Thackeray|corpora/baseline/corpus1/pg1969.epub
5|929aa|VanityFair|0.58|Cluster 4|William Makepeace Thackeray|William Makepeace Thackeray|corpora/baseline/corpus1/pg599.epub
0|929aa|ThePickwickPapers|100.0|Cluster 5|Charles Dickens|Charles Dickens|corpora/baseline/corpus1/pg580.epub
1|929aa|NicholasNickleby|0.94|Cluster 5|Charles Dickens|Charles Dickens|corpora/baseline/corpus1/pg967.epub
2|929aa|OliverTwist|0.1|Cluster 5|Charles Dickens|Charles Dickens|corpora/baseline/corpus1/pg730.epub
3|929aa|ATaleofTwoCities|0.23|Cluster 5|Charles Dickens|Charles Dickens|corpora/baseline/corpus1/pg98.epub
4|929aa|BarnabyRudgeATaleoftheRiotsofEighty|0.31|Cluster 5|Charles Dickens|Charles Dickens|corpora/baseline/corpus1/pg917.epub
5|929aa|MartinChuzzlewit|0.98|Cluster 5|Charles Dickens|Charles Dickens|corpora/baseline/corpus1/pg968.epub
