idnum|extra|title|percent|clusterid|real_author|label|filename
0|1574aa|PrideandPrejudice|100.0|Cluster 0|Jane Austen|Jane Austen|corpora/baseline/corpus4/pg42671.epub
1|1574aa|NorthangerAbbey|0.38|Cluster 0|Jane Austen|Jane Austen|corpora/baseline/corpus4/pg121.epub
2|1574aa|Persuasion|0.21|Cluster 0|Jane Austen|Jane Austen|corpora/baseline/corpus4/pg105.epub
3|1574aa|MansfieldPark|0.95|Cluster 0|Jane Austen|Jane Austen|corpora/baseline/corpus4/pg141.epub
4|1574aa|Emma|0.37|Cluster 0|Jane Austen|Jane Austen|corpora/baseline/corpus4/pg158.epub
5|1574aa|SenseandSensibility|0.56|Cluster 0|Jane Austen|Jane Austen|corpora/baseline/corpus4/pg161.epub
0|1574aa|HarryPotterandthePhilosophersStone|100.0|Cluster 1|J.K. Rowling|J.K. Rowling|corpora/baseline/corpus4/Harry Potter and the Philosopher's Stone - J.K. Rowling.epub
1|1574aa|HarryPotterandtheOrderofthePhoenix|0.64|Cluster 1|J.K. Rowling|J.K. Rowling|corpora/baseline/corpus4/Harry Potter and the Order of the Phoenix - J.K. Rowling.epub
2|1574aa|HarryPotterandtheChamberofSecrets|0.72|Cluster 1|J.K. Rowling|J.K. Rowling|corpora/baseline/corpus4/Harry Potter and the Chamber of Secrets - J.K. Rowling.epub
3|1574aa|HarryPotterandtheGobletofFire|0.78|Cluster 1|J.K. Rowling|J.K. Rowling|corpora/baseline/corpus4/Harry Potter and the Goblet of Fire - J.K. Rowling.epub
4|1574aa|HarryPotterandtheHalfBloodPrince|0.65|Cluster 1|J.K. Rowling|J.K. Rowling|corpora/baseline/corpus4/Harry Potter and the Half-Blood Prince - J.K. Rowling.epub
5|1574aa|HarryPotterandthePrisonerofAzkaban|0.16|Cluster 1|J.K. Rowling|J.K. Rowling|corpora/baseline/corpus4/Harry Potter and the Prisoner of Azkaban - J.K. Rowling.epub
6|1574aa|HarryPotterandtheDeathlyHallows|0.26|Cluster 1|J.K. Rowling|J.K. Rowling|corpora/baseline/corpus4/Harry Potter and the Deathly Hallows - J.K. Rowling.epub
0|1574aa|TheMillontheFloss|100.0|Cluster 2|George Eliot|George Eliot|corpora/baseline/corpus4/pg6688.epub
1|1574aa|Romola|0.49|Cluster 2|George Eliot|George Eliot|corpora/baseline/corpus4/pg24020.epub
2|1574aa|FelixHolttheRadical|0.48|Cluster 2|George Eliot|George Eliot|corpora/baseline/corpus4/pg40882.epub
3|1574aa|Middlemarch|0.6|Cluster 2|George Eliot|George Eliot|corpora/baseline/corpus4/pg145.epub
4|1574aa|SilasMarner|0.1|Cluster 2|George Eliot|George Eliot|corpora/baseline/corpus4/pg550.epub
5|1574aa|AdamBede|0.89|Cluster 2|George Eliot|George Eliot|corpora/baseline/corpus4/pg507.epub
6|1574aa|DanielDeronda|0.13|Cluster 2|George Eliot|George Eliot|corpora/baseline/corpus4/pg7469.epub
0|1574aa|BarnabyRudgeATaleoftheRiotsofEighty|100.0|Cluster 3|Charles Dickens|Charles Dickens|corpora/baseline/corpus4/pg917.epub
1|1574aa|NicholasNickleby|0.18|Cluster 3|Charles Dickens|Charles Dickens|corpora/baseline/corpus4/pg967.epub
2|1574aa|TheMysteryofEdwinDrood|0.22|Cluster 3|Charles Dickens|Charles Dickens|corpora/baseline/corpus4/pg564.epub
3|1574aa|OurMutualFriend|0.95|Cluster 3|Charles Dickens|Charles Dickens|corpora/baseline/corpus4/pg883.epub
4|1574aa|LittleDorrit|0.76|Cluster 3|Charles Dickens|Charles Dickens|corpora/baseline/corpus4/pg963.epub
5|1574aa|ATaleofTwoCities|0.86|Cluster 3|Charles Dickens|Charles Dickens|corpora/baseline/corpus4/pg98.epub
6|1574aa|DombeyandSon|0.24|Cluster 3|Charles Dickens|Charles Dickens|corpora/baseline/corpus4/pg821.epub
7|1574aa|MartinChuzzlewit|0.26|Cluster 3|Charles Dickens|Charles Dickens|corpora/baseline/corpus4/pg968.epub
8|1574aa|ThePickwickPapers|0.52|Cluster 3|Charles Dickens|Charles Dickens|corpora/baseline/corpus4/pg580.epub
9|1574aa|HardTimes|0.76|Cluster 3|Charles Dickens|Charles Dickens|corpora/baseline/corpus4/pg786.epub
10|1574aa|OliverTwist|0.83|Cluster 3|Charles Dickens|Charles Dickens|corpora/baseline/corpus4/pg730.epub
0|1574aa|TheHistoryofPendennis|100.0|Cluster 4|William Makepeace Thackeray|William Makepeace Thackeray|corpora/baseline/corpus4/pg7265.epub
1|1574aa|VanityFair|0.58|Cluster 4|William Makepeace Thackeray|William Makepeace Thackeray|corpora/baseline/corpus4/pg599.epub
2|1574aa|CatherineAStory|0.57|Cluster 4|William Makepeace Thackeray|William Makepeace Thackeray|corpora/baseline/corpus4/pg1969.epub
3|1574aa|TheHistoryofHenryEsmondEsqaColonelintheServiceofHerMajestyQueenAnne|0.95|Cluster 4|William Makepeace Thackeray|William Makepeace Thackeray|corpora/baseline/corpus4/pg2511.epub
4|1574aa|TheVirginians|0.54|Cluster 4|William Makepeace Thackeray|William Makepeace Thackeray|corpora/baseline/corpus4/pg8123.epub
5|1574aa|TheNewcomesMemoirsofaMostRespectableFamily|0.61|Cluster 4|William Makepeace Thackeray|William Makepeace Thackeray|corpora/baseline/corpus4/pg7467.epub
0|1574aa|AHouseofGentlefolk|100.0|Cluster 5|Ivan Sergeevich Turgenev|Ivan Sergeevich Turgenev|corpora/baseline/corpus4/pg5721.epub
1|1574aa|Smoke|0.41|Cluster 5|Ivan Sergeevich Turgenev|Ivan Sergeevich Turgenev|corpora/baseline/corpus4/pg40813.epub
2|1574aa|FathersandChildren|0.72|Cluster 5|Ivan Sergeevich Turgenev|Ivan Sergeevich Turgenev|corpora/baseline/corpus4/pg30723.epub
3|1574aa|RudinANovel|0.25|Cluster 5|Ivan Sergeevich Turgenev|Ivan Sergeevich Turgenev|corpora/baseline/corpus4/pg6900.epub
4|1574aa|OntheEveANovel|0.46|Cluster 5|Ivan Sergeevich Turgenev|Ivan Sergeevich Turgenev|corpora/baseline/corpus4/pg6902.epub
0|1574aa|Ruth|100.0|Cluster 6|Elizabeth Cleghorn Gaskell|Elizabeth Cleghorn Gaskell|corpora/baseline/corpus4/pg4275.epub
1|1574aa|SylviasLovers—Complete|0.08|Cluster 6|Elizabeth Cleghorn Gaskell|Elizabeth Cleghorn Gaskell|corpora/baseline/corpus4/pg4537.epub
2|1574aa|MaryBarton|0.89|Cluster 6|Elizabeth Cleghorn Gaskell|Elizabeth Cleghorn Gaskell|corpora/baseline/corpus4/pg2153.epub
3|1574aa|Cranford|0.38|Cluster 6|Elizabeth Cleghorn Gaskell|Elizabeth Cleghorn Gaskell|corpora/baseline/corpus4/pg394.epub
4|1574aa|NorthandSouth|0.59|Cluster 6|Elizabeth Cleghorn Gaskell|Elizabeth Cleghorn Gaskell|corpora/baseline/corpus4/pg4276.epub
0|1574aa|CrimeandPunishment|100.0|Cluster 7|Fyodor Dostoyevsky|Fyodor Dostoyevsky|corpora/baseline/corpus4/pg2554.epub
1|1574aa|VirginSoil|0.01|Cluster 7|Ivan Sergeevich Turgenev|Fyodor Dostoyevsky|corpora/baseline/corpus4/pg2466.epub
2|1574aa|ThePossessedTheDevils|0.56|Cluster 7|Fyodor Dostoyevsky|Fyodor Dostoyevsky|corpora/baseline/corpus4/pg8117.epub
3|1574aa|TheIdiot|0.14|Cluster 7|Fyodor Dostoyevsky|Fyodor Dostoyevsky|corpora/baseline/corpus4/pg2638.epub
4|1574aa|TheBrothersKaramazov|0.81|Cluster 7|Fyodor Dostoyevsky|Fyodor Dostoyevsky|corpora/baseline/corpus4/pg28054.epub
