idnum|extra|percent|title|clusterid|real_author|label|filename
5|||ATaleofTwoCities|Cluster 5|Charles Dickens|unknown_1|corpora/baseline/corpus3/pg98.epub
5|||ThePickwickPapers|Cluster 5|Charles Dickens|unknown_1|corpora/baseline/corpus3/pg580.epub
5|||BarnabyRudgeATaleoftheRiotsofEighty|Cluster 5|Charles Dickens|unknown_1|corpora/baseline/corpus3/pg917.epub
5|||OliverTwist|Cluster 5|Charles Dickens|unknown_1|corpora/baseline/corpus3/pg730.epub
2|||FelixHolttheRadical|Cluster 2|George Eliot|George Eliot|corpora/baseline/corpus3/pg40882.epub
2|||TheMillontheFloss|Cluster 2|George Eliot|George Eliot|corpora/baseline/corpus3/pg6688.epub
2|||Middlemarch|Cluster 2|George Eliot|George Eliot|corpora/baseline/corpus3/pg145.epub
2|||AdamBede|Cluster 2|George Eliot|George Eliot|corpora/baseline/corpus3/pg507.epub
2|||Romola|Cluster 2|George Eliot|George Eliot|corpora/baseline/corpus3/pg24020.epub
2|||SilasMarner|Cluster 2|George Eliot|George Eliot|corpora/baseline/corpus3/pg550.epub
2|||DanielDeronda|Cluster 2|George Eliot|George Eliot|corpora/baseline/corpus3/pg7469.epub
0|||TheVirginians|Cluster 0|William Makepeace Thackeray|William Makepeace Thackeray|corpora/baseline/corpus3/pg8123.epub
0|||TheHistoryofHenryEsmondEsqaColonelintheServiceofHerMajestyQueenAnne|Cluster 0|William Makepeace Thackeray|William Makepeace Thackeray|corpora/baseline/corpus3/pg2511.epub
0|||TheHistoryofPendennis|Cluster 0|William Makepeace Thackeray|William Makepeace Thackeray|corpora/baseline/corpus3/pg7265.epub
0|||CatherineAStory|Cluster 0|William Makepeace Thackeray|William Makepeace Thackeray|corpora/baseline/corpus3/pg1969.epub
0|||VanityFair|Cluster 0|William Makepeace Thackeray|William Makepeace Thackeray|corpora/baseline/corpus3/pg599.epub
0|||TheNewcomesMemoirsofaMostRespectableFamily|Cluster 0|William Makepeace Thackeray|William Makepeace Thackeray|corpora/baseline/corpus3/pg7467.epub
3|||SylviasLovers—Complete|Cluster 3|Elizabeth Cleghorn Gaskell|Elizabeth Cleghorn Gaskell|corpora/baseline/corpus3/pg4537.epub
1|||HarryPotterandthePrisonerofAzkaban|Cluster 1|J.K. Rowling|J.K. Rowling|corpora/baseline/corpus3/Harry Potter and the Prisoner of Azkaban - J.K. Rowling.epub
1|||HarryPotterandthePhilosophersStone|Cluster 1|J.K. Rowling|J.K. Rowling|corpora/baseline/corpus3/Harry Potter and the Philosopher's Stone - J.K. Rowling.epub
1|||HarryPotterandtheGobletofFire|Cluster 1|J.K. Rowling|J.K. Rowling|corpora/baseline/corpus3/Harry Potter and the Goblet of Fire - J.K. Rowling.epub
1|||HarryPotterandtheDeathlyHallows|Cluster 1|J.K. Rowling|J.K. Rowling|corpora/baseline/corpus3/Harry Potter and the Deathly Hallows - J.K. Rowling.epub
1|||HarryPotterandtheHalfBloodPrince|Cluster 1|J.K. Rowling|J.K. Rowling|corpora/baseline/corpus3/Harry Potter and the Half-Blood Prince - J.K. Rowling.epub
1|||HarryPotterandtheChamberofSecrets|Cluster 1|J.K. Rowling|J.K. Rowling|corpora/baseline/corpus3/Harry Potter and the Chamber of Secrets - J.K. Rowling.epub
1|||HarryPotterandtheOrderofthePhoenix|Cluster 1|J.K. Rowling|J.K. Rowling|corpora/baseline/corpus3/Harry Potter and the Order of the Phoenix - J.K. Rowling.epub
4|||Cranford|Cluster 4|Elizabeth Cleghorn Gaskell|Jane Austen|corpora/baseline/corpus3/pg394.epub
4|||Persuasion|Cluster 4|Jane Austen|Jane Austen|corpora/baseline/corpus3/pg105.epub
4|||PrideandPrejudice|Cluster 4|Jane Austen|Jane Austen|corpora/baseline/corpus3/pg42671.epub
4|||NorthandSouth|Cluster 4|Elizabeth Cleghorn Gaskell|Jane Austen|corpora/baseline/corpus3/pg4276.epub
4|||NorthangerAbbey|Cluster 4|Jane Austen|Jane Austen|corpora/baseline/corpus3/pg121.epub
4|||MaryBarton|Cluster 4|Elizabeth Cleghorn Gaskell|Jane Austen|corpora/baseline/corpus3/pg2153.epub
4|||MansfieldPark|Cluster 4|Jane Austen|Jane Austen|corpora/baseline/corpus3/pg141.epub
4|||Emma|Cluster 4|Jane Austen|Jane Austen|corpora/baseline/corpus3/pg158.epub
4|||Ruth|Cluster 4|Elizabeth Cleghorn Gaskell|Jane Austen|corpora/baseline/corpus3/pg4275.epub
4|||SenseandSensibility|Cluster 4|Jane Austen|Jane Austen|corpora/baseline/corpus3/pg161.epub
6|||DombeyandSon|Cluster 6|Charles Dickens|Charles Dickens|corpora/baseline/corpus3/pg821.epub
6|||NicholasNickleby|Cluster 6|Charles Dickens|Charles Dickens|corpora/baseline/corpus3/pg967.epub
6|||TheMysteryofEdwinDrood|Cluster 6|Charles Dickens|Charles Dickens|corpora/baseline/corpus3/pg564.epub
6|||MartinChuzzlewit|Cluster 6|Charles Dickens|Charles Dickens|corpora/baseline/corpus3/pg968.epub
6|||HardTimes|Cluster 6|Charles Dickens|Charles Dickens|corpora/baseline/corpus3/pg786.epub
6|||OurMutualFriend|Cluster 6|Charles Dickens|Charles Dickens|corpora/baseline/corpus3/pg883.epub
6|||LittleDorrit|Cluster 6|Charles Dickens|Charles Dickens|corpora/baseline/corpus3/pg963.epub
