[8584, 1155, 533, 327, 284, 213, 177, 111, 79, 53, 74, 55, 38, 41, 43, 28, 25, 28, 17, 9, 15, 13, 11, 15, 15, 14, 16, 10, 14, 10, 4, 5, 9, 5, 5, 6, 5, 7, 8, 8, 9, 11, 5, 4, 3, 9, 5, 7, 2, 1, 7, 5, 2, 10, 2, 0, 2, 1, 1, 0, 0, 0, 1, 2, 3, 2, 2, 3, 4, 0, 1, 1, 1, 1, 1, 0, 0, 1, 2, 0, 0, 0, 0, 0, 0, 0, 0, 0, 0, 0, 0, 0, 0, 0, 0, 0, 0, 0, 0, 0, 42]


[4422, 0, 0, 0, 0, 0, 0, 0, 0, 0, 0, 0, 0, 0, 0, 0, 0, 0, 0, 0, 0, 0, 0, 0, 0, 0, 0, 0, 0, 0, 0, 0, 0, 0, 0, 0, 0, 0, 0, 0, 0, 0, 0, 0, 0, 0, 0, 0, 0, 0, 0, 0, 0, 0, 0, 0, 0, 0, 0, 0, 0, 68, 190, 174, 162, 227, 177, 125, 136, 155, 149, 221, 168, 124, 171, 185, 167, 176, 1387, 185, 193, 142, 124, 123, 138, 142, 108, 158, 175, 200, 187, 140, 125, 159, 213, 177, 227, 159, 221, 149, 193]