idnum|extra|percent|title|clusterid|real_author|label|filename
5|||MaryBarton|Cluster 5|Elizabeth Cleghorn Gaskell|Elizabeth Cleghorn Gaskell|corpora/baseline/corpus2/pg2153.epub
5|||Ruth|Cluster 5|Elizabeth Cleghorn Gaskell|Elizabeth Cleghorn Gaskell|corpora/baseline/corpus2/pg4275.epub
5|||NorthandSouth|Cluster 5|Elizabeth Cleghorn Gaskell|Elizabeth Cleghorn Gaskell|corpora/baseline/corpus2/pg4276.epub
5|||SylviasLovers—Complete|Cluster 5|Elizabeth Cleghorn Gaskell|Elizabeth Cleghorn Gaskell|corpora/baseline/corpus2/pg4537.epub
5|||Cranford|Cluster 5|Elizabeth Cleghorn Gaskell|Elizabeth Cleghorn Gaskell|corpora/baseline/corpus2/pg394.epub
2|||Smoke|Cluster 2|Ivan Sergeevich Turgenev|Ivan Sergeevich Turgenev|corpora/baseline/corpus2/pg40813.epub
2|||VirginSoil|Cluster 2|Ivan Sergeevich Turgenev|Ivan Sergeevich Turgenev|corpora/baseline/corpus2/pg2466.epub
2|||TheBrothersKaramazov|Cluster 2|Fyodor Dostoyevsky|Ivan Sergeevich Turgenev|corpora/baseline/corpus2/pg28054.epub
2|||ThePossessedTheDevils|Cluster 2|Fyodor Dostoyevsky|Ivan Sergeevich Turgenev|corpora/baseline/corpus2/pg8117.epub
2|||TheIdiot|Cluster 2|Fyodor Dostoyevsky|Ivan Sergeevich Turgenev|corpora/baseline/corpus2/pg2638.epub
2|||CrimeandPunishment|Cluster 2|Fyodor Dostoyevsky|Ivan Sergeevich Turgenev|corpora/baseline/corpus2/pg2554.epub
2|||RudinANovel|Cluster 2|Ivan Sergeevich Turgenev|Ivan Sergeevich Turgenev|corpora/baseline/corpus2/pg6900.epub
2|||AHouseofGentlefolk|Cluster 2|Ivan Sergeevich Turgenev|Ivan Sergeevich Turgenev|corpora/baseline/corpus2/pg5721.epub
2|||FathersandChildren|Cluster 2|Ivan Sergeevich Turgenev|Ivan Sergeevich Turgenev|corpora/baseline/corpus2/pg30723.epub
2|||OntheEveANovel|Cluster 2|Ivan Sergeevich Turgenev|Ivan Sergeevich Turgenev|corpora/baseline/corpus2/pg6902.epub
0|||Persuasion|Cluster 0|Jane Austen|Jane Austen|corpora/baseline/corpus2/pg105.epub
0|||SenseandSensibility|Cluster 0|Jane Austen|Jane Austen|corpora/baseline/corpus2/pg161.epub
0|||PrideandPrejudice|Cluster 0|Jane Austen|Jane Austen|corpora/baseline/corpus2/pg42671.epub
0|||MansfieldPark|Cluster 0|Jane Austen|Jane Austen|corpora/baseline/corpus2/pg141.epub
0|||NorthangerAbbey|Cluster 0|Jane Austen|Jane Austen|corpora/baseline/corpus2/pg121.epub
0|||DanielDeronda|Cluster 0|George Eliot|Jane Austen|corpora/baseline/corpus2/pg7469.epub
0|||Emma|Cluster 0|Jane Austen|Jane Austen|corpora/baseline/corpus2/pg158.epub
3|||FelixHolttheRadical|Cluster 3|George Eliot|George Eliot|corpora/baseline/corpus2/pg40882.epub
3|||Romola|Cluster 3|George Eliot|George Eliot|corpora/baseline/corpus2/pg24020.epub
3|||AdamBede|Cluster 3|George Eliot|George Eliot|corpora/baseline/corpus2/pg507.epub
3|||Middlemarch|Cluster 3|George Eliot|George Eliot|corpora/baseline/corpus2/pg145.epub
3|||SilasMarner|Cluster 3|George Eliot|George Eliot|corpora/baseline/corpus2/pg550.epub
3|||TheMillontheFloss|Cluster 3|George Eliot|George Eliot|corpora/baseline/corpus2/pg6688.epub
1|||CatherineAStory|Cluster 1|William Makepeace Thackeray|William Makepeace Thackeray|corpora/baseline/corpus2/pg1969.epub
1|||TheHistoryofPendennis|Cluster 1|William Makepeace Thackeray|William Makepeace Thackeray|corpora/baseline/corpus2/pg7265.epub
1|||VanityFair|Cluster 1|William Makepeace Thackeray|William Makepeace Thackeray|corpora/baseline/corpus2/pg599.epub
1|||TheHistoryofHenryEsmondEsqaColonelintheServiceofHerMajestyQueenAnne|Cluster 1|William Makepeace Thackeray|William Makepeace Thackeray|corpora/baseline/corpus2/pg2511.epub
1|||TheVirginians|Cluster 1|William Makepeace Thackeray|William Makepeace Thackeray|corpora/baseline/corpus2/pg8123.epub
1|||TheNewcomesMemoirsofaMostRespectableFamily|Cluster 1|William Makepeace Thackeray|William Makepeace Thackeray|corpora/baseline/corpus2/pg7467.epub
4|||LittleDorrit|Cluster 4|Charles Dickens|Charles Dickens|corpora/baseline/corpus2/pg963.epub
4|||MartinChuzzlewit|Cluster 4|Charles Dickens|Charles Dickens|corpora/baseline/corpus2/pg968.epub
4|||OurMutualFriend|Cluster 4|Charles Dickens|Charles Dickens|corpora/baseline/corpus2/pg883.epub
4|||HardTimes|Cluster 4|Charles Dickens|Charles Dickens|corpora/baseline/corpus2/pg786.epub
4|||TheMysteryofEdwinDrood|Cluster 4|Charles Dickens|Charles Dickens|corpora/baseline/corpus2/pg564.epub
4|||DombeyandSon|Cluster 4|Charles Dickens|Charles Dickens|corpora/baseline/corpus2/pg821.epub
6|||OliverTwist|Cluster 6|Charles Dickens|unknown_7|corpora/baseline/corpus2/pg730.epub
6|||BarnabyRudgeATaleoftheRiotsofEighty|Cluster 6|Charles Dickens|unknown_7|corpora/baseline/corpus2/pg917.epub
6|||NicholasNickleby|Cluster 6|Charles Dickens|unknown_7|corpora/baseline/corpus2/pg967.epub
6|||ThePickwickPapers|Cluster 6|Charles Dickens|unknown_7|corpora/baseline/corpus2/pg580.epub
6|||ATaleofTwoCities|Cluster 6|Charles Dickens|unknown_7|corpora/baseline/corpus2/pg98.epub
