%!PS-Adobe-3.0 EPSF-3.0
%%Title: /Users/pieter/Projecten/nidhogg/paper/afbeeldingen/fantasy_tree.eps
%%Creator: matplotlib version 3.0.2, http://matplotlib.org/
%%CreationDate: Fri Jun  7 23:38:38 2019
%%Orientation: portrait
%%BoundingBox: -12 134 624 657
%%EndComments
%%BeginProlog
/mpldict 8 dict def
mpldict begin
/m { moveto } bind def
/l { lineto } bind def
/r { rlineto } bind def
/c { curveto } bind def
/cl { closepath } bind def
/box {
m
1 index 0 r
0 exch r
neg 0 r
cl
} bind def
/clipbox {
box
clip
newpath
} bind def
%!PS-Adobe-3.0 Resource-Font
%%Title: DejaVu Sans
%%Copyright: Copyright (c) 2003 by Bitstream, Inc. All Rights Reserved. Copyright (c) 2006 by Tavmjong Bah. All Rights Reserved. DejaVu changes are in public domain 
%%Creator: Converted from TrueType to type 3 by PPR
25 dict begin
/_d{bind def}bind def
/_m{moveto}_d
/_l{lineto}_d
/_cl{closepath eofill}_d
/_c{curveto}_d
/_sc{7 -1 roll{setcachedevice}{pop pop pop pop pop pop}ifelse}_d
/_e{exec}_d
/FontName /DejaVuSans def
/PaintType 0 def
/FontMatrix[.001 0 0 .001 0 0]def
/FontBBox[-1021 -463 1793 1232]def
/FontType 3 def
/Encoding [ /space /period /zero /one /two /three /four /five /six /seven /A /B /C /D /E /F /G /H /I /J /K /L /M /N /O /P /R /S /T /U /V /W /a /b /c /d /e /f /g /h /i /j /k /l /m /n /o /p /r /s /t /u /v /w /x /y /z /acute /uacute ] def
/FontInfo 10 dict dup begin
/FamilyName (DejaVu Sans) def
/FullName (DejaVu Sans) def
/Notice (Copyright (c) 2003 by Bitstream, Inc. All Rights Reserved. Copyright (c) 2006 by Tavmjong Bah. All Rights Reserved. DejaVu changes are in public domain ) def
/Weight (Book) def
/Version (Version 2.35) def
/ItalicAngle 0.0 def
/isFixedPitch false def
/UnderlinePosition -130 def
/UnderlineThickness 90 def
end readonly def
/CharStrings 60 dict dup begin
/.notdef 0 def
/space{318 0 0 0 0 0 _sc
}_d
/period{318 0 107 0 210 124 _sc
107 124 _m
210 124 _l
210 0 _l
107 0 _l
107 124 _l
_cl}_d
/zero{636 0 66 -13 570 742 _sc
318 664 _m
267 664 229 639 203 589 _c
177 539 165 464 165 364 _c
165 264 177 189 203 139 _c
229 89 267 64 318 64 _c
369 64 407 89 433 139 _c
458 189 471 264 471 364 _c
471 464 458 539 433 589 _c
407 639 369 664 318 664 _c
318 742 _m
399 742 461 709 505 645 _c
548 580 570 486 570 364 _c
570 241 548 147 505 83 _c
461 19 399 -13 318 -13 _c
236 -13 173 19 130 83 _c
87 147 66 241 66 364 _c
66 486 87 580 130 645 _c
173 709 236 742 318 742 _c
_cl}_d
/one{636 0 110 0 544 729 _sc
124 83 _m
285 83 _l
285 639 _l
110 604 _l
110 694 _l
284 729 _l
383 729 _l
383 83 _l
544 83 _l
544 0 _l
124 0 _l
124 83 _l
_cl}_d
/two{{636 0 73 0 536 742 _sc
192 83 _m
536 83 _l
536 0 _l
73 0 _l
73 83 _l
110 121 161 173 226 239 _c
290 304 331 346 348 365 _c
380 400 402 430 414 455 _c
426 479 433 504 433 528 _c
433 566 419 598 392 622 _c
365 646 330 659 286 659 _c
255 659 222 653 188 643 _c
154 632 117 616 78 594 _c
78 694 _l
118 710 155 722 189 730 _c
223 738 255 742 284 742 _c
}_e{359 742 419 723 464 685 _c
509 647 532 597 532 534 _c
532 504 526 475 515 449 _c
504 422 484 390 454 354 _c
446 344 420 317 376 272 _c
332 227 271 164 192 83 _c
_cl}_e}_d
/three{{636 0 76 -13 556 742 _sc
406 393 _m
453 383 490 362 516 330 _c
542 298 556 258 556 212 _c
556 140 531 84 482 45 _c
432 6 362 -13 271 -13 _c
240 -13 208 -10 176 -4 _c
144 1 110 10 76 22 _c
76 117 _l
103 101 133 89 166 81 _c
198 73 232 69 268 69 _c
330 69 377 81 409 105 _c
441 129 458 165 458 212 _c
458 254 443 288 413 312 _c
383 336 341 349 287 349 _c
}_e{202 349 _l
202 430 _l
291 430 _l
339 430 376 439 402 459 _c
428 478 441 506 441 543 _c
441 580 427 609 401 629 _c
374 649 336 659 287 659 _c
260 659 231 656 200 650 _c
169 644 135 635 98 623 _c
98 711 _l
135 721 170 729 203 734 _c
235 739 266 742 296 742 _c
370 742 429 725 473 691 _c
517 657 539 611 539 553 _c
539 513 527 479 504 451 _c
481 423 448 403 406 393 _c
_cl}_e}_d
/four{636 0 49 0 580 729 _sc
378 643 _m
129 254 _l
378 254 _l
378 643 _l
352 729 _m
476 729 _l
476 254 _l
580 254 _l
580 172 _l
476 172 _l
476 0 _l
378 0 _l
378 172 _l
49 172 _l
49 267 _l
352 729 _l
_cl}_d
/five{{636 0 77 -13 549 729 _sc
108 729 _m
495 729 _l
495 646 _l
198 646 _l
198 467 _l
212 472 227 476 241 478 _c
255 480 270 482 284 482 _c
365 482 429 459 477 415 _c
525 370 549 310 549 234 _c
549 155 524 94 475 51 _c
426 8 357 -13 269 -13 _c
238 -13 207 -10 175 -6 _c
143 -1 111 6 77 17 _c
77 116 _l
106 100 136 88 168 80 _c
199 72 232 69 267 69 _c
}_e{323 69 368 83 401 113 _c
433 143 450 183 450 234 _c
450 284 433 324 401 354 _c
368 384 323 399 267 399 _c
241 399 214 396 188 390 _c
162 384 135 375 108 363 _c
108 729 _l
_cl}_e}_d
/six{{636 0 70 -13 573 742 _sc
330 404 _m
286 404 251 388 225 358 _c
199 328 186 286 186 234 _c
186 181 199 139 225 109 _c
251 79 286 64 330 64 _c
374 64 409 79 435 109 _c
461 139 474 181 474 234 _c
474 286 461 328 435 358 _c
409 388 374 404 330 404 _c
526 713 _m
526 623 _l
501 635 476 644 451 650 _c
425 656 400 659 376 659 _c
310 659 260 637 226 593 _c
}_e{192 549 172 482 168 394 _c
187 422 211 444 240 459 _c
269 474 301 482 336 482 _c
409 482 467 459 509 415 _c
551 371 573 310 573 234 _c
573 159 550 99 506 54 _c
462 9 403 -13 330 -13 _c
246 -13 181 19 137 83 _c
92 147 70 241 70 364 _c
70 479 97 571 152 639 _c
206 707 280 742 372 742 _c
396 742 421 739 447 735 _c
472 730 498 723 526 713 _c
_cl}_e}_d
/seven{636 0 82 0 551 729 _sc
82 729 _m
551 729 _l
551 687 _l
286 0 _l
183 0 _l
432 646 _l
82 646 _l
82 729 _l
_cl}_d
/A{684 0 8 0 676 729 _sc
342 632 _m
208 269 _l
476 269 _l
342 632 _l
286 729 _m
398 729 _l
676 0 _l
573 0 _l
507 187 _l
178 187 _l
112 0 _l
8 0 _l
286 729 _l
_cl}_d
/B{{686 0 98 0 615 729 _sc
197 348 _m
197 81 _l
355 81 _l
408 81 447 92 473 114 _c
498 136 511 169 511 215 _c
511 260 498 293 473 315 _c
447 337 408 348 355 348 _c
197 348 _l
197 648 _m
197 428 _l
343 428 _l
391 428 426 437 450 455 _c
474 473 486 500 486 538 _c
486 574 474 602 450 620 _c
426 638 391 648 343 648 _c
197 648 _l
98 729 _m
350 729 _l
}_e{425 729 483 713 524 682 _c
564 650 585 606 585 549 _c
585 504 574 468 553 442 _c
532 416 502 399 462 393 _c
510 382 548 360 575 327 _c
601 294 615 253 615 204 _c
615 138 592 88 548 53 _c
504 17 441 0 360 0 _c
98 0 _l
98 729 _l
_cl}_e}_d
/C{{698 0 56 -13 644 742 _sc
644 673 _m
644 569 _l
610 599 575 622 537 638 _c
499 653 460 661 418 661 _c
334 661 270 635 226 584 _c
182 533 160 460 160 364 _c
160 268 182 194 226 143 _c
270 92 334 67 418 67 _c
460 67 499 74 537 90 _c
575 105 610 128 644 159 _c
644 56 _l
609 32 572 15 534 4 _c
496 -7 455 -13 412 -13 _c
302 -13 215 20 151 87 _c
}_e{87 154 56 246 56 364 _c
56 481 87 573 151 641 _c
215 708 302 742 412 742 _c
456 742 497 736 535 725 _c
573 713 610 696 644 673 _c
_cl}_e}_d
/D{770 0 98 0 711 729 _sc
197 648 _m
197 81 _l
316 81 _l
416 81 490 103 537 149 _c
583 195 607 267 607 365 _c
607 463 583 534 537 580 _c
490 625 416 648 316 648 _c
197 648 _l
98 729 _m
301 729 _l
442 729 546 699 612 641 _c
678 582 711 490 711 365 _c
711 239 677 147 611 88 _c
545 29 441 0 301 0 _c
98 0 _l
98 729 _l
_cl}_d
/E{632 0 98 0 568 729 _sc
98 729 _m
559 729 _l
559 646 _l
197 646 _l
197 430 _l
544 430 _l
544 347 _l
197 347 _l
197 83 _l
568 83 _l
568 0 _l
98 0 _l
98 729 _l
_cl}_d
/F{575 0 98 0 517 729 _sc
98 729 _m
517 729 _l
517 646 _l
197 646 _l
197 431 _l
486 431 _l
486 348 _l
197 348 _l
197 0 _l
98 0 _l
98 729 _l
_cl}_d
/G{{775 0 56 -13 693 742 _sc
595 104 _m
595 300 _l
434 300 _l
434 381 _l
693 381 _l
693 68 _l
655 40 613 20 567 7 _c
521 -6 472 -13 420 -13 _c
306 -13 216 20 152 86 _c
88 152 56 245 56 364 _c
56 482 88 575 152 642 _c
216 708 306 742 420 742 _c
467 742 512 736 555 724 _c
598 712 638 695 674 673 _c
674 568 _l
637 598 598 621 557 637 _c
516 653 473 661 428 661 _c
}_e{338 661 271 636 227 586 _c
182 536 160 462 160 364 _c
160 265 182 191 227 141 _c
271 91 338 67 428 67 _c
462 67 493 70 521 76 _c
549 82 573 91 595 104 _c
_cl}_e}_d
/H{752 0 98 0 654 729 _sc
98 729 _m
197 729 _l
197 430 _l
555 430 _l
555 729 _l
654 729 _l
654 0 _l
555 0 _l
555 347 _l
197 347 _l
197 0 _l
98 0 _l
98 729 _l
_cl}_d
/I{295 0 98 0 197 729 _sc
98 729 _m
197 729 _l
197 0 _l
98 0 _l
98 729 _l
_cl}_d
/J{295 0 -51 -199 197 729 _sc
98 729 _m
197 729 _l
197 51 _l
197 -36 180 -99 147 -139 _c
113 -179 60 -199 -13 -199 _c
-51 -199 _l
-51 -116 _l
-20 -116 _l
22 -116 53 -103 71 -79 _c
89 -55 98 -11 98 51 _c
98 729 _l
_cl}_d
/K{656 0 98 0 677 729 _sc
98 729 _m
197 729 _l
197 421 _l
524 729 _l
651 729 _l
289 389 _l
677 0 _l
547 0 _l
197 351 _l
197 0 _l
98 0 _l
98 729 _l
_cl}_d
/L{557 0 98 0 552 729 _sc
98 729 _m
197 729 _l
197 83 _l
552 83 _l
552 0 _l
98 0 _l
98 729 _l
_cl}_d
/M{863 0 98 0 765 729 _sc
98 729 _m
245 729 _l
431 233 _l
618 729 _l
765 729 _l
765 0 _l
669 0 _l
669 640 _l
481 140 _l
382 140 _l
194 640 _l
194 0 _l
98 0 _l
98 729 _l
_cl}_d
/N{748 0 98 0 650 729 _sc
98 729 _m
231 729 _l
554 119 _l
554 729 _l
650 729 _l
650 0 _l
517 0 _l
194 610 _l
194 0 _l
98 0 _l
98 729 _l
_cl}_d
/O{787 0 56 -13 731 742 _sc
394 662 _m
322 662 265 635 223 582 _c
181 528 160 456 160 364 _c
160 272 181 199 223 146 _c
265 92 322 66 394 66 _c
465 66 522 92 564 146 _c
606 199 627 272 627 364 _c
627 456 606 528 564 582 _c
522 635 465 662 394 662 _c
394 742 _m
496 742 577 707 639 639 _c
700 571 731 479 731 364 _c
731 248 700 157 639 89 _c
577 21 496 -13 394 -13 _c
291 -13 209 21 148 89 _c
86 157 56 248 56 364 _c
56 479 86 571 148 639 _c
209 707 291 742 394 742 _c
_cl}_d
/P{603 0 98 0 569 729 _sc
197 648 _m
197 374 _l
321 374 _l
367 374 402 385 427 409 _c
452 433 465 467 465 511 _c
465 555 452 588 427 612 _c
402 636 367 648 321 648 _c
197 648 _l
98 729 _m
321 729 _l
402 729 464 710 506 673 _c
548 636 569 582 569 511 _c
569 439 548 384 506 348 _c
464 311 402 293 321 293 _c
197 293 _l
197 0 _l
98 0 _l
98 729 _l
_cl}_d
/R{{695 0 98 0 666 729 _sc
444 342 _m
465 334 486 319 506 296 _c
526 272 546 240 566 199 _c
666 0 _l
560 0 _l
467 187 _l
443 235 419 268 397 284 _c
374 300 343 308 304 308 _c
197 308 _l
197 0 _l
98 0 _l
98 729 _l
321 729 _l
404 729 466 711 507 677 _c
548 642 569 589 569 519 _c
569 473 558 434 537 404 _c
515 374 484 353 444 342 _c
197 648 _m
197 389 _l
321 389 _l
}_e{368 389 404 400 428 422 _c
452 444 465 476 465 519 _c
465 561 452 593 428 615 _c
404 637 368 648 321 648 _c
197 648 _l
_cl}_e}_d
/S{{635 0 66 -13 579 742 _sc
535 705 _m
535 609 _l
497 627 462 640 429 649 _c
395 657 363 662 333 662 _c
279 662 237 651 208 631 _c
179 610 165 580 165 542 _c
165 510 174 485 194 469 _c
213 452 250 439 304 429 _c
364 417 _l
437 403 491 378 526 343 _c
561 307 579 260 579 201 _c
579 130 555 77 508 41 _c
460 5 391 -13 300 -13 _c
265 -13 228 -9 189 -2 _c
}_e{150 5 110 16 69 32 _c
69 134 _l
109 111 148 94 186 83 _c
224 71 262 66 300 66 _c
356 66 399 77 430 99 _c
460 121 476 152 476 194 _c
476 230 465 258 443 278 _c
421 298 385 313 335 323 _c
275 335 _l
201 349 148 372 115 404 _c
82 435 66 478 66 534 _c
66 598 88 649 134 686 _c
179 723 242 742 322 742 _c
356 742 390 739 426 733 _c
461 727 497 717 535 705 _c
}_e{_cl}_e}_d
/T{611 0 -2 0 614 729 _sc
-2 729 _m
614 729 _l
614 646 _l
355 646 _l
355 0 _l
256 0 _l
256 646 _l
-2 646 _l
-2 729 _l
_cl}_d
/U{732 0 87 -13 645 729 _sc
87 729 _m
186 729 _l
186 286 _l
186 208 200 151 228 117 _c
256 83 302 66 366 66 _c
429 66 475 83 503 117 _c
531 151 546 208 546 286 _c
546 729 _l
645 729 _l
645 274 _l
645 178 621 107 574 59 _c
527 11 458 -13 366 -13 _c
274 -13 204 11 157 59 _c
110 107 87 178 87 274 _c
87 729 _l
_cl}_d
/V{684 0 8 0 676 729 _sc
286 0 _m
8 729 _l
111 729 _l
342 115 _l
573 729 _l
676 729 _l
398 0 _l
286 0 _l
_cl}_d
/W{989 0 33 0 956 729 _sc
33 729 _m
133 729 _l
286 113 _l
439 729 _l
550 729 _l
703 113 _l
856 729 _l
956 729 _l
773 0 _l
649 0 _l
495 633 _l
340 0 _l
216 0 _l
33 729 _l
_cl}_d
/a{{613 0 60 -13 522 560 _sc
343 275 _m
270 275 220 266 192 250 _c
164 233 150 205 150 165 _c
150 133 160 107 181 89 _c
202 70 231 61 267 61 _c
317 61 357 78 387 114 _c
417 149 432 196 432 255 _c
432 275 _l
343 275 _l
522 312 _m
522 0 _l
432 0 _l
432 83 _l
411 49 385 25 355 10 _c
325 -5 287 -13 243 -13 _c
187 -13 142 2 109 33 _c
76 64 60 106 60 159 _c
}_e{60 220 80 266 122 298 _c
163 329 224 345 306 345 _c
432 345 _l
432 354 _l
432 395 418 427 391 450 _c
364 472 326 484 277 484 _c
245 484 215 480 185 472 _c
155 464 127 453 100 439 _c
100 522 _l
132 534 164 544 195 550 _c
226 556 256 560 286 560 _c
365 560 424 539 463 498 _c
502 457 522 395 522 312 _c
_cl}_e}_d
/b{{635 0 91 -13 580 760 _sc
487 273 _m
487 339 473 390 446 428 _c
418 466 381 485 334 485 _c
286 485 249 466 222 428 _c
194 390 181 339 181 273 _c
181 207 194 155 222 117 _c
249 79 286 61 334 61 _c
381 61 418 79 446 117 _c
473 155 487 207 487 273 _c
181 464 _m
199 496 223 520 252 536 _c
281 552 316 560 356 560 _c
422 560 476 533 518 481 _c
559 428 580 359 580 273 _c
}_e{580 187 559 117 518 65 _c
476 13 422 -13 356 -13 _c
316 -13 281 -5 252 10 _c
223 25 199 49 181 82 _c
181 0 _l
91 0 _l
91 760 _l
181 760 _l
181 464 _l
_cl}_e}_d
/c{{550 0 55 -13 488 560 _sc
488 526 _m
488 442 _l
462 456 437 466 411 473 _c
385 480 360 484 334 484 _c
276 484 230 465 198 428 _c
166 391 150 339 150 273 _c
150 206 166 154 198 117 _c
230 80 276 62 334 62 _c
360 62 385 65 411 72 _c
437 79 462 90 488 104 _c
488 21 _l
462 9 436 0 410 -5 _c
383 -10 354 -13 324 -13 _c
242 -13 176 12 128 64 _c
}_e{79 115 55 185 55 273 _c
55 362 79 432 128 483 _c
177 534 244 560 330 560 _c
358 560 385 557 411 551 _c
437 545 463 537 488 526 _c
_cl}_e}_d
/d{{635 0 55 -13 544 760 _sc
454 464 _m
454 760 _l
544 760 _l
544 0 _l
454 0 _l
454 82 _l
435 49 411 25 382 10 _c
353 -5 319 -13 279 -13 _c
213 -13 159 13 117 65 _c
75 117 55 187 55 273 _c
55 359 75 428 117 481 _c
159 533 213 560 279 560 _c
319 560 353 552 382 536 _c
411 520 435 496 454 464 _c
148 273 _m
148 207 161 155 188 117 _c
215 79 253 61 301 61 _c
}_e{348 61 385 79 413 117 _c
440 155 454 207 454 273 _c
454 339 440 390 413 428 _c
385 466 348 485 301 485 _c
253 485 215 466 188 428 _c
161 390 148 339 148 273 _c
_cl}_e}_d
/e{{615 0 55 -13 562 560 _sc
562 296 _m
562 252 _l
149 252 _l
153 190 171 142 205 110 _c
238 78 284 62 344 62 _c
378 62 412 66 444 74 _c
476 82 509 95 541 113 _c
541 28 _l
509 14 476 3 442 -3 _c
408 -9 373 -13 339 -13 _c
251 -13 182 12 131 62 _c
80 112 55 181 55 268 _c
55 357 79 428 127 481 _c
175 533 241 560 323 560 _c
397 560 455 536 498 489 _c
}_e{540 441 562 377 562 296 _c
472 322 _m
471 371 457 410 431 440 _c
404 469 368 484 324 484 _c
274 484 234 469 204 441 _c
174 413 156 373 152 322 _c
472 322 _l
_cl}_e}_d
/f{352 0 23 0 371 760 _sc
371 760 _m
371 685 _l
285 685 _l
253 685 230 678 218 665 _c
205 652 199 629 199 595 _c
199 547 _l
347 547 _l
347 477 _l
199 477 _l
199 0 _l
109 0 _l
109 477 _l
23 477 _l
23 547 _l
109 547 _l
109 585 _l
109 645 123 690 151 718 _c
179 746 224 760 286 760 _c
371 760 _l
_cl}_d
/g{{635 0 55 -207 544 560 _sc
454 280 _m
454 344 440 395 414 431 _c
387 467 349 485 301 485 _c
253 485 215 467 188 431 _c
161 395 148 344 148 280 _c
148 215 161 165 188 129 _c
215 93 253 75 301 75 _c
349 75 387 93 414 129 _c
440 165 454 215 454 280 _c
544 68 _m
544 -24 523 -93 482 -139 _c
440 -184 377 -207 292 -207 _c
260 -207 231 -204 203 -200 _c
175 -195 147 -188 121 -178 _c
}_e{121 -91 _l
147 -105 173 -115 199 -122 _c
225 -129 251 -133 278 -133 _c
336 -133 380 -117 410 -87 _c
439 -56 454 -10 454 52 _c
454 96 _l
435 64 411 40 382 24 _c
353 8 319 0 279 0 _c
211 0 157 25 116 76 _c
75 127 55 195 55 280 _c
55 364 75 432 116 483 _c
157 534 211 560 279 560 _c
319 560 353 552 382 536 _c
411 520 435 496 454 464 _c
454 547 _l
544 547 _l
}_e{544 68 _l
_cl}_e}_d
/h{634 0 91 0 549 760 _sc
549 330 _m
549 0 _l
459 0 _l
459 327 _l
459 379 448 417 428 443 _c
408 469 378 482 338 482 _c
289 482 251 466 223 435 _c
195 404 181 362 181 309 _c
181 0 _l
91 0 _l
91 760 _l
181 760 _l
181 462 _l
202 494 227 519 257 535 _c
286 551 320 560 358 560 _c
420 560 468 540 500 501 _c
532 462 549 405 549 330 _c
_cl}_d
/i{278 0 94 0 184 760 _sc
94 547 _m
184 547 _l
184 0 _l
94 0 _l
94 547 _l
94 760 _m
184 760 _l
184 646 _l
94 646 _l
94 760 _l
_cl}_d
/j{278 0 -17 -207 184 760 _sc
94 547 _m
184 547 _l
184 -9 _l
184 -78 170 -128 144 -160 _c
117 -191 74 -207 16 -207 _c
-17 -207 _l
-17 -131 _l
6 -131 _l
40 -131 63 -123 75 -107 _c
87 -91 94 -58 94 -9 _c
94 547 _l
94 760 _m
184 760 _l
184 646 _l
94 646 _l
94 760 _l
_cl}_d
/k{579 0 91 0 576 760 _sc
91 760 _m
181 760 _l
181 311 _l
449 547 _l
564 547 _l
274 291 _l
576 0 _l
459 0 _l
181 267 _l
181 0 _l
91 0 _l
91 760 _l
_cl}_d
/l{278 0 94 0 184 760 _sc
94 760 _m
184 760 _l
184 0 _l
94 0 _l
94 760 _l
_cl}_d
/m{{974 0 91 0 889 560 _sc
520 442 _m
542 482 569 511 600 531 _c
631 550 668 560 711 560 _c
767 560 811 540 842 500 _c
873 460 889 403 889 330 _c
889 0 _l
799 0 _l
799 327 _l
799 379 789 418 771 444 _c
752 469 724 482 686 482 _c
639 482 602 466 575 435 _c
548 404 535 362 535 309 _c
535 0 _l
445 0 _l
445 327 _l
445 379 435 418 417 444 _c
398 469 369 482 331 482 _c
}_e{285 482 248 466 221 435 _c
194 404 181 362 181 309 _c
181 0 _l
91 0 _l
91 547 _l
181 547 _l
181 462 _l
201 495 226 520 255 536 _c
283 552 317 560 357 560 _c
397 560 430 550 458 530 _c
486 510 506 480 520 442 _c
_cl}_e}_d
/n{634 0 91 0 549 560 _sc
549 330 _m
549 0 _l
459 0 _l
459 327 _l
459 379 448 417 428 443 _c
408 469 378 482 338 482 _c
289 482 251 466 223 435 _c
195 404 181 362 181 309 _c
181 0 _l
91 0 _l
91 547 _l
181 547 _l
181 462 _l
202 494 227 519 257 535 _c
286 551 320 560 358 560 _c
420 560 468 540 500 501 _c
532 462 549 405 549 330 _c
_cl}_d
/o{612 0 55 -13 557 560 _sc
306 484 _m
258 484 220 465 192 427 _c
164 389 150 338 150 273 _c
150 207 163 156 191 118 _c
219 80 257 62 306 62 _c
354 62 392 80 420 118 _c
448 156 462 207 462 273 _c
462 337 448 389 420 427 _c
392 465 354 484 306 484 _c
306 560 _m
384 560 445 534 490 484 _c
534 433 557 363 557 273 _c
557 183 534 113 490 63 _c
445 12 384 -13 306 -13 _c
227 -13 165 12 121 63 _c
77 113 55 183 55 273 _c
55 363 77 433 121 484 _c
165 534 227 560 306 560 _c
_cl}_d
/p{{635 0 91 -207 580 560 _sc
181 82 _m
181 -207 _l
91 -207 _l
91 547 _l
181 547 _l
181 464 _l
199 496 223 520 252 536 _c
281 552 316 560 356 560 _c
422 560 476 533 518 481 _c
559 428 580 359 580 273 _c
580 187 559 117 518 65 _c
476 13 422 -13 356 -13 _c
316 -13 281 -5 252 10 _c
223 25 199 49 181 82 _c
487 273 _m
487 339 473 390 446 428 _c
418 466 381 485 334 485 _c
}_e{286 485 249 466 222 428 _c
194 390 181 339 181 273 _c
181 207 194 155 222 117 _c
249 79 286 61 334 61 _c
381 61 418 79 446 117 _c
473 155 487 207 487 273 _c
_cl}_e}_d
/r{411 0 91 0 411 560 _sc
411 463 _m
401 469 390 473 378 476 _c
366 478 353 480 339 480 _c
288 480 249 463 222 430 _c
194 397 181 350 181 288 _c
181 0 _l
91 0 _l
91 547 _l
181 547 _l
181 462 _l
199 495 224 520 254 536 _c
284 552 321 560 365 560 _c
371 560 378 559 386 559 _c
393 558 401 557 411 555 _c
411 463 _l
_cl}_d
/s{{521 0 54 -13 472 560 _sc
443 531 _m
443 446 _l
417 458 391 468 364 475 _c
336 481 308 485 279 485 _c
234 485 200 478 178 464 _c
156 450 145 430 145 403 _c
145 382 153 366 169 354 _c
185 342 217 330 265 320 _c
296 313 _l
360 299 405 279 432 255 _c
458 230 472 195 472 151 _c
472 100 452 60 412 31 _c
372 1 316 -13 246 -13 _c
216 -13 186 -10 154 -5 _c
}_e{122 0 89 8 54 20 _c
54 113 _l
87 95 120 82 152 74 _c
184 65 216 61 248 61 _c
290 61 323 68 346 82 _c
368 96 380 117 380 144 _c
380 168 371 187 355 200 _c
339 213 303 226 247 238 _c
216 245 _l
160 257 119 275 95 299 _c
70 323 58 356 58 399 _c
58 450 76 490 112 518 _c
148 546 200 560 268 560 _c
301 560 332 557 362 552 _c
391 547 418 540 443 531 _c
}_e{_cl}_e}_d
/t{392 0 27 0 368 702 _sc
183 702 _m
183 547 _l
368 547 _l
368 477 _l
183 477 _l
183 180 _l
183 135 189 106 201 94 _c
213 81 238 75 276 75 _c
368 75 _l
368 0 _l
276 0 _l
206 0 158 13 132 39 _c
106 65 93 112 93 180 _c
93 477 _l
27 477 _l
27 547 _l
93 547 _l
93 702 _l
183 702 _l
_cl}_d
/u{634 0 85 -13 543 560 _sc
85 216 _m
85 547 _l
175 547 _l
175 219 _l
175 167 185 129 205 103 _c
225 77 255 64 296 64 _c
344 64 383 79 411 110 _c
439 141 453 183 453 237 _c
453 547 _l
543 547 _l
543 0 _l
453 0 _l
453 84 _l
431 50 405 26 377 10 _c
348 -5 315 -13 277 -13 _c
214 -13 166 6 134 45 _c
101 83 85 140 85 216 _c
311 560 _m
311 560 _l
_cl}_d
/v{592 0 30 0 562 547 _sc
30 547 _m
125 547 _l
296 88 _l
467 547 _l
562 547 _l
357 0 _l
235 0 _l
30 547 _l
_cl}_d
/w{818 0 42 0 776 547 _sc
42 547 _m
132 547 _l
244 120 _l
356 547 _l
462 547 _l
574 120 _l
686 547 _l
776 547 _l
633 0 _l
527 0 _l
409 448 _l
291 0 _l
185 0 _l
42 547 _l
_cl}_d
/x{592 0 29 0 559 547 _sc
549 547 _m
351 281 _l
559 0 _l
453 0 _l
294 215 _l
135 0 _l
29 0 _l
241 286 _l
47 547 _l
153 547 _l
298 352 _l
443 547 _l
549 547 _l
_cl}_d
/y{592 0 30 -207 562 547 _sc
322 -50 _m
296 -114 271 -157 247 -177 _c
223 -197 191 -207 151 -207 _c
79 -207 _l
79 -132 _l
132 -132 _l
156 -132 175 -126 189 -114 _c
203 -102 218 -75 235 -31 _c
251 9 _l
30 547 _l
125 547 _l
296 119 _l
467 547 _l
562 547 _l
322 -50 _l
_cl}_d
/z{525 0 43 0 482 547 _sc
55 547 _m
482 547 _l
482 465 _l
144 72 _l
482 72 _l
482 0 _l
43 0 _l
43 82 _l
381 475 _l
55 475 _l
55 547 _l
_cl}_d
/acute{500 0 181 616 415 800 _sc
318 800 _m
415 800 _l
256 616 _l
181 616 _l
318 800 _l
_cl}_d
/uacute{634 0 85 -13 543 800 _sc
false CharStrings /u get exec
gsave 60 0 translate
false CharStrings /acute get exec
grestore }_d
end readonly def

/BuildGlyph
 {exch begin
 CharStrings exch
 2 copy known not{pop /.notdef}if
 true 3 1 roll get exec
 end}_d

/BuildChar {
 1 index /Encoding get exch get
 1 index /BuildGlyph get exec
}_d

FontName currentdict end definefont pop
end
%%EndProlog
mpldict begin
-12.6 134.64 translate
637.2 522.72 0 0 clipbox
gsave
0 0 m
637.2 0 l
637.2 522.72 l
0 522.72 l
cl
1.000 setgray
fill
grestore
gsave
79.65 57.4992 m
573.48 57.4992 l
573.48 459.9936 l
79.65 459.9936 l
cl
1.000 setgray
fill
grestore
0.800 setlinewidth
1 setlinejoin
0 setlinecap
[] 0 setdash
0.000 setgray
gsave
/o {
gsave
newpath
translate
0.8 setlinewidth
1 setlinejoin
0 setlinecap
0 0 m
0 -3.5 l

gsave
0.000 setgray
fill
grestore
stroke
grestore
} bind def
98.6435 57.4992 o
grestore
/DejaVuSans findfont
10.000 scalefont
setfont
gsave
95.463774 42.905450 translate
0.000000 rotate
0.000000 0.000000 m /zero glyphshow
grestore
gsave
/o {
gsave
newpath
translate
0.8 setlinewidth
1 setlinejoin
0 setlinecap
0 0 m
0 -3.5 l

gsave
0.000 setgray
fill
grestore
stroke
grestore
} bind def
160.39 57.4992 o
grestore
gsave
150.850590 42.905450 translate
0.000000 rotate
0.000000 0.000000 m /one glyphshow
6.362305 0.000000 m /zero glyphshow
12.724609 0.000000 m /zero glyphshow
grestore
gsave
/o {
gsave
newpath
translate
0.8 setlinewidth
1 setlinejoin
0 setlinecap
0 0 m
0 -3.5 l

gsave
0.000 setgray
fill
grestore
stroke
grestore
} bind def
222.136 57.4992 o
grestore
gsave
212.596781 42.905450 translate
0.000000 rotate
0.000000 0.000000 m /two glyphshow
6.362305 0.000000 m /zero glyphshow
12.724609 0.000000 m /zero glyphshow
grestore
gsave
/o {
gsave
newpath
translate
0.8 setlinewidth
1 setlinejoin
0 setlinecap
0 0 m
0 -3.5 l

gsave
0.000 setgray
fill
grestore
stroke
grestore
} bind def
283.882 57.4992 o
grestore
gsave
274.342972 42.905450 translate
0.000000 rotate
0.000000 0.000000 m /three glyphshow
6.362305 0.000000 m /zero glyphshow
12.724609 0.000000 m /zero glyphshow
grestore
gsave
/o {
gsave
newpath
translate
0.8 setlinewidth
1 setlinejoin
0 setlinecap
0 0 m
0 -3.5 l

gsave
0.000 setgray
fill
grestore
stroke
grestore
} bind def
345.628 57.4992 o
grestore
gsave
336.089163 42.905450 translate
0.000000 rotate
0.000000 0.000000 m /four glyphshow
6.362305 0.000000 m /zero glyphshow
12.724609 0.000000 m /zero glyphshow
grestore
gsave
/o {
gsave
newpath
translate
0.8 setlinewidth
1 setlinejoin
0 setlinecap
0 0 m
0 -3.5 l

gsave
0.000 setgray
fill
grestore
stroke
grestore
} bind def
407.374 57.4992 o
grestore
gsave
397.835354 42.905450 translate
0.000000 rotate
0.000000 0.000000 m /five glyphshow
6.362305 0.000000 m /zero glyphshow
12.724609 0.000000 m /zero glyphshow
grestore
gsave
/o {
gsave
newpath
translate
0.8 setlinewidth
1 setlinejoin
0 setlinecap
0 0 m
0 -3.5 l

gsave
0.000 setgray
fill
grestore
stroke
grestore
} bind def
469.121 57.4992 o
grestore
gsave
459.581545 42.905450 translate
0.000000 rotate
0.000000 0.000000 m /six glyphshow
6.362305 0.000000 m /zero glyphshow
12.724609 0.000000 m /zero glyphshow
grestore
gsave
/o {
gsave
newpath
translate
0.8 setlinewidth
1 setlinejoin
0 setlinecap
0 0 m
0 -3.5 l

gsave
0.000 setgray
fill
grestore
stroke
grestore
} bind def
530.867 57.4992 o
grestore
gsave
521.327736 42.905450 translate
0.000000 rotate
0.000000 0.000000 m /seven glyphshow
6.362305 0.000000 m /zero glyphshow
12.724609 0.000000 m /zero glyphshow
grestore
gsave
291.643125 29.233575 translate
0.000000 rotate
0.000000 0.000000 m /b glyphshow
6.347656 0.000000 m /r glyphshow
10.458984 0.000000 m /a glyphshow
16.586914 0.000000 m /n glyphshow
22.924805 0.000000 m /c glyphshow
28.422852 0.000000 m /h glyphshow
34.760742 0.000000 m /space glyphshow
37.939453 0.000000 m /l glyphshow
40.717773 0.000000 m /e glyphshow
46.870117 0.000000 m /n glyphshow
53.208008 0.000000 m /g glyphshow
59.555664 0.000000 m /t glyphshow
63.476562 0.000000 m /h glyphshow
grestore
gsave
/o {
gsave
newpath
translate
0.8 setlinewidth
1 setlinejoin
0 setlinecap
0 0 m
-3.5 0 l

gsave
0.000 setgray
fill
grestore
stroke
grestore
} bind def
79.65 414.642 o
grestore
gsave
66.290625 410.845243 translate
0.000000 rotate
0.000000 0.000000 m /five glyphshow
grestore
gsave
/o {
gsave
newpath
translate
0.8 setlinewidth
1 setlinejoin
0 setlinecap
0 0 m
-3.5 0 l

gsave
0.000 setgray
fill
grestore
stroke
grestore
} bind def
79.65 367.401 o
grestore
gsave
59.931250 363.604117 translate
0.000000 rotate
0.000000 0.000000 m /one glyphshow
6.362305 0.000000 m /zero glyphshow
grestore
gsave
/o {
gsave
newpath
translate
0.8 setlinewidth
1 setlinejoin
0 setlinecap
0 0 m
-3.5 0 l

gsave
0.000 setgray
fill
grestore
stroke
grestore
} bind def
79.65 320.16 o
grestore
gsave
59.931250 316.362990 translate
0.000000 rotate
0.000000 0.000000 m /one glyphshow
6.362305 0.000000 m /five glyphshow
grestore
gsave
/o {
gsave
newpath
translate
0.8 setlinewidth
1 setlinejoin
0 setlinecap
0 0 m
-3.5 0 l

gsave
0.000 setgray
fill
grestore
stroke
grestore
} bind def
79.65 272.919 o
grestore
gsave
59.931250 269.121863 translate
0.000000 rotate
0.000000 0.000000 m /two glyphshow
6.362305 0.000000 m /zero glyphshow
grestore
gsave
/o {
gsave
newpath
translate
0.8 setlinewidth
1 setlinejoin
0 setlinecap
0 0 m
-3.5 0 l

gsave
0.000 setgray
fill
grestore
stroke
grestore
} bind def
79.65 225.678 o
grestore
gsave
59.931250 221.880736 translate
0.000000 rotate
0.000000 0.000000 m /two glyphshow
6.362305 0.000000 m /five glyphshow
grestore
gsave
/o {
gsave
newpath
translate
0.8 setlinewidth
1 setlinejoin
0 setlinecap
0 0 m
-3.5 0 l

gsave
0.000 setgray
fill
grestore
stroke
grestore
} bind def
79.65 178.436 o
grestore
gsave
59.931250 174.639610 translate
0.000000 rotate
0.000000 0.000000 m /three glyphshow
6.362305 0.000000 m /zero glyphshow
grestore
gsave
/o {
gsave
newpath
translate
0.8 setlinewidth
1 setlinejoin
0 setlinecap
0 0 m
-3.5 0 l

gsave
0.000 setgray
fill
grestore
stroke
grestore
} bind def
79.65 131.195 o
grestore
gsave
59.931250 127.398483 translate
0.000000 rotate
0.000000 0.000000 m /three glyphshow
6.362305 0.000000 m /five glyphshow
grestore
gsave
/o {
gsave
newpath
translate
0.8 setlinewidth
1 setlinejoin
0 setlinecap
0 0 m
-3.5 0 l

gsave
0.000 setgray
fill
grestore
stroke
grestore
} bind def
79.65 83.9542 o
grestore
gsave
59.931250 80.157356 translate
0.000000 rotate
0.000000 0.000000 m /four glyphshow
6.362305 0.000000 m /zero glyphshow
grestore
gsave
53.853125 247.699525 translate
90.000000 rotate
0.000000 0.000000 m /t glyphshow
3.920898 0.000000 m /a glyphshow
10.048828 0.000000 m /x glyphshow
15.966797 0.000000 m /a glyphshow
grestore
1.500 setlinewidth
gsave
493.8 402.5 79.65 57.5 clipbox
98.643462 346.239942 m
98.643462 346.239942 l
stroke
grestore
gsave
493.8 402.5 79.65 57.5 clipbox
98.643462 452.43502 m
119.817102 452.43502 l
stroke
grestore
gsave
493.8 402.5 79.65 57.5 clipbox
98.643462 240.044865 m
103.936872 240.044865 l
stroke
grestore
gsave
493.8 402.5 79.65 57.5 clipbox
103.936872 398.32686 m
130.097595 398.32686 l
stroke
grestore
gsave
493.8 402.5 79.65 57.5 clipbox
130.097595 442.986794 m
161.860838 442.986794 l
stroke
grestore
gsave
493.8 402.5 79.65 57.5 clipbox
130.097595 353.666926 m
136.735177 353.666926 l
stroke
grestore
gsave
493.8 402.5 79.65 57.5 clipbox
136.735177 387.173987 m
154.962277 387.173987 l
stroke
grestore
gsave
493.8 402.5 79.65 57.5 clipbox
154.962277 433.538569 m
205.029915 433.538569 l
stroke
grestore
gsave
493.8 402.5 79.65 57.5 clipbox
154.962277 340.809404 m
171.24285 340.809404 l
stroke
grestore
gsave
493.8 402.5 79.65 57.5 clipbox
171.24285 352.010718 m
206.994641 352.010718 l
stroke
grestore
gsave
493.8 402.5 79.65 57.5 clipbox
206.994641 364.965121 m
234.698421 364.965121 l
stroke
grestore
gsave
493.8 402.5 79.65 57.5 clipbox
234.698421 376.701588 m
302.259045 376.701588 l
stroke
grestore
gsave
493.8 402.5 79.65 57.5 clipbox
302.259045 386.002185 m
323.473272 386.002185 l
stroke
grestore
gsave
493.8 402.5 79.65 57.5 clipbox
323.473272 395.155154 m
338.789757 395.155154 l
stroke
grestore
gsave
493.8 402.5 79.65 57.5 clipbox
338.789757 404.012865 m
358.465098 404.012865 l
stroke
grestore
gsave
493.8 402.5 79.65 57.5 clipbox
358.465098 412.280062 m
358.822576 412.280062 l
stroke
grestore
gsave
493.8 402.5 79.65 57.5 clipbox
358.822576 419.366231 m
358.822576 419.366231 l
stroke
grestore
gsave
493.8 402.5 79.65 57.5 clipbox
358.822576 424.090344 m
358.822576 424.090344 l
stroke
grestore
gsave
493.8 402.5 79.65 57.5 clipbox
358.822576 414.642118 m
358.822576 414.642118 l
stroke
grestore
gsave
493.8 402.5 79.65 57.5 clipbox
358.822576 405.193893 m
358.822576 405.193893 l
stroke
grestore
gsave
493.8 402.5 79.65 57.5 clipbox
358.465098 395.745668 m
478.512692 395.745668 l
stroke
grestore
gsave
493.8 402.5 79.65 57.5 clipbox
338.789757 386.297442 m
341.960508 386.297442 l
stroke
grestore
gsave
493.8 402.5 79.65 57.5 clipbox
323.473272 376.849217 m
339.029881 376.849217 l
stroke
grestore
gsave
493.8 402.5 79.65 57.5 clipbox
302.259045 367.400992 m
395.275271 367.400992 l
stroke
grestore
gsave
493.8 402.5 79.65 57.5 clipbox
234.698421 353.228654 m
270.253936 353.228654 l
stroke
grestore
gsave
493.8 402.5 79.65 57.5 clipbox
270.253936 357.952766 m
270.253936 357.952766 l
stroke
grestore
gsave
493.8 402.5 79.65 57.5 clipbox
270.253936 348.504541 m
270.253936 348.504541 l
stroke
grestore
gsave
493.8 402.5 79.65 57.5 clipbox
206.994641 339.056315 m
294.293143 339.056315 l
stroke
grestore
gsave
493.8 402.5 79.65 57.5 clipbox
171.24285 329.60809 m
201.520891 329.60809 l
stroke
grestore
gsave
493.8 402.5 79.65 57.5 clipbox
136.735177 320.159865 m
179.747756 320.159865 l
stroke
grestore
gsave
493.8 402.5 79.65 57.5 clipbox
103.936872 81.76287 m
111.845369 81.76287 l
stroke
grestore
gsave
493.8 402.5 79.65 57.5 clipbox
111.845369 98.46796 m
126.094536 98.46796 l
stroke
grestore
gsave
493.8 402.5 79.65 57.5 clipbox
126.094536 122.429914 m
136.909973 122.429914 l
stroke
grestore
gsave
493.8 402.5 79.65 57.5 clipbox
136.909973 160.905598 m
141.359879 160.905598 l
stroke
grestore
gsave
493.8 402.5 79.65 57.5 clipbox
141.359879 215.712686 m
180.402616 215.712686 l
stroke
grestore
gsave
493.8 402.5 79.65 57.5 clipbox
180.402616 260.075057 m
184.421731 260.075057 l
stroke
grestore
gsave
493.8 402.5 79.65 57.5 clipbox
184.421731 298.901358 m
192.918769 298.901358 l
stroke
grestore
gsave
493.8 402.5 79.65 57.5 clipbox
192.918769 305.987527 m
201.336524 305.987527 l
stroke
grestore
gsave
493.8 402.5 79.65 57.5 clipbox
201.336524 310.711639 m
228.81287 310.711639 l
stroke
grestore
gsave
493.8 402.5 79.65 57.5 clipbox
201.336524 301.263414 m
225.109517 301.263414 l
stroke
grestore
gsave
493.8 402.5 79.65 57.5 clipbox
192.918769 291.815189 m
222.166191 291.815189 l
stroke
grestore
gsave
493.8 402.5 79.65 57.5 clipbox
184.421731 221.248756 m
200.179369 221.248756 l
stroke
grestore
gsave
493.8 402.5 79.65 57.5 clipbox
200.179369 235.716351 m
221.9167 235.716351 l
stroke
grestore
gsave
493.8 402.5 79.65 57.5 clipbox
221.9167 255.203315 m
237.664203 255.203315 l
stroke
grestore
gsave
493.8 402.5 79.65 57.5 clipbox
237.664203 270.556682 m
239.464279 270.556682 l
stroke
grestore
gsave
493.8 402.5 79.65 57.5 clipbox
239.464279 277.642851 m
254.223774 277.642851 l
stroke
grestore
gsave
493.8 402.5 79.65 57.5 clipbox
254.223774 282.366963 m
275.368736 282.366963 l
stroke
grestore
gsave
493.8 402.5 79.65 57.5 clipbox
254.223774 272.918738 m
283.710688 272.918738 l
stroke
grestore
gsave
493.8 402.5 79.65 57.5 clipbox
239.464279 263.470513 m
263.604885 263.470513 l
stroke
grestore
gsave
493.8 402.5 79.65 57.5 clipbox
237.664203 239.849949 m
243.119304 239.849949 l
stroke
grestore
gsave
493.8 402.5 79.65 57.5 clipbox
243.119304 249.298175 m
245.422324 249.298175 l
stroke
grestore
gsave
493.8 402.5 79.65 57.5 clipbox
245.422324 254.022287 m
260.547247 254.022287 l
stroke
grestore
gsave
493.8 402.5 79.65 57.5 clipbox
245.422324 244.574062 m
259.935573 244.574062 l
stroke
grestore
gsave
493.8 402.5 79.65 57.5 clipbox
243.119304 230.401724 m
282.803693 230.401724 l
stroke
grestore
gsave
493.8 402.5 79.65 57.5 clipbox
282.803693 235.125837 m
286.875748 235.125837 l
stroke
grestore
gsave
493.8 402.5 79.65 57.5 clipbox
282.803693 225.677611 m
290.463415 225.677611 l
stroke
grestore
gsave
493.8 402.5 79.65 57.5 clipbox
221.9167 216.229386 m
242.985365 216.229386 l
stroke
grestore
gsave
493.8 402.5 79.65 57.5 clipbox
200.179369 206.781161 m
233.550512 206.781161 l
stroke
grestore
gsave
493.8 402.5 79.65 57.5 clipbox
180.402616 171.350315 m
203.275003 171.350315 l
stroke
grestore
gsave
493.8 402.5 79.65 57.5 clipbox
203.275003 183.160597 m
206.831891 183.160597 l
stroke
grestore
gsave
493.8 402.5 79.65 57.5 clipbox
206.831891 192.608823 m
214.390674 192.608823 l
stroke
grestore
gsave
493.8 402.5 79.65 57.5 clipbox
214.390674 197.332935 m
237.016833 197.332935 l
stroke
grestore
gsave
493.8 402.5 79.65 57.5 clipbox
214.390674 187.88471 m
230.047153 187.88471 l
stroke
grestore
gsave
493.8 402.5 79.65 57.5 clipbox
206.831891 173.712372 m
208.226306 173.712372 l
stroke
grestore
gsave
493.8 402.5 79.65 57.5 clipbox
208.226306 178.436485 m
225.61494 178.436485 l
stroke
grestore
gsave
493.8 402.5 79.65 57.5 clipbox
208.226306 168.988259 m
218.005996 168.988259 l
stroke
grestore
gsave
493.8 402.5 79.65 57.5 clipbox
203.275003 159.540034 m
231.46424 159.540034 l
stroke
grestore
gsave
493.8 402.5 79.65 57.5 clipbox
141.359879 106.098509 m
150.21089 106.098509 l
stroke
grestore
gsave
493.8 402.5 79.65 57.5 clipbox
150.21089 118.794562 m
155.992926 118.794562 l
stroke
grestore
gsave
493.8 402.5 79.65 57.5 clipbox
155.992926 130.01433 m
160.435993 130.01433 l
stroke
grestore
gsave
493.8 402.5 79.65 57.5 clipbox
160.435993 138.281527 m
173.135357 138.281527 l
stroke
grestore
gsave
493.8 402.5 79.65 57.5 clipbox
173.135357 145.367696 m
181.920716 145.367696 l
stroke
grestore
gsave
493.8 402.5 79.65 57.5 clipbox
181.920716 150.091808 m
183.194993 150.091808 l
stroke
grestore
gsave
493.8 402.5 79.65 57.5 clipbox
181.920716 140.643583 m
182.498825 140.643583 l
stroke
grestore
gsave
493.8 402.5 79.65 57.5 clipbox
173.135357 131.195358 m
185.343703 131.195358 l
stroke
grestore
gsave
493.8 402.5 79.65 57.5 clipbox
160.435993 121.747132 m
191.576424 121.747132 l
stroke
grestore
gsave
493.8 402.5 79.65 57.5 clipbox
155.992926 107.574794 m
185.3559 107.574794 l
stroke
grestore
gsave
493.8 402.5 79.65 57.5 clipbox
185.3559 112.298907 m
189.629722 112.298907 l
stroke
grestore
gsave
493.8 402.5 79.65 57.5 clipbox
185.3559 102.850682 m
195.283702 102.850682 l
stroke
grestore
gsave
493.8 402.5 79.65 57.5 clipbox
150.21089 93.402456 m
192.899614 93.402456 l
stroke
grestore
gsave
493.8 402.5 79.65 57.5 clipbox
136.909973 83.954231 m
203.670726 83.954231 l
stroke
grestore
gsave
493.8 402.5 79.65 57.5 clipbox
126.094536 74.506006 m
208.911105 74.506006 l
stroke
grestore
gsave
493.8 402.5 79.65 57.5 clipbox
111.845369 65.05778 m
138.110735 65.05778 l
stroke
grestore
gsave
493.8 402.5 79.65 57.5 clipbox
98.643462 240.044865 m
98.643462 452.43502 l
stroke
grestore
gsave
493.8 402.5 79.65 57.5 clipbox
103.936872 81.76287 m
103.936872 398.32686 l
stroke
grestore
gsave
493.8 402.5 79.65 57.5 clipbox
130.097595 353.666926 m
130.097595 442.986794 l
stroke
grestore
gsave
493.8 402.5 79.65 57.5 clipbox
136.735177 320.159865 m
136.735177 387.173987 l
stroke
grestore
gsave
493.8 402.5 79.65 57.5 clipbox
154.962277 340.809404 m
154.962277 433.538569 l
stroke
grestore
gsave
493.8 402.5 79.65 57.5 clipbox
171.24285 329.60809 m
171.24285 352.010718 l
stroke
grestore
gsave
493.8 402.5 79.65 57.5 clipbox
206.994641 339.056315 m
206.994641 364.965121 l
stroke
grestore
gsave
493.8 402.5 79.65 57.5 clipbox
234.698421 353.228654 m
234.698421 376.701588 l
stroke
grestore
gsave
493.8 402.5 79.65 57.5 clipbox
302.259045 367.400992 m
302.259045 386.002185 l
stroke
grestore
gsave
493.8 402.5 79.65 57.5 clipbox
323.473272 376.849217 m
323.473272 395.155154 l
stroke
grestore
gsave
493.8 402.5 79.65 57.5 clipbox
338.789757 386.297442 m
338.789757 404.012865 l
stroke
grestore
gsave
493.8 402.5 79.65 57.5 clipbox
358.465098 395.745668 m
358.465098 412.280062 l
stroke
grestore
gsave
493.8 402.5 79.65 57.5 clipbox
358.822576 405.193893 m
358.822576 419.366231 l
stroke
grestore
gsave
493.8 402.5 79.65 57.5 clipbox
358.822576 414.642118 m
358.822576 424.090344 l
stroke
grestore
gsave
493.8 402.5 79.65 57.5 clipbox
270.253936 348.504541 m
270.253936 357.952766 l
stroke
grestore
gsave
493.8 402.5 79.65 57.5 clipbox
111.845369 65.05778 m
111.845369 98.46796 l
stroke
grestore
gsave
493.8 402.5 79.65 57.5 clipbox
126.094536 74.506006 m
126.094536 122.429914 l
stroke
grestore
gsave
493.8 402.5 79.65 57.5 clipbox
136.909973 83.954231 m
136.909973 160.905598 l
stroke
grestore
gsave
493.8 402.5 79.65 57.5 clipbox
141.359879 106.098509 m
141.359879 215.712686 l
stroke
grestore
gsave
493.8 402.5 79.65 57.5 clipbox
180.402616 171.350315 m
180.402616 260.075057 l
stroke
grestore
gsave
493.8 402.5 79.65 57.5 clipbox
184.421731 221.248756 m
184.421731 298.901358 l
stroke
grestore
gsave
493.8 402.5 79.65 57.5 clipbox
192.918769 291.815189 m
192.918769 305.987527 l
stroke
grestore
gsave
493.8 402.5 79.65 57.5 clipbox
201.336524 301.263414 m
201.336524 310.711639 l
stroke
grestore
gsave
493.8 402.5 79.65 57.5 clipbox
200.179369 206.781161 m
200.179369 235.716351 l
stroke
grestore
gsave
493.8 402.5 79.65 57.5 clipbox
221.9167 216.229386 m
221.9167 255.203315 l
stroke
grestore
gsave
493.8 402.5 79.65 57.5 clipbox
237.664203 239.849949 m
237.664203 270.556682 l
stroke
grestore
gsave
493.8 402.5 79.65 57.5 clipbox
239.464279 263.470513 m
239.464279 277.642851 l
stroke
grestore
gsave
493.8 402.5 79.65 57.5 clipbox
254.223774 272.918738 m
254.223774 282.366963 l
stroke
grestore
gsave
493.8 402.5 79.65 57.5 clipbox
243.119304 230.401724 m
243.119304 249.298175 l
stroke
grestore
gsave
493.8 402.5 79.65 57.5 clipbox
245.422324 244.574062 m
245.422324 254.022287 l
stroke
grestore
gsave
493.8 402.5 79.65 57.5 clipbox
282.803693 225.677611 m
282.803693 235.125837 l
stroke
grestore
gsave
493.8 402.5 79.65 57.5 clipbox
203.275003 159.540034 m
203.275003 183.160597 l
stroke
grestore
gsave
493.8 402.5 79.65 57.5 clipbox
206.831891 173.712372 m
206.831891 192.608823 l
stroke
grestore
gsave
493.8 402.5 79.65 57.5 clipbox
214.390674 187.88471 m
214.390674 197.332935 l
stroke
grestore
gsave
493.8 402.5 79.65 57.5 clipbox
208.226306 168.988259 m
208.226306 178.436485 l
stroke
grestore
gsave
493.8 402.5 79.65 57.5 clipbox
150.21089 93.402456 m
150.21089 118.794562 l
stroke
grestore
gsave
493.8 402.5 79.65 57.5 clipbox
155.992926 107.574794 m
155.992926 130.01433 l
stroke
grestore
gsave
493.8 402.5 79.65 57.5 clipbox
160.435993 121.747132 m
160.435993 138.281527 l
stroke
grestore
gsave
493.8 402.5 79.65 57.5 clipbox
173.135357 131.195358 m
173.135357 145.367696 l
stroke
grestore
gsave
493.8 402.5 79.65 57.5 clipbox
181.920716 140.643583 m
181.920716 150.091808 l
stroke
grestore
gsave
493.8 402.5 79.65 57.5 clipbox
185.3559 102.850682 m
185.3559 112.298907 l
stroke
grestore
0.800 setlinewidth
0 setlinejoin
2 setlinecap
[] 0 setdash
gsave
79.65 57.4992 m
79.65 459.9936 l
stroke
grestore
gsave
573.48 57.4992 m
573.48 459.9936 l
stroke
grestore
gsave
79.65 57.4992 m
573.48 57.4992 l
stroke
grestore
gsave
79.65 459.9936 m
573.48 459.9936 l
stroke
grestore
gsave
119.817102 449.677207 translate
0.000000 rotate
0.000000 0.000000 m /space glyphshow
3.178711 0.000000 m /r glyphshow
7.290039 0.000000 m /e glyphshow
13.442383 0.000000 m /t glyphshow
17.363281 0.000000 m /u glyphshow
23.701172 0.000000 m /r glyphshow
27.812500 0.000000 m /n glyphshow
34.150391 0.000000 m /o glyphshow
40.268555 0.000000 m /f glyphshow
43.789062 0.000000 m /t glyphshow
47.709961 0.000000 m /h glyphshow
54.047852 0.000000 m /e glyphshow
60.200195 0.000000 m /s glyphshow
65.410156 0.000000 m /h glyphshow
71.748047 0.000000 m /a glyphshow
77.875977 0.000000 m /d glyphshow
84.223633 0.000000 m /o glyphshow
90.341797 0.000000 m /w glyphshow
98.520508 0.000000 m /seven glyphshow
104.882812 0.000000 m /two glyphshow
grestore
gsave
161.860838 440.228982 translate
0.000000 rotate
0.000000 0.000000 m /space glyphshow
3.178711 0.000000 m /U glyphshow
10.498047 0.000000 m /n glyphshow
16.835938 0.000000 m /f glyphshow
20.356445 0.000000 m /i glyphshow
23.134766 0.000000 m /n glyphshow
29.472656 0.000000 m /i glyphshow
32.250977 0.000000 m /s glyphshow
37.460938 0.000000 m /h glyphshow
43.798828 0.000000 m /e glyphshow
49.951172 0.000000 m /d glyphshow
56.298828 0.000000 m /T glyphshow
62.391602 0.000000 m /a glyphshow
68.519531 0.000000 m /l glyphshow
71.297852 0.000000 m /e glyphshow
77.450195 0.000000 m /s glyphshow
grestore
gsave
205.029915 430.780757 translate
0.000000 rotate
0.000000 0.000000 m /space glyphshow
3.178711 0.000000 m /B glyphshow
10.039062 0.000000 m /i glyphshow
12.817383 0.000000 m /l glyphshow
15.595703 0.000000 m /b glyphshow
21.943359 0.000000 m /o glyphshow
28.061523 0.000000 m /s glyphshow
33.271484 0.000000 m /L glyphshow
38.842773 0.000000 m /a glyphshow
44.970703 0.000000 m /s glyphshow
50.180664 0.000000 m /t glyphshow
54.101562 0.000000 m /S glyphshow
60.449219 0.000000 m /o glyphshow
66.567383 0.000000 m /n glyphshow
72.905273 0.000000 m /g glyphshow
grestore
gsave
358.822576 421.332531 translate
0.000000 rotate
0.000000 0.000000 m /space glyphshow
3.178711 0.000000 m /N glyphshow
10.659180 0.000000 m /a glyphshow
16.787109 0.000000 m /r glyphshow
20.898438 0.000000 m /n glyphshow
27.236328 0.000000 m /i glyphshow
30.014648 0.000000 m /a glyphshow
36.142578 0.000000 m /six glyphshow
42.504883 0.000000 m /T glyphshow
48.613281 0.000000 m /h glyphshow
54.951172 0.000000 m /e glyphshow
61.103516 0.000000 m /M glyphshow
69.731445 0.000000 m /a glyphshow
75.859375 0.000000 m /g glyphshow
82.207031 0.000000 m /i glyphshow
84.985352 0.000000 m /c glyphshow
90.483398 0.000000 m /i glyphshow
93.261719 0.000000 m /a glyphshow
99.389648 0.000000 m /n glyphshow
105.727539 0.000000 m /s glyphshow
110.937500 0.000000 m /N glyphshow
118.417969 0.000000 m /e glyphshow
124.570312 0.000000 m /p glyphshow
130.917969 0.000000 m /h glyphshow
137.255859 0.000000 m /e glyphshow
143.408203 0.000000 m /w glyphshow
grestore
gsave
358.822576 411.884306 translate
0.000000 rotate
0.000000 0.000000 m /space glyphshow
3.178711 0.000000 m /N glyphshow
10.659180 0.000000 m /a glyphshow
16.787109 0.000000 m /r glyphshow
20.898438 0.000000 m /n glyphshow
27.236328 0.000000 m /i glyphshow
30.014648 0.000000 m /a glyphshow
36.142578 0.000000 m /four glyphshow
42.504883 0.000000 m /T glyphshow
48.613281 0.000000 m /h glyphshow
54.951172 0.000000 m /e glyphshow
61.103516 0.000000 m /S glyphshow
67.451172 0.000000 m /i glyphshow
70.229492 0.000000 m /l glyphshow
73.007812 0.000000 m /v glyphshow
78.925781 0.000000 m /e glyphshow
85.078125 0.000000 m /r glyphshow
89.189453 0.000000 m /C glyphshow
96.171875 0.000000 m /h glyphshow
102.509766 0.000000 m /a glyphshow
108.637695 0.000000 m /i glyphshow
111.416016 0.000000 m /r glyphshow
grestore
gsave
358.822576 402.436080 translate
0.000000 rotate
0.000000 0.000000 m /space glyphshow
3.178711 0.000000 m /N glyphshow
10.659180 0.000000 m /a glyphshow
16.787109 0.000000 m /r glyphshow
20.898438 0.000000 m /n glyphshow
27.236328 0.000000 m /i glyphshow
30.014648 0.000000 m /a glyphshow
36.142578 0.000000 m /seven glyphshow
42.504883 0.000000 m /T glyphshow
48.613281 0.000000 m /h glyphshow
54.951172 0.000000 m /e glyphshow
61.103516 0.000000 m /L glyphshow
66.674805 0.000000 m /a glyphshow
72.802734 0.000000 m /s glyphshow
78.012695 0.000000 m /t glyphshow
81.933594 0.000000 m /B glyphshow
88.793945 0.000000 m /a glyphshow
94.921875 0.000000 m /t glyphshow
98.842773 0.000000 m /t glyphshow
102.763672 0.000000 m /l glyphshow
105.541992 0.000000 m /e glyphshow
grestore
gsave
478.512692 392.987855 translate
0.000000 rotate
0.000000 0.000000 m /space glyphshow
3.178711 0.000000 m /N glyphshow
10.659180 0.000000 m /a glyphshow
16.787109 0.000000 m /r glyphshow
20.898438 0.000000 m /n glyphshow
27.236328 0.000000 m /i glyphshow
30.014648 0.000000 m /a glyphshow
36.142578 0.000000 m /two glyphshow
42.504883 0.000000 m /P glyphshow
48.535156 0.000000 m /r glyphshow
52.646484 0.000000 m /i glyphshow
55.424805 0.000000 m /n glyphshow
61.762695 0.000000 m /c glyphshow
67.260742 0.000000 m /e glyphshow
73.413086 0.000000 m /C glyphshow
80.395508 0.000000 m /a glyphshow
86.523438 0.000000 m /s glyphshow
91.733398 0.000000 m /p glyphshow
98.081055 0.000000 m /i glyphshow
100.859375 0.000000 m /a glyphshow
106.987305 0.000000 m /n glyphshow
grestore
gsave
341.960508 383.539630 translate
0.000000 rotate
0.000000 0.000000 m /space glyphshow
3.178711 0.000000 m /N glyphshow
10.659180 0.000000 m /a glyphshow
16.787109 0.000000 m /r glyphshow
20.898438 0.000000 m /n glyphshow
27.236328 0.000000 m /i glyphshow
30.014648 0.000000 m /a glyphshow
36.142578 0.000000 m /one glyphshow
42.504883 0.000000 m /T glyphshow
48.613281 0.000000 m /h glyphshow
54.951172 0.000000 m /e glyphshow
61.103516 0.000000 m /L glyphshow
66.674805 0.000000 m /i glyphshow
69.453125 0.000000 m /o glyphshow
75.571289 0.000000 m /n glyphshow
81.909180 0.000000 m /T glyphshow
88.017578 0.000000 m /h glyphshow
94.355469 0.000000 m /e glyphshow
100.507812 0.000000 m /W glyphshow
110.395508 0.000000 m /i glyphshow
113.173828 0.000000 m /t glyphshow
117.094727 0.000000 m /c glyphshow
122.592773 0.000000 m /h glyphshow
128.930664 0.000000 m /a glyphshow
135.058594 0.000000 m /n glyphshow
141.396484 0.000000 m /d glyphshow
147.744141 0.000000 m /T glyphshow
153.852539 0.000000 m /h glyphshow
160.190430 0.000000 m /e glyphshow
166.342773 0.000000 m /W glyphshow
176.230469 0.000000 m /a glyphshow
182.358398 0.000000 m /r glyphshow
186.469727 0.000000 m /d glyphshow
192.817383 0.000000 m /r glyphshow
196.928711 0.000000 m /o glyphshow
203.046875 0.000000 m /b glyphshow
209.394531 0.000000 m /e glyphshow
grestore
gsave
339.029881 374.091404 translate
0.000000 rotate
0.000000 0.000000 m /space glyphshow
3.178711 0.000000 m /N glyphshow
10.659180 0.000000 m /a glyphshow
16.787109 0.000000 m /r glyphshow
20.898438 0.000000 m /n glyphshow
27.236328 0.000000 m /i glyphshow
30.014648 0.000000 m /a glyphshow
36.142578 0.000000 m /three glyphshow
42.504883 0.000000 m /T glyphshow
48.613281 0.000000 m /h glyphshow
54.951172 0.000000 m /e glyphshow
61.103516 0.000000 m /V glyphshow
67.944336 0.000000 m /o glyphshow
74.062500 0.000000 m /y glyphshow
79.980469 0.000000 m /a glyphshow
86.108398 0.000000 m /g glyphshow
92.456055 0.000000 m /e glyphshow
98.608398 0.000000 m /o glyphshow
104.726562 0.000000 m /f glyphshow
108.247070 0.000000 m /t glyphshow
112.167969 0.000000 m /h glyphshow
118.505859 0.000000 m /e glyphshow
124.658203 0.000000 m /D glyphshow
132.358398 0.000000 m /a glyphshow
138.486328 0.000000 m /w glyphshow
146.665039 0.000000 m /n glyphshow
153.002930 0.000000 m /T glyphshow
159.095703 0.000000 m /r glyphshow
163.207031 0.000000 m /e glyphshow
169.359375 0.000000 m /a glyphshow
175.487305 0.000000 m /d glyphshow
181.834961 0.000000 m /e glyphshow
187.987305 0.000000 m /r glyphshow
grestore
gsave
395.275271 364.643179 translate
0.000000 rotate
0.000000 0.000000 m /space glyphshow
3.178711 0.000000 m /N glyphshow
10.659180 0.000000 m /a glyphshow
16.787109 0.000000 m /r glyphshow
20.898438 0.000000 m /n glyphshow
27.236328 0.000000 m /i glyphshow
30.014648 0.000000 m /a glyphshow
36.142578 0.000000 m /five glyphshow
42.504883 0.000000 m /T glyphshow
48.613281 0.000000 m /h glyphshow
54.951172 0.000000 m /e glyphshow
61.103516 0.000000 m /H glyphshow
68.623047 0.000000 m /o glyphshow
74.741211 0.000000 m /r glyphshow
78.852539 0.000000 m /s glyphshow
84.062500 0.000000 m /e glyphshow
90.214844 0.000000 m /a glyphshow
96.342773 0.000000 m /n glyphshow
102.680664 0.000000 m /d glyphshow
109.028320 0.000000 m /H glyphshow
116.547852 0.000000 m /i glyphshow
119.326172 0.000000 m /s glyphshow
124.536133 0.000000 m /B glyphshow
131.396484 0.000000 m /o glyphshow
137.514648 0.000000 m /y glyphshow
grestore
gsave
270.253936 355.194954 translate
0.000000 rotate
0.000000 0.000000 m /space glyphshow
3.178711 0.000000 m /T glyphshow
9.287109 0.000000 m /h glyphshow
15.625000 0.000000 m /e glyphshow
21.777344 0.000000 m /S glyphshow
28.125000 0.000000 m /i glyphshow
30.903320 0.000000 m /l glyphshow
33.681641 0.000000 m /m glyphshow
43.422852 0.000000 m /a glyphshow
49.550781 0.000000 m /r glyphshow
53.662109 0.000000 m /i glyphshow
56.440430 0.000000 m /l glyphshow
59.218750 0.000000 m /l glyphshow
61.997070 0.000000 m /i glyphshow
64.775391 0.000000 m /o glyphshow
70.893555 0.000000 m /n glyphshow
grestore
gsave
270.253936 345.746728 translate
0.000000 rotate
0.000000 0.000000 m /space glyphshow
3.178711 0.000000 m /T glyphshow
9.287109 0.000000 m /h glyphshow
15.625000 0.000000 m /e glyphshow
21.777344 0.000000 m /S glyphshow
28.125000 0.000000 m /i glyphshow
30.903320 0.000000 m /l glyphshow
33.681641 0.000000 m /m glyphshow
43.422852 0.000000 m /a glyphshow
49.550781 0.000000 m /r glyphshow
53.662109 0.000000 m /i glyphshow
56.440430 0.000000 m /l glyphshow
59.218750 0.000000 m /l glyphshow
61.997070 0.000000 m /i glyphshow
64.775391 0.000000 m /o glyphshow
70.893555 0.000000 m /n glyphshow
77.231445 0.000000 m /I glyphshow
80.180664 0.000000 m /l glyphshow
82.958984 0.000000 m /l glyphshow
85.737305 0.000000 m /u glyphshow
92.075195 0.000000 m /s glyphshow
97.285156 0.000000 m /t glyphshow
101.206055 0.000000 m /r glyphshow
105.317383 0.000000 m /a glyphshow
111.445312 0.000000 m /t glyphshow
115.366211 0.000000 m /e glyphshow
121.518555 0.000000 m /d glyphshow
grestore
gsave
294.293143 336.298503 translate
0.000000 rotate
0.000000 0.000000 m /space glyphshow
3.178711 0.000000 m /T glyphshow
9.287109 0.000000 m /h glyphshow
15.625000 0.000000 m /e glyphshow
21.777344 0.000000 m /B glyphshow
28.637695 0.000000 m /o glyphshow
34.755859 0.000000 m /o glyphshow
40.874023 0.000000 m /k glyphshow
46.665039 0.000000 m /o glyphshow
52.783203 0.000000 m /f glyphshow
56.303711 0.000000 m /L glyphshow
61.875000 0.000000 m /o glyphshow
67.993164 0.000000 m /s glyphshow
73.203125 0.000000 m /t glyphshow
77.124023 0.000000 m /T glyphshow
83.216797 0.000000 m /a glyphshow
89.344727 0.000000 m /l glyphshow
92.123047 0.000000 m /e glyphshow
98.275391 0.000000 m /s glyphshow
103.485352 0.000000 m /P glyphshow
109.515625 0.000000 m /a glyphshow
115.643555 0.000000 m /r glyphshow
119.754883 0.000000 m /t glyphshow
123.675781 0.000000 m /two glyphshow
grestore
gsave
201.520891 326.850278 translate
0.000000 rotate
0.000000 0.000000 m /space glyphshow
3.178711 0.000000 m /T glyphshow
9.287109 0.000000 m /h glyphshow
15.625000 0.000000 m /e glyphshow
21.777344 0.000000 m /B glyphshow
28.637695 0.000000 m /o glyphshow
34.755859 0.000000 m /o glyphshow
40.874023 0.000000 m /k glyphshow
46.665039 0.000000 m /o glyphshow
52.783203 0.000000 m /f glyphshow
56.303711 0.000000 m /L glyphshow
61.875000 0.000000 m /o glyphshow
67.993164 0.000000 m /s glyphshow
73.203125 0.000000 m /t glyphshow
77.124023 0.000000 m /T glyphshow
83.216797 0.000000 m /a glyphshow
89.344727 0.000000 m /l glyphshow
92.123047 0.000000 m /e glyphshow
98.275391 0.000000 m /s glyphshow
103.485352 0.000000 m /P glyphshow
109.515625 0.000000 m /a glyphshow
115.643555 0.000000 m /r glyphshow
119.754883 0.000000 m /t glyphshow
123.675781 0.000000 m /one glyphshow
grestore
gsave
179.747756 317.198927 translate
0.000000 rotate
0.000000 0.000000 m /space glyphshow
3.178711 0.000000 m /T glyphshow
9.287109 0.000000 m /h glyphshow
15.625000 0.000000 m /e glyphshow
21.777344 0.000000 m /L glyphshow
27.348633 0.000000 m /e glyphshow
33.500977 0.000000 m /g glyphshow
39.848633 0.000000 m /e glyphshow
46.000977 0.000000 m /n glyphshow
52.338867 0.000000 m /d glyphshow
58.686523 0.000000 m /o glyphshow
64.804688 0.000000 m /f glyphshow
68.325195 0.000000 m /S glyphshow
74.672852 0.000000 m /i glyphshow
77.451172 0.000000 m /g glyphshow
83.798828 0.000000 m /u glyphshow
90.136719 0.000000 m /r glyphshow
94.248047 0.000000 m /d glyphshow
100.595703 0.000000 m /a glyphshow
106.723633 0.000000 m /n glyphshow
113.061523 0.000000 m /d glyphshow
119.409180 0.000000 m /G glyphshow
127.158203 0.000000 m /u glyphshow
133.496094 0.000000 m /d glyphshow
139.843750 0.000000 m /r glyphshow
143.955078 0.000000 m /uacute glyphshow
150.292969 0.000000 m /n glyphshow
grestore
gsave
228.812870 307.953827 translate
0.000000 rotate
0.000000 0.000000 m /space glyphshow
3.178711 0.000000 m /B glyphshow
10.039062 0.000000 m /r glyphshow
14.150391 0.000000 m /i glyphshow
16.928711 0.000000 m /s glyphshow
22.138672 0.000000 m /i glyphshow
24.916992 0.000000 m /n glyphshow
31.254883 0.000000 m /g glyphshow
37.602539 0.000000 m /r glyphshow
grestore
gsave
225.109517 298.505602 translate
0.000000 rotate
0.000000 0.000000 m /space glyphshow
3.178711 0.000000 m /E glyphshow
9.497070 0.000000 m /l glyphshow
12.275391 0.000000 m /d glyphshow
18.623047 0.000000 m /e glyphshow
24.775391 0.000000 m /s glyphshow
29.985352 0.000000 m /t glyphshow
grestore
gsave
222.166191 289.057376 translate
0.000000 rotate
0.000000 0.000000 m /space glyphshow
3.178711 0.000000 m /I glyphshow
6.127930 0.000000 m /n glyphshow
12.465820 0.000000 m /h glyphshow
18.803711 0.000000 m /e glyphshow
24.956055 0.000000 m /r glyphshow
29.067383 0.000000 m /i glyphshow
31.845703 0.000000 m /t glyphshow
35.766602 0.000000 m /a glyphshow
41.894531 0.000000 m /n glyphshow
48.232422 0.000000 m /c glyphshow
53.730469 0.000000 m /e glyphshow
grestore
gsave
275.368736 279.609151 translate
0.000000 rotate
0.000000 0.000000 m /space glyphshow
3.178711 0.000000 m /H glyphshow
10.698242 0.000000 m /a glyphshow
16.826172 0.000000 m /r glyphshow
20.937500 0.000000 m /r glyphshow
25.048828 0.000000 m /y glyphshow
30.966797 0.000000 m /P glyphshow
36.997070 0.000000 m /o glyphshow
43.115234 0.000000 m /t glyphshow
47.036133 0.000000 m /t glyphshow
50.957031 0.000000 m /e glyphshow
57.109375 0.000000 m /r glyphshow
61.220703 0.000000 m /a glyphshow
67.348633 0.000000 m /n glyphshow
73.686523 0.000000 m /d glyphshow
80.034180 0.000000 m /t glyphshow
83.955078 0.000000 m /h glyphshow
90.292969 0.000000 m /e glyphshow
96.445312 0.000000 m /O glyphshow
104.316406 0.000000 m /r glyphshow
108.427734 0.000000 m /d glyphshow
114.775391 0.000000 m /e glyphshow
120.927734 0.000000 m /r glyphshow
125.039062 0.000000 m /o glyphshow
131.157227 0.000000 m /f glyphshow
134.677734 0.000000 m /t glyphshow
138.598633 0.000000 m /h glyphshow
144.936523 0.000000 m /e glyphshow
151.088867 0.000000 m /P glyphshow
157.119141 0.000000 m /h glyphshow
163.457031 0.000000 m /o glyphshow
169.575195 0.000000 m /e glyphshow
175.727539 0.000000 m /n glyphshow
182.065430 0.000000 m /i glyphshow
184.843750 0.000000 m /x glyphshow
grestore
gsave
283.710688 270.160926 translate
0.000000 rotate
0.000000 0.000000 m /space glyphshow
3.178711 0.000000 m /H glyphshow
10.698242 0.000000 m /a glyphshow
16.826172 0.000000 m /r glyphshow
20.937500 0.000000 m /r glyphshow
25.048828 0.000000 m /y glyphshow
30.966797 0.000000 m /P glyphshow
36.997070 0.000000 m /o glyphshow
43.115234 0.000000 m /t glyphshow
47.036133 0.000000 m /t glyphshow
50.957031 0.000000 m /e glyphshow
57.109375 0.000000 m /r glyphshow
61.220703 0.000000 m /a glyphshow
67.348633 0.000000 m /n glyphshow
73.686523 0.000000 m /d glyphshow
80.034180 0.000000 m /t glyphshow
83.955078 0.000000 m /h glyphshow
90.292969 0.000000 m /e glyphshow
96.445312 0.000000 m /H glyphshow
103.964844 0.000000 m /a glyphshow
110.092773 0.000000 m /l glyphshow
112.871094 0.000000 m /f glyphshow
116.391602 0.000000 m /B glyphshow
123.251953 0.000000 m /l glyphshow
126.030273 0.000000 m /o glyphshow
132.148438 0.000000 m /o glyphshow
138.266602 0.000000 m /d glyphshow
144.614258 0.000000 m /P glyphshow
150.644531 0.000000 m /r glyphshow
154.755859 0.000000 m /i glyphshow
157.534180 0.000000 m /n glyphshow
163.872070 0.000000 m /c glyphshow
169.370117 0.000000 m /e glyphshow
grestore
gsave
263.604885 260.712700 translate
0.000000 rotate
0.000000 0.000000 m /space glyphshow
3.178711 0.000000 m /H glyphshow
10.698242 0.000000 m /a glyphshow
16.826172 0.000000 m /r glyphshow
20.937500 0.000000 m /r glyphshow
25.048828 0.000000 m /y glyphshow
30.966797 0.000000 m /P glyphshow
36.997070 0.000000 m /o glyphshow
43.115234 0.000000 m /t glyphshow
47.036133 0.000000 m /t glyphshow
50.957031 0.000000 m /e glyphshow
57.109375 0.000000 m /r glyphshow
61.220703 0.000000 m /a glyphshow
67.348633 0.000000 m /n glyphshow
73.686523 0.000000 m /d glyphshow
80.034180 0.000000 m /t glyphshow
83.955078 0.000000 m /h glyphshow
90.292969 0.000000 m /e glyphshow
96.445312 0.000000 m /G glyphshow
104.194336 0.000000 m /o glyphshow
110.312500 0.000000 m /b glyphshow
116.660156 0.000000 m /l glyphshow
119.438477 0.000000 m /e glyphshow
125.590820 0.000000 m /t glyphshow
129.511719 0.000000 m /o glyphshow
135.629883 0.000000 m /f glyphshow
139.150391 0.000000 m /F glyphshow
144.902344 0.000000 m /i glyphshow
147.680664 0.000000 m /r glyphshow
151.791992 0.000000 m /e glyphshow
grestore
gsave
260.547247 251.264475 translate
0.000000 rotate
0.000000 0.000000 m /space glyphshow
3.178711 0.000000 m /H glyphshow
10.698242 0.000000 m /a glyphshow
16.826172 0.000000 m /r glyphshow
20.937500 0.000000 m /r glyphshow
25.048828 0.000000 m /y glyphshow
30.966797 0.000000 m /P glyphshow
36.997070 0.000000 m /o glyphshow
43.115234 0.000000 m /t glyphshow
47.036133 0.000000 m /t glyphshow
50.957031 0.000000 m /e glyphshow
57.109375 0.000000 m /r glyphshow
61.220703 0.000000 m /a glyphshow
67.348633 0.000000 m /n glyphshow
73.686523 0.000000 m /d glyphshow
80.034180 0.000000 m /t glyphshow
83.955078 0.000000 m /h glyphshow
90.292969 0.000000 m /e glyphshow
96.445312 0.000000 m /P glyphshow
102.475586 0.000000 m /r glyphshow
106.586914 0.000000 m /i glyphshow
109.365234 0.000000 m /s glyphshow
114.575195 0.000000 m /o glyphshow
120.693359 0.000000 m /n glyphshow
127.031250 0.000000 m /e glyphshow
133.183594 0.000000 m /r glyphshow
137.294922 0.000000 m /o glyphshow
143.413086 0.000000 m /f glyphshow
146.933594 0.000000 m /A glyphshow
153.774414 0.000000 m /z glyphshow
159.023438 0.000000 m /k glyphshow
164.814453 0.000000 m /a glyphshow
170.942383 0.000000 m /b glyphshow
177.290039 0.000000 m /a glyphshow
183.417969 0.000000 m /n glyphshow
grestore
gsave
259.935573 241.816249 translate
0.000000 rotate
0.000000 0.000000 m /space glyphshow
3.178711 0.000000 m /H glyphshow
10.698242 0.000000 m /a glyphshow
16.826172 0.000000 m /r glyphshow
20.937500 0.000000 m /r glyphshow
25.048828 0.000000 m /y glyphshow
30.966797 0.000000 m /P glyphshow
36.997070 0.000000 m /o glyphshow
43.115234 0.000000 m /t glyphshow
47.036133 0.000000 m /t glyphshow
50.957031 0.000000 m /e glyphshow
57.109375 0.000000 m /r glyphshow
61.220703 0.000000 m /a glyphshow
67.348633 0.000000 m /n glyphshow
73.686523 0.000000 m /d glyphshow
80.034180 0.000000 m /t glyphshow
83.955078 0.000000 m /h glyphshow
90.292969 0.000000 m /e glyphshow
96.445312 0.000000 m /C glyphshow
103.427734 0.000000 m /h glyphshow
109.765625 0.000000 m /a glyphshow
115.893555 0.000000 m /m glyphshow
125.634766 0.000000 m /b glyphshow
131.982422 0.000000 m /e glyphshow
138.134766 0.000000 m /r glyphshow
142.246094 0.000000 m /o glyphshow
148.364258 0.000000 m /f glyphshow
151.884766 0.000000 m /S glyphshow
158.232422 0.000000 m /e glyphshow
164.384766 0.000000 m /c glyphshow
169.882812 0.000000 m /r glyphshow
173.994141 0.000000 m /e glyphshow
180.146484 0.000000 m /t glyphshow
184.067383 0.000000 m /s glyphshow
grestore
gsave
286.875748 232.368024 translate
0.000000 rotate
0.000000 0.000000 m /space glyphshow
3.178711 0.000000 m /H glyphshow
10.698242 0.000000 m /a glyphshow
16.826172 0.000000 m /r glyphshow
20.937500 0.000000 m /r glyphshow
25.048828 0.000000 m /y glyphshow
30.966797 0.000000 m /P glyphshow
36.997070 0.000000 m /o glyphshow
43.115234 0.000000 m /t glyphshow
47.036133 0.000000 m /t glyphshow
50.957031 0.000000 m /e glyphshow
57.109375 0.000000 m /r glyphshow
61.220703 0.000000 m /a glyphshow
67.348633 0.000000 m /n glyphshow
73.686523 0.000000 m /d glyphshow
80.034180 0.000000 m /t glyphshow
83.955078 0.000000 m /h glyphshow
90.292969 0.000000 m /e glyphshow
96.445312 0.000000 m /S glyphshow
102.792969 0.000000 m /o glyphshow
108.911133 0.000000 m /r glyphshow
113.022461 0.000000 m /c glyphshow
118.520508 0.000000 m /e glyphshow
124.672852 0.000000 m /r glyphshow
128.784180 0.000000 m /e glyphshow
134.936523 0.000000 m /r glyphshow
139.047852 0.000000 m /s glyphshow
144.257812 0.000000 m /S glyphshow
150.605469 0.000000 m /t glyphshow
154.526367 0.000000 m /o glyphshow
160.644531 0.000000 m /n glyphshow
166.982422 0.000000 m /e glyphshow
grestore
gsave
290.463415 222.919799 translate
0.000000 rotate
0.000000 0.000000 m /space glyphshow
3.178711 0.000000 m /H glyphshow
10.698242 0.000000 m /a glyphshow
16.826172 0.000000 m /r glyphshow
20.937500 0.000000 m /r glyphshow
25.048828 0.000000 m /y glyphshow
30.966797 0.000000 m /P glyphshow
36.997070 0.000000 m /o glyphshow
43.115234 0.000000 m /t glyphshow
47.036133 0.000000 m /t glyphshow
50.957031 0.000000 m /e glyphshow
57.109375 0.000000 m /r glyphshow
61.220703 0.000000 m /a glyphshow
67.348633 0.000000 m /n glyphshow
73.686523 0.000000 m /d glyphshow
80.034180 0.000000 m /t glyphshow
83.955078 0.000000 m /h glyphshow
90.292969 0.000000 m /e glyphshow
96.445312 0.000000 m /P glyphshow
102.475586 0.000000 m /h glyphshow
108.813477 0.000000 m /i glyphshow
111.591797 0.000000 m /l glyphshow
114.370117 0.000000 m /o glyphshow
120.488281 0.000000 m /s glyphshow
125.698242 0.000000 m /o glyphshow
131.816406 0.000000 m /p glyphshow
138.164062 0.000000 m /h glyphshow
144.501953 0.000000 m /e glyphshow
150.654297 0.000000 m /r glyphshow
154.765625 0.000000 m /s glyphshow
159.975586 0.000000 m /S glyphshow
166.323242 0.000000 m /t glyphshow
170.244141 0.000000 m /o glyphshow
176.362305 0.000000 m /n glyphshow
182.700195 0.000000 m /e glyphshow
grestore
gsave
242.985365 213.471573 translate
0.000000 rotate
0.000000 0.000000 m /space glyphshow
3.178711 0.000000 m /H glyphshow
10.698242 0.000000 m /a glyphshow
16.826172 0.000000 m /r glyphshow
20.937500 0.000000 m /r glyphshow
25.048828 0.000000 m /y glyphshow
30.966797 0.000000 m /P glyphshow
36.997070 0.000000 m /o glyphshow
43.115234 0.000000 m /t glyphshow
47.036133 0.000000 m /t glyphshow
50.957031 0.000000 m /e glyphshow
57.109375 0.000000 m /r glyphshow
61.220703 0.000000 m /a glyphshow
67.348633 0.000000 m /n glyphshow
73.686523 0.000000 m /d glyphshow
80.034180 0.000000 m /t glyphshow
83.955078 0.000000 m /h glyphshow
90.292969 0.000000 m /e glyphshow
96.445312 0.000000 m /D glyphshow
104.145508 0.000000 m /e glyphshow
110.297852 0.000000 m /a glyphshow
116.425781 0.000000 m /t glyphshow
120.346680 0.000000 m /h glyphshow
126.684570 0.000000 m /l glyphshow
129.462891 0.000000 m /y glyphshow
135.380859 0.000000 m /H glyphshow
142.900391 0.000000 m /a glyphshow
149.028320 0.000000 m /l glyphshow
151.806641 0.000000 m /l glyphshow
154.584961 0.000000 m /o glyphshow
160.703125 0.000000 m /w glyphshow
168.881836 0.000000 m /s glyphshow
grestore
gsave
233.550512 204.023348 translate
0.000000 rotate
0.000000 0.000000 m /space glyphshow
3.178711 0.000000 m /E glyphshow
9.497070 0.000000 m /r glyphshow
13.608398 0.000000 m /a glyphshow
19.736328 0.000000 m /g glyphshow
26.083984 0.000000 m /o glyphshow
32.202148 0.000000 m /n glyphshow
grestore
gsave
237.016833 194.575123 translate
0.000000 rotate
0.000000 0.000000 m /space glyphshow
3.178711 0.000000 m /A glyphshow
10.019531 0.000000 m /F glyphshow
15.771484 0.000000 m /e glyphshow
21.923828 0.000000 m /a glyphshow
28.051758 0.000000 m /s glyphshow
33.261719 0.000000 m /t glyphshow
37.182617 0.000000 m /F glyphshow
42.934570 0.000000 m /o glyphshow
49.052734 0.000000 m /r glyphshow
53.164062 0.000000 m /C glyphshow
60.146484 0.000000 m /r glyphshow
64.257812 0.000000 m /o glyphshow
70.375977 0.000000 m /w glyphshow
78.554688 0.000000 m /s glyphshow
grestore
gsave
230.047153 185.126897 translate
0.000000 rotate
0.000000 0.000000 m /space glyphshow
3.178711 0.000000 m /A glyphshow
10.019531 0.000000 m /D glyphshow
17.719727 0.000000 m /a glyphshow
23.847656 0.000000 m /n glyphshow
30.185547 0.000000 m /c glyphshow
35.683594 0.000000 m /e glyphshow
41.835938 0.000000 m /w glyphshow
50.014648 0.000000 m /i glyphshow
52.792969 0.000000 m /t glyphshow
56.713867 0.000000 m /h glyphshow
63.051758 0.000000 m /D glyphshow
70.751953 0.000000 m /r glyphshow
74.863281 0.000000 m /a glyphshow
80.991211 0.000000 m /g glyphshow
87.338867 0.000000 m /o glyphshow
93.457031 0.000000 m /n glyphshow
99.794922 0.000000 m /s glyphshow
105.004883 0.000000 m /A glyphshow
111.845703 0.000000 m /S glyphshow
118.193359 0.000000 m /o glyphshow
124.311523 0.000000 m /n glyphshow
130.649414 0.000000 m /g glyphshow
136.997070 0.000000 m /o glyphshow
143.115234 0.000000 m /f glyphshow
146.635742 0.000000 m /I glyphshow
149.584961 0.000000 m /c glyphshow
155.083008 0.000000 m /e glyphshow
161.235352 0.000000 m /a glyphshow
167.363281 0.000000 m /n glyphshow
173.701172 0.000000 m /d glyphshow
180.048828 0.000000 m /F glyphshow
185.800781 0.000000 m /i glyphshow
188.579102 0.000000 m /r glyphshow
192.690430 0.000000 m /e glyphshow
198.842773 0.000000 m /B glyphshow
205.703125 0.000000 m /o glyphshow
211.821289 0.000000 m /o glyphshow
217.939453 0.000000 m /period glyphshow
221.118164 0.000000 m /period glyphshow
224.296875 0.000000 m /period glyphshow
grestore
gsave
225.614940 175.678672 translate
0.000000 rotate
0.000000 0.000000 m /space glyphshow
3.178711 0.000000 m /A glyphshow
10.019531 0.000000 m /S glyphshow
16.367188 0.000000 m /t glyphshow
20.288086 0.000000 m /o glyphshow
26.406250 0.000000 m /r glyphshow
30.517578 0.000000 m /m glyphshow
40.258789 0.000000 m /o glyphshow
46.376953 0.000000 m /f glyphshow
49.897461 0.000000 m /S glyphshow
56.245117 0.000000 m /w glyphshow
64.423828 0.000000 m /o glyphshow
70.541992 0.000000 m /r glyphshow
74.653320 0.000000 m /d glyphshow
81.000977 0.000000 m /s glyphshow
grestore
gsave
218.005996 166.230447 translate
0.000000 rotate
0.000000 0.000000 m /space glyphshow
3.178711 0.000000 m /A glyphshow
10.019531 0.000000 m /C glyphshow
17.001953 0.000000 m /l glyphshow
19.780273 0.000000 m /a glyphshow
25.908203 0.000000 m /s glyphshow
31.118164 0.000000 m /h glyphshow
37.456055 0.000000 m /o glyphshow
43.574219 0.000000 m /f glyphshow
47.094727 0.000000 m /K glyphshow
53.652344 0.000000 m /i glyphshow
56.430664 0.000000 m /n glyphshow
62.768555 0.000000 m /g glyphshow
69.116211 0.000000 m /s glyphshow
grestore
gsave
231.464240 156.782221 translate
0.000000 rotate
0.000000 0.000000 m /space glyphshow
3.178711 0.000000 m /A glyphshow
10.019531 0.000000 m /G glyphshow
17.768555 0.000000 m /a glyphshow
23.896484 0.000000 m /m glyphshow
33.637695 0.000000 m /e glyphshow
39.790039 0.000000 m /O glyphshow
47.661133 0.000000 m /f glyphshow
51.181641 0.000000 m /T glyphshow
57.290039 0.000000 m /h glyphshow
63.627930 0.000000 m /r glyphshow
67.739258 0.000000 m /o glyphshow
73.857422 0.000000 m /n glyphshow
80.195312 0.000000 m /e glyphshow
86.347656 0.000000 m /s glyphshow
grestore
gsave
183.194993 147.333996 translate
0.000000 rotate
0.000000 0.000000 m /space glyphshow
3.178711 0.000000 m /T glyphshow
9.287109 0.000000 m /h glyphshow
15.625000 0.000000 m /e glyphshow
21.777344 0.000000 m /L glyphshow
27.348633 0.000000 m /o glyphshow
33.466797 0.000000 m /r glyphshow
37.578125 0.000000 m /d glyphshow
43.925781 0.000000 m /o glyphshow
50.043945 0.000000 m /f glyphshow
53.564453 0.000000 m /t glyphshow
57.485352 0.000000 m /h glyphshow
63.823242 0.000000 m /e glyphshow
69.975586 0.000000 m /R glyphshow
76.923828 0.000000 m /i glyphshow
79.702148 0.000000 m /n glyphshow
86.040039 0.000000 m /g glyphshow
92.387695 0.000000 m /s glyphshow
grestore
gsave
182.498825 137.885771 translate
0.000000 rotate
0.000000 0.000000 m /space glyphshow
3.178711 0.000000 m /T glyphshow
9.287109 0.000000 m /h glyphshow
15.625000 0.000000 m /e glyphshow
21.777344 0.000000 m /L glyphshow
27.348633 0.000000 m /o glyphshow
33.466797 0.000000 m /r glyphshow
37.578125 0.000000 m /d glyphshow
43.925781 0.000000 m /o glyphshow
50.043945 0.000000 m /f glyphshow
53.564453 0.000000 m /t glyphshow
57.485352 0.000000 m /h glyphshow
63.823242 0.000000 m /e glyphshow
69.975586 0.000000 m /R glyphshow
76.923828 0.000000 m /i glyphshow
79.702148 0.000000 m /n glyphshow
86.040039 0.000000 m /g glyphshow
92.387695 0.000000 m /s glyphshow
97.597656 0.000000 m /I glyphshow
100.546875 0.000000 m /l glyphshow
103.325195 0.000000 m /l glyphshow
106.103516 0.000000 m /u glyphshow
112.441406 0.000000 m /s glyphshow
117.651367 0.000000 m /t glyphshow
121.572266 0.000000 m /r glyphshow
125.683594 0.000000 m /a glyphshow
131.811523 0.000000 m /t glyphshow
135.732422 0.000000 m /e glyphshow
141.884766 0.000000 m /d glyphshow
grestore
gsave
185.343703 128.437545 translate
0.000000 rotate
0.000000 0.000000 m /space glyphshow
3.178711 0.000000 m /T glyphshow
9.287109 0.000000 m /h glyphshow
15.625000 0.000000 m /e glyphshow
21.777344 0.000000 m /F glyphshow
27.529297 0.000000 m /e glyphshow
33.681641 0.000000 m /l glyphshow
36.459961 0.000000 m /l glyphshow
39.238281 0.000000 m /o glyphshow
45.356445 0.000000 m /w glyphshow
53.535156 0.000000 m /s glyphshow
58.745117 0.000000 m /h glyphshow
65.083008 0.000000 m /i glyphshow
67.861328 0.000000 m /p glyphshow
74.208984 0.000000 m /o glyphshow
80.327148 0.000000 m /f glyphshow
83.847656 0.000000 m /t glyphshow
87.768555 0.000000 m /h glyphshow
94.106445 0.000000 m /e glyphshow
100.258789 0.000000 m /R glyphshow
107.207031 0.000000 m /i glyphshow
109.985352 0.000000 m /n glyphshow
116.323242 0.000000 m /g glyphshow
grestore
gsave
191.576424 118.989320 translate
0.000000 rotate
0.000000 0.000000 m /space glyphshow
3.178711 0.000000 m /T glyphshow
9.287109 0.000000 m /h glyphshow
15.625000 0.000000 m /e glyphshow
21.777344 0.000000 m /T glyphshow
27.870117 0.000000 m /w glyphshow
36.048828 0.000000 m /o glyphshow
42.166992 0.000000 m /T glyphshow
48.259766 0.000000 m /o glyphshow
54.377930 0.000000 m /w glyphshow
62.556641 0.000000 m /e glyphshow
68.708984 0.000000 m /r glyphshow
72.820312 0.000000 m /s glyphshow
grestore
gsave
189.629722 109.541095 translate
0.000000 rotate
0.000000 0.000000 m /space glyphshow
3.178711 0.000000 m /T glyphshow
9.287109 0.000000 m /h glyphshow
15.625000 0.000000 m /e glyphshow
21.777344 0.000000 m /H glyphshow
29.296875 0.000000 m /o glyphshow
35.415039 0.000000 m /b glyphshow
41.762695 0.000000 m /b glyphshow
48.110352 0.000000 m /i glyphshow
50.888672 0.000000 m /t glyphshow
54.809570 0.000000 m /E glyphshow
61.127930 0.000000 m /n glyphshow
67.465820 0.000000 m /h glyphshow
73.803711 0.000000 m /a glyphshow
79.931641 0.000000 m /n glyphshow
86.269531 0.000000 m /c glyphshow
91.767578 0.000000 m /e glyphshow
97.919922 0.000000 m /d glyphshow
104.267578 0.000000 m /E glyphshow
110.585938 0.000000 m /d glyphshow
116.933594 0.000000 m /i glyphshow
119.711914 0.000000 m /t glyphshow
123.632812 0.000000 m /i glyphshow
126.411133 0.000000 m /o glyphshow
132.529297 0.000000 m /n glyphshow
grestore
gsave
195.283702 100.092869 translate
0.000000 rotate
0.000000 0.000000 m /space glyphshow
3.178711 0.000000 m /T glyphshow
9.287109 0.000000 m /h glyphshow
15.625000 0.000000 m /e glyphshow
21.777344 0.000000 m /H glyphshow
29.296875 0.000000 m /o glyphshow
35.415039 0.000000 m /b glyphshow
41.762695 0.000000 m /b glyphshow
48.110352 0.000000 m /i glyphshow
50.888672 0.000000 m /t glyphshow
grestore
gsave
192.899614 90.644644 translate
0.000000 rotate
0.000000 0.000000 m /space glyphshow
3.178711 0.000000 m /T glyphshow
9.271484 0.000000 m /a glyphshow
15.399414 0.000000 m /l glyphshow
18.177734 0.000000 m /e glyphshow
24.330078 0.000000 m /s glyphshow
29.540039 0.000000 m /F glyphshow
35.291992 0.000000 m /r glyphshow
39.403320 0.000000 m /o glyphshow
45.521484 0.000000 m /m glyphshow
55.262695 0.000000 m /t glyphshow
59.183594 0.000000 m /h glyphshow
65.521484 0.000000 m /e glyphshow
71.673828 0.000000 m /P glyphshow
77.704102 0.000000 m /e glyphshow
83.856445 0.000000 m /r glyphshow
87.967773 0.000000 m /i glyphshow
90.746094 0.000000 m /l glyphshow
93.524414 0.000000 m /o glyphshow
99.642578 0.000000 m /u glyphshow
105.980469 0.000000 m /s glyphshow
111.190430 0.000000 m /R glyphshow
118.138672 0.000000 m /e glyphshow
124.291016 0.000000 m /a glyphshow
130.418945 0.000000 m /l glyphshow
133.197266 0.000000 m /m glyphshow
grestore
gsave
203.670726 80.993293 translate
0.000000 rotate
0.000000 0.000000 m /space glyphshow
3.178711 0.000000 m /T glyphshow
9.287109 0.000000 m /h glyphshow
15.625000 0.000000 m /e glyphshow
21.777344 0.000000 m /C glyphshow
28.759766 0.000000 m /h glyphshow
35.097656 0.000000 m /i glyphshow
37.875977 0.000000 m /l glyphshow
40.654297 0.000000 m /d glyphshow
47.001953 0.000000 m /r glyphshow
51.113281 0.000000 m /e glyphshow
57.265625 0.000000 m /n glyphshow
63.603516 0.000000 m /o glyphshow
69.721680 0.000000 m /f glyphshow
73.242188 0.000000 m /H glyphshow
80.761719 0.000000 m /uacute glyphshow
87.099609 0.000000 m /r glyphshow
91.210938 0.000000 m /i glyphshow
93.989258 0.000000 m /n glyphshow
100.327148 0.000000 m /w glyphshow
108.505859 0.000000 m /i glyphshow
111.284180 0.000000 m /t glyphshow
115.205078 0.000000 m /h glyphshow
121.542969 0.000000 m /i glyphshow
124.321289 0.000000 m /l glyphshow
127.099609 0.000000 m /l glyphshow
129.877930 0.000000 m /u glyphshow
136.215820 0.000000 m /s glyphshow
141.425781 0.000000 m /t glyphshow
145.346680 0.000000 m /r glyphshow
149.458008 0.000000 m /a glyphshow
155.585938 0.000000 m /t glyphshow
159.506836 0.000000 m /i glyphshow
162.285156 0.000000 m /o glyphshow
168.403320 0.000000 m /n glyphshow
174.741211 0.000000 m /s glyphshow
179.951172 0.000000 m /b glyphshow
186.298828 0.000000 m /y glyphshow
192.201172 0.000000 m /period glyphshow
195.379883 0.000000 m /period glyphshow
198.558594 0.000000 m /period glyphshow
grestore
gsave
208.911105 71.748193 translate
0.000000 rotate
0.000000 0.000000 m /space glyphshow
3.178711 0.000000 m /T glyphshow
9.287109 0.000000 m /h glyphshow
15.625000 0.000000 m /e glyphshow
21.777344 0.000000 m /L glyphshow
27.348633 0.000000 m /e glyphshow
33.500977 0.000000 m /t glyphshow
37.421875 0.000000 m /t glyphshow
41.342773 0.000000 m /e glyphshow
47.495117 0.000000 m /r glyphshow
51.606445 0.000000 m /s glyphshow
56.816406 0.000000 m /o glyphshow
62.934570 0.000000 m /f glyphshow
66.455078 0.000000 m /J glyphshow
69.404297 0.000000 m /R glyphshow
76.352539 0.000000 m /R glyphshow
83.300781 0.000000 m /T glyphshow
89.393555 0.000000 m /o glyphshow
95.511719 0.000000 m /l glyphshow
98.290039 0.000000 m /k glyphshow
104.081055 0.000000 m /i glyphshow
106.859375 0.000000 m /e glyphshow
113.011719 0.000000 m /n glyphshow
grestore
gsave
138.110735 62.299968 translate
0.000000 rotate
0.000000 0.000000 m /space glyphshow
3.178711 0.000000 m /T glyphshow
9.287109 0.000000 m /h glyphshow
15.625000 0.000000 m /e glyphshow
21.777344 0.000000 m /R glyphshow
28.725586 0.000000 m /e glyphshow
34.877930 0.000000 m /t glyphshow
38.798828 0.000000 m /u glyphshow
45.136719 0.000000 m /r glyphshow
49.248047 0.000000 m /n glyphshow
55.585938 0.000000 m /o glyphshow
61.704102 0.000000 m /f glyphshow
65.224609 0.000000 m /t glyphshow
69.145508 0.000000 m /h glyphshow
75.483398 0.000000 m /e glyphshow
81.635742 0.000000 m /K glyphshow
88.193359 0.000000 m /i glyphshow
90.971680 0.000000 m /n glyphshow
97.309570 0.000000 m /g glyphshow
grestore
/DejaVuSans findfont
12.000 scalefont
setfont
gsave
321.096250 465.993600 translate
0.000000 rotate
0.000000 0.000000 m /n glyphshow
7.605469 0.000000 m /j glyphshow
grestore

end
showpage
