%!PS-Adobe-3.0 EPSF-3.0
%%DocumentNeededResources: font Helvetica
%%+ font Helvetica-Bold
%%+ font Helvetica-Oblique
%%+ font Helvetica-BoldOblique
%%+ font Symbol
%%Title: R Graphics Output
%%Creator: R Software
%%Pages: (atend)
%%BoundingBox: 0 0 521 372
%%EndComments
%%BeginProlog
/bp  { gs sRGB gs } def
% begin .ps.prolog
/gs  { gsave } bind def
/gr  { grestore } bind def
/ep  { showpage gr gr } bind def
/m   { moveto } bind def
/l  { rlineto } bind def
/np  { newpath } bind def
/cp  { closepath } bind def
/f   { fill } bind def
/o   { stroke } bind def
/c   { newpath 0 360 arc } bind def
/r   { 4 2 roll moveto 1 copy 3 -1 roll exch 0 exch rlineto 0 rlineto -1 mul 0 exch rlineto closepath } bind def
/p1  { stroke } bind def
/p2  { gsave bg fill grestore newpath } bind def
/p3  { gsave bg fill grestore stroke } bind def
/p6  { gsave bg eofill grestore newpath } bind def
/p7  { gsave bg eofill grestore stroke } bind def
/t   { 5 -2 roll moveto gsave rotate
       1 index stringwidth pop
       mul neg 0 rmoveto show grestore } bind def
/ta  { 4 -2 roll moveto gsave rotate show } bind def
/tb  { 2 -1 roll 0 rmoveto show } bind def
/cl  { grestore gsave newpath 3 index 3 index moveto 1 index
       4 -1 roll lineto  exch 1 index lineto lineto
       closepath clip newpath } bind def
/rgb { setrgbcolor } bind def
/s   { scalefont setfont } bind def
% end   .ps.prolog
/sRGB { [ /CIEBasedABC
          << /DecodeLMN
               [ { dup 0.03928 le
                        {12.92321 div}
                        {0.055 add 1.055 div 2.4 exp }
                     ifelse
                 } bind dup dup
               ]
             /MatrixLMN [0.412457 0.212673 0.019334
                         0.357576 0.715152 0.119192
                         0.180437 0.072175 0.950301]
             /WhitePoint [0.9505 1.0 1.0890]
           >>
         ] setcolorspace } bind def
/srgb { setcolor } bind def
%%IncludeResource: font Helvetica
/Helvetica findfont
dup length dict begin
  {1 index /FID ne {def} {pop pop} ifelse} forall
  /Encoding ISOLatin1Encoding def
  currentdict
  end
/Font1 exch definefont pop
%%IncludeResource: font Helvetica-Bold
/Helvetica-Bold findfont
dup length dict begin
  {1 index /FID ne {def} {pop pop} ifelse} forall
  /Encoding ISOLatin1Encoding def
  currentdict
  end
/Font2 exch definefont pop
%%IncludeResource: font Helvetica-Oblique
/Helvetica-Oblique findfont
dup length dict begin
  {1 index /FID ne {def} {pop pop} ifelse} forall
  /Encoding ISOLatin1Encoding def
  currentdict
  end
/Font3 exch definefont pop
%%IncludeResource: font Helvetica-BoldOblique
/Helvetica-BoldOblique findfont
dup length dict begin
  {1 index /FID ne {def} {pop pop} ifelse} forall
  /Encoding ISOLatin1Encoding def
  currentdict
  end
/Font4 exch definefont pop
%%IncludeResource: font Symbol
/Symbol findfont
dup length dict begin
  {1 index /FID ne {def} {pop pop} ifelse} forall
  currentdict
  end
/Font5 exch definefont pop
%%EndProlog
%%Page: 1 1
bp
0.00 0.00 520.50 372.00 cl
0.00 0.00 520.50 372.00 cl
0.00 0.00 520.50 372.00 cl
0.00 0.00 520.50 372.00 cl
0.00 0.00 520.50 372.00 cl
0.00 0.00 520.50 372.00 cl
0.00 0.00 520.50 372.00 cl
0.00 0.00 520.50 372.00 cl
0.00 0.00 520.50 372.00 cl
0.00 0.00 520.50 372.00 cl
0.00 0.00 520.50 372.00 cl
/bg { 1 1 1 srgb } def
1 1 1 srgb
1.07 setlinewidth
[] 0 setdash
1 setlinecap
1 setlinejoin
10.00 setmiterlimit
0.00 0.00 520.50 372.00 r p3
0.00 0.00 520.50 372.00 cl
41.09 32.56 515.02 349.18 cl
/bg { 0.9216 0.9216 0.9216 srgb } def
41.09 32.56 473.93 316.62 r p2
1 1 1 srgb
0.53 setlinewidth
[] 0 setdash
0 setlinecap
1 setlinejoin
10.00 setmiterlimit
np
41.09 44.86 m
473.93 0 l
o
np
41.09 104.63 m
473.93 0 l
o
np
41.09 164.40 m
473.93 0 l
o
np
41.09 224.17 m
473.93 0 l
o
np
41.09 283.94 m
473.93 0 l
o
np
41.09 343.71 m
473.93 0 l
o
np
112.68 32.56 m
0 316.62 l
o
np
221.48 32.56 m
0 316.62 l
o
np
330.28 32.56 m
0 316.62 l
o
np
439.08 32.56 m
0 316.62 l
o
1.07 setlinewidth
[] 0 setdash
np
41.09 74.74 m
473.93 0 l
o
np
41.09 134.51 m
473.93 0 l
o
np
41.09 194.29 m
473.93 0 l
o
np
41.09 254.06 m
473.93 0 l
o
np
41.09 313.83 m
473.93 0 l
o
np
58.28 32.56 m
0 316.62 l
o
np
167.08 32.56 m
0 316.62 l
o
np
275.88 32.56 m
0 316.62 l
o
np
384.68 32.56 m
0 316.62 l
o
np
493.48 32.56 m
0 316.62 l
o
0 0 0 srgb
np
62.63 334.79 m
4.35 -93.67 l
4.35 -41.50 l
4.36 -24.74 l
4.35 -16.88 l
4.35 -12.46 l
4.35 -9.69 l
4.35 -7.81 l
4.36 -6.46 l
4.35 -5.47 l
4.35 -4.71 l
4.35 -4.10 l
4.35 -3.63 l
4.36 -3.22 l
4.35 -2.90 l
4.35 -2.62 l
4.35 -2.39 l
4.35 -2.19 l
4.36 -2.01 l
4.35 -1.85 l
4.35 -1.73 l
4.35 -1.60 l
4.35 -1.50 l
4.36 -1.41 l
4.35 -1.31 l
4.35 -1.25 l
4.35 -1.17 l
4.35 -1.11 l
4.36 -1.05 l
4.35 -1.00 l
4.35 -0.95 l
4.35 -0.90 l
4.35 -0.87 l
4.36 -0.82 l
4.35 -0.79 l
4.35 -0.76 l
4.35 -0.72 l
4.35 -0.70 l
4.36 -0.67 l
4.35 -0.64 l
4.35 -0.62 l
4.35 -0.60 l
4.35 -0.58 l
4.36 -0.55 l
4.35 -0.54 l
4.35 -0.52 l
4.35 -0.51 l
4.35 -0.49 l
4.36 -0.47 l
4.35 -0.46 l
4.35 -0.44 l
4.35 -0.44 l
4.35 -0.42 l
4.36 -0.41 l
4.35 -0.39 l
4.35 -0.39 l
4.35 -0.38 l
4.35 -0.36 l
4.36 -0.36 l
4.35 -0.35 l
4.35 -0.34 l
4.35 -0.33 l
4.35 -0.33 l
4.36 -0.31 l
4.35 -0.31 l
4.35 -0.30 l
4.35 -0.30 l
4.35 -0.28 l
4.36 -0.29 l
4.35 -0.27 l
4.35 -0.27 l
4.35 -0.27 l
4.35 -0.26 l
4.36 -0.25 l
4.35 -0.25 l
4.35 -0.24 l
4.35 -0.24 l
4.35 -0.24 l
4.36 -0.23 l
4.35 -0.22 l
4.35 -0.22 l
4.35 -0.22 l
4.35 -0.21 l
4.36 -0.21 l
4.35 -0.21 l
4.35 -0.20 l
4.35 -0.20 l
4.35 -0.20 l
4.36 -0.19 l
4.35 -0.19 l
4.35 -0.18 l
4.35 -0.19 l
4.35 -0.17 l
4.36 -0.18 l
4.35 -0.18 l
4.35 -0.17 l
4.35 -0.17 l
4.35 -0.16 l
4.36 -0.17 l
4.35 -0.16 l
o
0.00 0.00 520.50 372.00 cl
0.00 0.00 520.50 372.00 cl
0.00 0.00 520.50 372.00 cl
0.00 0.00 520.50 372.00 cl
0.00 0.00 520.50 372.00 cl
0.00 0.00 520.50 372.00 cl
0.00 0.00 520.50 372.00 cl
0.00 0.00 520.50 372.00 cl
0.00 0.00 520.50 372.00 cl
0.00 0.00 520.50 372.00 cl
0.00 0.00 520.50 372.00 cl
0.00 0.00 520.50 372.00 cl
0.00 0.00 520.50 372.00 cl
0.00 0.00 520.50 372.00 cl
0.00 0.00 520.50 372.00 cl
0.00 0.00 520.50 372.00 cl
/Font1 findfont 9 s
0.3020 0.3020 0.3020 srgb
36.16 71.51 (0.01) 1 0 t
36.16 131.28 (0.02) 1 0 t
36.16 191.05 (0.03) 1 0 t
36.16 250.83 (0.04) 1 0 t
36.16 310.60 (0.05) 1 0 t
0.00 0.00 520.50 372.00 cl
0.00 0.00 520.50 372.00 cl
0.2000 0.2000 0.2000 srgb
1.07 setlinewidth
[] 0 setdash
0 setlinecap
1 setlinejoin
10.00 setmiterlimit
np
38.35 74.74 m
2.74 0 l
o
np
38.35 134.51 m
2.74 0 l
o
np
38.35 194.29 m
2.74 0 l
o
np
38.35 254.06 m
2.74 0 l
o
np
38.35 313.83 m
2.74 0 l
o
0.00 0.00 520.50 372.00 cl
0.00 0.00 520.50 372.00 cl
0.00 0.00 520.50 372.00 cl
0.00 0.00 520.50 372.00 cl
0.00 0.00 520.50 372.00 cl
0.00 0.00 520.50 372.00 cl
0.00 0.00 520.50 372.00 cl
0.00 0.00 520.50 372.00 cl
0.00 0.00 520.50 372.00 cl
0.00 0.00 520.50 372.00 cl
0.2000 0.2000 0.2000 srgb
1.07 setlinewidth
[] 0 setdash
0 setlinecap
1 setlinejoin
10.00 setmiterlimit
np
58.28 29.82 m
0 2.74 l
o
np
167.08 29.82 m
0 2.74 l
o
np
275.88 29.82 m
0 2.74 l
o
np
384.68 29.82 m
0 2.74 l
o
np
493.48 29.82 m
0 2.74 l
o
0.00 0.00 520.50 372.00 cl
0.00 0.00 520.50 372.00 cl
/Font1 findfont 9 s
0.3020 0.3020 0.3020 srgb
58.28 21.17 (0) .5 0 t
167.08 21.17 (25) .5 0 t
275.88 21.17 (50) .5 0 t
384.68 21.17 (75) .5 0 t
493.48 21.17 (100) .5 0 t
0.00 0.00 520.50 372.00 cl
0.00 0.00 520.50 372.00 cl
0.00 0.00 520.50 372.00 cl
0.00 0.00 520.50 372.00 cl
0.00 0.00 520.50 372.00 cl
0.00 0.00 520.50 372.00 cl
/Font1 findfont 11 s
0 0 0 srgb
234.35 8.00 (ID n) 0 ta
-0.110 (ummer w) tb
-0.110 (oord) tb gr
0.00 0.00 520.50 372.00 cl
0.00 0.00 520.50 372.00 cl
/Font1 findfont 11 s
0 0 0 srgb
13.38 177.73 (v) 90 ta
-0.275 (alue) tb gr
0.00 0.00 520.50 372.00 cl
0.00 0.00 520.50 372.00 cl
0.00 0.00 520.50 372.00 cl
0.00 0.00 520.50 372.00 cl
0.00 0.00 520.50 372.00 cl
0.00 0.00 520.50 372.00 cl
/Font1 findfont 13 s
0 0 0 srgb
41.09 357.19 (V) 0 ta
-1.040 (oorbeeld v) tb
-0.325 (an een Zipf distr) tb
0.195 (ib) tb
-0.260 (utie) tb gr
0.00 0.00 520.50 372.00 cl
0.00 0.00 520.50 372.00 cl
0.00 0.00 520.50 372.00 cl
0.00 0.00 520.50 372.00 cl
0.00 0.00 520.50 372.00 cl
0.00 0.00 520.50 372.00 cl
ep
%%Trailer
%%Pages: 1
%%EOF
