idnum|extra|percent|title|clusterid|real_author|label|filename
5|||Cranford|Cluster 5|Elizabeth Cleghorn Gaskell|Elizabeth Cleghorn Gaskell|corpora/baseline/corpus3/pg394.epub
5|||SylviasLovers—Complete|Cluster 5|Elizabeth Cleghorn Gaskell|Elizabeth Cleghorn Gaskell|corpora/baseline/corpus3/pg4537.epub
5|||MaryBarton|Cluster 5|Elizabeth Cleghorn Gaskell|Elizabeth Cleghorn Gaskell|corpora/baseline/corpus3/pg2153.epub
5|||Ruth|Cluster 5|Elizabeth Cleghorn Gaskell|Elizabeth Cleghorn Gaskell|corpora/baseline/corpus3/pg4275.epub
2|||SenseandSensibility|Cluster 2|Jane Austen|Jane Austen|corpora/baseline/corpus3/pg161.epub
2|||PrideandPrejudice|Cluster 2|Jane Austen|Jane Austen|corpora/baseline/corpus3/pg42671.epub
2|||Emma|Cluster 2|Jane Austen|Jane Austen|corpora/baseline/corpus3/pg158.epub
2|||MansfieldPark|Cluster 2|Jane Austen|Jane Austen|corpora/baseline/corpus3/pg141.epub
2|||NorthandSouth|Cluster 2|Elizabeth Cleghorn Gaskell|Jane Austen|corpora/baseline/corpus3/pg4276.epub
2|||NorthangerAbbey|Cluster 2|Jane Austen|Jane Austen|corpora/baseline/corpus3/pg121.epub
2|||Persuasion|Cluster 2|Jane Austen|Jane Austen|corpora/baseline/corpus3/pg105.epub
0|||HarryPotterandthePhilosophersStone|Cluster 0|J.K. Rowling|J.K. Rowling|corpora/baseline/corpus3/Harry Potter and the Philosopher's Stone - J.K. Rowling.epub
0|||HarryPotterandtheHalfBloodPrince|Cluster 0|J.K. Rowling|J.K. Rowling|corpora/baseline/corpus3/Harry Potter and the Half-Blood Prince - J.K. Rowling.epub
0|||HarryPotterandthePrisonerofAzkaban|Cluster 0|J.K. Rowling|J.K. Rowling|corpora/baseline/corpus3/Harry Potter and the Prisoner of Azkaban - J.K. Rowling.epub
0|||HarryPotterandtheDeathlyHallows|Cluster 0|J.K. Rowling|J.K. Rowling|corpora/baseline/corpus3/Harry Potter and the Deathly Hallows - J.K. Rowling.epub
0|||HarryPotterandtheOrderofthePhoenix|Cluster 0|J.K. Rowling|J.K. Rowling|corpora/baseline/corpus3/Harry Potter and the Order of the Phoenix - J.K. Rowling.epub
0|||HarryPotterandtheChamberofSecrets|Cluster 0|J.K. Rowling|J.K. Rowling|corpora/baseline/corpus3/Harry Potter and the Chamber of Secrets - J.K. Rowling.epub
0|||HarryPotterandtheGobletofFire|Cluster 0|J.K. Rowling|J.K. Rowling|corpora/baseline/corpus3/Harry Potter and the Goblet of Fire - J.K. Rowling.epub
3|||TheHistoryofHenryEsmondEsqaColonelintheServiceofHerMajestyQueenAnne|Cluster 3|William Makepeace Thackeray|William Makepeace Thackeray|corpora/baseline/corpus3/pg2511.epub
3|||CatherineAStory|Cluster 3|William Makepeace Thackeray|William Makepeace Thackeray|corpora/baseline/corpus3/pg1969.epub
3|||VanityFair|Cluster 3|William Makepeace Thackeray|William Makepeace Thackeray|corpora/baseline/corpus3/pg599.epub
3|||TheHistoryofPendennis|Cluster 3|William Makepeace Thackeray|William Makepeace Thackeray|corpora/baseline/corpus3/pg7265.epub
3|||TheNewcomesMemoirsofaMostRespectableFamily|Cluster 3|William Makepeace Thackeray|William Makepeace Thackeray|corpora/baseline/corpus3/pg7467.epub
3|||TheVirginians|Cluster 3|William Makepeace Thackeray|William Makepeace Thackeray|corpora/baseline/corpus3/pg8123.epub
1|||TheMysteryofEdwinDrood|Cluster 1|Charles Dickens|Charles Dickens|corpora/baseline/corpus3/pg564.epub
1|||DombeyandSon|Cluster 1|Charles Dickens|Charles Dickens|corpora/baseline/corpus3/pg821.epub
1|||HardTimes|Cluster 1|Charles Dickens|Charles Dickens|corpora/baseline/corpus3/pg786.epub
1|||NicholasNickleby|Cluster 1|Charles Dickens|Charles Dickens|corpora/baseline/corpus3/pg967.epub
1|||MartinChuzzlewit|Cluster 1|Charles Dickens|Charles Dickens|corpora/baseline/corpus3/pg968.epub
1|||OurMutualFriend|Cluster 1|Charles Dickens|Charles Dickens|corpora/baseline/corpus3/pg883.epub
1|||LittleDorrit|Cluster 1|Charles Dickens|Charles Dickens|corpora/baseline/corpus3/pg963.epub
4|||DanielDeronda|Cluster 4|George Eliot|George Eliot|corpora/baseline/corpus3/pg7469.epub
4|||FelixHolttheRadical|Cluster 4|George Eliot|George Eliot|corpora/baseline/corpus3/pg40882.epub
4|||SilasMarner|Cluster 4|George Eliot|George Eliot|corpora/baseline/corpus3/pg550.epub
4|||Romola|Cluster 4|George Eliot|George Eliot|corpora/baseline/corpus3/pg24020.epub
4|||TheMillontheFloss|Cluster 4|George Eliot|George Eliot|corpora/baseline/corpus3/pg6688.epub
4|||Middlemarch|Cluster 4|George Eliot|George Eliot|corpora/baseline/corpus3/pg145.epub
4|||AdamBede|Cluster 4|George Eliot|George Eliot|corpora/baseline/corpus3/pg507.epub
6|||OliverTwist|Cluster 6|Charles Dickens|unknown_7|corpora/baseline/corpus3/pg730.epub
6|||BarnabyRudgeATaleoftheRiotsofEighty|Cluster 6|Charles Dickens|unknown_7|corpora/baseline/corpus3/pg917.epub
6|||ThePickwickPapers|Cluster 6|Charles Dickens|unknown_7|corpora/baseline/corpus3/pg580.epub
6|||ATaleofTwoCities|Cluster 6|Charles Dickens|unknown_7|corpora/baseline/corpus3/pg98.epub
