idnum|extra|percent|title|clusterid|real_author|label|filename
5|||TheMysteryofEdwinDrood|Cluster 5|Charles Dickens|Charles Dickens|corpora/baseline/corpus1/pg564.epub
5|||DombeyandSon|Cluster 5|Charles Dickens|Charles Dickens|corpora/baseline/corpus1/pg821.epub
5|||OurMutualFriend|Cluster 5|Charles Dickens|Charles Dickens|corpora/baseline/corpus1/pg883.epub
5|||MartinChuzzlewit|Cluster 5|Charles Dickens|Charles Dickens|corpora/baseline/corpus1/pg968.epub
5|||HardTimes|Cluster 5|Charles Dickens|Charles Dickens|corpora/baseline/corpus1/pg786.epub
5|||LittleDorrit|Cluster 5|Charles Dickens|Charles Dickens|corpora/baseline/corpus1/pg963.epub
2|||Emma|Cluster 2|Jane Austen|Jane Austen|corpora/baseline/corpus1/pg158.epub
2|||NorthangerAbbey|Cluster 2|Jane Austen|Jane Austen|corpora/baseline/corpus1/pg121.epub
2|||SenseandSensibility|Cluster 2|Jane Austen|Jane Austen|corpora/baseline/corpus1/pg161.epub
2|||Persuasion|Cluster 2|Jane Austen|Jane Austen|corpora/baseline/corpus1/pg105.epub
2|||MansfieldPark|Cluster 2|Jane Austen|Jane Austen|corpora/baseline/corpus1/pg141.epub
2|||PrideandPrejudice|Cluster 2|Jane Austen|Jane Austen|corpora/baseline/corpus1/pg42671.epub
0|||Romola|Cluster 0|George Eliot|George Eliot|corpora/baseline/corpus1/pg24020.epub
0|||DanielDeronda|Cluster 0|George Eliot|George Eliot|corpora/baseline/corpus1/pg7469.epub
0|||FelixHolttheRadical|Cluster 0|George Eliot|George Eliot|corpora/baseline/corpus1/pg40882.epub
0|||TheMillontheFloss|Cluster 0|George Eliot|George Eliot|corpora/baseline/corpus1/pg6688.epub
0|||SilasMarner|Cluster 0|George Eliot|George Eliot|corpora/baseline/corpus1/pg550.epub
0|||Middlemarch|Cluster 0|George Eliot|George Eliot|corpora/baseline/corpus1/pg145.epub
0|||AdamBede|Cluster 0|George Eliot|George Eliot|corpora/baseline/corpus1/pg507.epub
3|||VanityFair|Cluster 3|William Makepeace Thackeray|William Makepeace Thackeray|corpora/baseline/corpus1/pg599.epub
3|||TheHistoryofPendennis|Cluster 3|William Makepeace Thackeray|William Makepeace Thackeray|corpora/baseline/corpus1/pg7265.epub
3|||TheHistoryofHenryEsmondEsqaColonelintheServiceofHerMajestyQueenAnne|Cluster 3|William Makepeace Thackeray|William Makepeace Thackeray|corpora/baseline/corpus1/pg2511.epub
3|||TheVirginians|Cluster 3|William Makepeace Thackeray|William Makepeace Thackeray|corpora/baseline/corpus1/pg8123.epub
3|||TheNewcomesMemoirsofaMostRespectableFamily|Cluster 3|William Makepeace Thackeray|William Makepeace Thackeray|corpora/baseline/corpus1/pg7467.epub
3|||CatherineAStory|Cluster 3|William Makepeace Thackeray|William Makepeace Thackeray|corpora/baseline/corpus1/pg1969.epub
1|||SylviasLovers—Complete|Cluster 1|Elizabeth Cleghorn Gaskell|unknown_5|corpora/baseline/corpus1/pg4537.epub
4|||Ruth|Cluster 4|Elizabeth Cleghorn Gaskell|Elizabeth Cleghorn Gaskell|corpora/baseline/corpus1/pg4275.epub
4|||Cranford|Cluster 4|Elizabeth Cleghorn Gaskell|Elizabeth Cleghorn Gaskell|corpora/baseline/corpus1/pg394.epub
4|||NorthandSouth|Cluster 4|Elizabeth Cleghorn Gaskell|Elizabeth Cleghorn Gaskell|corpora/baseline/corpus1/pg4276.epub
4|||MaryBarton|Cluster 4|Elizabeth Cleghorn Gaskell|Elizabeth Cleghorn Gaskell|corpora/baseline/corpus1/pg2153.epub
6|||OliverTwist|Cluster 6|Charles Dickens|unknown_7|corpora/baseline/corpus1/pg730.epub
6|||NicholasNickleby|Cluster 6|Charles Dickens|unknown_7|corpora/baseline/corpus1/pg967.epub
6|||ThePickwickPapers|Cluster 6|Charles Dickens|unknown_7|corpora/baseline/corpus1/pg580.epub
6|||ATaleofTwoCities|Cluster 6|Charles Dickens|unknown_7|corpora/baseline/corpus1/pg98.epub
6|||BarnabyRudgeATaleoftheRiotsofEighty|Cluster 6|Charles Dickens|unknown_7|corpora/baseline/corpus1/pg917.epub
