idnum|extra|percent|title|clusterid|real_author|label|filename
5|||AdamBede|Cluster 5|George Eliot|George Eliot|corpora/baseline/corpus3/pg507.epub
5|||Romola|Cluster 5|George Eliot|George Eliot|corpora/baseline/corpus3/pg24020.epub
5|||SilasMarner|Cluster 5|George Eliot|George Eliot|corpora/baseline/corpus3/pg550.epub
5|||FelixHolttheRadical|Cluster 5|George Eliot|George Eliot|corpora/baseline/corpus3/pg40882.epub
5|||DanielDeronda|Cluster 5|George Eliot|George Eliot|corpora/baseline/corpus3/pg7469.epub
5|||TheMillontheFloss|Cluster 5|George Eliot|George Eliot|corpora/baseline/corpus3/pg6688.epub
5|||Middlemarch|Cluster 5|George Eliot|George Eliot|corpora/baseline/corpus3/pg145.epub
2|||MartinChuzzlewit|Cluster 2|Charles Dickens|unknown_2|corpora/baseline/corpus3/pg968.epub
2|||TheMysteryofEdwinDrood|Cluster 2|Charles Dickens|unknown_2|corpora/baseline/corpus3/pg564.epub
2|||LittleDorrit|Cluster 2|Charles Dickens|unknown_2|corpora/baseline/corpus3/pg963.epub
2|||OurMutualFriend|Cluster 2|Charles Dickens|unknown_2|corpora/baseline/corpus3/pg883.epub
2|||HardTimes|Cluster 2|Charles Dickens|unknown_2|corpora/baseline/corpus3/pg786.epub
0|||SenseandSensibility|Cluster 0|Jane Austen|Jane Austen|corpora/baseline/corpus3/pg161.epub
0|||PrideandPrejudice|Cluster 0|Jane Austen|Jane Austen|corpora/baseline/corpus3/pg42671.epub
0|||Persuasion|Cluster 0|Jane Austen|Jane Austen|corpora/baseline/corpus3/pg105.epub
0|||Emma|Cluster 0|Jane Austen|Jane Austen|corpora/baseline/corpus3/pg158.epub
0|||NorthangerAbbey|Cluster 0|Jane Austen|Jane Austen|corpora/baseline/corpus3/pg121.epub
0|||MansfieldPark|Cluster 0|Jane Austen|Jane Austen|corpora/baseline/corpus3/pg141.epub
3|||SylviasLovers—Complete|Cluster 3|Elizabeth Cleghorn Gaskell|Elizabeth Cleghorn Gaskell|corpora/baseline/corpus3/pg4537.epub
3|||Cranford|Cluster 3|Elizabeth Cleghorn Gaskell|Elizabeth Cleghorn Gaskell|corpora/baseline/corpus3/pg394.epub
3|||MaryBarton|Cluster 3|Elizabeth Cleghorn Gaskell|Elizabeth Cleghorn Gaskell|corpora/baseline/corpus3/pg2153.epub
3|||NorthandSouth|Cluster 3|Elizabeth Cleghorn Gaskell|Elizabeth Cleghorn Gaskell|corpora/baseline/corpus3/pg4276.epub
3|||Ruth|Cluster 3|Elizabeth Cleghorn Gaskell|Elizabeth Cleghorn Gaskell|corpora/baseline/corpus3/pg4275.epub
1|||HarryPotterandtheOrderofthePhoenix|Cluster 1|J.K. Rowling|J.K. Rowling|corpora/baseline/corpus3/Harry Potter and the Order of the Phoenix - J.K. Rowling.epub
1|||HarryPotterandthePhilosophersStone|Cluster 1|J.K. Rowling|J.K. Rowling|corpora/baseline/corpus3/Harry Potter and the Philosopher's Stone - J.K. Rowling.epub
1|||HarryPotterandtheHalfBloodPrince|Cluster 1|J.K. Rowling|J.K. Rowling|corpora/baseline/corpus3/Harry Potter and the Half-Blood Prince - J.K. Rowling.epub
1|||HarryPotterandtheChamberofSecrets|Cluster 1|J.K. Rowling|J.K. Rowling|corpora/baseline/corpus3/Harry Potter and the Chamber of Secrets - J.K. Rowling.epub
1|||HarryPotterandtheDeathlyHallows|Cluster 1|J.K. Rowling|J.K. Rowling|corpora/baseline/corpus3/Harry Potter and the Deathly Hallows - J.K. Rowling.epub
1|||HarryPotterandthePrisonerofAzkaban|Cluster 1|J.K. Rowling|J.K. Rowling|corpora/baseline/corpus3/Harry Potter and the Prisoner of Azkaban - J.K. Rowling.epub
1|||HarryPotterandtheGobletofFire|Cluster 1|J.K. Rowling|J.K. Rowling|corpora/baseline/corpus3/Harry Potter and the Goblet of Fire - J.K. Rowling.epub
4|||CatherineAStory|Cluster 4|William Makepeace Thackeray|William Makepeace Thackeray|corpora/baseline/corpus3/pg1969.epub
4|||VanityFair|Cluster 4|William Makepeace Thackeray|William Makepeace Thackeray|corpora/baseline/corpus3/pg599.epub
4|||TheHistoryofPendennis|Cluster 4|William Makepeace Thackeray|William Makepeace Thackeray|corpora/baseline/corpus3/pg7265.epub
4|||TheVirginians|Cluster 4|William Makepeace Thackeray|William Makepeace Thackeray|corpora/baseline/corpus3/pg8123.epub
4|||TheNewcomesMemoirsofaMostRespectableFamily|Cluster 4|William Makepeace Thackeray|William Makepeace Thackeray|corpora/baseline/corpus3/pg7467.epub
4|||TheHistoryofHenryEsmondEsqaColonelintheServiceofHerMajestyQueenAnne|Cluster 4|William Makepeace Thackeray|William Makepeace Thackeray|corpora/baseline/corpus3/pg2511.epub
6|||NicholasNickleby|Cluster 6|Charles Dickens|Charles Dickens|corpora/baseline/corpus3/pg967.epub
6|||OliverTwist|Cluster 6|Charles Dickens|Charles Dickens|corpora/baseline/corpus3/pg730.epub
6|||BarnabyRudgeATaleoftheRiotsofEighty|Cluster 6|Charles Dickens|Charles Dickens|corpora/baseline/corpus3/pg917.epub
6|||DombeyandSon|Cluster 6|Charles Dickens|Charles Dickens|corpora/baseline/corpus3/pg821.epub
6|||ATaleofTwoCities|Cluster 6|Charles Dickens|Charles Dickens|corpora/baseline/corpus3/pg98.epub
6|||ThePickwickPapers|Cluster 6|Charles Dickens|Charles Dickens|corpora/baseline/corpus3/pg580.epub
