idnum|extra|title|percent|clusterid|real_author|label|filename
0|5703aa|LiteraryandPhilosophicalEssaysFrenchGermanandItalian|100.0|Cluster 0|Immanuel Kant|Benedictus de Spinoza|corpora/multiauthor/corpus_40_filtered/5637.epub
1|5703aa|TalesfromShakespeare|0.54|Cluster 0|Charles Lamb|Benedictus de Spinoza|corpora/multiauthor/corpus_40_filtered/1286.epub
2|5703aa|TheMotherofParliaments|0.66|Cluster 0|Harry Graham|Benedictus de Spinoza|corpora/multiauthor/corpus_40_filtered/41304.epub
3|5703aa|Ethics—Part4|0.5|Cluster 0|Benedictus de Spinoza|Benedictus de Spinoza|corpora/multiauthor/corpus_40_filtered/971.epub
4|5703aa|BuffonsNaturalHistoryVolume06of10ContainingaTheoryoftheEarthaGeneralHistoryofManoftheBruteCreationandofVegetablesMinerals&c&c|0.24|Cluster 0|comte de Georges Louis Leclerc Buffon|Benedictus de Spinoza|corpora/multiauthor/corpus_40_filtered/45731.epub
5|5703aa|BuffonsNaturalHistoryVolume05of10ContainingaTheoryoftheEarthaGeneralHistoryofManoftheBruteCreationandofVegetablesMinerals&c&c|0.08|Cluster 0|comte de Georges Louis Leclerc Buffon|Benedictus de Spinoza|corpora/multiauthor/corpus_40_filtered/45730.epub
6|5703aa|TheWorksofCharlesandMaryLamb—Volume2EliaandTheLastEssaysofElia|0.26|Cluster 0|Charles Lamb|Benedictus de Spinoza|corpora/multiauthor/corpus_40_filtered/10343.epub
7|5703aa|BlackRebellionFiveSlaveRevolts|0.07|Cluster 0|Thomas Wentworth Higginson|Benedictus de Spinoza|corpora/multiauthor/corpus_40_filtered/8432.epub
8|5703aa|CuriositiesofHumanNature|0.35|Cluster 0|Samuel G. Goodrich|Benedictus de Spinoza|corpora/multiauthor/corpus_40_filtered/39333.epub
9|5703aa|TheWorksofCharlesandMaryLamb—Volume5TheLettersofCharlesandMaryLamb17961820|0.17|Cluster 0|Charles Lamb|Benedictus de Spinoza|corpora/multiauthor/corpus_40_filtered/9365.epub
10|5703aa|MyAutobiographyAFragment|0.89|Cluster 0|F. Max Müller|Benedictus de Spinoza|corpora/multiauthor/corpus_40_filtered/30269.epub
11|5703aa|TheWorksofCharlesandMaryLamb—Volume4PoemsandPlays|0.47|Cluster 0|Charles Lamb|Benedictus de Spinoza|corpora/multiauthor/corpus_40_filtered/11576.epub
12|5703aa|BuffonsNaturalHistoryVolume02of10ContainingaTheoryoftheEarthaGeneralHistoryofManoftheBruteCreationandofVegetablesMineral&c&c|0.33|Cluster 0|comte de Georges Louis Leclerc Buffon|Benedictus de Spinoza|corpora/multiauthor/corpus_40_filtered/45602.epub
13|5703aa|WomenandtheAlphabetASeriesofEssays|0.91|Cluster 0|Thomas Wentworth Higginson|Benedictus de Spinoza|corpora/multiauthor/corpus_40_filtered/13474.epub
14|5703aa|BuffonsNaturalHistoryVolume08of10ContainingaTheoryoftheEarthaGeneralHistoryofManoftheBruteCreationandofVegetablesMinerals&c&c|0.86|Cluster 0|comte de Georges Louis Leclerc Buffon|Benedictus de Spinoza|corpora/multiauthor/corpus_40_filtered/45821.epub
15|5703aa|MemoirsoftheCourtsofLouisXVandXVI—Volume6BeingsecretmemoirsofMadameDuHaussetladysmaidtoMadamedePompadourandofthePrincessLamballe|0.7|Cluster 0|Mme. Du Hausset|Benedictus de Spinoza|corpora/multiauthor/corpus_40_filtered/3881.epub
16|5703aa|BuffonsNaturalHistoryVolume04of10ContainingaTheoryoftheEarthaGeneralHistoryofManoftheBruteCreationandofVegetablesMinerals&c&c|0.05|Cluster 0|comte de Georges Louis Leclerc Buffon|Benedictus de Spinoza|corpora/multiauthor/corpus_40_filtered/45729.epub
17|5703aa|PoemataLatinGreekandItalianPoemsbyJohnMilton|0.45|Cluster 0|John Milton|Benedictus de Spinoza|corpora/multiauthor/corpus_40_filtered/6929.epub
18|5703aa|TheRomanceofBiographyVol2of2orMemoirsofWomenLovedandCelebratedbyPoetsfromtheDaysoftheTroubadourstothePresentAge3rded2Vols|0.84|Cluster 0|Mrs. Jameson|Benedictus de Spinoza|corpora/multiauthor/corpus_40_filtered/35416.epub
19|5703aa|AreopagiticaASpeechfortheLibertyofUnlicensedPrintingtotheParliamentofEngland|0.22|Cluster 0|John Milton|Benedictus de Spinoza|corpora/multiauthor/corpus_40_filtered/608.epub
20|5703aa|HenryWadsworthLongfellow|0.45|Cluster 0|Thomas Wentworth Higginson|Benedictus de Spinoza|corpora/multiauthor/corpus_40_filtered/33402.epub
21|5703aa|CourtsandCriminals|0.01|Cluster 0|Arthur Cheney Train|Benedictus de Spinoza|corpora/multiauthor/corpus_40_filtered/5268.epub
22|5703aa|ABookofAmericanExplorers|0.85|Cluster 0|Thomas Wentworth Higginson|Benedictus de Spinoza|corpora/multiauthor/corpus_40_filtered/56346.epub
23|5703aa|AnIntroductiontotheProseandPoeticalWorksofJohnMiltonComprisingAlltheAutobiographicPassagesinHisWorkstheMoreExplicitPresentationsofHisIdeasofTrueLiberty|0.13|Cluster 0|John Milton|Benedictus de Spinoza|corpora/multiauthor/corpus_40_filtered/44733.epub
24|5703aa|CharlesBradlaughaRecordofHisLifeandWorkVolume1of2WithanAccountofhisParliamentaryStrugglePoliticsandTeachingsSeventhEdition|0.03|Cluster 0|Hypatia Bradlaugh Bonner|Benedictus de Spinoza|corpora/multiauthor/corpus_40_filtered/45130.epub
25|5703aa|InitialStudiesinAmericanLetters|0.24|Cluster 0|Henry A. Beers|Benedictus de Spinoza|corpora/multiauthor/corpus_40_filtered/15854.epub
26|5703aa|TheWorksofCharlesandMaryLamb—Volume1MiscellaneousProse|0.2|Cluster 0|Charles Lamb|Benedictus de Spinoza|corpora/multiauthor/corpus_40_filtered/40988.epub
27|5703aa|ACommonplaceBookofThoughtsMemoriesandFancies2nded|0.9|Cluster 0|Mrs. Jameson|Benedictus de Spinoza|corpora/multiauthor/corpus_40_filtered/39680.epub
28|5703aa|MemoirsoftheCourtsofLouisXVandXVI—Volume7BeingsecretmemoirsofMadameDuHaussetladysmaidtoMadamedePompadourandofthePrincessLamballe|0.03|Cluster 0|Mme. Du Hausset|Benedictus de Spinoza|corpora/multiauthor/corpus_40_filtered/3882.epub
29|5703aa|BuffonsNaturalHistoryVolume09of10ContainingaTheoryoftheEarthaGeneralHistoryofManoftheBruteCreationandofVegetablesMinerals&c&c|0.52|Cluster 0|comte de Georges Louis Leclerc Buffon|Benedictus de Spinoza|corpora/multiauthor/corpus_40_filtered/45867.epub
30|5703aa|FourAmericansRooseveltHawthorneEmersonWhitman|0.63|Cluster 0|Henry A. Beers|Benedictus de Spinoza|corpora/multiauthor/corpus_40_filtered/24435.epub
31|5703aa|BuffonsNaturalHistoryVolume07of10ContainingaTheoryoftheEarthaGeneralHistoryofManoftheBruteCreationandofVegetablesMinerals&c&c|0.89|Cluster 0|comte de Georges Louis Leclerc Buffon|Benedictus de Spinoza|corpora/multiauthor/corpus_40_filtered/45820.epub
32|5703aa|OntheImprovementoftheUnderstanding|0.94|Cluster 0|Benedictus de Spinoza|Benedictus de Spinoza|corpora/multiauthor/corpus_40_filtered/1016.epub
33|5703aa|TheWorksofCharlesandMaryLamb—Volume6Letters18211842|0.17|Cluster 0|Charles Lamb|Benedictus de Spinoza|corpora/multiauthor/corpus_40_filtered/10851.epub
34|5703aa|Ethics—Part3|0.1|Cluster 0|Benedictus de Spinoza|Benedictus de Spinoza|corpora/multiauthor/corpus_40_filtered/948.epub
35|5703aa|Ethics—Part2|0.89|Cluster 0|Benedictus de Spinoza|Benedictus de Spinoza|corpora/multiauthor/corpus_40_filtered/920.epub
36|5703aa|CharacteristicsofWomenMoralPoeticalandHistorical|0.5|Cluster 0|Mrs. Jameson|Benedictus de Spinoza|corpora/multiauthor/corpus_40_filtered/26152.epub
37|5703aa|FundamentalPrinciplesoftheMetaphysicofMorals|0.34|Cluster 0|Immanuel Kant|Benedictus de Spinoza|corpora/multiauthor/corpus_40_filtered/5682.epub
38|5703aa|ChipsfromaGermanWorkshopVolume1EssaysontheScienceofReligion|0.29|Cluster 0|F. Max Müller|Benedictus de Spinoza|corpora/multiauthor/corpus_40_filtered/24686.epub
39|5703aa|PerpetualPeaceAPhilosophicalEssay|0.73|Cluster 0|Immanuel Kant|Benedictus de Spinoza|corpora/multiauthor/corpus_40_filtered/50922.epub
40|5703aa|TheCritiqueofPureReason|0.64|Cluster 0|Immanuel Kant|Benedictus de Spinoza|corpora/multiauthor/corpus_40_filtered/4280.epub
41|5703aa|TheSilesianHorseherdQuestionsoftheHour|0.36|Cluster 0|F. Max Müller|Benedictus de Spinoza|corpora/multiauthor/corpus_40_filtered/24315.epub
42|5703aa|MemoirsandHistoricalChroniclesoftheCourtsofEuropeMemoirsofMargueritedeValoisQueenofFranceWifeofHenriIVofMadamedePompadouroftheCourtofLouisXVandofCatherinedeMediciQueenofFranceWifeofHenriII|0.61|Cluster 0|Pierre de Bourdeille Brantôme|Benedictus de Spinoza|corpora/multiauthor/corpus_40_filtered/12967.epub
43|5703aa|VisitsandSketchesatHomeandAbroadVol1of3WithTalesandMiscellaniesNowFirstCollected|0.56|Cluster 0|Mrs. Jameson|Benedictus de Spinoza|corpora/multiauthor/corpus_40_filtered/36818.epub
44|5703aa|Ethics—Part1|0.93|Cluster 0|Benedictus de Spinoza|Benedictus de Spinoza|corpora/multiauthor/corpus_40_filtered/919.epub
45|5703aa|KantsCritiqueofJudgement|0.38|Cluster 0|Immanuel Kant|Benedictus de Spinoza|corpora/multiauthor/corpus_40_filtered/48433.epub
46|5703aa|TheMetaphysicalElementsofEthics|0.22|Cluster 0|Immanuel Kant|Benedictus de Spinoza|corpora/multiauthor/corpus_40_filtered/5684.epub
47|5703aa|MontaigneandShakspere|0.26|Cluster 0|J. M. Robertson|Benedictus de Spinoza|corpora/multiauthor/corpus_40_filtered/25535.epub
48|5703aa|MemoriesAStoryofGermanLove|0.4|Cluster 0|F. Max Müller|Benedictus de Spinoza|corpora/multiauthor/corpus_40_filtered/14521.epub
49|5703aa|ThePrisonerattheBarSidelightsontheAdministrationofCriminalJustice|0.47|Cluster 0|Arthur Cheney Train|Benedictus de Spinoza|corpora/multiauthor/corpus_40_filtered/58534.epub
50|5703aa|TheRomanceofBiographyVol1of2orMemoirsofWomenLovedandCelebratedbyPoetsfromtheDaysoftheTroubadourstothePresentAge3rded2Vols|0.54|Cluster 0|Mrs. Jameson|Benedictus de Spinoza|corpora/multiauthor/corpus_40_filtered/35382.epub
51|5703aa|MemoirsoftheCourtsofLouisXVandXVI—Volume3BeingsecretmemoirsofMadameDuHaussetladysmaidtoMadamedePompadourandofthePrincessLamballe|0.21|Cluster 0|Mme. Du Hausset|Benedictus de Spinoza|corpora/multiauthor/corpus_40_filtered/3878.epub
52|5703aa|MemoirsoftheCourtsofLouisXVandXVI—CompleteBeingsecretmemoirsofMadameDuHaussetladysmaidtoMadamedePompadourandofthePrincessLamballe|0.66|Cluster 0|Mme. Du Hausset|Benedictus de Spinoza|corpora/multiauthor/corpus_40_filtered/3883.epub
53|5703aa|KantsProlegomenatoAnyFutureMetaphysics|0.43|Cluster 0|Immanuel Kant|Benedictus de Spinoza|corpora/multiauthor/corpus_40_filtered/52821.epub
54|5703aa|TheologicoPoliticalTreatise—Part2|0.68|Cluster 0|Benedictus de Spinoza|Benedictus de Spinoza|corpora/multiauthor/corpus_40_filtered/990.epub
55|5703aa|MemoirsoftheCourtsofLouisXVandXVI—Volume4BeingsecretmemoirsofMadameDuHaussetladysmaidtoMadamedePompadourandofthePrincessLamballe|0.91|Cluster 0|Mme. Du Hausset|Benedictus de Spinoza|corpora/multiauthor/corpus_40_filtered/3879.epub
56|5703aa|ChipsfromaGermanWorkshopVolume3EssaysonLiteratureBiographyandAntiquities|0.99|Cluster 0|F. Max Müller|Benedictus de Spinoza|corpora/multiauthor/corpus_40_filtered/26572.epub
57|5703aa|BuffonsNaturalHistoryVolume10of10ContainingaTheoryoftheEarthaGeneralHistoryofManoftheBruteCreationandofVegetablesMinerals&c&c|0.07|Cluster 0|comte de Georges Louis Leclerc Buffon|Benedictus de Spinoza|corpora/multiauthor/corpus_40_filtered/45868.epub
58|5703aa|ThoughtsonLifeandReligionAnAftermathfromtheWritingsofTheRightHonourableProfessorMaxMüller|0.68|Cluster 0|F. Max Müller|Benedictus de Spinoza|corpora/multiauthor/corpus_40_filtered/45122.epub
59|5703aa|ADaywithRobertSchumann|0.56|Cluster 0|May Byron|Benedictus de Spinoza|corpora/multiauthor/corpus_40_filtered/36472.epub
60|5703aa|BuffonsNaturalHistoryVolume03of10ContainingaTheoryoftheEarthaGeneralHistoryofManoftheBruteCreationandofVegetablesMinerals&c&c|0.71|Cluster 0|comte de Georges Louis Leclerc Buffon|Benedictus de Spinoza|corpora/multiauthor/corpus_40_filtered/45639.epub
61|5703aa|TheologicoPoliticalTreatise—Part1|0.92|Cluster 0|Benedictus de Spinoza|Benedictus de Spinoza|corpora/multiauthor/corpus_40_filtered/989.epub
62|5703aa|IndiaWhatcanitteachus?ACourseofLecturesDeliveredbeforetheUniversityOfCambridge|0.59|Cluster 0|F. Max Müller|Benedictus de Spinoza|corpora/multiauthor/corpus_40_filtered/20847.epub
63|5703aa|ParadiseRegained|0.14|Cluster 0|John Milton|Benedictus de Spinoza|corpora/multiauthor/corpus_40_filtered/58.epub
64|5703aa|TheSympathyofReligions|0.19|Cluster 0|Thomas Wentworth Higginson|Benedictus de Spinoza|corpora/multiauthor/corpus_40_filtered/25792.epub
65|5703aa|TheLifeofBenjaminFranklinIllustratedbyTalesSketchesandAnecdotes|0.94|Cluster 0|Samuel G. Goodrich|Benedictus de Spinoza|corpora/multiauthor/corpus_40_filtered/38469.epub
66|5703aa|LivesofCelebratedWomen|0.33|Cluster 0|Samuel G. Goodrich|Benedictus de Spinoza|corpora/multiauthor/corpus_40_filtered/33273.epub
67|5703aa|TheCritiqueofPracticalReason|0.12|Cluster 0|Immanuel Kant|Benedictus de Spinoza|corpora/multiauthor/corpus_40_filtered/5683.epub
68|5703aa|Hieroglyphics|0.68|Cluster 0|Arthur Machen|Benedictus de Spinoza|corpora/multiauthor/corpus_40_filtered/40241.epub
69|5703aa|MiltonsComus|0.94|Cluster 0|John Milton|Benedictus de Spinoza|corpora/multiauthor/corpus_40_filtered/19819.epub
70|5703aa|MemoirsoftheCourtsofLouisXVandXVI—Volume5BeingsecretmemoirsofMadameDuHaussetladysmaidtoMadamedePompadourandofthePrincessLamballe|0.01|Cluster 0|Mme. Du Hausset|Benedictus de Spinoza|corpora/multiauthor/corpus_40_filtered/3880.epub
71|5703aa|ThePhilosophyofSpinoza|0.73|Cluster 0|Benedictus de Spinoza|Benedictus de Spinoza|corpora/multiauthor/corpus_40_filtered/31205.epub
72|5703aa|MemoirsoftheCourtsofLouisXVandXVI—Volume1BeingsecretmemoirsofMadameDuHaussetladysmaidtoMadamedePompadourandofthePrincessLamballe|0.28|Cluster 0|Mme. Du Hausset|Benedictus de Spinoza|corpora/multiauthor/corpus_40_filtered/3876.epub
73|5703aa|Ethics—Part5|0.8|Cluster 0|Benedictus de Spinoza|Benedictus de Spinoza|corpora/multiauthor/corpus_40_filtered/975.epub
74|5703aa|Ethics|0.17|Cluster 0|Benedictus de Spinoza|Benedictus de Spinoza|corpora/multiauthor/corpus_40_filtered/3800.epub
75|5703aa|MiltonMinorPoems|0.49|Cluster 0|John Milton|Benedictus de Spinoza|corpora/multiauthor/corpus_40_filtered/31706.epub
76|5703aa|ChipsfromaGermanWorkshopVolume5MiscellaneousLaterEssays|0.06|Cluster 0|F. Max Müller|Benedictus de Spinoza|corpora/multiauthor/corpus_40_filtered/27810.epub
77|5703aa|TheConnecticutWitsandOtherEssays|0.87|Cluster 0|Henry A. Beers|Benedictus de Spinoza|corpora/multiauthor/corpus_40_filtered/50915.epub
0|5703aa|ATexasMatchmaker|100.0|Cluster 1|Andy Adams|Andy Adams|corpora/multiauthor/corpus_40_filtered/12919.epub
1|5703aa|VerseandWorse|0.28|Cluster 1|Harry Graham|Andy Adams|corpora/multiauthor/corpus_40_filtered/36702.epub
2|5703aa|WolfBreed|0.77|Cluster 1|Jackson Gregory|Andy Adams|corpora/multiauthor/corpus_40_filtered/18964.epub
3|5703aa|TheSlipperPointMystery|0.49|Cluster 1|Augusta Huiell Seaman|Andy Adams|corpora/multiauthor/corpus_40_filtered/50961.epub
4|5703aa|TheCampFireGirlsontheOpenRoadOrGlorifyWork|0.26|Cluster 1|Hildegard G. Frey|Andy Adams|corpora/multiauthor/corpus_40_filtered/36485.epub
5|5703aa|EdelweissAStory|0.22|Cluster 1|Berthold Auerbach|Andy Adams|corpora/multiauthor/corpus_40_filtered/33007.epub
6|5703aa|HowPrivateGeorgeWPeckPutDowntheRebellionorTheFunnyExperiencesofaRawRecruit1887|0.24|Cluster 1|George W. Peck|Andy Adams|corpora/multiauthor/corpus_40_filtered/25492.epub
7|5703aa|TheWinningofBarbaraWorth|0.43|Cluster 1|Harold Bell Wright|Andy Adams|corpora/multiauthor/corpus_40_filtered/6997.epub
8|5703aa|AzaleaTheStoryofaLittleGirlintheBlueRidgeMountains|0.78|Cluster 1|Elia Wilkinson Peattie|Andy Adams|corpora/multiauthor/corpus_40_filtered/53727.epub
9|5703aa|TheGoodSoldier|0.66|Cluster 1|Ford Madox Ford|Andy Adams|corpora/multiauthor/corpus_40_filtered/2775.epub
10|5703aa|TheGroceryManAndPecksBadBoyPecksBadBoyandHisPaNo21883|0.26|Cluster 1|George W. Peck|Andy Adams|corpora/multiauthor/corpus_40_filtered/25488.epub
11|5703aa|TheWheatPrincess|0.01|Cluster 1|Jean Webster|Andy Adams|corpora/multiauthor/corpus_40_filtered/46761.epub
12|5703aa|Jerusalem|0.17|Cluster 1|Selma Lagerlöf|Andy Adams|corpora/multiauthor/corpus_40_filtered/15837.epub
13|5703aa|TheFourPoolsMystery|0.41|Cluster 1|Jean Webster|Andy Adams|corpora/multiauthor/corpus_40_filtered/21264.epub
14|5703aa|Dracula|0.15|Cluster 1|Bram Stoker|Andy Adams|corpora/multiauthor/corpus_40_filtered/345.epub
15|5703aa|JosephintheSnowandTheClockmakerInThreeVolumesVolI|0.4|Cluster 1|Berthold Auerbach|Andy Adams|corpora/multiauthor/corpus_40_filtered/33162.epub
16|5703aa|TheInheritors|0.82|Cluster 1|Joseph Conrad|Andy Adams|corpora/multiauthor/corpus_40_filtered/14888.epub
17|5703aa|VillaEdenTheCountryHouseontheRhine|0.91|Cluster 1|Berthold Auerbach|Andy Adams|corpora/multiauthor/corpus_40_filtered/32902.epub
18|5703aa|TheSimpleAdventuresofaMemsahib|0.05|Cluster 1|Sara Jeannette Duncan|Andy Adams|corpora/multiauthor/corpus_40_filtered/56513.epub
19|5703aa|TheStoryofSonnySahib|0.19|Cluster 1|Sara Jeannette Duncan|Andy Adams|corpora/multiauthor/corpus_40_filtered/4547.epub
20|5703aa|InvisibleLinks|0.66|Cluster 1|Selma Lagerlöf|Andy Adams|corpora/multiauthor/corpus_40_filtered/14273.epub
21|5703aa|ADaywithJohnMilton|0.59|Cluster 1|May Byron|Andy Adams|corpora/multiauthor/corpus_40_filtered/40130.epub
22|5703aa|TheStarbucks|0.21|Cluster 1|Opie Percival Read|Andy Adams|corpora/multiauthor/corpus_40_filtered/18984.epub
23|5703aa|TheGreatReturn|0.19|Cluster 1|Arthur Machen|Andy Adams|corpora/multiauthor/corpus_40_filtered/35611.epub
24|5703aa|McAllisterandHisDouble|0.78|Cluster 1|Arthur Cheney Train|Andy Adams|corpora/multiauthor/corpus_40_filtered/34597.epub
25|5703aa|ThePoolintheDesert|0.57|Cluster 1|Sara Jeannette Duncan|Andy Adams|corpora/multiauthor/corpus_40_filtered/1168.epub
26|5703aa|TuttandMrTutt|0.5|Cluster 1|Arthur Cheney Train|Andy Adams|corpora/multiauthor/corpus_40_filtered/10440.epub
27|5703aa|TheJewelofSevenStars|0.15|Cluster 1|Bram Stoker|Andy Adams|corpora/multiauthor/corpus_40_filtered/3781.epub
28|5703aa|TheAngelsofMonsTheBowmenandOtherLegendsoftheWar|0.54|Cluster 1|Arthur Machen|Andy Adams|corpora/multiauthor/corpus_40_filtered/14044.epub
29|5703aa|TheEmperorofPortugallia|0.61|Cluster 1|Selma Lagerlöf|Andy Adams|corpora/multiauthor/corpus_40_filtered/14356.epub
30|5703aa|TheShieldofSilence|0.33|Cluster 1|Harriet T. Comstock|Andy Adams|corpora/multiauthor/corpus_40_filtered/18225.epub
31|5703aa|ThePitAStoryofChicago|0.82|Cluster 1|Frank Norris|Andy Adams|corpora/multiauthor/corpus_40_filtered/4382.epub
32|5703aa|TheGoGetterAStoryThatTellsYouHowtobeOne|0.51|Cluster 1|Peter B. Kyne|Andy Adams|corpora/multiauthor/corpus_40_filtered/12257.epub
33|5703aa|ThePrecipiceANovel|0.94|Cluster 1|Elia Wilkinson Peattie|Andy Adams|corpora/multiauthor/corpus_40_filtered/12177.epub
34|5703aa|MantoMan|0.28|Cluster 1|Jackson Gregory|Andy Adams|corpora/multiauthor/corpus_40_filtered/18933.epub
35|5703aa|TheRejuvenationofAuntMary|0.84|Cluster 1|Anne Warner|Andy Adams|corpora/multiauthor/corpus_40_filtered/15775.epub
36|5703aa|TheBellsofSanJuan|0.71|Cluster 1|Jackson Gregory|Andy Adams|corpora/multiauthor/corpus_40_filtered/15438.epub
37|5703aa|TheSecretGlory|0.42|Cluster 1|Arthur Machen|Andy Adams|corpora/multiauthor/corpus_40_filtered/35637.epub
38|5703aa|Landolin|0.52|Cluster 1|Berthold Auerbach|Andy Adams|corpora/multiauthor/corpus_40_filtered/33008.epub
39|5703aa|LesliesLoyalty|0.77|Cluster 1|Charles Garvice|Andy Adams|corpora/multiauthor/corpus_40_filtered/50440.epub
40|5703aa|TheCallingofDanMatthews|0.42|Cluster 1|Harold Bell Wright|Andy Adams|corpora/multiauthor/corpus_40_filtered/9314.epub
41|5703aa|ReedAnthonyCowmanAnAutobiography|0.06|Cluster 1|Andy Adams|Andy Adams|corpora/multiauthor/corpus_40_filtered/12884.epub
42|5703aa|AMountainWoman|0.42|Cluster 1|Elia Wilkinson Peattie|Andy Adams|corpora/multiauthor/corpus_40_filtered/1877.epub
43|5703aa|HistoryoftheIndiansofNorthandSouthAmerica|0.68|Cluster 1|Samuel G. Goodrich|Andy Adams|corpora/multiauthor/corpus_40_filtered/54266.epub
44|5703aa|TheShapeofFear|0.22|Cluster 1|Elia Wilkinson Peattie|Andy Adams|corpora/multiauthor/corpus_40_filtered/1876.epub
45|5703aa|NathanielParkerWillis|0.43|Cluster 1|Henry A. Beers|Andy Adams|corpora/multiauthor/corpus_40_filtered/53876.epub
46|5703aa|DearEnemy|0.7|Cluster 1|Jean Webster|Andy Adams|corpora/multiauthor/corpus_40_filtered/238.epub
47|5703aa|TheStoryofGöstaBerling|0.01|Cluster 1|Selma Lagerlöf|Andy Adams|corpora/multiauthor/corpus_40_filtered/56158.epub
48|5703aa|TheBlueJarStoryBook|0.4|Cluster 1|Maria Edgeworth|Andy Adams|corpora/multiauthor/corpus_40_filtered/34470.epub
49|5703aa|ThenMarchedtheBrave|0.28|Cluster 1|Harriet T. Comstock|Andy Adams|corpora/multiauthor/corpus_40_filtered/16156.epub
50|5703aa|TheOctopusAStoryofCalifornia|0.15|Cluster 1|Frank Norris|Andy Adams|corpora/multiauthor/corpus_40_filtered/268.epub
51|5703aa|TheGirlfromtheMarshCroft|0.78|Cluster 1|Selma Lagerlöf|Andy Adams|corpora/multiauthor/corpus_40_filtered/41414.epub
52|5703aa|TheLadyoftheShroud|0.22|Cluster 1|Bram Stoker|Andy Adams|corpora/multiauthor/corpus_40_filtered/3095.epub
53|5703aa|TheGreatGodPan|0.38|Cluster 1|Arthur Machen|Andy Adams|corpora/multiauthor/corpus_40_filtered/389.epub
54|5703aa|MamselleJo|0.12|Cluster 1|Harriet T. Comstock|Andy Adams|corpora/multiauthor/corpus_40_filtered/49361.epub
55|5703aa|VisitsandSketchesatHomeandAbroadVol2of3WithTalesandMiscellaniesNowFirstCollected|0.59|Cluster 1|Mrs. Jameson|Andy Adams|corpora/multiauthor/corpus_40_filtered/36819.epub
56|5703aa|TheEverlastingWhisper|0.45|Cluster 1|Jackson Gregory|Andy Adams|corpora/multiauthor/corpus_40_filtered/10213.epub
57|5703aa|HawaiianSeaHuntMysteryABiffBrewsterMysteryAdventure|0.29|Cluster 1|Andy Adams|Andy Adams|corpora/multiauthor/corpus_40_filtered/51755.epub
58|5703aa|TheInstantofNow|0.03|Cluster 1|Irving E. Cox|Andy Adams|corpora/multiauthor/corpus_40_filtered/31651.epub
59|5703aa|PeterParleysVisittoLondonDuringtheCoronationofQueenVictoria|0.77|Cluster 1|Samuel G. Goodrich|Andy Adams|corpora/multiauthor/corpus_40_filtered/43995.epub
60|5703aa|TheCrimsonPatch|0.29|Cluster 1|Augusta Huiell Seaman|Andy Adams|corpora/multiauthor/corpus_40_filtered/52509.epub
61|5703aa|TheSpiderandtheFlyorAnUndesiredLove|0.56|Cluster 1|Charles Garvice|Andy Adams|corpora/multiauthor/corpus_40_filtered/49537.epub
62|5703aa|TheBoardedUpHouse|0.31|Cluster 1|Augusta Huiell Seaman|Andy Adams|corpora/multiauthor/corpus_40_filtered/30905.epub
63|5703aa|TreasureValley|0.2|Cluster 1|Mary Esther Miller MacGregor|Andy Adams|corpora/multiauthor/corpus_40_filtered/29023.epub
64|5703aa|TheEyesoftheWorld|0.33|Cluster 1|Harold Bell Wright|Andy Adams|corpora/multiauthor/corpus_40_filtered/11715.epub
65|5703aa|Jerry|0.24|Cluster 1|Jean Webster|Andy Adams|corpora/multiauthor/corpus_40_filtered/20357.epub
66|5703aa|VandoverandtheBrute|0.22|Cluster 1|Frank Norris|Andy Adams|corpora/multiauthor/corpus_40_filtered/14712.epub
67|5703aa|OldportDays|0.59|Cluster 1|Thomas Wentworth Higginson|Andy Adams|corpora/multiauthor/corpus_40_filtered/2418.epub
68|5703aa|TheSapphireSignet|0.33|Cluster 1|Augusta Huiell Seaman|Andy Adams|corpora/multiauthor/corpus_40_filtered/55964.epub
69|5703aa|HowardsEnd|0.05|Cluster 1|E. M. Forster|Andy Adams|corpora/multiauthor/corpus_40_filtered/2946.epub
70|5703aa|LizbethoftheDale|0.61|Cluster 1|Mary Esther Miller MacGregor|Andy Adams|corpora/multiauthor/corpus_40_filtered/28234.epub
71|5703aa|TheCampFireGirlsLarksandPranksOrTheHouseoftheOpenDoor|0.15|Cluster 1|Hildegard G. Frey|Andy Adams|corpora/multiauthor/corpus_40_filtered/38934.epub
72|5703aa|PecksBadBoywiththeCowboys|0.98|Cluster 1|George W. Peck|Andy Adams|corpora/multiauthor/corpus_40_filtered/6141.epub
73|5703aa|MuchAdoAboutPeter|0.91|Cluster 1|Jean Webster|Andy Adams|corpora/multiauthor/corpus_40_filtered/42768.epub
74|5703aa|OntheHeightsANovel|0.96|Cluster 1|Berthold Auerbach|Andy Adams|corpora/multiauthor/corpus_40_filtered/33294.epub
75|5703aa|TheWonderfulAdventuresofNils|0.57|Cluster 1|Selma Lagerlöf|Andy Adams|corpora/multiauthor/corpus_40_filtered/10935.epub
76|5703aa|AYankeefromtheWestANovel|0.86|Cluster 1|Opie Percival Read|Andy Adams|corpora/multiauthor/corpus_40_filtered/33773.epub
77|5703aa|TheDesertValley|0.59|Cluster 1|Jackson Gregory|Andy Adams|corpora/multiauthor/corpus_40_filtered/15502.epub
78|5703aa|ChristLegends|0.45|Cluster 1|Selma Lagerlöf|Andy Adams|corpora/multiauthor/corpus_40_filtered/44818.epub
79|5703aa|TheImperialist|0.1|Cluster 1|Sara Jeannette Duncan|Andy Adams|corpora/multiauthor/corpus_40_filtered/5301.epub
80|5703aa|WhenPattyWenttoCollege|0.13|Cluster 1|Jean Webster|Andy Adams|corpora/multiauthor/corpus_40_filtered/21639.epub
81|5703aa|TheSixFingersofTime|0.86|Cluster 1|R. A. Lafferty|Andy Adams|corpora/multiauthor/corpus_40_filtered/31663.epub
82|5703aa|ADealinWheatandOtherStoriesoftheNewandOldWest|0.55|Cluster 1|Frank Norris|Andy Adams|corpora/multiauthor/corpus_40_filtered/9905.epub
83|5703aa|SeeingFrancewithUncleJohn|0.42|Cluster 1|Anne Warner|Andy Adams|corpora/multiauthor/corpus_40_filtered/35574.epub
84|5703aa|TheTigress|0.5|Cluster 1|Anne Warner|Andy Adams|corpora/multiauthor/corpus_40_filtered/37236.epub
85|5703aa|"PeterParleysOwnStoryFromthePersonalNarrativeoftheLateSamuelGGoodrich""PeterParley"""|0.82|Cluster 1|Samuel G. Goodrich|Andy Adams|corpora/multiauthor/corpus_40_filtered/45165.epub
86|5703aa|JanetoftheDunes|0.06|Cluster 1|Harriet T. Comstock|Andy Adams|corpora/multiauthor/corpus_40_filtered/22998.epub
87|5703aa|WellsBrothersTheYoungCattleKings|0.73|Cluster 1|Andy Adams|Andy Adams|corpora/multiauthor/corpus_40_filtered/12791.epub
88|5703aa|InOrchardGlen|0.5|Cluster 1|Mary Esther Miller MacGregor|Andy Adams|corpora/multiauthor/corpus_40_filtered/28235.epub
89|5703aa|UpTerrapinRiver|0.54|Cluster 1|Opie Percival Read|Andy Adams|corpora/multiauthor/corpus_40_filtered/44879.epub
90|5703aa|TheFeather|0.29|Cluster 1|Ford Madox Ford|Andy Adams|corpora/multiauthor/corpus_40_filtered/50658.epub
91|5703aa|TheValleyoftheGiants|0.87|Cluster 1|Peter B. Kyne|Andy Adams|corpora/multiauthor/corpus_40_filtered/5735.epub
92|5703aa|ALittleDuskyHero|0.12|Cluster 1|Harriet T. Comstock|Andy Adams|corpora/multiauthor/corpus_40_filtered/31366.epub
93|5703aa|TheLongChance|0.5|Cluster 1|Peter B. Kyne|Andy Adams|corpora/multiauthor/corpus_40_filtered/6115.epub
94|5703aa|JacquelineoftheCarrierPigeons|0.94|Cluster 1|Augusta Huiell Seaman|Andy Adams|corpora/multiauthor/corpus_40_filtered/57466.epub
95|5703aa|RatintheSkull|0.07|Cluster 1|Rog Phillips|Andy Adams|corpora/multiauthor/corpus_40_filtered/60614.epub
96|5703aa|CappyRicksOrtheSubjugationofMattPeasley|0.54|Cluster 1|Peter B. Kyne|Andy Adams|corpora/multiauthor/corpus_40_filtered/5738.epub
97|5703aa|CaptainScraggsOrTheGreenPeaPirates|0.03|Cluster 1|Peter B. Kyne|Andy Adams|corpora/multiauthor/corpus_40_filtered/18469.epub
98|5703aa|DuncanPolitetheWatchmanofGlenoro|0.61|Cluster 1|Mary Esther Miller MacGregor|Andy Adams|corpora/multiauthor/corpus_40_filtered/28689.epub
99|5703aa|Romance|0.41|Cluster 1|Joseph Conrad|Andy Adams|corpora/multiauthor/corpus_40_filtered/17642.epub
100|5703aa|HelenoftheOldHouse|0.38|Cluster 1|Harold Bell Wright|Andy Adams|corpora/multiauthor/corpus_40_filtered/9410.epub
101|5703aa|OldEbenezer|0.19|Cluster 1|Opie Percival Read|Andy Adams|corpora/multiauthor/corpus_40_filtered/23215.epub
102|5703aa|AWomansWill|0.52|Cluster 1|Anne Warner|Andy Adams|corpora/multiauthor/corpus_40_filtered/27225.epub
103|5703aa|TheHouseofSouls|0.15|Cluster 1|Arthur Machen|Andy Adams|corpora/multiauthor/corpus_40_filtered/25016.epub
104|5703aa|TheJucklinsANovel|0.24|Cluster 1|Opie Percival Read|Andy Adams|corpora/multiauthor/corpus_40_filtered/26499.epub
105|5703aa|ThePrideofPalomar|0.05|Cluster 1|Peter B. Kyne|Andy Adams|corpora/multiauthor/corpus_40_filtered/16674.epub
106|5703aa|CattleBrandsACollectionofWesternCampFireStories|0.38|Cluster 1|Andy Adams|Andy Adams|corpora/multiauthor/corpus_40_filtered/12281.epub
107|5703aa|WhenaCobblerRuledtheKing|0.22|Cluster 1|Augusta Huiell Seaman|Andy Adams|corpora/multiauthor/corpus_40_filtered/38570.epub
108|5703aa|ByAdviceofCounsel|0.01|Cluster 1|Arthur Cheney Train|Andy Adams|corpora/multiauthor/corpus_40_filtered/11987.epub
109|5703aa|MysteryoftheAmbushinIndiaABiffBrewsterMysteryAdventure|0.21|Cluster 1|Andy Adams|Andy Adams|corpora/multiauthor/corpus_40_filtered/51830.epub
110|5703aa|PecksBadBoyAbroadBeingaHumorousDescriptionoftheBadBoyandHisDadinTheirJourneysThroughForeignLands1904|0.26|Cluster 1|George W. Peck|Andy Adams|corpora/multiauthor/corpus_40_filtered/25489.epub
111|5703aa|DaddyLongLegs|0.65|Cluster 1|Jean Webster|Andy Adams|corpora/multiauthor/corpus_40_filtered/157.epub
112|5703aa|JudgeElbridge|0.01|Cluster 1|Opie Percival Read|Andy Adams|corpora/multiauthor/corpus_40_filtered/46699.epub
113|5703aa|PecksBadBoywiththeCircus|0.93|Cluster 1|George W. Peck|Andy Adams|corpora/multiauthor/corpus_40_filtered/10212.epub
114|5703aa|AnArkansasPlanter|0.54|Cluster 1|Opie Percival Read|Andy Adams|corpora/multiauthor/corpus_40_filtered/19107.epub
115|5703aa|AdrienLeroy|0.8|Cluster 1|Charles Garvice|Andy Adams|corpora/multiauthor/corpus_40_filtered/16682.epub
116|5703aa|AMansWoman|0.06|Cluster 1|Frank Norris|Andy Adams|corpora/multiauthor/corpus_40_filtered/16096.epub
117|5703aa|SusanCleggandHerNeighborsAffairs|0.58|Cluster 1|Anne Warner|Andy Adams|corpora/multiauthor/corpus_40_filtered/18987.epub
118|5703aa|Tillie|0.52|Cluster 1|Rog Phillips|Andy Adams|corpora/multiauthor/corpus_40_filtered/32802.epub
119|5703aa|TheColossusANovel|0.12|Cluster 1|Opie Percival Read|Andy Adams|corpora/multiauthor/corpus_40_filtered/15073.epub
120|5703aa|SunshineJane|0.28|Cluster 1|Anne Warner|Andy Adams|corpora/multiauthor/corpus_40_filtered/37972.epub
121|5703aa|TalesoftheEnchantedIslandsoftheAtlantic|0.22|Cluster 1|Thomas Wentworth Higginson|Andy Adams|corpora/multiauthor/corpus_40_filtered/7098.epub
122|5703aa|TheCampFireGirlsatCampKeewaydinOrPaddlesDown|0.87|Cluster 1|Hildegard G. Frey|Andy Adams|corpora/multiauthor/corpus_40_filtered/10688.epub
123|5703aa|TheDiaryofanEnnuyée|0.19|Cluster 1|Mrs. Jameson|Andy Adams|corpora/multiauthor/corpus_40_filtered/18049.epub
124|5703aa|TheThreeImpostorsorTheTransmutations|0.29|Cluster 1|Arthur Machen|Andy Adams|corpora/multiauthor/corpus_40_filtered/35517.epub
125|5703aa|TheCampFireGirlsintheMaineWoodsOrTheWinnebagosGoCamping|0.75|Cluster 1|Hildegard G. Frey|Andy Adams|corpora/multiauthor/corpus_40_filtered/18606.epub
126|5703aa|JustPatty|0.05|Cluster 1|Jean Webster|Andy Adams|corpora/multiauthor/corpus_40_filtered/21048.epub
127|5703aa|TheCampFireGirlsatSchoolOrTheWoheloWeavers|0.91|Cluster 1|Hildegard G. Frey|Andy Adams|corpora/multiauthor/corpus_40_filtered/11718.epub
128|5703aa|BrazilianGoldMineMysteryABiffBrewsterMysteryAdventure|0.1|Cluster 1|Andy Adams|Andy Adams|corpora/multiauthor/corpus_40_filtered/51538.epub
129|5703aa|BlackForestVillageStories|0.08|Cluster 1|Berthold Auerbach|Andy Adams|corpora/multiauthor/corpus_40_filtered/32517.epub
130|5703aa|InaMysteriousWay|0.54|Cluster 1|Anne Warner|Andy Adams|corpora/multiauthor/corpus_40_filtered/37515.epub
131|5703aa|AnnieLaurieandAzalea|0.15|Cluster 1|Elia Wilkinson Peattie|Andy Adams|corpora/multiauthor/corpus_40_filtered/53975.epub
132|5703aa|JerryJunior|0.28|Cluster 1|Jean Webster|Andy Adams|corpora/multiauthor/corpus_40_filtered/20358.epub
133|5703aa|TheDragonsSecret|0.8|Cluster 1|Augusta Huiell Seaman|Andy Adams|corpora/multiauthor/corpus_40_filtered/25770.epub
134|5703aa|TheShortCut|0.94|Cluster 1|Jackson Gregory|Andy Adams|corpora/multiauthor/corpus_40_filtered/18950.epub
135|5703aa|AzaleasSilverWeb|0.7|Cluster 1|Elia Wilkinson Peattie|Andy Adams|corpora/multiauthor/corpus_40_filtered/55304.epub
136|5703aa|HildaAStoryofCalcutta|0.17|Cluster 1|Sara Jeannette Duncan|Andy Adams|corpora/multiauthor/corpus_40_filtered/18051.epub
137|5703aa|YeofLittleFaith|0.61|Cluster 1|Rog Phillips|Andy Adams|corpora/multiauthor/corpus_40_filtered/32663.epub
138|5703aa|TrueStoriesofCrimeFromtheDistrictAttorneysOffice|0.59|Cluster 1|Arthur Cheney Train|Andy Adams|corpora/multiauthor/corpus_40_filtered/13172.epub
139|5703aa|MalboneAnOldportRomance|0.23|Cluster 1|Thomas Wentworth Higginson|Andy Adams|corpora/multiauthor/corpus_40_filtered/993.epub
140|5703aa|TheManWhoRockedtheEarth|0.73|Cluster 1|Arthur Cheney Train|Andy Adams|corpora/multiauthor/corpus_40_filtered/19174.epub
141|5703aa|AzaleaatSunsetGap|0.47|Cluster 1|Elia Wilkinson Peattie|Andy Adams|corpora/multiauthor/corpus_40_filtered/54813.epub
142|5703aa|AdolescentsOnly|0.52|Cluster 1|Irving E. Cox|Andy Adams|corpora/multiauthor/corpus_40_filtered/32651.epub
143|5703aa|AtLovesCost|0.89|Cluster 1|Charles Garvice|Andy Adams|corpora/multiauthor/corpus_40_filtered/10379.epub
144|5703aa|ASonoftheHills|0.36|Cluster 1|Harriet T. Comstock|Andy Adams|corpora/multiauthor/corpus_40_filtered/20424.epub
145|5703aa|SusanCleggandaManintheHouse|0.35|Cluster 1|Anne Warner|Andy Adams|corpora/multiauthor/corpus_40_filtered/22872.epub
146|5703aa|ADaughterofToDay|0.49|Cluster 1|Sara Jeannette Duncan|Andy Adams|corpora/multiauthor/corpus_40_filtered/14490.epub
147|5703aa|WaldfriedANovel|0.87|Cluster 1|Berthold Auerbach|Andy Adams|corpora/multiauthor/corpus_40_filtered/32446.epub
148|5703aa|TheEndoftheRainbow|0.87|Cluster 1|Mary Esther Miller MacGregor|Andy Adams|corpora/multiauthor/corpus_40_filtered/28276.epub
149|5703aa|AttheCrossroads|0.87|Cluster 1|Harriet T. Comstock|Andy Adams|corpora/multiauthor/corpus_40_filtered/30095.epub
150|5703aa|SketchesinCanadaandramblesamongtheredmen|0.29|Cluster 1|Mrs. Jameson|Andy Adams|corpora/multiauthor/corpus_40_filtered/35224.epub
151|5703aa|MysteryoftheChineseRingABiffBrewsterMysteryAdventure|0.17|Cluster 1|Andy Adams|Andy Adams|corpora/multiauthor/corpus_40_filtered/51608.epub
152|5703aa|ArmyLifeinaBlackRegiment|0.03|Cluster 1|Thomas Wentworth Higginson|Andy Adams|corpora/multiauthor/corpus_40_filtered/6764.epub
153|5703aa|PecksCompendiumofFunComprisingtheChoicestGemsofWitHumorSarcasmandPathosofAmericasFavoriteHumorist|0.22|Cluster 1|George W. Peck|Andy Adams|corpora/multiauthor/corpus_40_filtered/14815.epub
154|5703aa|TheGirlNextDoor|0.75|Cluster 1|Augusta Huiell Seaman|Andy Adams|corpora/multiauthor/corpus_40_filtered/39896.epub
155|5703aa|ThePlaceBeyondtheWinds|0.12|Cluster 1|Harriet T. Comstock|Andy Adams|corpora/multiauthor/corpus_40_filtered/18488.epub
156|5703aa|TheLairoftheWhiteWorm|0.12|Cluster 1|Bram Stoker|Andy Adams|corpora/multiauthor/corpus_40_filtered/1188.epub
157|5703aa|ThatPrinterofUdellsAStoryoftheMiddleWest|0.57|Cluster 1|Harold Bell Wright|Andy Adams|corpora/multiauthor/corpus_40_filtered/6384.epub
158|5703aa|SusanCleggandHerFriendMrsLathrop|0.28|Cluster 1|Anne Warner|Andy Adams|corpora/multiauthor/corpus_40_filtered/15899.epub
159|5703aa|MyYoungMasterANovel|0.26|Cluster 1|Opie Percival Read|Andy Adams|corpora/multiauthor/corpus_40_filtered/59834.epub
160|5703aa|AVoyageofConsolationbeinginthenatureofasequeltotheexperiencesofAnAmericangirlinLondon|0.15|Cluster 1|Sara Jeannette Duncan|Andy Adams|corpora/multiauthor/corpus_40_filtered/15966.epub
161|5703aa|JoyceoftheNorthWoods|0.17|Cluster 1|Harriet T. Comstock|Andy Adams|corpora/multiauthor/corpus_40_filtered/19225.epub
162|5703aa|TheCampFireGirlsonEllensIsleOrTheTrailoftheSevenCedars|0.94|Cluster 1|Hildegard G. Frey|Andy Adams|corpora/multiauthor/corpus_40_filtered/30825.epub
163|5703aa|TheLogofaCowboyANarrativeoftheOldTrailDays|0.58|Cluster 1|Andy Adams|Andy Adams|corpora/multiauthor/corpus_40_filtered/12797.epub
164|5703aa|TheCampFireGirlsDoTheirBitOrOvertheTopwiththeWinnebagos|0.45|Cluster 1|Hildegard G. Frey|Andy Adams|corpora/multiauthor/corpus_40_filtered/11664.epub
165|5703aa|APassagetoIndia|0.75|Cluster 1|E. M. Forster|Andy Adams|corpora/multiauthor/corpus_40_filtered/61221.epub
166|5703aa|"TheConfessionsofArtemasQuibbleBeingtheIngenuousandUnvarnishedHistoryofArtemasQuibbleEsquireOneTimePractitionerintheNewYorkCriminalCourtsTogetherwithanAccountoftheDiversWilesTricksSophistriesTechnicalitiesandSundryArtificesofHimselfandOthersoftheFraternityCommonlyYclept""Shysters""or""ShysterLawyers"""|0.33|Cluster 1|Arthur Cheney Train|Andy Adams|corpora/multiauthor/corpus_40_filtered/20451.epub
167|5703aa|UnderHandicapANovel|0.13|Cluster 1|Jackson Gregory|Andy Adams|corpora/multiauthor/corpus_40_filtered/17981.epub
168|5703aa|ThreeSidesofParadiseGreen|0.52|Cluster 1|Augusta Huiell Seaman|Andy Adams|corpora/multiauthor/corpus_40_filtered/52946.epub
169|5703aa|JosephintheSnowandTheClockmakerInThreeVolumesVolII|0.03|Cluster 1|Berthold Auerbach|Andy Adams|corpora/multiauthor/corpus_40_filtered/33163.epub
170|5703aa|TheMiraclesofAntichristANovel|0.93|Cluster 1|Selma Lagerlöf|Andy Adams|corpora/multiauthor/corpus_40_filtered/54615.epub
171|5703aa|TheThirdCircle|0.71|Cluster 1|Frank Norris|Andy Adams|corpora/multiauthor/corpus_40_filtered/48620.epub
172|5703aa|TheOutlet|0.92|Cluster 1|Andy Adams|Andy Adams|corpora/multiauthor/corpus_40_filtered/1987.epub
173|5703aa|AnAmericanGirlinLondon|0.54|Cluster 1|Sara Jeannette Duncan|Andy Adams|corpora/multiauthor/corpus_40_filtered/45925.epub
174|5703aa|TheBrownOwlAFairyStory|0.1|Cluster 1|Ford Madox Ford|Andy Adams|corpora/multiauthor/corpus_40_filtered/48860.epub
175|5703aa|PharosandPharillon|0.15|Cluster 1|E. M. Forster|Andy Adams|corpora/multiauthor/corpus_40_filtered/61116.epub
176|5703aa|JosephintheSnowandTheClockmakerInThreeVolumesVolIII|0.52|Cluster 1|Berthold Auerbach|Andy Adams|corpora/multiauthor/corpus_40_filtered/33164.epub
177|5703aa|OnlyOneLoveorWhoWastheHeir|0.8|Cluster 1|Charles Garvice|Andy Adams|corpora/multiauthor/corpus_40_filtered/35523.epub
178|5703aa|ThePathofaStar|0.56|Cluster 1|Sara Jeannette Duncan|Andy Adams|corpora/multiauthor/corpus_40_filtered/5102.epub
179|5703aa|TheThreeGodfathers|0.75|Cluster 1|Peter B. Kyne|Andy Adams|corpora/multiauthor/corpus_40_filtered/51942.epub
180|5703aa|KindredoftheDust|0.96|Cluster 1|Peter B. Kyne|Andy Adams|corpora/multiauthor/corpus_40_filtered/13532.epub
181|5703aa|TheSilverMaple|0.98|Cluster 1|Mary Esther Miller MacGregor|Andy Adams|corpora/multiauthor/corpus_40_filtered/28688.epub
182|5703aa|TheCampFireGirlsSolveaMysteryOrTheChristmasAdventureatCarverHouse|0.98|Cluster 1|Hildegard G. Frey|Andy Adams|corpora/multiauthor/corpus_40_filtered/38983.epub
183|5703aa|Mortmain|0.91|Cluster 1|Arthur Cheney Train|Andy Adams|corpora/multiauthor/corpus_40_filtered/37346.epub
184|5703aa|IllustrativeAnecdotesoftheAnimalKingdom|0.2|Cluster 1|Samuel G. Goodrich|Andy Adams|corpora/multiauthor/corpus_40_filtered/33687.epub
185|5703aa|CappyRicksRetiresButThatDoesntKeepHimfromComingBackStrongerThanEver|0.1|Cluster 1|Peter B. Kyne|Andy Adams|corpora/multiauthor/corpus_40_filtered/6020.epub
186|5703aa|JudithofBlueLakeRanch|0.82|Cluster 1|Jackson Gregory|Andy Adams|corpora/multiauthor/corpus_40_filtered/18926.epub
187|5703aa|TheCelestialOmnibusandOtherStories|0.96|Cluster 1|E. M. Forster|Andy Adams|corpora/multiauthor/corpus_40_filtered/34089.epub
188|5703aa|FarOffThings|0.94|Cluster 1|Arthur Machen|Andy Adams|corpora/multiauthor/corpus_40_filtered/35153.epub
189|5703aa|PecksUncleIkeandTheRedHeadedBoy1899|0.24|Cluster 1|George W. Peck|Andy Adams|corpora/multiauthor/corpus_40_filtered/25490.epub
190|5703aa|McTeagueAStoryofSanFrancisco|0.94|Cluster 1|Frank Norris|Andy Adams|corpora/multiauthor/corpus_40_filtered/165.epub
191|5703aa|TheBlackBeardedBarbarianTheLifeofGeorgeLeslieMackayofFormosa|0.78|Cluster 1|Mary Esther Miller MacGregor|Andy Adams|corpora/multiauthor/corpus_40_filtered/1759.epub
192|5703aa|PecksBadBoyandHisPa1883|0.87|Cluster 1|George W. Peck|Andy Adams|corpora/multiauthor/corpus_40_filtered/25487.epub
193|5703aa|SixFeetFour|0.98|Cluster 1|Jackson Gregory|Andy Adams|corpora/multiauthor/corpus_40_filtered/15148.epub
194|5703aa|TheWomansWay|0.49|Cluster 1|Charles Garvice|Andy Adams|corpora/multiauthor/corpus_40_filtered/19411.epub
195|5703aa|TheMysteryoftheSea|0.17|Cluster 1|Bram Stoker|Andy Adams|corpora/multiauthor/corpus_40_filtered/42455.epub
196|5703aa|Bolanyo|0.33|Cluster 1|Opie Percival Read|Andy Adams|corpora/multiauthor/corpus_40_filtered/38826.epub
197|5703aa|HisHonourandaLady|0.42|Cluster 1|Sara Jeannette Duncan|Andy Adams|corpora/multiauthor/corpus_40_filtered/53036.epub
198|5703aa|JustaGirl|0.94|Cluster 1|Charles Garvice|Andy Adams|corpora/multiauthor/corpus_40_filtered/57166.epub
199|5703aa|ARoomwithaView|0.26|Cluster 1|E. M. Forster|Andy Adams|corpora/multiauthor/corpus_40_filtered/2641.epub
200|5703aa|Unthinkable|0.94|Cluster 1|Rog Phillips|Andy Adams|corpora/multiauthor/corpus_40_filtered/27491.epub
201|5703aa|DraculasGuest|0.57|Cluster 1|Bram Stoker|Andy Adams|corpora/multiauthor/corpus_40_filtered/10150.epub
202|5703aa|DaddyLongLegsAComedyinFourActs|0.33|Cluster 1|Jean Webster|Andy Adams|corpora/multiauthor/corpus_40_filtered/40426.epub
203|5703aa|MoranoftheLadyLetty|0.57|Cluster 1|Frank Norris|Andy Adams|corpora/multiauthor/corpus_40_filtered/321.epub
204|5703aa|TheReCreationofBrianKent|0.52|Cluster 1|Harold Bell Wright|Andy Adams|corpora/multiauthor/corpus_40_filtered/3265.epub
205|5703aa|"The""Goldfish""BeingtheConfessionsafaSuccessfulMan"|0.73|Cluster 1|Arthur Cheney Train|Andy Adams|corpora/multiauthor/corpus_40_filtered/12920.epub
206|5703aa|WhenAMansAMan|0.36|Cluster 1|Harold Bell Wright|Andy Adams|corpora/multiauthor/corpus_40_filtered/14367.epub
207|5703aa|NellofShorneMillsorOneHeartsBurden|0.52|Cluster 1|Charles Garvice|Andy Adams|corpora/multiauthor/corpus_40_filtered/22961.epub
208|5703aa|TheManThouGavest|0.63|Cluster 1|Harriet T. Comstock|Andy Adams|corpora/multiauthor/corpus_40_filtered/14858.epub
209|5703aa|DaughteroftheSunATaleofAdventure|0.64|Cluster 1|Jackson Gregory|Andy Adams|corpora/multiauthor/corpus_40_filtered/18916.epub
210|5703aa|PecksSunshineBeingaCollectionofArticlesWrittenforPecksSunMilwaukeeWis1882|0.33|Cluster 1|George W. Peck|Andy Adams|corpora/multiauthor/corpus_40_filtered/25491.epub
211|5703aa|SusanCleggandHerLoveAffairs|0.0|Cluster 1|Anne Warner|Andy Adams|corpora/multiauthor/corpus_40_filtered/37289.epub
212|5703aa|Blix|0.34|Cluster 1|Frank Norris|Andy Adams|corpora/multiauthor/corpus_40_filtered/401.epub
213|5703aa|PaintedWindows|0.19|Cluster 1|Elia Wilkinson Peattie|Andy Adams|corpora/multiauthor/corpus_40_filtered/1875.epub
214|5703aa|Webster—MansMan|0.43|Cluster 1|Peter B. Kyne|Andy Adams|corpora/multiauthor/corpus_40_filtered/51987.epub
215|5703aa|TheCampFireGirlsGoMotoringOrAlongtheRoadThatLeadstheWay|0.01|Cluster 1|Hildegard G. Frey|Andy Adams|corpora/multiauthor/corpus_40_filtered/6895.epub
216|5703aa|TheCampFireGirlsatOnowayHouseOrTheMagicGarden|0.84|Cluster 1|Hildegard G. Frey|Andy Adams|corpora/multiauthor/corpus_40_filtered/36833.epub
217|5703aa|TheShepherdoftheHills|0.77|Cluster 1|Harold Bell Wright|Andy Adams|corpora/multiauthor/corpus_40_filtered/4735.epub
0|5703aa|FiscalBallads|100.0|Cluster 2|Harry Graham|unknown_3|corpora/multiauthor/corpus_40_filtered/36038.epub
1|5703aa|PervertedProverbsAManualofImmoralsfortheMany|0.35|Cluster 2|Harry Graham|unknown_3|corpora/multiauthor/corpus_40_filtered/34790.epub
0|5703aa|TheGuardians|100.0|Cluster 3|Irving E. Cox|Irving E. Cox|corpora/multiauthor/corpus_40_filtered/24152.epub
1|5703aa|MiraclebyPrice|0.03|Cluster 3|Irving E. Cox|Irving E. Cox|corpora/multiauthor/corpus_40_filtered/58730.epub
2|5703aa|TheEarthman|0.71|Cluster 3|Irving E. Cox|Irving E. Cox|corpora/multiauthor/corpus_40_filtered/59458.epub
3|5703aa|LoveStory|0.54|Cluster 3|Irving E. Cox|Irving E. Cox|corpora/multiauthor/corpus_40_filtered/32078.epub
4|5703aa|TheGallery|0.73|Cluster 3|Rog Phillips|Irving E. Cox|corpora/multiauthor/corpus_40_filtered/26936.epub
5|5703aa|TheCartelsJungle|0.91|Cluster 3|Irving E. Cox|Irving E. Cox|corpora/multiauthor/corpus_40_filtered/31062.epub
6|5703aa|TheAlmostMen|0.15|Cluster 3|Irving E. Cox|Irving E. Cox|corpora/multiauthor/corpus_40_filtered/59356.epub
7|5703aa|Impact|0.78|Cluster 3|Irving E. Cox|Irving E. Cox|corpora/multiauthor/corpus_40_filtered/25567.epub
0|5703aa|CubeRootofConquest|100.0|Cluster 4|Rog Phillips|Rog Phillips|corpora/multiauthor/corpus_40_filtered/32712.epub
1|5703aa|Aloys|0.95|Cluster 4|R. A. Lafferty|Rog Phillips|corpora/multiauthor/corpus_40_filtered/51596.epub
2|5703aa|GamePreserve|0.75|Cluster 4|Rog Phillips|Rog Phillips|corpora/multiauthor/corpus_40_filtered/60393.epub
3|5703aa|TheOldMartians|0.4|Cluster 4|Rog Phillips|Rog Phillips|corpora/multiauthor/corpus_40_filtered/32590.epub
4|5703aa|TheUnthinkingDestroyer|0.24|Cluster 4|Rog Phillips|Rog Phillips|corpora/multiauthor/corpus_40_filtered/30683.epub
5|5703aa|TheSurrenderofSantiagoAnAccountoftheHistoricSurrenderofSantiagotoGeneralShafterJuly171898|0.37|Cluster 4|Frank Norris|Rog Phillips|corpora/multiauthor/corpus_40_filtered/26026.epub
6|5703aa|CaptainPeabody|0.45|Cluster 4|Rog Phillips|Rog Phillips|corpora/multiauthor/corpus_40_filtered/60442.epub
0|5703aa|AShortHistoryofChristianitySecondEditionRevisedWithAdditions|100.0|Cluster 5|J. M. Robertson|J. M. Robertson|corpora/multiauthor/corpus_40_filtered/52550.epub
1|5703aa|Rationalism|0.54|Cluster 5|J. M. Robertson|J. M. Robertson|corpora/multiauthor/corpus_40_filtered/31941.epub
2|5703aa|PeterParleysTalesAboutAmericaandAustralia|0.82|Cluster 5|Samuel G. Goodrich|J. M. Robertson|corpora/multiauthor/corpus_40_filtered/16891.epub
3|5703aa|MiltonsTercentenaryAnaddressdeliveredbeforetheModernLanguageClubofYaleUniversityonMiltonsThreeHundredthBirthday|0.7|Cluster 5|Henry A. Beers|J. M. Robertson|corpora/multiauthor/corpus_40_filtered/33248.epub
4|5703aa|AShortHistoryofFreethoughtAncientandModernVolume1of2ThirdeditionRevisedandExpandedintwovolumes|0.37|Cluster 5|J. M. Robertson|J. M. Robertson|corpora/multiauthor/corpus_40_filtered/51793.epub
5|5703aa|FamousMenofAncientTimes|0.22|Cluster 5|Samuel G. Goodrich|J. M. Robertson|corpora/multiauthor/corpus_40_filtered/52400.epub
6|5703aa|AHistoryofEnglishRomanticismintheEighteenthCentury|0.12|Cluster 5|Henry A. Beers|J. M. Robertson|corpora/multiauthor/corpus_40_filtered/15447.epub
7|5703aa|CharlesBradlaughaRecordofHisLifeandWorkVolume2of2WithanAccountofhisParliamentaryStrugglePoliticsandTeachingsSeventhEdition|0.36|Cluster 5|Hypatia Bradlaugh Bonner|J. M. Robertson|corpora/multiauthor/corpus_40_filtered/45131.epub
8|5703aa|TheJesusProblemARestatementoftheMythTheory|0.39|Cluster 5|J. M. Robertson|J. M. Robertson|corpora/multiauthor/corpus_40_filtered/53616.epub
9|5703aa|LegendsoftheMadonnaasRepresentedintheFineArts|0.47|Cluster 5|Mrs. Jameson|J. M. Robertson|corpora/multiauthor/corpus_40_filtered/12047.epub
10|5703aa|BuffonsNaturalHistoryVolume01of10ContainingaTheoryoftheEarthaGeneralHistoryofManoftheBruteCreationandofVegetablesMineral&c&c|0.08|Cluster 5|comte de Georges Louis Leclerc Buffon|J. M. Robertson|corpora/multiauthor/corpus_40_filtered/44792.epub
11|5703aa|TheHistoricalJesusASurveyofPositions|0.2|Cluster 5|J. M. Robertson|J. M. Robertson|corpora/multiauthor/corpus_40_filtered/51655.epub
12|5703aa|AShortHistoryofFreethoughtAncientandModernVolume2of2ThirdeditionRevisedandExpandedintwovolumes|0.51|Cluster 5|J. M. Robertson|J. M. Robertson|corpora/multiauthor/corpus_40_filtered/52160.epub
13|5703aa|FamousImpostors|0.59|Cluster 5|Bram Stoker|J. M. Robertson|corpora/multiauthor/corpus_40_filtered/51391.epub
14|5703aa|TheEvolutionofStates|0.5|Cluster 5|J. M. Robertson|J. M. Robertson|corpora/multiauthor/corpus_40_filtered/39860.epub
15|5703aa|FromChaucertoTennysonWithTwentyNinePortraitsandSelectionsfromThirtyAuthors|0.63|Cluster 5|Henry A. Beers|J. M. Robertson|corpora/multiauthor/corpus_40_filtered/11618.epub
16|5703aa|AHistoryofEnglishRomanticismintheNineteenthCentury|0.45|Cluster 5|Henry A. Beers|J. M. Robertson|corpora/multiauthor/corpus_40_filtered/15931.epub
17|5703aa|LecturesontheScienceofLanguage|0.61|Cluster 5|F. Max Müller|J. M. Robertson|corpora/multiauthor/corpus_40_filtered/32856.epub
18|5703aa|BriefHistoryofEnglishandAmericanLiterature|0.55|Cluster 5|Henry A. Beers|J. M. Robertson|corpora/multiauthor/corpus_40_filtered/21090.epub
19|5703aa|AlexandriaAHistoryandaGuide|0.07|Cluster 5|E. M. Forster|J. M. Robertson|corpora/multiauthor/corpus_40_filtered/57010.epub
0|5703aa|MisrepresentativeWomen|100.0|Cluster 6|Harry Graham|Harry Graham|corpora/multiauthor/corpus_40_filtered/42407.epub
1|5703aa|ThePolitePeopleofPudibundia|0.28|Cluster 6|R. A. Lafferty|Harry Graham|corpora/multiauthor/corpus_40_filtered/60955.epub
2|5703aa|TheMotleyMuseRhymesfortheTimes|0.45|Cluster 6|Harry Graham|Harry Graham|corpora/multiauthor/corpus_40_filtered/36543.epub
3|5703aa|MoreMisrepresentativeMen|0.98|Cluster 6|Harry Graham|Harry Graham|corpora/multiauthor/corpus_40_filtered/36782.epub
4|5703aa|RuthlessRhymesforHeartlessHomes|0.47|Cluster 6|Harry Graham|Harry Graham|corpora/multiauthor/corpus_40_filtered/35051.epub
5|5703aa|MisrepresentativeMen|0.08|Cluster 6|Harry Graham|Harry Graham|corpora/multiauthor/corpus_40_filtered/36321.epub
6|5703aa|TheStoryoftheSiren|0.37|Cluster 6|E. M. Forster|Harry Graham|corpora/multiauthor/corpus_40_filtered/58581.epub
7|5703aa|FamiliarFaces|0.64|Cluster 6|Harry Graham|Harry Graham|corpora/multiauthor/corpus_40_filtered/35059.epub
0|5703aa|Poems|100.0|Cluster 7|Samuel G. Goodrich|Samuel G. Goodrich|corpora/multiauthor/corpus_40_filtered/11558.epub
1|5703aa|TheTwoTwilights|0.57|Cluster 7|Henry A. Beers|Samuel G. Goodrich|corpora/multiauthor/corpus_40_filtered/34741.epub
2|5703aa|PoemsYouOughttoKnow|0.4|Cluster 7|Elia Wilkinson Peattie|Samuel G. Goodrich|corpora/multiauthor/corpus_40_filtered/53415.epub
3|5703aa|TheUncrownedKing|0.7|Cluster 7|Harold Bell Wright|Samuel G. Goodrich|corpora/multiauthor/corpus_40_filtered/12991.epub
0|5703aa|PrivySealHisLastVenture|100.0|Cluster 8|Ford Madox Ford|Ford Madox Ford|corpora/multiauthor/corpus_40_filtered/26698.epub
1|5703aa|LAllegroIlPenserosoComusandLycidas|0.72|Cluster 8|John Milton|Ford Madox Ford|corpora/multiauthor/corpus_40_filtered/397.epub
2|5703aa|WildMargaret|0.07|Cluster 8|Charles Garvice|Ford Madox Ford|corpora/multiauthor/corpus_40_filtered/44828.epub
3|5703aa|ADaywithRobertLouisStevenson|0.4|Cluster 8|May Byron|Ford Madox Ford|corpora/multiauthor/corpus_40_filtered/53165.epub
4|5703aa|TheTerrorAMystery|0.68|Cluster 8|Arthur Machen|Ford Madox Ford|corpora/multiauthor/corpus_40_filtered/35617.epub
5|5703aa|ThePoeticalWorksofJohnMilton|0.1|Cluster 8|John Milton|Ford Madox Ford|corpora/multiauthor/corpus_40_filtered/1745.epub
6|5703aa|VisitsandSketchesatHomeandAbroadVol3of3WithTalesandMiscellaniesNowFirstCollected|0.13|Cluster 8|Mrs. Jameson|Ford Madox Ford|corpora/multiauthor/corpus_40_filtered/36820.epub
7|5703aa|"ChristianGellertsLastChristmasFrom""GermanTales""PublishedbytheAmericanPublishersCorporation"|0.93|Cluster 8|Berthold Auerbach|Ford Madox Ford|corpora/multiauthor/corpus_40_filtered/22665.epub
8|5703aa|TheFifthQueenAndHowSheCametoCourt|0.8|Cluster 8|Ford Madox Ford|Ford Madox Ford|corpora/multiauthor/corpus_40_filtered/30188.epub
9|5703aa|ParadiseLost|0.3|Cluster 8|John Milton|Ford Madox Ford|corpora/multiauthor/corpus_40_filtered/20.epub
10|5703aa|TheWorksofCharlesandMaryLamb—Volume3BooksforChildren|0.99|Cluster 8|Charles Lamb|Ford Madox Ford|corpora/multiauthor/corpus_40_filtered/10130.epub
11|5703aa|StoriesofSiegfriedToldtotheChildren|0.1|Cluster 8|Mary Esther Miller MacGregor|Ford Madox Ford|corpora/multiauthor/corpus_40_filtered/26181.epub
12|5703aa|FromaSwedishHomestead|0.0|Cluster 8|Selma Lagerlöf|Ford Madox Ford|corpora/multiauthor/corpus_40_filtered/44630.epub
13|5703aa|TheQueenWhoFlewAFairyTale|0.8|Cluster 8|Ford Madox Ford|Ford Madox Ford|corpora/multiauthor/corpus_40_filtered/52636.epub
14|5703aa|StoriesfromtheBalladsToldtotheChildren|0.56|Cluster 8|Mary Esther Miller MacGregor|Ford Madox Ford|corpora/multiauthor/corpus_40_filtered/22175.epub
15|5703aa|WhereAngelsFeartoTread|0.17|Cluster 8|E. M. Forster|Ford Madox Ford|corpora/multiauthor/corpus_40_filtered/2948.epub
16|5703aa|TheLongestJourney|0.47|Cluster 8|E. M. Forster|Ford Madox Ford|corpora/multiauthor/corpus_40_filtered/2604.epub
17|5703aa|StoriesofKingArthursKnightsToldtotheChildrenbyMaryMacGregor|0.64|Cluster 8|Mary Esther Miller MacGregor|Ford Madox Ford|corpora/multiauthor/corpus_40_filtered/25654.epub
18|5703aa|OnlyaGirlsLove|0.19|Cluster 8|Charles Garvice|Ford Madox Ford|corpora/multiauthor/corpus_40_filtered/53416.epub
19|5703aa|MemoirsoftheCourtsofLouisXVandXVI—Volume2BeingsecretmemoirsofMadameDuHaussetladysmaidtoMadamedePompadourandofthePrincessLamballe|0.35|Cluster 8|Mme. Du Hausset|Ford Madox Ford|corpora/multiauthor/corpus_40_filtered/3877.epub
20|5703aa|TheirYesterdays|0.63|Cluster 8|Harold Bell Wright|Ford Madox Ford|corpora/multiauthor/corpus_40_filtered/6105.epub
21|5703aa|TheMan|0.45|Cluster 8|Bram Stoker|Ford Madox Ford|corpora/multiauthor/corpus_40_filtered/2520.epub
22|5703aa|TheTreasure|0.4|Cluster 8|Selma Lagerlöf|Ford Madox Ford|corpora/multiauthor/corpus_40_filtered/5161.epub
23|5703aa|TheFifthQueenCrowned|0.2|Cluster 8|Ford Madox Ford|Ford Madox Ford|corpora/multiauthor/corpus_40_filtered/27432.epub
24|5703aa|TheYoungLovellARomance|0.74|Cluster 8|Ford Madox Ford|Ford Madox Ford|corpora/multiauthor/corpus_40_filtered/42801.epub
0|5703aa|IndexoftheProjectGutenbergWorksofBramStoker|100.0|Cluster 9|Bram Stoker|Bram Stoker|corpora/multiauthor/corpus_40_filtered/59671.epub
1|5703aa|ChipsfromaGermanWorkshopVolume4EssaysChieflyontheScienceofLanguage|0.25|Cluster 9|F. Max Müller|Bram Stoker|corpora/multiauthor/corpus_40_filtered/30192.epub
2|5703aa|IndexoftheProjectGutenbergWorksofThomasWentworthHigginson|0.67|Cluster 9|Thomas Wentworth Higginson|Bram Stoker|corpora/multiauthor/corpus_40_filtered/59301.epub
3|5703aa|IndexoftheProjectGutenbergWorksofImmanuelKant|0.57|Cluster 9|Immanuel Kant|Bram Stoker|corpora/multiauthor/corpus_40_filtered/59023.epub
0|5703aa|AMichiganMan1891|100.0|Cluster 10|Elia Wilkinson Peattie|Elia Wilkinson Peattie|corpora/multiauthor/corpus_40_filtered/23176.epub
1|5703aa|TheHillofDreams|0.98|Cluster 10|Arthur Machen|Elia Wilkinson Peattie|corpora/multiauthor/corpus_40_filtered/13969.epub
2|5703aa|RobinsRambles|0.09|Cluster 10|May Byron|Elia Wilkinson Peattie|corpora/multiauthor/corpus_40_filtered/38504.epub
0|5703aa|AllthePeople|100.0|Cluster 11|R. A. Lafferty|R. A. Lafferty|corpora/multiauthor/corpus_40_filtered/51603.epub
1|5703aa|TheWeirdestWorld|0.82|Cluster 11|R. A. Lafferty|R. A. Lafferty|corpora/multiauthor/corpus_40_filtered/51774.epub
2|5703aa|IntheGarden|0.38|Cluster 11|R. A. Lafferty|R. A. Lafferty|corpora/multiauthor/corpus_40_filtered/61007.epub
3|5703aa|SodomandGomorrahTexas|0.31|Cluster 11|R. A. Lafferty|R. A. Lafferty|corpora/multiauthor/corpus_40_filtered/23161.epub
4|5703aa|SevenDayTerror|0.33|Cluster 11|R. A. Lafferty|R. A. Lafferty|corpora/multiauthor/corpus_40_filtered/61128.epub
5|5703aa|McGonigalsWorm|0.31|Cluster 11|R. A. Lafferty|R. A. Lafferty|corpora/multiauthor/corpus_40_filtered/60940.epub
0|5703aa|ADaywithLordByron|100.0|Cluster 12|May Byron|May Byron|corpora/multiauthor/corpus_40_filtered/32990.epub
1|5703aa|ADaywithWilliamShakespeare|0.49|Cluster 12|May Byron|May Byron|corpora/multiauthor/corpus_40_filtered/40441.epub
2|5703aa|ADaywithKeats|0.05|Cluster 12|May Byron|May Byron|corpora/multiauthor/corpus_40_filtered/30451.epub
3|5703aa|ADaywithWaltWhitman|0.19|Cluster 12|May Byron|May Byron|corpora/multiauthor/corpus_40_filtered/36305.epub
4|5703aa|ADaywithSamuelTaylorColeridge|0.52|Cluster 12|May Byron|May Byron|corpora/multiauthor/corpus_40_filtered/36337.epub
5|5703aa|ADaywithLudwigBeethoven|0.63|Cluster 12|May Byron|May Byron|corpora/multiauthor/corpus_40_filtered/59672.epub
0|5703aa|FirthsWorld|100.0|Cluster 13|Irving E. Cox|unknown_14|corpora/multiauthor/corpus_40_filtered/59252.epub
1|5703aa|DreamWorld|0.01|Cluster 13|R. A. Lafferty|unknown_14|corpora/multiauthor/corpus_40_filtered/51668.epub
0|5703aa|OftheInjusticeofCounterfeitingBooksFromEssaysandTreatiesonMoralPoliticalandvariousPhilosophicalSubjects|100.0|Cluster 14|Immanuel Kant|Immanuel Kant|corpora/multiauthor/corpus_40_filtered/46060.epub
0|5703aa|QuotesandImagesFromMemoirsofLouisXVandXVI|100.0|Cluster 15|Mme. Du Hausset|Mme. Du Hausset|corpora/multiauthor/corpus_40_filtered/7561.epub
1|5703aa|"WorksofGeorgeWPeckALinkedIndextotheProjectGutenbergEditionsofthe""BadBoy""SeriesandOthers"|0.54|Cluster 15|George W. Peck|Mme. Du Hausset|corpora/multiauthor/corpus_40_filtered/28970.epub
