threshold;Purity;MutualInformation;Accuracy;Clusters
0.6;0.0532994923857868;0.08311497663115357;0.0532994923857868;3
0.601010101010101;0.0532994923857868;0.08311497663115357;0.0532994923857868;3
0.602020202020202;0.0532994923857868;0.08311497663115357;0.0532994923857868;3
0.603030303030303;0.0532994923857868;0.08311497663115357;0.0532994923857868;3
0.604040404040404;0.0532994923857868;0.08311497663115357;0.0532994923857868;3
0.6050505050505051;0.05583756345177665;0.12735037442876332;0.05583756345177665;4
0.6060606060606061;0.05583756345177665;0.12735037442876332;0.05583756345177665;4
0.6070707070707071;0.05583756345177665;0.12735037442876332;0.05583756345177665;4
0.6080808080808081;0.05583756345177665;0.12735037442876332;0.05583756345177665;4
0.609090909090909;0.05583756345177665;0.12735037442876332;0.05583756345177665;4
0.61010101010101;0.05583756345177665;0.12735037442876332;0.05583756345177665;4
0.611111111111111;0.05583756345177665;0.12735037442876332;0.05583756345177665;4
0.6121212121212121;0.05583756345177665;0.12735037442876332;0.05583756345177665;4
0.6131313131313131;0.05583756345177665;0.12735037442876332;0.05583756345177665;4
0.6141414141414141;0.05583756345177665;0.12735037442876332;0.05583756345177665;4
0.6151515151515151;0.05583756345177665;0.12735037442876332;0.05583756345177665;4
0.6161616161616161;0.05583756345177665;0.12735037442876332;0.05583756345177665;4
0.6171717171717171;0.05583756345177665;0.12735037442876332;0.05583756345177665;4
0.6181818181818182;0.05583756345177665;0.12735037442876332;0.05583756345177665;4
0.6191919191919192;0.05583756345177665;0.12735037442876332;0.05583756345177665;4
0.6202020202020202;0.05583756345177665;0.12735037442876332;0.05583756345177665;4
0.6212121212121212;0.05583756345177665;0.12735037442876332;0.05583756345177665;4
0.6222222222222222;0.05583756345177665;0.12735037442876332;0.05583756345177665;4
0.6232323232323232;0.05583756345177665;0.12735037442876332;0.05583756345177665;4
0.6242424242424243;0.05583756345177665;0.12735037442876332;0.05583756345177665;4
0.6252525252525252;0.05583756345177665;0.12735037442876332;0.05583756345177665;4
0.6262626262626262;0.05583756345177665;0.12735037442876332;0.05583756345177665;4
0.6272727272727272;0.05583756345177665;0.12735037442876332;0.05583756345177665;4
0.6282828282828282;0.05583756345177665;0.12735037442876332;0.05583756345177665;4
0.6292929292929292;0.05583756345177665;0.12735037442876332;0.05583756345177665;4
0.6303030303030303;0.05583756345177665;0.12735037442876332;0.05583756345177665;4
0.6313131313131313;0.05583756345177665;0.12735037442876332;0.05583756345177665;4
0.6323232323232323;0.05583756345177665;0.12735037442876332;0.05583756345177665;4
0.6333333333333333;0.05583756345177665;0.12735037442876332;0.05583756345177665;4
0.6343434343434343;0.05583756345177665;0.12735037442876332;0.05583756345177665;4
0.6353535353535353;0.06598984771573604;0.13902780587626237;0.06598984771573604;5
0.6363636363636364;0.06598984771573604;0.13902780587626237;0.06598984771573604;5
0.6373737373737374;0.06598984771573604;0.13902780587626237;0.06598984771573604;5
0.6383838383838384;0.07868020304568528;0.1829471514138988;0.07868020304568528;6
0.6393939393939394;0.08375634517766498;0.20715112283569423;0.08375634517766498;6
0.6404040404040404;0.07614213197969544;0.19359023811215645;0.07614213197969544;5
0.6414141414141414;0.08375634517766498;0.21749344358828912;0.08375634517766498;6
0.6424242424242423;0.08375634517766498;0.21749344358828912;0.08375634517766498;6
0.6434343434343434;0.08375634517766498;0.21749344358828912;0.08375634517766498;6
0.6444444444444444;0.08375634517766498;0.21749344358828912;0.08375634517766498;6
0.6454545454545454;0.09644670050761421;0.27641920699200134;0.09644670050761421;7
0.6464646464646464;0.09644670050761421;0.27641920699200134;0.09644670050761421;7
0.6474747474747474;0.09644670050761421;0.27641920699200134;0.09644670050761421;7
0.6484848484848484;0.09644670050761421;0.27641920699200134;0.09644670050761421;7
0.6494949494949495;0.09644670050761421;0.27641920699200134;0.09644670050761421;7
0.6505050505050505;0.09644670050761421;0.27641920699200134;0.09644670050761421;7
0.6515151515151515;0.09644670050761421;0.27641920699200134;0.09644670050761421;7
0.6525252525252525;0.09644670050761421;0.27641920699200134;0.09644670050761421;7
0.6535353535353535;0.09644670050761421;0.27641920699200134;0.09644670050761421;7
0.6545454545454545;0.09644670050761421;0.27641920699200134;0.09644670050761421;7
0.6555555555555556;0.10152284263959391;0.28863288747528193;0.09898477157360407;8
0.6565656565656566;0.10152284263959391;0.28863288747528193;0.09898477157360407;8
0.6575757575757576;0.10152284263959391;0.28863288747528193;0.09898477157360407;8
0.6585858585858586;0.10152284263959391;0.28863288747528193;0.09898477157360407;8
0.6595959595959595;0.10152284263959391;0.28863288747528193;0.09898477157360407;8
0.6606060606060605;0.10406091370558376;0.30603430443732166;0.10406091370558376;8
0.6616161616161615;0.10406091370558376;0.3071301994953859;0.09644670050761421;9
0.6626262626262626;0.08629441624365482;0.22022753173224363;0.07868020304568528;8
0.6636363636363636;0.10406091370558376;0.27831453178040827;0.09644670050761421;9
0.6646464646464646;0.10406091370558376;0.27831453178040827;0.09644670050761421;9
0.6656565656565656;0.1116751269035533;0.3118134036255112;0.10406091370558376;9
0.6666666666666666;0.1116751269035533;0.3118134036255112;0.10406091370558376;9
0.6676767676767676;0.1116751269035533;0.2773287821227089;0.10406091370558376;9
0.6686868686868687;0.116751269035533;0.32340508394165834;0.10913705583756345;10
0.6696969696969697;0.12436548223350254;0.3265731721338127;0.1116751269035533;11
0.6707070707070707;0.12436548223350254;0.3265731721338127;0.1116751269035533;11
0.6717171717171717;0.12436548223350254;0.3265731721338127;0.1116751269035533;11
0.6727272727272727;0.12436548223350254;0.3265731721338127;0.1116751269035533;11
0.6737373737373737;0.12436548223350254;0.3265731721338127;0.1116751269035533;11
0.6747474747474747;0.12436548223350254;0.3265731721338127;0.1116751269035533;11
0.6757575757575758;0.12436548223350254;0.3265731721338127;0.1116751269035533;11
0.6767676767676767;0.12436548223350254;0.3265731721338127;0.1116751269035533;11
0.6777777777777777;0.12436548223350254;0.3265731721338127;0.1116751269035533;11
0.6787878787878787;0.12690355329949238;0.3483369181818321;0.11421319796954314;12
0.6797979797979797;0.12690355329949238;0.3483369181818321;0.11421319796954314;12
0.6808080808080808;0.12690355329949238;0.3483369181818321;0.11421319796954314;12
0.6818181818181818;0.12690355329949238;0.3483369181818321;0.11421319796954314;12
0.6828282828282828;0.12690355329949238;0.3483369181818321;0.11421319796954314;12
0.6838383838383838;0.12690355329949238;0.3483369181818321;0.11421319796954314;12
0.6848484848484848;0.12944162436548223;0.36228696954272255;0.116751269035533;13
0.6858585858585858;0.1446700507614213;0.3652383720627189;0.1319796954314721;13
0.6868686868686869;0.14974619289340102;0.3716806938530813;0.13705583756345177;14
0.6878787878787879;0.15736040609137056;0.3840957140557087;0.14213197969543148;15
0.6888888888888889;0.1751269035532995;0.4144806517241168;0.1598984771573604;17
0.6898989898989899;0.17258883248730963;0.4158387071880539;0.15736040609137056;17
0.6909090909090909;0.1700507614213198;0.3853300471221229;0.14720812182741116;18
0.6919191919191918;0.1700507614213198;0.3853300471221229;0.14720812182741116;18
0.6929292929292928;0.16751269035532995;0.38205655800395993;0.1446700507614213;17
0.6939393939393939;0.16751269035532995;0.38205655800395993;0.1446700507614213;17
0.6949494949494949;0.1649746192893401;0.38392995177534905;0.15736040609137056;15
0.6959595959595959;0.1649746192893401;0.38392995177534905;0.15736040609137056;15
0.6969696969696969;0.17766497461928935;0.3989357524541428;0.1700507614213198;16
0.6979797979797979;0.17766497461928935;0.3989357524541428;0.1700507614213198;16
0.6989898989898989;0.17766497461928935;0.3989357524541428;0.1700507614213198;16
0.7;0.18527918781725888;0.39867516093453603;0.1649746192893401;18
