idnum|extra|percent|title|clusterid|real_author|label|filename
5|||TheManWhoRockedtheEarth|Cluster 5|Arthur Cheney Train|Arthur Cheney Train|corpora/multiauthor/corpus_5_filtered/19174.epub
5|||McAllisterandHisDouble|Cluster 5|Arthur Cheney Train|Arthur Cheney Train|corpora/multiauthor/corpus_5_filtered/34597.epub
5|||"The""Goldfish""BeingtheConfessionsafaSuccessfulMan"|Cluster 5|Arthur Cheney Train|Arthur Cheney Train|corpora/multiauthor/corpus_5_filtered/12920.epub
5|||ByAdviceofCounsel|Cluster 5|Arthur Cheney Train|Arthur Cheney Train|corpora/multiauthor/corpus_5_filtered/11987.epub
5|||TrueStoriesofCrimeFromtheDistrictAttorneysOffice|Cluster 5|Arthur Cheney Train|Arthur Cheney Train|corpora/multiauthor/corpus_5_filtered/13172.epub
5|||Mortmain|Cluster 5|Arthur Cheney Train|Arthur Cheney Train|corpora/multiauthor/corpus_5_filtered/37346.epub
5|||TheConfessionsofArtemasQuibbleBeingtheIngenuousandUnvarnishedHistoryofArtemasQuibbleEsquireOneTimePractitionerintheNewYorkCrimi|Cluster 5|Arthur Cheney Train|Arthur Cheney Train|corpora/multiauthor/corpus_5_filtered/20451.epub
5|||TuttandMrTutt|Cluster 5|Arthur Cheney Train|Arthur Cheney Train|corpora/multiauthor/corpus_5_filtered/10440.epub
1|||TheEverlastingWhisper|Cluster 1|Jackson Gregory|Jackson Gregory|corpora/multiauthor/corpus_5_filtered/10213.epub
1|||JudithofBlueLakeRanch|Cluster 1|Jackson Gregory|Jackson Gregory|corpora/multiauthor/corpus_5_filtered/18926.epub
1|||UnderHandicapANovel|Cluster 1|Jackson Gregory|Jackson Gregory|corpora/multiauthor/corpus_5_filtered/17981.epub
1|||WolfBreed|Cluster 1|Jackson Gregory|Jackson Gregory|corpora/multiauthor/corpus_5_filtered/18964.epub
1|||DaughteroftheSunATaleofAdventure|Cluster 1|Jackson Gregory|Jackson Gregory|corpora/multiauthor/corpus_5_filtered/18916.epub
1|||TheBellsofSanJuan|Cluster 1|Jackson Gregory|Jackson Gregory|corpora/multiauthor/corpus_5_filtered/15438.epub
1|||SixFeetFour|Cluster 1|Jackson Gregory|Jackson Gregory|corpora/multiauthor/corpus_5_filtered/15148.epub
1|||MantoMan|Cluster 1|Jackson Gregory|Jackson Gregory|corpora/multiauthor/corpus_5_filtered/18933.epub
1|||TheShortCut|Cluster 1|Jackson Gregory|Jackson Gregory|corpora/multiauthor/corpus_5_filtered/18950.epub
1|||TheDesertValley|Cluster 1|Jackson Gregory|Jackson Gregory|corpora/multiauthor/corpus_5_filtered/15502.epub
2|||TheWorksofCharlesandMaryLamb—Volume6Letters18211842|Cluster 2|Charles Lamb|Charles Lamb|corpora/multiauthor/corpus_5_filtered/10851.epub
2|||TheWorksofCharlesandMaryLamb—Volume4PoemsandPlays|Cluster 2|Charles Lamb|Charles Lamb|corpora/multiauthor/corpus_5_filtered/11576.epub
2|||TalesfromShakespeare|Cluster 2|Charles Lamb|Charles Lamb|corpora/multiauthor/corpus_5_filtered/1286.epub
2|||TheWorksofCharlesandMaryLamb—Volume5TheLettersofCharlesandMaryLamb17961820|Cluster 2|Charles Lamb|Charles Lamb|corpora/multiauthor/corpus_5_filtered/9365.epub
2|||ThePrisonerattheBarSidelightsontheAdministrationofCriminalJustice|Cluster 2|Arthur Cheney Train|Charles Lamb|corpora/multiauthor/corpus_5_filtered/58534.epub
2|||CourtsandCriminals|Cluster 2|Arthur Cheney Train|Charles Lamb|corpora/multiauthor/corpus_5_filtered/5268.epub
2|||TheBlueJarStoryBook|Cluster 2|Maria Edgeworth|Charles Lamb|corpora/multiauthor/corpus_5_filtered/34470.epub
2|||TheWorksofCharlesandMaryLamb—Volume3BooksforChildren|Cluster 2|Charles Lamb|Charles Lamb|corpora/multiauthor/corpus_5_filtered/10130.epub
2|||TheWorksofCharlesandMaryLamb—Volume2EliaandTheLastEssaysofElia|Cluster 2|Charles Lamb|Charles Lamb|corpora/multiauthor/corpus_5_filtered/10343.epub
4|||TheDiaryofanEnnuyée|Cluster 4|Mrs. Jameson|Mrs. Jameson|corpora/multiauthor/corpus_5_filtered/18049.epub
4|||SketchesinCanadaandramblesamongtheredmen|Cluster 4|Mrs. Jameson|Mrs. Jameson|corpora/multiauthor/corpus_5_filtered/35224.epub
4|||ACommonplaceBookofThoughtsMemoriesandFancies2nded|Cluster 4|Mrs. Jameson|Mrs. Jameson|corpora/multiauthor/corpus_5_filtered/39680.epub
4|||VisitsandSketchesatHomeandAbroadVol3of3WithTalesandMiscellaniesNowFirstCollected|Cluster 4|Mrs. Jameson|Mrs. Jameson|corpora/multiauthor/corpus_5_filtered/36820.epub
4|||TheWorksofCharlesandMaryLamb—Volume1MiscellaneousProse|Cluster 4|Charles Lamb|Mrs. Jameson|corpora/multiauthor/corpus_5_filtered/40988.epub
4|||TheRomanceofBiographyVol1of2orMemoirsofWomenLovedandCelebratedbyPoetsfromtheDaysoftheTroubadourstothePresentAge3rded2Vols|Cluster 4|Mrs. Jameson|Mrs. Jameson|corpora/multiauthor/corpus_5_filtered/35382.epub
4|||TheRomanceofBiographyVol2of2orMemoirsofWomenLovedandCelebratedbyPoetsfromtheDaysoftheTroubadourstothePresentAge3rded2Vols|Cluster 4|Mrs. Jameson|Mrs. Jameson|corpora/multiauthor/corpus_5_filtered/35416.epub
4|||VisitsandSketchesatHomeandAbroadVol1of3WithTalesandMiscellaniesNowFirstCollected|Cluster 4|Mrs. Jameson|Mrs. Jameson|corpora/multiauthor/corpus_5_filtered/36818.epub
4|||CharacteristicsofWomenMoralPoeticalandHistorical|Cluster 4|Mrs. Jameson|Mrs. Jameson|corpora/multiauthor/corpus_5_filtered/26152.epub
0|||LegendsoftheMadonnaasRepresentedintheFineArts|Cluster 0|Mrs. Jameson|unknown_5|corpora/multiauthor/corpus_5_filtered/12047.epub
0|||VisitsandSketchesatHomeandAbroadVol2of3WithTalesandMiscellaniesNowFirstCollected|Cluster 0|Mrs. Jameson|unknown_5|corpora/multiauthor/corpus_5_filtered/36819.epub
3|||PecksBadBoywiththeCircus|Cluster 3|George W. Peck|George W. Peck|corpora/multiauthor/corpus_5_filtered/10212.epub
3|||PecksSunshineBeingaCollectionofArticlesWrittenforPecksSunMilwaukeeWis1882|Cluster 3|George W. Peck|George W. Peck|corpora/multiauthor/corpus_5_filtered/25491.epub
3|||TheGroceryManAndPecksBadBoyPecksBadBoyandHisPaNo21883|Cluster 3|George W. Peck|George W. Peck|corpora/multiauthor/corpus_5_filtered/25488.epub
3|||"WorksofGeorgeWPeckALinkedIndextotheProjectGutenbergEditionsofthe""BadBoy""SeriesandOthers"|Cluster 3|George W. Peck|George W. Peck|corpora/multiauthor/corpus_5_filtered/28970.epub
3|||PecksCompendiumofFunComprisingtheChoicestGemsofWitHumorSarcasmandPathosofAmericasFavoriteHumorist|Cluster 3|George W. Peck|George W. Peck|corpora/multiauthor/corpus_5_filtered/14815.epub
3|||HowPrivateGeorgeWPeckPutDowntheRebellionorTheFunnyExperiencesofaRawRecruit1887|Cluster 3|George W. Peck|George W. Peck|corpora/multiauthor/corpus_5_filtered/25492.epub
3|||PecksUncleIkeandTheRedHeadedBoy1899|Cluster 3|George W. Peck|George W. Peck|corpora/multiauthor/corpus_5_filtered/25490.epub
3|||PecksBadBoyAbroadBeingaHumorousDescriptionoftheBadBoyandHisDadinTheirJourneysThroughForeignLands1904|Cluster 3|George W. Peck|George W. Peck|corpora/multiauthor/corpus_5_filtered/25489.epub
3|||PecksBadBoyandHisPa1883|Cluster 3|George W. Peck|George W. Peck|corpora/multiauthor/corpus_5_filtered/25487.epub
3|||PecksBadBoywiththeCowboys|Cluster 3|George W. Peck|George W. Peck|corpora/multiauthor/corpus_5_filtered/6141.epub
