idnum|extra|title|percent|clusterid|real_author|label|filename
0|2053aa|TheManWhoRockedtheEarth|100.0|Cluster 0|Arthur Cheney Train|unknown_1|corpora/multiauthor/corpus_5_filtered/19174.epub
1|2053aa|McAllisterandHisDouble|0.58|Cluster 0|Arthur Cheney Train|unknown_1|corpora/multiauthor/corpus_5_filtered/34597.epub
2|2053aa|Mortmain|0.07|Cluster 0|Arthur Cheney Train|unknown_1|corpora/multiauthor/corpus_5_filtered/37346.epub
0|2053aa|PecksBadBoywiththeCircus|100.0|Cluster 1|George W. Peck|George W. Peck|corpora/multiauthor/corpus_5_filtered/10212.epub
1|2053aa|PecksSunshineBeingaCollectionofArticlesWrittenforPecksSunMilwaukeeWis1882|0.33|Cluster 1|George W. Peck|George W. Peck|corpora/multiauthor/corpus_5_filtered/25491.epub
2|2053aa|TheGroceryManAndPecksBadBoyPecksBadBoyandHisPaNo21883|0.15|Cluster 1|George W. Peck|George W. Peck|corpora/multiauthor/corpus_5_filtered/25488.epub
3|2053aa|"WorksofGeorgeWPeckALinkedIndextotheProjectGutenbergEditionsofthe""BadBoy""SeriesandOthers"|0.56|Cluster 1|George W. Peck|George W. Peck|corpora/multiauthor/corpus_5_filtered/28970.epub
4|2053aa|PecksCompendiumofFunComprisingtheChoicestGemsofWitHumorSarcasmandPathosofAmericasFavoriteHumorist|0.62|Cluster 1|George W. Peck|George W. Peck|corpora/multiauthor/corpus_5_filtered/14815.epub
5|2053aa|HowPrivateGeorgeWPeckPutDowntheRebellionorTheFunnyExperiencesofaRawRecruit1887|0.3|Cluster 1|George W. Peck|George W. Peck|corpora/multiauthor/corpus_5_filtered/25492.epub
6|2053aa|PecksUncleIkeandTheRedHeadedBoy1899|0.18|Cluster 1|George W. Peck|George W. Peck|corpora/multiauthor/corpus_5_filtered/25490.epub
7|2053aa|PecksBadBoyAbroadBeingaHumorousDescriptionoftheBadBoyandHisDadinTheirJourneysThroughForeignLands1904|0.44|Cluster 1|George W. Peck|George W. Peck|corpora/multiauthor/corpus_5_filtered/25489.epub
8|2053aa|PecksBadBoyandHisPa1883|0.37|Cluster 1|George W. Peck|George W. Peck|corpora/multiauthor/corpus_5_filtered/25487.epub
9|2053aa|PecksBadBoywiththeCowboys|0.97|Cluster 1|George W. Peck|George W. Peck|corpora/multiauthor/corpus_5_filtered/6141.epub
0|2053aa|TheDiaryofanEnnuyée|100.0|Cluster 2|Mrs. Jameson|Mrs. Jameson|corpora/multiauthor/corpus_5_filtered/18049.epub
1|2053aa|SketchesinCanadaandramblesamongtheredmen|0.77|Cluster 2|Mrs. Jameson|Mrs. Jameson|corpora/multiauthor/corpus_5_filtered/35224.epub
2|2053aa|ACommonplaceBookofThoughtsMemoriesandFancies2nded|0.68|Cluster 2|Mrs. Jameson|Mrs. Jameson|corpora/multiauthor/corpus_5_filtered/39680.epub
3|2053aa|VisitsandSketchesatHomeandAbroadVol3of3WithTalesandMiscellaniesNowFirstCollected|0.96|Cluster 2|Mrs. Jameson|Mrs. Jameson|corpora/multiauthor/corpus_5_filtered/36820.epub
4|2053aa|VisitsandSketchesatHomeandAbroadVol2of3WithTalesandMiscellaniesNowFirstCollected|0.5|Cluster 2|Mrs. Jameson|Mrs. Jameson|corpora/multiauthor/corpus_5_filtered/36819.epub
5|2053aa|TheRomanceofBiographyVol1of2orMemoirsofWomenLovedandCelebratedbyPoetsfromtheDaysoftheTroubadourstothePresentAge3rded2Vols|0.99|Cluster 2|Mrs. Jameson|Mrs. Jameson|corpora/multiauthor/corpus_5_filtered/35382.epub
6|2053aa|TheRomanceofBiographyVol2of2orMemoirsofWomenLovedandCelebratedbyPoetsfromtheDaysoftheTroubadourstothePresentAge3rded2Vols|0.19|Cluster 2|Mrs. Jameson|Mrs. Jameson|corpora/multiauthor/corpus_5_filtered/35416.epub
7|2053aa|VisitsandSketchesatHomeandAbroadVol1of3WithTalesandMiscellaniesNowFirstCollected|0.6|Cluster 2|Mrs. Jameson|Mrs. Jameson|corpora/multiauthor/corpus_5_filtered/36818.epub
8|2053aa|CharacteristicsofWomenMoralPoeticalandHistorical|0.41|Cluster 2|Mrs. Jameson|Mrs. Jameson|corpora/multiauthor/corpus_5_filtered/26152.epub
0|2053aa|TheWorksofCharlesandMaryLamb—Volume6Letters18211842|100.0|Cluster 3|Charles Lamb|Charles Lamb|corpora/multiauthor/corpus_5_filtered/10851.epub
1|2053aa|TheWorksofCharlesandMaryLamb—Volume4PoemsandPlays|0.3|Cluster 3|Charles Lamb|Charles Lamb|corpora/multiauthor/corpus_5_filtered/11576.epub
2|2053aa|TheWorksofCharlesandMaryLamb—Volume1MiscellaneousProse|0.74|Cluster 3|Charles Lamb|Charles Lamb|corpora/multiauthor/corpus_5_filtered/40988.epub
3|2053aa|TheWorksofCharlesandMaryLamb—Volume5TheLettersofCharlesandMaryLamb17961820|0.07|Cluster 3|Charles Lamb|Charles Lamb|corpora/multiauthor/corpus_5_filtered/9365.epub
4|2053aa|TheWorksofCharlesandMaryLamb—Volume2EliaandTheLastEssaysofElia|0.74|Cluster 3|Charles Lamb|Charles Lamb|corpora/multiauthor/corpus_5_filtered/10343.epub
0|2053aa|TheEverlastingWhisper|100.0|Cluster 4|Jackson Gregory|Jackson Gregory|corpora/multiauthor/corpus_5_filtered/10213.epub
1|2053aa|JudithofBlueLakeRanch|0.52|Cluster 4|Jackson Gregory|Jackson Gregory|corpora/multiauthor/corpus_5_filtered/18926.epub
2|2053aa|UnderHandicapANovel|0.79|Cluster 4|Jackson Gregory|Jackson Gregory|corpora/multiauthor/corpus_5_filtered/17981.epub
3|2053aa|WolfBreed|0.89|Cluster 4|Jackson Gregory|Jackson Gregory|corpora/multiauthor/corpus_5_filtered/18964.epub
4|2053aa|DaughteroftheSunATaleofAdventure|0.22|Cluster 4|Jackson Gregory|Jackson Gregory|corpora/multiauthor/corpus_5_filtered/18916.epub
5|2053aa|TheBellsofSanJuan|0.45|Cluster 4|Jackson Gregory|Jackson Gregory|corpora/multiauthor/corpus_5_filtered/15438.epub
6|2053aa|SixFeetFour|0.16|Cluster 4|Jackson Gregory|Jackson Gregory|corpora/multiauthor/corpus_5_filtered/15148.epub
7|2053aa|MantoMan|0.52|Cluster 4|Jackson Gregory|Jackson Gregory|corpora/multiauthor/corpus_5_filtered/18933.epub
8|2053aa|TheShortCut|0.72|Cluster 4|Jackson Gregory|Jackson Gregory|corpora/multiauthor/corpus_5_filtered/18950.epub
9|2053aa|TheDesertValley|0.61|Cluster 4|Jackson Gregory|Jackson Gregory|corpora/multiauthor/corpus_5_filtered/15502.epub
0|2053aa|"The""Goldfish""BeingtheConfessionsafaSuccessfulMan"|100.0|Cluster 5|Arthur Cheney Train|Arthur Cheney Train|corpora/multiauthor/corpus_5_filtered/12920.epub
1|2053aa|ByAdviceofCounsel|0.8|Cluster 5|Arthur Cheney Train|Arthur Cheney Train|corpora/multiauthor/corpus_5_filtered/11987.epub
2|2053aa|"TheConfessionsofArtemasQuibbleBeingtheIngenuousandUnvarnishedHistoryofArtemasQuibbleEsquireOneTimePractitionerintheNewYorkCriminalCourtsTogetherwithanAccountoftheDiversWilesTricksSophistriesTechnicalitiesandSundryArtificesofHimselfandOthersoftheFraternityCommonlyYclept""Shysters""or""ShysterLawyers"""|0.54|Cluster 5|Arthur Cheney Train|Arthur Cheney Train|corpora/multiauthor/corpus_5_filtered/20451.epub
3|2053aa|TuttandMrTutt|0.97|Cluster 5|Arthur Cheney Train|Arthur Cheney Train|corpora/multiauthor/corpus_5_filtered/10440.epub
0|2053aa|LegendsoftheMadonnaasRepresentedintheFineArts|100.0|Cluster 6|Mrs. Jameson|unknown_7|corpora/multiauthor/corpus_5_filtered/12047.epub
0|2053aa|TrueStoriesofCrimeFromtheDistrictAttorneysOffice|100.0|Cluster 7|Arthur Cheney Train|unknown_8|corpora/multiauthor/corpus_5_filtered/13172.epub
1|2053aa|ThePrisonerattheBarSidelightsontheAdministrationofCriminalJustice|0.21|Cluster 7|Arthur Cheney Train|unknown_8|corpora/multiauthor/corpus_5_filtered/58534.epub
2|2053aa|CourtsandCriminals|0.14|Cluster 7|Arthur Cheney Train|unknown_8|corpora/multiauthor/corpus_5_filtered/5268.epub
0|2053aa|TalesfromShakespeare|100.0|Cluster 8|Charles Lamb|unknown_9|corpora/multiauthor/corpus_5_filtered/1286.epub
1|2053aa|TheWorksofCharlesandMaryLamb—Volume3BooksforChildren|0.46|Cluster 8|Charles Lamb|unknown_9|corpora/multiauthor/corpus_5_filtered/10130.epub
0|2053aa|TheBlueJarStoryBook|100.0|Cluster 9|Maria Edgeworth|Maria Edgeworth|corpora/multiauthor/corpus_5_filtered/34470.epub
