idnum|extra|percent|title|clusterid|real_author|label|filename
5|||OurMutualFriend|Cluster 5|Charles Dickens|Charles Dickens|corpora/baseline/corpus2/pg883.epub
5|||NicholasNickleby|Cluster 5|Charles Dickens|Charles Dickens|corpora/baseline/corpus2/pg967.epub
5|||TheMysteryofEdwinDrood|Cluster 5|Charles Dickens|Charles Dickens|corpora/baseline/corpus2/pg564.epub
5|||MartinChuzzlewit|Cluster 5|Charles Dickens|Charles Dickens|corpora/baseline/corpus2/pg968.epub
5|||DombeyandSon|Cluster 5|Charles Dickens|Charles Dickens|corpora/baseline/corpus2/pg821.epub
5|||LittleDorrit|Cluster 5|Charles Dickens|Charles Dickens|corpora/baseline/corpus2/pg963.epub
5|||HardTimes|Cluster 5|Charles Dickens|Charles Dickens|corpora/baseline/corpus2/pg786.epub
2|||TheVirginians|Cluster 2|William Makepeace Thackeray|William Makepeace Thackeray|corpora/baseline/corpus2/pg8123.epub
2|||VanityFair|Cluster 2|William Makepeace Thackeray|William Makepeace Thackeray|corpora/baseline/corpus2/pg599.epub
2|||TheHistoryofPendennis|Cluster 2|William Makepeace Thackeray|William Makepeace Thackeray|corpora/baseline/corpus2/pg7265.epub
2|||TheHistoryofHenryEsmondEsqaColonelintheServiceofHerMajestyQueenAnne|Cluster 2|William Makepeace Thackeray|William Makepeace Thackeray|corpora/baseline/corpus2/pg2511.epub
2|||CatherineAStory|Cluster 2|William Makepeace Thackeray|William Makepeace Thackeray|corpora/baseline/corpus2/pg1969.epub
2|||TheNewcomesMemoirsofaMostRespectableFamily|Cluster 2|William Makepeace Thackeray|William Makepeace Thackeray|corpora/baseline/corpus2/pg7467.epub
0|||Cranford|Cluster 0|Elizabeth Cleghorn Gaskell|Elizabeth Cleghorn Gaskell|corpora/baseline/corpus2/pg394.epub
0|||Ruth|Cluster 0|Elizabeth Cleghorn Gaskell|Elizabeth Cleghorn Gaskell|corpora/baseline/corpus2/pg4275.epub
0|||MaryBarton|Cluster 0|Elizabeth Cleghorn Gaskell|Elizabeth Cleghorn Gaskell|corpora/baseline/corpus2/pg2153.epub
0|||SylviasLovers—Complete|Cluster 0|Elizabeth Cleghorn Gaskell|Elizabeth Cleghorn Gaskell|corpora/baseline/corpus2/pg4537.epub
0|||NorthandSouth|Cluster 0|Elizabeth Cleghorn Gaskell|Elizabeth Cleghorn Gaskell|corpora/baseline/corpus2/pg4276.epub
3|||Persuasion|Cluster 3|Jane Austen|Jane Austen|corpora/baseline/corpus2/pg105.epub
3|||Emma|Cluster 3|Jane Austen|Jane Austen|corpora/baseline/corpus2/pg158.epub
3|||SenseandSensibility|Cluster 3|Jane Austen|Jane Austen|corpora/baseline/corpus2/pg161.epub
3|||NorthangerAbbey|Cluster 3|Jane Austen|Jane Austen|corpora/baseline/corpus2/pg121.epub
3|||MansfieldPark|Cluster 3|Jane Austen|Jane Austen|corpora/baseline/corpus2/pg141.epub
3|||PrideandPrejudice|Cluster 3|Jane Austen|Jane Austen|corpora/baseline/corpus2/pg42671.epub
1|||TheBrothersKaramazov|Cluster 1|Fyodor Dostoyevsky|Ivan Sergeevich Turgenev|corpora/baseline/corpus2/pg28054.epub
1|||ThePossessedTheDevils|Cluster 1|Fyodor Dostoyevsky|Ivan Sergeevich Turgenev|corpora/baseline/corpus2/pg8117.epub
1|||AHouseofGentlefolk|Cluster 1|Ivan Sergeevich Turgenev|Ivan Sergeevich Turgenev|corpora/baseline/corpus2/pg5721.epub
1|||OntheEveANovel|Cluster 1|Ivan Sergeevich Turgenev|Ivan Sergeevich Turgenev|corpora/baseline/corpus2/pg6902.epub
1|||Smoke|Cluster 1|Ivan Sergeevich Turgenev|Ivan Sergeevich Turgenev|corpora/baseline/corpus2/pg40813.epub
1|||CrimeandPunishment|Cluster 1|Fyodor Dostoyevsky|Ivan Sergeevich Turgenev|corpora/baseline/corpus2/pg2554.epub
1|||TheIdiot|Cluster 1|Fyodor Dostoyevsky|Ivan Sergeevich Turgenev|corpora/baseline/corpus2/pg2638.epub
1|||RudinANovel|Cluster 1|Ivan Sergeevich Turgenev|Ivan Sergeevich Turgenev|corpora/baseline/corpus2/pg6900.epub
1|||VirginSoil|Cluster 1|Ivan Sergeevich Turgenev|Ivan Sergeevich Turgenev|corpora/baseline/corpus2/pg2466.epub
1|||FathersandChildren|Cluster 1|Ivan Sergeevich Turgenev|Ivan Sergeevich Turgenev|corpora/baseline/corpus2/pg30723.epub
4|||SilasMarner|Cluster 4|George Eliot|George Eliot|corpora/baseline/corpus2/pg550.epub
4|||TheMillontheFloss|Cluster 4|George Eliot|George Eliot|corpora/baseline/corpus2/pg6688.epub
4|||Romola|Cluster 4|George Eliot|George Eliot|corpora/baseline/corpus2/pg24020.epub
4|||FelixHolttheRadical|Cluster 4|George Eliot|George Eliot|corpora/baseline/corpus2/pg40882.epub
4|||DanielDeronda|Cluster 4|George Eliot|George Eliot|corpora/baseline/corpus2/pg7469.epub
4|||Middlemarch|Cluster 4|George Eliot|George Eliot|corpora/baseline/corpus2/pg145.epub
4|||AdamBede|Cluster 4|George Eliot|George Eliot|corpora/baseline/corpus2/pg507.epub
6|||ThePickwickPapers|Cluster 6|Charles Dickens|unknown_7|corpora/baseline/corpus2/pg580.epub
6|||OliverTwist|Cluster 6|Charles Dickens|unknown_7|corpora/baseline/corpus2/pg730.epub
6|||ATaleofTwoCities|Cluster 6|Charles Dickens|unknown_7|corpora/baseline/corpus2/pg98.epub
6|||BarnabyRudgeATaleoftheRiotsofEighty|Cluster 6|Charles Dickens|unknown_7|corpora/baseline/corpus2/pg917.epub
