idnum|extra|percent|title|clusterid|real_author|label|filename
5|||TheHistoryofPendennis|Cluster 5|William Makepeace Thackeray|William Makepeace Thackeray|corpora/baseline/corpus4/pg7265.epub
5|||TheHistoryofHenryEsmondEsqaColonelintheServiceofHerMajestyQueenAnne|Cluster 5|William Makepeace Thackeray|William Makepeace Thackeray|corpora/baseline/corpus4/pg2511.epub
5|||CatherineAStory|Cluster 5|William Makepeace Thackeray|William Makepeace Thackeray|corpora/baseline/corpus4/pg1969.epub
5|||VanityFair|Cluster 5|William Makepeace Thackeray|William Makepeace Thackeray|corpora/baseline/corpus4/pg599.epub
5|||TheNewcomesMemoirsofaMostRespectableFamily|Cluster 5|William Makepeace Thackeray|William Makepeace Thackeray|corpora/baseline/corpus4/pg7467.epub
5|||TheVirginians|Cluster 5|William Makepeace Thackeray|William Makepeace Thackeray|corpora/baseline/corpus4/pg8123.epub
2|||TheIdiot|Cluster 2|Fyodor Dostoyevsky|Ivan Sergeevich Turgenev|corpora/baseline/corpus4/pg2638.epub
2|||FathersandChildren|Cluster 2|Ivan Sergeevich Turgenev|Ivan Sergeevich Turgenev|corpora/baseline/corpus4/pg30723.epub
2|||AHouseofGentlefolk|Cluster 2|Ivan Sergeevich Turgenev|Ivan Sergeevich Turgenev|corpora/baseline/corpus4/pg5721.epub
2|||OntheEveANovel|Cluster 2|Ivan Sergeevich Turgenev|Ivan Sergeevich Turgenev|corpora/baseline/corpus4/pg6902.epub
2|||ThePossessedTheDevils|Cluster 2|Fyodor Dostoyevsky|Ivan Sergeevich Turgenev|corpora/baseline/corpus4/pg8117.epub
2|||CrimeandPunishment|Cluster 2|Fyodor Dostoyevsky|Ivan Sergeevich Turgenev|corpora/baseline/corpus4/pg2554.epub
2|||Smoke|Cluster 2|Ivan Sergeevich Turgenev|Ivan Sergeevich Turgenev|corpora/baseline/corpus4/pg40813.epub
2|||VirginSoil|Cluster 2|Ivan Sergeevich Turgenev|Ivan Sergeevich Turgenev|corpora/baseline/corpus4/pg2466.epub
2|||RudinANovel|Cluster 2|Ivan Sergeevich Turgenev|Ivan Sergeevich Turgenev|corpora/baseline/corpus4/pg6900.epub
2|||TheBrothersKaramazov|Cluster 2|Fyodor Dostoyevsky|Ivan Sergeevich Turgenev|corpora/baseline/corpus4/pg28054.epub
0|||MansfieldPark|Cluster 0|Jane Austen|Jane Austen|corpora/baseline/corpus4/pg141.epub
0|||Emma|Cluster 0|Jane Austen|Jane Austen|corpora/baseline/corpus4/pg158.epub
0|||Ruth|Cluster 0|Elizabeth Cleghorn Gaskell|Jane Austen|corpora/baseline/corpus4/pg4275.epub
0|||Cranford|Cluster 0|Elizabeth Cleghorn Gaskell|Jane Austen|corpora/baseline/corpus4/pg394.epub
0|||NorthandSouth|Cluster 0|Elizabeth Cleghorn Gaskell|Jane Austen|corpora/baseline/corpus4/pg4276.epub
0|||PrideandPrejudice|Cluster 0|Jane Austen|Jane Austen|corpora/baseline/corpus4/pg42671.epub
0|||MaryBarton|Cluster 0|Elizabeth Cleghorn Gaskell|Jane Austen|corpora/baseline/corpus4/pg2153.epub
0|||NorthangerAbbey|Cluster 0|Jane Austen|Jane Austen|corpora/baseline/corpus4/pg121.epub
0|||Persuasion|Cluster 0|Jane Austen|Jane Austen|corpora/baseline/corpus4/pg105.epub
0|||SenseandSensibility|Cluster 0|Jane Austen|Jane Austen|corpora/baseline/corpus4/pg161.epub
3|||HardTimes|Cluster 3|Charles Dickens|Charles Dickens|corpora/baseline/corpus4/pg786.epub
3|||TheMysteryofEdwinDrood|Cluster 3|Charles Dickens|Charles Dickens|corpora/baseline/corpus4/pg564.epub
3|||OurMutualFriend|Cluster 3|Charles Dickens|Charles Dickens|corpora/baseline/corpus4/pg883.epub
3|||MartinChuzzlewit|Cluster 3|Charles Dickens|Charles Dickens|corpora/baseline/corpus4/pg968.epub
3|||LittleDorrit|Cluster 3|Charles Dickens|Charles Dickens|corpora/baseline/corpus4/pg963.epub
3|||NicholasNickleby|Cluster 3|Charles Dickens|Charles Dickens|corpora/baseline/corpus4/pg967.epub
1|||HarryPotterandtheChamberofSecrets|Cluster 1|J.K. Rowling|J.K. Rowling|corpora/baseline/corpus4/Harry Potter and the Chamber of Secrets - J.K. Rowling.epub
1|||HarryPotterandthePrisonerofAzkaban|Cluster 1|J.K. Rowling|J.K. Rowling|corpora/baseline/corpus4/Harry Potter and the Prisoner of Azkaban - J.K. Rowling.epub
1|||HarryPotterandtheOrderofthePhoenix|Cluster 1|J.K. Rowling|J.K. Rowling|corpora/baseline/corpus4/Harry Potter and the Order of the Phoenix - J.K. Rowling.epub
1|||HarryPotterandtheGobletofFire|Cluster 1|J.K. Rowling|J.K. Rowling|corpora/baseline/corpus4/Harry Potter and the Goblet of Fire - J.K. Rowling.epub
1|||HarryPotterandthePhilosophersStone|Cluster 1|J.K. Rowling|J.K. Rowling|corpora/baseline/corpus4/Harry Potter and the Philosopher's Stone - J.K. Rowling.epub
1|||HarryPotterandtheHalfBloodPrince|Cluster 1|J.K. Rowling|J.K. Rowling|corpora/baseline/corpus4/Harry Potter and the Half-Blood Prince - J.K. Rowling.epub
1|||HarryPotterandtheDeathlyHallows|Cluster 1|J.K. Rowling|J.K. Rowling|corpora/baseline/corpus4/Harry Potter and the Deathly Hallows - J.K. Rowling.epub
4|||AdamBede|Cluster 4|George Eliot|George Eliot|corpora/baseline/corpus4/pg507.epub
4|||FelixHolttheRadical|Cluster 4|George Eliot|George Eliot|corpora/baseline/corpus4/pg40882.epub
4|||DanielDeronda|Cluster 4|George Eliot|George Eliot|corpora/baseline/corpus4/pg7469.epub
4|||SilasMarner|Cluster 4|George Eliot|George Eliot|corpora/baseline/corpus4/pg550.epub
4|||TheMillontheFloss|Cluster 4|George Eliot|George Eliot|corpora/baseline/corpus4/pg6688.epub
4|||Middlemarch|Cluster 4|George Eliot|George Eliot|corpora/baseline/corpus4/pg145.epub
4|||Romola|Cluster 4|George Eliot|George Eliot|corpora/baseline/corpus4/pg24020.epub
6|||BarnabyRudgeATaleoftheRiotsofEighty|Cluster 6|Charles Dickens|unknown_7|corpora/baseline/corpus4/pg917.epub
6|||ATaleofTwoCities|Cluster 6|Charles Dickens|unknown_7|corpora/baseline/corpus4/pg98.epub
6|||ThePickwickPapers|Cluster 6|Charles Dickens|unknown_7|corpora/baseline/corpus4/pg580.epub
6|||DombeyandSon|Cluster 6|Charles Dickens|unknown_7|corpora/baseline/corpus4/pg821.epub
6|||SylviasLovers—Complete|Cluster 6|Elizabeth Cleghorn Gaskell|unknown_7|corpora/baseline/corpus4/pg4537.epub
6|||OliverTwist|Cluster 6|Charles Dickens|unknown_7|corpora/baseline/corpus4/pg730.epub
