idnum|extra|percent|title|clusterid|real_author|label|filename
5|||TheGoGetterAStoryThatTellsYouHowtobeOne|Cluster 5|Peter B. Kyne|unknown_1|corpora/multiauthor/corpus_15_filtered/12257.epub
5|||TheThreeGodfathers|Cluster 5|Peter B. Kyne|unknown_1|corpora/multiauthor/corpus_15_filtered/51942.epub
5|||TheQueenWhoFlewAFairyTale|Cluster 5|Ford Madox Ford|unknown_1|corpora/multiauthor/corpus_15_filtered/52636.epub
5|||CappyRicksOrtheSubjugationofMattPeasley|Cluster 5|Peter B. Kyne|unknown_1|corpora/multiauthor/corpus_15_filtered/5738.epub
5|||CaptainScraggsOrTheGreenPeaPirates|Cluster 5|Peter B. Kyne|unknown_1|corpora/multiauthor/corpus_15_filtered/18469.epub
2|||TheFeather|Cluster 2|Ford Madox Ford|unknown_2|corpora/multiauthor/corpus_15_filtered/50658.epub
2|||Mortmain|Cluster 2|Arthur Cheney Train|unknown_2|corpora/multiauthor/corpus_15_filtered/37346.epub
2|||McAllisterandHisDouble|Cluster 2|Arthur Cheney Train|unknown_2|corpora/multiauthor/corpus_15_filtered/34597.epub
2|||CattleBrandsACollectionofWesternCampFireStories|Cluster 2|Andy Adams|unknown_2|corpora/multiauthor/corpus_15_filtered/12281.epub
2|||ATexasMatchmaker|Cluster 2|Andy Adams|unknown_2|corpora/multiauthor/corpus_15_filtered/12919.epub
2|||TheManWhoRockedtheEarth|Cluster 2|Arthur Cheney Train|unknown_2|corpora/multiauthor/corpus_15_filtered/19174.epub
9|||Dracula|Cluster 9|Bram Stoker|Berthold Auerbach|corpora/multiauthor/corpus_15_filtered/10150.epub
9|||TheMan|Cluster 9|Bram Stoker|Berthold Auerbach|corpora/multiauthor/corpus_15_filtered/2520.epub
9|||VillaEdenTheCountryHouseontheRhine|Cluster 9|Berthold Auerbach|Berthold Auerbach|corpora/multiauthor/corpus_15_filtered/32902.epub
9|||WaldfriedANovel|Cluster 9|Berthold Auerbach|Berthold Auerbach|corpora/multiauthor/corpus_15_filtered/32446.epub
9|||JosephintheSnowandTheClockmakerInThreeVolumesVolI|Cluster 9|Berthold Auerbach|Berthold Auerbach|corpora/multiauthor/corpus_15_filtered/33162.epub
9|||OntheHeightsANovel|Cluster 9|Berthold Auerbach|Berthold Auerbach|corpora/multiauthor/corpus_15_filtered/33294.epub
9|||JosephintheSnowandTheClockmakerInThreeVolumesVolIII|Cluster 9|Berthold Auerbach|Berthold Auerbach|corpora/multiauthor/corpus_15_filtered/33164.epub
9|||EdelweissAStory|Cluster 9|Berthold Auerbach|Berthold Auerbach|corpora/multiauthor/corpus_15_filtered/33007.epub
4|||TheConfessionsofArtemasQuibbleBeingtheIngenuousandUnvarnishedHistoryofArtemasQuibbleEsquireOneTimePractitionerintheNewYorkCrimi|Cluster 4|Arthur Cheney Train|Arthur Cheney Train|corpora/multiauthor/corpus_15_filtered/20451.epub
4|||"The""Goldfish""BeingtheConfessionsafaSuccessfulMan"|Cluster 4|Arthur Cheney Train|Arthur Cheney Train|corpora/multiauthor/corpus_15_filtered/12920.epub
4|||TrueStoriesofCrimeFromtheDistrictAttorneysOffice|Cluster 4|Arthur Cheney Train|Arthur Cheney Train|corpora/multiauthor/corpus_15_filtered/13172.epub
4|||ByAdviceofCounsel|Cluster 4|Arthur Cheney Train|Arthur Cheney Train|corpora/multiauthor/corpus_15_filtered/11987.epub
4|||TuttandMrTutt|Cluster 4|Arthur Cheney Train|Arthur Cheney Train|corpora/multiauthor/corpus_15_filtered/10440.epub
20|||ParadiseLost|Cluster 20|John Milton|John Milton|corpora/multiauthor/corpus_15_filtered/20.epub
20|||ParadiseRegained|Cluster 20|John Milton|John Milton|corpora/multiauthor/corpus_15_filtered/58.epub
1|||TheMotherofParliaments|Cluster 1|Harry Graham|unknown_6|corpora/multiauthor/corpus_15_filtered/41304.epub
1|||FamousMenofAncientTimes|Cluster 1|Samuel G. Goodrich|unknown_6|corpora/multiauthor/corpus_15_filtered/52400.epub
1|||LAllegroIlPenserosoComusandLycidas|Cluster 1|John Milton|unknown_6|corpora/multiauthor/corpus_15_filtered/397.epub
1|||LegendsoftheMadonnaasRepresentedintheFineArts|Cluster 1|Mrs. Jameson|unknown_6|corpora/multiauthor/corpus_15_filtered/12047.epub
1|||PoemataLatinGreekandItalianPoemsbyJohnMilton|Cluster 1|John Milton|unknown_6|corpora/multiauthor/corpus_15_filtered/6929.epub
1|||ThePoeticalWorksofJohnMilton|Cluster 1|John Milton|unknown_6|corpora/multiauthor/corpus_15_filtered/1745.epub
1|||PeterParleysVisittoLondonDuringtheCoronationofQueenVictoria|Cluster 1|Samuel G. Goodrich|unknown_6|corpora/multiauthor/corpus_15_filtered/43995.epub
1|||HistoryoftheIndiansofNorthandSouthAmerica|Cluster 1|Samuel G. Goodrich|unknown_6|corpora/multiauthor/corpus_15_filtered/54266.epub
1|||FamousImpostors|Cluster 1|Bram Stoker|unknown_6|corpora/multiauthor/corpus_15_filtered/51391.epub
14|||AreopagiticaASpeechfortheLibertyofUnlicensedPrintingtotheParliamentofEngland|Cluster 14|John Milton|unknown_7|corpora/multiauthor/corpus_15_filtered/608.epub
19|||PoemsYouOughttoKnow|Cluster 19|Elia Wilkinson Peattie|Samuel G. Goodrich|corpora/multiauthor/corpus_15_filtered/53415.epub
19|||CuriositiesofHumanNature|Cluster 19|Samuel G. Goodrich|Samuel G. Goodrich|corpora/multiauthor/corpus_15_filtered/39333.epub
19|||IllustrativeAnecdotesoftheAnimalKingdom|Cluster 19|Samuel G. Goodrich|Samuel G. Goodrich|corpora/multiauthor/corpus_15_filtered/33687.epub
19|||PeterParleysTalesAboutAmericaandAustralia|Cluster 19|Samuel G. Goodrich|Samuel G. Goodrich|corpora/multiauthor/corpus_15_filtered/16891.epub
19|||TheLifeofBenjaminFranklinIllustratedbyTalesSketchesandAnecdotes|Cluster 19|Samuel G. Goodrich|Samuel G. Goodrich|corpora/multiauthor/corpus_15_filtered/38469.epub
19|||ThePrisonerattheBarSidelightsontheAdministrationofCriminalJustice|Cluster 19|Arthur Cheney Train|Samuel G. Goodrich|corpora/multiauthor/corpus_15_filtered/58534.epub
19|||PrivySealHisLastVenture|Cluster 19|Ford Madox Ford|Samuel G. Goodrich|corpora/multiauthor/corpus_15_filtered/26698.epub
19|||CourtsandCriminals|Cluster 19|Arthur Cheney Train|Samuel G. Goodrich|corpora/multiauthor/corpus_15_filtered/5268.epub
10|||SixFeetFour|Cluster 10|Jackson Gregory|Jackson Gregory|corpora/multiauthor/corpus_15_filtered/15148.epub
10|||TheDesertValley|Cluster 10|Jackson Gregory|Jackson Gregory|corpora/multiauthor/corpus_15_filtered/15502.epub
10|||JudithofBlueLakeRanch|Cluster 10|Jackson Gregory|Jackson Gregory|corpora/multiauthor/corpus_15_filtered/18926.epub
10|||WolfBreed|Cluster 10|Jackson Gregory|Jackson Gregory|corpora/multiauthor/corpus_15_filtered/18964.epub
10|||MantoMan|Cluster 10|Jackson Gregory|Jackson Gregory|corpora/multiauthor/corpus_15_filtered/18933.epub
10|||DaughteroftheSunATaleofAdventure|Cluster 10|Jackson Gregory|Jackson Gregory|corpora/multiauthor/corpus_15_filtered/18916.epub
10|||TheEverlastingWhisper|Cluster 10|Jackson Gregory|Jackson Gregory|corpora/multiauthor/corpus_15_filtered/10213.epub
10|||UnderHandicapANovel|Cluster 10|Jackson Gregory|Jackson Gregory|corpora/multiauthor/corpus_15_filtered/17981.epub
10|||TheShortCut|Cluster 10|Jackson Gregory|Jackson Gregory|corpora/multiauthor/corpus_15_filtered/18950.epub
10|||TheBellsofSanJuan|Cluster 10|Jackson Gregory|Jackson Gregory|corpora/multiauthor/corpus_15_filtered/15438.epub
15|||TheMysteryoftheSea|Cluster 15|Bram Stoker|Bram Stoker|corpora/multiauthor/corpus_15_filtered/42455.epub
15|||TheJewelofSevenStars|Cluster 15|Bram Stoker|Bram Stoker|corpora/multiauthor/corpus_15_filtered/3781.epub
15|||TheLadyoftheShroud|Cluster 15|Bram Stoker|Bram Stoker|corpora/multiauthor/corpus_15_filtered/3095.epub
15|||DraculasGuest|Cluster 15|Bram Stoker|Bram Stoker|corpora/multiauthor/corpus_15_filtered/10150.epub
15|||TheLairoftheWhiteWorm|Cluster 15|Bram Stoker|Bram Stoker|corpora/multiauthor/corpus_15_filtered/1188.epub
16|||ThePrecipiceANovel|Cluster 16|Elia Wilkinson Peattie|unknown_11|corpora/multiauthor/corpus_15_filtered/12177.epub
16|||AMountainWoman|Cluster 16|Elia Wilkinson Peattie|unknown_11|corpora/multiauthor/corpus_15_filtered/1877.epub
16|||BlackForestVillageStories|Cluster 16|Berthold Auerbach|unknown_11|corpora/multiauthor/corpus_15_filtered/32517.epub
16|||Landolin|Cluster 16|Berthold Auerbach|unknown_11|corpora/multiauthor/corpus_15_filtered/33008.epub
16|||TheShapeofFear|Cluster 16|Elia Wilkinson Peattie|unknown_11|corpora/multiauthor/corpus_15_filtered/1876.epub
21|||TheBrownOwlAFairyStory|Cluster 21|Ford Madox Ford|Ford Madox Ford|corpora/multiauthor/corpus_15_filtered/48860.epub
21|||TheFifthQueenAndHowSheCametoCourt|Cluster 21|Ford Madox Ford|Ford Madox Ford|corpora/multiauthor/corpus_15_filtered/30188.epub
21|||"ChristianGellertsLastChristmasFrom""GermanTales""PublishedbytheAmericanPublishersCorporation"|Cluster 21|Berthold Auerbach|Ford Madox Ford|corpora/multiauthor/corpus_15_filtered/22665.epub
21|||VerseandWorse|Cluster 21|Harry Graham|Ford Madox Ford|corpora/multiauthor/corpus_15_filtered/36702.epub
21|||TheGoodSoldier|Cluster 21|Ford Madox Ford|Ford Madox Ford|corpora/multiauthor/corpus_15_filtered/2775.epub
21|||TheBlueJarStoryBook|Cluster 21|Maria Edgeworth|Ford Madox Ford|corpora/multiauthor/corpus_15_filtered/34470.epub
21|||TheFifthQueenCrowned|Cluster 21|Ford Madox Ford|Ford Madox Ford|corpora/multiauthor/corpus_15_filtered/27432.epub
21|||JosephintheSnowandTheClockmakerInThreeVolumesVolII|Cluster 21|Berthold Auerbach|Ford Madox Ford|corpora/multiauthor/corpus_15_filtered/33163.epub
21|||TheYoungLovellARomance|Cluster 21|Ford Madox Ford|Ford Madox Ford|corpora/multiauthor/corpus_15_filtered/42801.epub
0|||VisitsandSketchesatHomeandAbroadVol1of3WithTalesandMiscellaniesNowFirstCollected|Cluster 0|Mrs. Jameson|unknown_13|corpora/multiauthor/corpus_15_filtered/36818.epub
0|||"PeterParleysOwnStoryFromthePersonalNarrativeoftheLateSamuelGGoodrich""PeterParley"""|Cluster 0|Samuel G. Goodrich|unknown_13|corpora/multiauthor/corpus_15_filtered/45165.epub
0|||VisitsandSketchesatHomeandAbroadVol3of3WithTalesandMiscellaniesNowFirstCollected|Cluster 0|Mrs. Jameson|unknown_13|corpora/multiauthor/corpus_15_filtered/36820.epub
0|||SketchesinCanadaandramblesamongtheredmen|Cluster 0|Mrs. Jameson|unknown_13|corpora/multiauthor/corpus_15_filtered/35224.epub
0|||TheDiaryofanEnnuyée|Cluster 0|Mrs. Jameson|unknown_13|corpora/multiauthor/corpus_15_filtered/18049.epub
0|||LivesofCelebratedWomen|Cluster 0|Samuel G. Goodrich|unknown_13|corpora/multiauthor/corpus_15_filtered/33273.epub
3|||BuffonsNaturalHistoryVolume09of10ContainingaTheoryoftheEarthaGeneralHistoryofManoftheBruteCreationandofVegetablesMinerals&c&c|Cluster 3|comte de Georges Louis Leclerc Buffon|comte de Georges Louis Leclerc Buffon|corpora/multiauthor/corpus_15_filtered/45867.epub
3|||BuffonsNaturalHistoryVolume10of10ContainingaTheoryoftheEarthaGeneralHistoryofManoftheBruteCreationandofVegetablesMinerals&c&c|Cluster 3|comte de Georges Louis Leclerc Buffon|comte de Georges Louis Leclerc Buffon|corpora/multiauthor/corpus_15_filtered/45868.epub
3|||BuffonsNaturalHistoryVolume05of10ContainingaTheoryoftheEarthaGeneralHistoryofManoftheBruteCreationandofVegetablesMinerals&c&c|Cluster 3|comte de Georges Louis Leclerc Buffon|comte de Georges Louis Leclerc Buffon|corpora/multiauthor/corpus_15_filtered/45730.epub
3|||BuffonsNaturalHistoryVolume03of10ContainingaTheoryoftheEarthaGeneralHistoryofManoftheBruteCreationandofVegetablesMinerals&c&c|Cluster 3|comte de Georges Louis Leclerc Buffon|comte de Georges Louis Leclerc Buffon|corpora/multiauthor/corpus_15_filtered/45639.epub
3|||BuffonsNaturalHistoryVolume08of10ContainingaTheoryoftheEarthaGeneralHistoryofManoftheBruteCreationandofVegetablesMinerals&c&c|Cluster 3|comte de Georges Louis Leclerc Buffon|comte de Georges Louis Leclerc Buffon|corpora/multiauthor/corpus_15_filtered/45821.epub
3|||BuffonsNaturalHistoryVolume06of10ContainingaTheoryoftheEarthaGeneralHistoryofManoftheBruteCreationandofVegetablesMinerals&c&c|Cluster 3|comte de Georges Louis Leclerc Buffon|comte de Georges Louis Leclerc Buffon|corpora/multiauthor/corpus_15_filtered/45731.epub
3|||BuffonsNaturalHistoryVolume04of10ContainingaTheoryoftheEarthaGeneralHistoryofManoftheBruteCreationandofVegetablesMinerals&c&c|Cluster 3|comte de Georges Louis Leclerc Buffon|comte de Georges Louis Leclerc Buffon|corpora/multiauthor/corpus_15_filtered/45729.epub
3|||BuffonsNaturalHistoryVolume01of10ContainingaTheoryoftheEarthaGeneralHistoryofManoftheBruteCreationandofVegetablesMineral&c&c|Cluster 3|comte de Georges Louis Leclerc Buffon|comte de Georges Louis Leclerc Buffon|corpora/multiauthor/corpus_15_filtered/44792.epub
3|||BuffonsNaturalHistoryVolume02of10ContainingaTheoryoftheEarthaGeneralHistoryofManoftheBruteCreationandofVegetablesMineral&c&c|Cluster 3|comte de Georges Louis Leclerc Buffon|comte de Georges Louis Leclerc Buffon|corpora/multiauthor/corpus_15_filtered/45602.epub
3|||BuffonsNaturalHistoryVolume07of10ContainingaTheoryoftheEarthaGeneralHistoryofManoftheBruteCreationandofVegetablesMinerals&c&c|Cluster 3|comte de Georges Louis Leclerc Buffon|comte de Georges Louis Leclerc Buffon|corpora/multiauthor/corpus_15_filtered/45820.epub
6|||Poems|Cluster 6|John Milton|unknown_15|corpora/multiauthor/corpus_15_filtered/6929.epub
6|||AMichiganMan1891|Cluster 6|Elia Wilkinson Peattie|unknown_15|corpora/multiauthor/corpus_15_filtered/23176.epub
6|||"WorksofGeorgeWPeckALinkedIndextotheProjectGutenbergEditionsofthe""BadBoy""SeriesandOthers"|Cluster 6|George W. Peck|unknown_15|corpora/multiauthor/corpus_15_filtered/28970.epub
11|||PecksBadBoywiththeCowboys|Cluster 11|George W. Peck|George W. Peck|corpora/multiauthor/corpus_15_filtered/6141.epub
11|||PecksCompendiumofFunComprisingtheChoicestGemsofWitHumorSarcasmandPathosofAmericasFavoriteHumorist|Cluster 11|George W. Peck|George W. Peck|corpora/multiauthor/corpus_15_filtered/14815.epub
11|||TheGroceryManAndPecksBadBoyPecksBadBoyandHisPaNo21883|Cluster 11|George W. Peck|George W. Peck|corpora/multiauthor/corpus_15_filtered/25488.epub
11|||PecksUncleIkeandTheRedHeadedBoy1899|Cluster 11|George W. Peck|George W. Peck|corpora/multiauthor/corpus_15_filtered/25490.epub
11|||PecksBadBoyAbroadBeingaHumorousDescriptionoftheBadBoyandHisDadinTheirJourneysThroughForeignLands1904|Cluster 11|George W. Peck|George W. Peck|corpora/multiauthor/corpus_15_filtered/25489.epub
11|||PecksBadBoyandHisPa1883|Cluster 11|George W. Peck|George W. Peck|corpora/multiauthor/corpus_15_filtered/25487.epub
11|||PecksSunshineBeingaCollectionofArticlesWrittenforPecksSunMilwaukeeWis1882|Cluster 11|George W. Peck|George W. Peck|corpora/multiauthor/corpus_15_filtered/25491.epub
11|||HowPrivateGeorgeWPeckPutDowntheRebellionorTheFunnyExperiencesofaRawRecruit1887|Cluster 11|George W. Peck|George W. Peck|corpora/multiauthor/corpus_15_filtered/25492.epub
11|||PecksBadBoywiththeCircus|Cluster 11|George W. Peck|George W. Peck|corpora/multiauthor/corpus_15_filtered/10212.epub
7|||IndexoftheProjectGutenbergWorksofBramStoker|Cluster 7|Bram Stoker|unknown_17|corpora/multiauthor/corpus_15_filtered/59671.epub
17|||AzaleaTheStoryofaLittleGirlintheBlueRidgeMountains|Cluster 17|Elia Wilkinson Peattie|Elia Wilkinson Peattie|corpora/multiauthor/corpus_15_filtered/53727.epub
17|||Romance|Cluster 17|Mrs. Jameson|Elia Wilkinson Peattie|corpora/multiauthor/corpus_15_filtered/35382.epub
17|||AnnieLaurieandAzalea|Cluster 17|Elia Wilkinson Peattie|Elia Wilkinson Peattie|corpora/multiauthor/corpus_15_filtered/53975.epub
17|||TheInheritors|Cluster 17|Joseph Conrad|Elia Wilkinson Peattie|corpora/multiauthor/corpus_15_filtered/14888.epub
17|||PaintedWindows|Cluster 17|Elia Wilkinson Peattie|Elia Wilkinson Peattie|corpora/multiauthor/corpus_15_filtered/1875.epub
17|||AzaleasSilverWeb|Cluster 17|Elia Wilkinson Peattie|Elia Wilkinson Peattie|corpora/multiauthor/corpus_15_filtered/55304.epub
17|||AzaleaatSunsetGap|Cluster 17|Elia Wilkinson Peattie|Elia Wilkinson Peattie|corpora/multiauthor/corpus_15_filtered/54813.epub
12|||CharacteristicsofWomenMoralPoeticalandHistorical|Cluster 12|Mrs. Jameson|Mrs. Jameson|corpora/multiauthor/corpus_15_filtered/26152.epub
12|||MiltonMinorPoems|Cluster 12|John Milton|Mrs. Jameson|corpora/multiauthor/corpus_15_filtered/31706.epub
12|||MiltonsComus|Cluster 12|John Milton|Mrs. Jameson|corpora/multiauthor/corpus_15_filtered/19819.epub
12|||TheRomanceofBiographyVol2of2orMemoirsofWomenLovedandCelebratedbyPoetsfromtheDaysoftheTroubadourstothePresentAge3rded2Vols|Cluster 12|Mrs. Jameson|Mrs. Jameson|corpora/multiauthor/corpus_15_filtered/35416.epub
12|||TheRomanceofBiographyVol1of2orMemoirsofWomenLovedandCelebratedbyPoetsfromtheDaysoftheTroubadourstothePresentAge3rded2Vols|Cluster 12|Mrs. Jameson|Mrs. Jameson|corpora/multiauthor/corpus_15_filtered/35382.epub
12|||VisitsandSketchesatHomeandAbroadVol2of3WithTalesandMiscellaniesNowFirstCollected|Cluster 12|Mrs. Jameson|Mrs. Jameson|corpora/multiauthor/corpus_15_filtered/36819.epub
12|||AnIntroductiontotheProseandPoeticalWorksofJohnMiltonComprisingAlltheAutobiographicPassagesinHisWorkstheMoreExplicitPresentation|Cluster 12|John Milton|Mrs. Jameson|corpora/multiauthor/corpus_15_filtered/44733.epub
12|||ACommonplaceBookofThoughtsMemoriesandFancies2nded|Cluster 12|Mrs. Jameson|Mrs. Jameson|corpora/multiauthor/corpus_15_filtered/39680.epub
13|||FiscalBallads|Cluster 13|Harry Graham|Harry Graham|corpora/multiauthor/corpus_15_filtered/36038.epub
13|||TheMotleyMuseRhymesfortheTimes|Cluster 13|Harry Graham|Harry Graham|corpora/multiauthor/corpus_15_filtered/36543.epub
13|||MoreMisrepresentativeMen|Cluster 13|Harry Graham|Harry Graham|corpora/multiauthor/corpus_15_filtered/36782.epub
13|||RuthlessRhymesforHeartlessHomes|Cluster 13|Harry Graham|Harry Graham|corpora/multiauthor/corpus_15_filtered/35051.epub
13|||FamiliarFaces|Cluster 13|Harry Graham|Harry Graham|corpora/multiauthor/corpus_15_filtered/35059.epub
13|||MisrepresentativeMen|Cluster 13|Harry Graham|Harry Graham|corpora/multiauthor/corpus_15_filtered/36782.epub
13|||ReedAnthonyCowmanAnAutobiography|Cluster 13|Andy Adams|Harry Graham|corpora/multiauthor/corpus_15_filtered/12884.epub
13|||MisrepresentativeWomen|Cluster 13|Harry Graham|Harry Graham|corpora/multiauthor/corpus_15_filtered/42407.epub
13|||PervertedProverbsAManualofImmoralsfortheMany|Cluster 13|Harry Graham|Harry Graham|corpora/multiauthor/corpus_15_filtered/34790.epub
8|||TheWorksofCharlesandMaryLamb—Volume5TheLettersofCharlesandMaryLamb17961820|Cluster 8|Charles Lamb|Charles Lamb|corpora/multiauthor/corpus_15_filtered/9365.epub
8|||TheWorksofCharlesandMaryLamb—Volume4PoemsandPlays|Cluster 8|Charles Lamb|Charles Lamb|corpora/multiauthor/corpus_15_filtered/11576.epub
8|||TheWorksofCharlesandMaryLamb—Volume1MiscellaneousProse|Cluster 8|Charles Lamb|Charles Lamb|corpora/multiauthor/corpus_15_filtered/40988.epub
8|||TalesfromShakespeare|Cluster 8|Charles Lamb|Charles Lamb|corpora/multiauthor/corpus_15_filtered/1286.epub
8|||TheWorksofCharlesandMaryLamb—Volume2EliaandTheLastEssaysofElia|Cluster 8|Charles Lamb|Charles Lamb|corpora/multiauthor/corpus_15_filtered/10343.epub
8|||TheWorksofCharlesandMaryLamb—Volume6Letters18211842|Cluster 8|Charles Lamb|Charles Lamb|corpora/multiauthor/corpus_15_filtered/10851.epub
8|||TheWorksofCharlesandMaryLamb—Volume3BooksforChildren|Cluster 8|Charles Lamb|Charles Lamb|corpora/multiauthor/corpus_15_filtered/10130.epub
22|||Webster—MansMan|Cluster 22|Peter B. Kyne|Peter B. Kyne|corpora/multiauthor/corpus_15_filtered/51987.epub
22|||KindredoftheDust|Cluster 22|Peter B. Kyne|Peter B. Kyne|corpora/multiauthor/corpus_15_filtered/13532.epub
22|||TheLongChance|Cluster 22|Peter B. Kyne|Peter B. Kyne|corpora/multiauthor/corpus_15_filtered/6115.epub
22|||ThePrideofPalomar|Cluster 22|Peter B. Kyne|Peter B. Kyne|corpora/multiauthor/corpus_15_filtered/16674.epub
22|||TheValleyoftheGiants|Cluster 22|Peter B. Kyne|Peter B. Kyne|corpora/multiauthor/corpus_15_filtered/5735.epub
22|||CappyRicksRetiresButThatDoesntKeepHimfromComingBackStrongerThanEver|Cluster 22|Peter B. Kyne|Peter B. Kyne|corpora/multiauthor/corpus_15_filtered/6020.epub
18|||TheOutlet|Cluster 18|Andy Adams|Andy Adams|corpora/multiauthor/corpus_15_filtered/1987.epub
18|||TheLogofaCowboyANarrativeoftheOldTrailDays|Cluster 18|Andy Adams|Andy Adams|corpora/multiauthor/corpus_15_filtered/12797.epub
18|||MysteryoftheAmbushinIndiaABiffBrewsterMysteryAdventure|Cluster 18|Andy Adams|Andy Adams|corpora/multiauthor/corpus_15_filtered/51830.epub
18|||BrazilianGoldMineMysteryABiffBrewsterMysteryAdventure|Cluster 18|Andy Adams|Andy Adams|corpora/multiauthor/corpus_15_filtered/51538.epub
18|||WellsBrothersTheYoungCattleKings|Cluster 18|Andy Adams|Andy Adams|corpora/multiauthor/corpus_15_filtered/12791.epub
18|||MysteryoftheChineseRingABiffBrewsterMysteryAdventure|Cluster 18|Andy Adams|Andy Adams|corpora/multiauthor/corpus_15_filtered/51608.epub
18|||HawaiianSeaHuntMysteryABiffBrewsterMysteryAdventure|Cluster 18|Andy Adams|Andy Adams|corpora/multiauthor/corpus_15_filtered/51755.epub
