idnum|extra|percent|title|clusterid|real_author|label|filename
5|||MartinChuzzlewit|Cluster 5|Charles Dickens|Charles Dickens|corpora/baseline/corpus3/pg968.epub
5|||NicholasNickleby|Cluster 5|Charles Dickens|Charles Dickens|corpora/baseline/corpus3/pg967.epub
5|||HardTimes|Cluster 5|Charles Dickens|Charles Dickens|corpora/baseline/corpus3/pg786.epub
5|||LittleDorrit|Cluster 5|Charles Dickens|Charles Dickens|corpora/baseline/corpus3/pg963.epub
5|||DombeyandSon|Cluster 5|Charles Dickens|Charles Dickens|corpora/baseline/corpus3/pg821.epub
5|||TheMysteryofEdwinDrood|Cluster 5|Charles Dickens|Charles Dickens|corpora/baseline/corpus3/pg564.epub
5|||OurMutualFriend|Cluster 5|Charles Dickens|Charles Dickens|corpora/baseline/corpus3/pg883.epub
2|||BarnabyRudgeATaleoftheRiotsofEighty|Cluster 2|Charles Dickens|unknown_2|corpora/baseline/corpus3/pg917.epub
2|||OliverTwist|Cluster 2|Charles Dickens|unknown_2|corpora/baseline/corpus3/pg730.epub
2|||ThePickwickPapers|Cluster 2|Charles Dickens|unknown_2|corpora/baseline/corpus3/pg580.epub
2|||SylviasLovers—Complete|Cluster 2|Elizabeth Cleghorn Gaskell|unknown_2|corpora/baseline/corpus3/pg4537.epub
2|||Romola|Cluster 2|George Eliot|unknown_2|corpora/baseline/corpus3/pg24020.epub
2|||ATaleofTwoCities|Cluster 2|Charles Dickens|unknown_2|corpora/baseline/corpus3/pg98.epub
0|||HarryPotterandtheOrderofthePhoenix|Cluster 0|J.K. Rowling|J.K. Rowling|corpora/baseline/corpus3/Harry Potter and the Order of the Phoenix - J.K. Rowling.epub
0|||HarryPotterandtheDeathlyHallows|Cluster 0|J.K. Rowling|J.K. Rowling|corpora/baseline/corpus3/Harry Potter and the Deathly Hallows - J.K. Rowling.epub
0|||HarryPotterandtheGobletofFire|Cluster 0|J.K. Rowling|J.K. Rowling|corpora/baseline/corpus3/Harry Potter and the Goblet of Fire - J.K. Rowling.epub
0|||HarryPotterandthePrisonerofAzkaban|Cluster 0|J.K. Rowling|J.K. Rowling|corpora/baseline/corpus3/Harry Potter and the Prisoner of Azkaban - J.K. Rowling.epub
0|||HarryPotterandtheChamberofSecrets|Cluster 0|J.K. Rowling|J.K. Rowling|corpora/baseline/corpus3/Harry Potter and the Chamber of Secrets - J.K. Rowling.epub
0|||HarryPotterandthePhilosophersStone|Cluster 0|J.K. Rowling|J.K. Rowling|corpora/baseline/corpus3/Harry Potter and the Philosopher's Stone - J.K. Rowling.epub
0|||HarryPotterandtheHalfBloodPrince|Cluster 0|J.K. Rowling|J.K. Rowling|corpora/baseline/corpus3/Harry Potter and the Half-Blood Prince - J.K. Rowling.epub
3|||MansfieldPark|Cluster 3|Jane Austen|Jane Austen|corpora/baseline/corpus3/pg141.epub
3|||Persuasion|Cluster 3|Jane Austen|Jane Austen|corpora/baseline/corpus3/pg105.epub
3|||Emma|Cluster 3|Jane Austen|Jane Austen|corpora/baseline/corpus3/pg158.epub
3|||NorthangerAbbey|Cluster 3|Jane Austen|Jane Austen|corpora/baseline/corpus3/pg121.epub
3|||SenseandSensibility|Cluster 3|Jane Austen|Jane Austen|corpora/baseline/corpus3/pg161.epub
3|||PrideandPrejudice|Cluster 3|Jane Austen|Jane Austen|corpora/baseline/corpus3/pg42671.epub
1|||Ruth|Cluster 1|Elizabeth Cleghorn Gaskell|George Eliot|corpora/baseline/corpus3/pg4275.epub
1|||Cranford|Cluster 1|Elizabeth Cleghorn Gaskell|George Eliot|corpora/baseline/corpus3/pg394.epub
1|||Middlemarch|Cluster 1|George Eliot|George Eliot|corpora/baseline/corpus3/pg145.epub
1|||MaryBarton|Cluster 1|Elizabeth Cleghorn Gaskell|George Eliot|corpora/baseline/corpus3/pg2153.epub
1|||SilasMarner|Cluster 1|George Eliot|George Eliot|corpora/baseline/corpus3/pg550.epub
1|||FelixHolttheRadical|Cluster 1|George Eliot|George Eliot|corpora/baseline/corpus3/pg40882.epub
1|||NorthandSouth|Cluster 1|Elizabeth Cleghorn Gaskell|George Eliot|corpora/baseline/corpus3/pg4276.epub
1|||TheMillontheFloss|Cluster 1|George Eliot|George Eliot|corpora/baseline/corpus3/pg6688.epub
1|||AdamBede|Cluster 1|George Eliot|George Eliot|corpora/baseline/corpus3/pg507.epub
1|||DanielDeronda|Cluster 1|George Eliot|George Eliot|corpora/baseline/corpus3/pg7469.epub
4|||CatherineAStory|Cluster 4|William Makepeace Thackeray|William Makepeace Thackeray|corpora/baseline/corpus3/pg1969.epub
4|||TheNewcomesMemoirsofaMostRespectableFamily|Cluster 4|William Makepeace Thackeray|William Makepeace Thackeray|corpora/baseline/corpus3/pg7467.epub
4|||TheHistoryofPendennis|Cluster 4|William Makepeace Thackeray|William Makepeace Thackeray|corpora/baseline/corpus3/pg7265.epub
4|||TheHistoryofHenryEsmondEsqaColonelintheServiceofHerMajestyQueenAnne|Cluster 4|William Makepeace Thackeray|William Makepeace Thackeray|corpora/baseline/corpus3/pg2511.epub
4|||VanityFair|Cluster 4|William Makepeace Thackeray|William Makepeace Thackeray|corpora/baseline/corpus3/pg599.epub
4|||TheVirginians|Cluster 4|William Makepeace Thackeray|William Makepeace Thackeray|corpora/baseline/corpus3/pg8123.epub
