idnum|extra|percent|title|clusterid|real_author|label|filename
5|||ThePickwickPapers|Cluster 5|Charles Dickens|unknown_1|corpora/baseline/corpus2/pg580.epub
5|||ATaleofTwoCities|Cluster 5|Charles Dickens|unknown_1|corpora/baseline/corpus2/pg98.epub
5|||NicholasNickleby|Cluster 5|Charles Dickens|unknown_1|corpora/baseline/corpus2/pg967.epub
5|||BarnabyRudgeATaleoftheRiotsofEighty|Cluster 5|Charles Dickens|unknown_1|corpora/baseline/corpus2/pg917.epub
5|||OliverTwist|Cluster 5|Charles Dickens|unknown_1|corpora/baseline/corpus2/pg730.epub
2|||PrideandPrejudice|Cluster 2|Jane Austen|Jane Austen|corpora/baseline/corpus2/pg42671.epub
2|||Persuasion|Cluster 2|Jane Austen|Jane Austen|corpora/baseline/corpus2/pg105.epub
2|||NorthangerAbbey|Cluster 2|Jane Austen|Jane Austen|corpora/baseline/corpus2/pg121.epub
2|||SenseandSensibility|Cluster 2|Jane Austen|Jane Austen|corpora/baseline/corpus2/pg161.epub
2|||Emma|Cluster 2|Jane Austen|Jane Austen|corpora/baseline/corpus2/pg158.epub
2|||DanielDeronda|Cluster 2|George Eliot|Jane Austen|corpora/baseline/corpus2/pg7469.epub
2|||MansfieldPark|Cluster 2|Jane Austen|Jane Austen|corpora/baseline/corpus2/pg141.epub
0|||TheIdiot|Cluster 0|Fyodor Dostoyevsky|Ivan Sergeevich Turgenev|corpora/baseline/corpus2/pg2638.epub
0|||FathersandChildren|Cluster 0|Ivan Sergeevich Turgenev|Ivan Sergeevich Turgenev|corpora/baseline/corpus2/pg30723.epub
0|||ThePossessedTheDevils|Cluster 0|Fyodor Dostoyevsky|Ivan Sergeevich Turgenev|corpora/baseline/corpus2/pg8117.epub
0|||RudinANovel|Cluster 0|Ivan Sergeevich Turgenev|Ivan Sergeevich Turgenev|corpora/baseline/corpus2/pg6900.epub
0|||AHouseofGentlefolk|Cluster 0|Ivan Sergeevich Turgenev|Ivan Sergeevich Turgenev|corpora/baseline/corpus2/pg5721.epub
0|||OntheEveANovel|Cluster 0|Ivan Sergeevich Turgenev|Ivan Sergeevich Turgenev|corpora/baseline/corpus2/pg6902.epub
0|||TheBrothersKaramazov|Cluster 0|Fyodor Dostoyevsky|Ivan Sergeevich Turgenev|corpora/baseline/corpus2/pg28054.epub
0|||Smoke|Cluster 0|Ivan Sergeevich Turgenev|Ivan Sergeevich Turgenev|corpora/baseline/corpus2/pg40813.epub
0|||VirginSoil|Cluster 0|Ivan Sergeevich Turgenev|Ivan Sergeevich Turgenev|corpora/baseline/corpus2/pg2466.epub
0|||CrimeandPunishment|Cluster 0|Fyodor Dostoyevsky|Ivan Sergeevich Turgenev|corpora/baseline/corpus2/pg2554.epub
3|||TheMysteryofEdwinDrood|Cluster 3|Charles Dickens|Charles Dickens|corpora/baseline/corpus2/pg564.epub
3|||MartinChuzzlewit|Cluster 3|Charles Dickens|Charles Dickens|corpora/baseline/corpus2/pg968.epub
3|||HardTimes|Cluster 3|Charles Dickens|Charles Dickens|corpora/baseline/corpus2/pg786.epub
3|||LittleDorrit|Cluster 3|Charles Dickens|Charles Dickens|corpora/baseline/corpus2/pg963.epub
3|||OurMutualFriend|Cluster 3|Charles Dickens|Charles Dickens|corpora/baseline/corpus2/pg883.epub
3|||DombeyandSon|Cluster 3|Charles Dickens|Charles Dickens|corpora/baseline/corpus2/pg821.epub
1|||VanityFair|Cluster 1|William Makepeace Thackeray|William Makepeace Thackeray|corpora/baseline/corpus2/pg599.epub
1|||TheNewcomesMemoirsofaMostRespectableFamily|Cluster 1|William Makepeace Thackeray|William Makepeace Thackeray|corpora/baseline/corpus2/pg7467.epub
1|||TheVirginians|Cluster 1|William Makepeace Thackeray|William Makepeace Thackeray|corpora/baseline/corpus2/pg8123.epub
1|||TheHistoryofPendennis|Cluster 1|William Makepeace Thackeray|William Makepeace Thackeray|corpora/baseline/corpus2/pg7265.epub
1|||TheHistoryofHenryEsmondEsqaColonelintheServiceofHerMajestyQueenAnne|Cluster 1|William Makepeace Thackeray|William Makepeace Thackeray|corpora/baseline/corpus2/pg2511.epub
1|||CatherineAStory|Cluster 1|William Makepeace Thackeray|William Makepeace Thackeray|corpora/baseline/corpus2/pg1969.epub
4|||TheMillontheFloss|Cluster 4|George Eliot|George Eliot|corpora/baseline/corpus2/pg6688.epub
4|||Middlemarch|Cluster 4|George Eliot|George Eliot|corpora/baseline/corpus2/pg145.epub
4|||AdamBede|Cluster 4|George Eliot|George Eliot|corpora/baseline/corpus2/pg507.epub
4|||SilasMarner|Cluster 4|George Eliot|George Eliot|corpora/baseline/corpus2/pg550.epub
4|||Romola|Cluster 4|George Eliot|George Eliot|corpora/baseline/corpus2/pg24020.epub
4|||FelixHolttheRadical|Cluster 4|George Eliot|George Eliot|corpora/baseline/corpus2/pg40882.epub
6|||SylviasLovers—Complete|Cluster 6|Elizabeth Cleghorn Gaskell|Elizabeth Cleghorn Gaskell|corpora/baseline/corpus2/pg4537.epub
6|||Cranford|Cluster 6|Elizabeth Cleghorn Gaskell|Elizabeth Cleghorn Gaskell|corpora/baseline/corpus2/pg394.epub
6|||NorthandSouth|Cluster 6|Elizabeth Cleghorn Gaskell|Elizabeth Cleghorn Gaskell|corpora/baseline/corpus2/pg4276.epub
6|||MaryBarton|Cluster 6|Elizabeth Cleghorn Gaskell|Elizabeth Cleghorn Gaskell|corpora/baseline/corpus2/pg2153.epub
6|||Ruth|Cluster 6|Elizabeth Cleghorn Gaskell|Elizabeth Cleghorn Gaskell|corpora/baseline/corpus2/pg4275.epub
