threshold;Purity;MutualInformation;Accuracy;Clusters
0.6;0.8888888888888888;0.893117405378682;0.8888888888888888;7
0.601010101010101;0.8888888888888888;0.893117405378682;0.8888888888888888;7
0.602020202020202;0.9333333333333333;0.9523520839482079;0.9333333333333333;7
0.603030303030303;0.9333333333333333;0.9523520839482079;0.9333333333333333;7
0.604040404040404;0.9333333333333333;0.9523520839482079;0.9333333333333333;7
0.6050505050505051;0.9333333333333333;0.9523520839482079;0.9333333333333333;7
0.6060606060606061;0.9333333333333333;0.9130340411366962;0.8444444444444444;8
0.6070707070707071;0.9333333333333333;0.9130340411366962;0.8444444444444444;8
0.6080808080808081;0.9333333333333333;0.9130340411366962;0.8444444444444444;8
0.609090909090909;0.9333333333333333;0.9130340411366962;0.8444444444444444;8
0.61010101010101;0.9333333333333333;0.9130340411366962;0.8444444444444444;8
0.611111111111111;0.9333333333333333;0.9130340411366962;0.8444444444444444;8
0.6121212121212121;0.9333333333333333;0.9130340411366962;0.8444444444444444;8
0.6131313131313131;0.9333333333333333;0.9130340411366962;0.8444444444444444;8
0.6141414141414141;0.9333333333333333;0.9130340411366962;0.8444444444444444;8
0.6151515151515151;0.9333333333333333;0.9130340411366962;0.8444444444444444;8
0.6161616161616161;0.9333333333333333;0.9130340411366962;0.8444444444444444;8
0.6171717171717171;0.9333333333333333;0.9130340411366962;0.8444444444444444;8
0.6181818181818182;0.9333333333333333;0.9130340411366962;0.8444444444444444;8
0.6191919191919192;0.9333333333333333;0.9130340411366962;0.8444444444444444;8
0.6202020202020202;0.9333333333333333;0.9130340411366962;0.8444444444444444;8
0.6212121212121212;0.9333333333333333;0.9130340411366962;0.8444444444444444;8
0.6222222222222222;0.9333333333333333;0.9130340411366962;0.8444444444444444;8
0.6232323232323232;0.9333333333333333;0.9130340411366962;0.8444444444444444;8
0.6242424242424243;0.9333333333333333;0.9130340411366962;0.8444444444444444;8
0.6252525252525252;0.9333333333333333;0.9130340411366962;0.8444444444444444;8
0.6262626262626262;0.9333333333333333;0.9130340411366962;0.8444444444444444;8
0.6272727272727272;0.9111111111111111;0.8931866188196464;0.8;8
0.6282828282828282;0.9111111111111111;0.8931866188196464;0.8;8
0.6292929292929292;0.9111111111111111;0.8931866188196464;0.8;8
0.6303030303030303;0.9111111111111111;0.8931866188196464;0.8;8
0.6313131313131313;0.9111111111111111;0.8931866188196464;0.8;8
0.6323232323232323;0.9111111111111111;0.8931866188196464;0.8;8
0.6333333333333333;0.9111111111111111;0.8931866188196464;0.8;8
0.6343434343434343;0.9111111111111111;0.8931866188196464;0.8;8
0.6353535353535353;0.9111111111111111;0.8931866188196464;0.8;8
0.6363636363636364;0.9111111111111111;0.8931866188196464;0.8;8
0.6373737373737374;0.9111111111111111;0.8931866188196464;0.8;8
0.6383838383838384;0.9111111111111111;0.8931866188196464;0.8;8
0.6393939393939394;0.9111111111111111;0.8931866188196464;0.8;8
0.6404040404040404;0.9333333333333333;0.9018170649359106;0.8222222222222222;9
0.6414141414141414;0.9333333333333333;0.9018170649359106;0.8222222222222222;9
0.6424242424242423;0.9333333333333333;0.9018170649359106;0.8222222222222222;9
0.6434343434343434;0.9333333333333333;0.9018170649359106;0.8222222222222222;9
0.6444444444444444;0.9333333333333333;0.9018170649359106;0.8222222222222222;9
0.6454545454545454;0.9333333333333333;0.9018170649359106;0.8222222222222222;9
0.6464646464646464;0.9333333333333333;0.9018170649359106;0.8222222222222222;9
0.6474747474747474;0.9333333333333333;0.9018170649359106;0.8222222222222222;9
0.6484848484848484;0.9333333333333333;0.9018170649359106;0.8222222222222222;9
0.6494949494949495;0.9333333333333333;0.9018170649359106;0.8222222222222222;9
0.6505050505050505;0.9333333333333333;0.9018170649359106;0.8222222222222222;9
0.6515151515151515;0.9333333333333333;0.9018170649359106;0.8222222222222222;9
0.6525252525252525;0.9333333333333333;0.9018170649359106;0.8222222222222222;9
0.6535353535353535;0.9333333333333333;0.9018170649359106;0.8222222222222222;9
0.6545454545454545;0.9333333333333333;0.9018170649359106;0.8222222222222222;9
0.6555555555555556;1.0;0.9451764985424537;0.8888888888888888;9
0.6565656565656566;1.0;0.9451764985424537;0.8888888888888888;9
0.6575757575757576;1.0;0.9451764985424537;0.8888888888888888;9
0.6585858585858586;1.0;0.9451764985424537;0.8888888888888888;9
0.6595959595959595;1.0;0.9304055014526572;0.8666666666666667;10
0.6606060606060605;1.0;0.9304055014526572;0.8666666666666667;10
0.6616161616161615;1.0;0.9304055014526572;0.8666666666666667;10
0.6626262626262626;1.0;0.9304055014526572;0.8666666666666667;10
0.6636363636363636;1.0;0.9304055014526572;0.8666666666666667;10
0.6646464646464646;1.0;0.9169120044941061;0.8444444444444444;11
0.6656565656565656;1.0;0.9169120044941061;0.8444444444444444;11
0.6666666666666666;1.0;0.9169120044941061;0.8444444444444444;11
0.6676767676767676;1.0;0.9169120044941061;0.8444444444444444;11
0.6686868686868687;1.0;0.9169120044941061;0.8444444444444444;11
0.6696969696969697;1.0;0.9169120044941061;0.8444444444444444;11
0.6707070707070707;1.0;0.9169120044941061;0.8444444444444444;11
0.6717171717171717;1.0;0.9169120044941061;0.8444444444444444;11
0.6727272727272727;1.0;0.9169120044941061;0.8444444444444444;11
0.6737373737373737;1.0;0.9169120044941061;0.8444444444444444;11
0.6747474747474747;1.0;0.9169120044941061;0.8444444444444444;11
0.6757575757575758;1.0;0.9034735875893651;0.8444444444444444;12
0.6767676767676767;1.0;0.9034735875893651;0.8444444444444444;12
0.6777777777777777;1.0;0.9034735875893651;0.8444444444444444;12
0.6787878787878787;1.0;0.9034735875893651;0.8444444444444444;12
0.6797979797979797;1.0;0.9034735875893651;0.8444444444444444;12
0.6808080808080808;1.0;0.9034735875893651;0.8444444444444444;12
0.6818181818181818;1.0;0.9034735875893651;0.8444444444444444;12
0.6828282828282828;1.0;0.8876834569597144;0.8;13
0.6838383838383838;1.0;0.8876834569597144;0.8;13
0.6848484848484848;1.0;0.8876834569597144;0.8;13
0.6858585858585858;1.0;0.8876834569597144;0.8;13
0.6868686868686869;1.0;0.8876834569597144;0.8;13
0.6878787878787879;1.0;0.8876834569597144;0.8;13
0.6888888888888889;1.0;0.8876834569597144;0.8;13
0.6898989898989899;1.0;0.8774329155346849;0.7777777777777778;14
0.6909090909090909;1.0;0.8731241226889083;0.7555555555555555;14
0.6919191919191918;1.0;0.8731241226889083;0.7555555555555555;14
0.6929292929292928;1.0;0.8731241226889083;0.7555555555555555;14
0.6939393939393939;1.0;0.8731241226889083;0.7555555555555555;14
0.6949494949494949;1.0;0.8731241226889083;0.7555555555555555;14
0.6959595959595959;1.0;0.8731241226889083;0.7555555555555555;14
0.6969696969696969;1.0;0.8731241226889083;0.7555555555555555;14
0.6979797979797979;1.0;0.8731241226889083;0.7555555555555555;14
0.6989898989898989;1.0;0.864689127223844;0.7333333333333333;15
0.7;1.0;0.864689127223844;0.7333333333333333;15
