title|author|ID
Cattle Brands: A Collection of Western Camp-Fire Stories|Adams, Andy|http://www.gutenberg.org/ebooks/12281
Wells Brothers: The Young Cattle Kings|Adams, Andy|http://www.gutenberg.org/ebooks/12791
The Log of a Cowboy: A Narrative of the Old Trail Days|Adams, Andy|http://www.gutenberg.org/ebooks/12797
Reed Anthony, Cowman: An Autobiography|Adams, Andy|http://www.gutenberg.org/ebooks/12884
A Texas Matchmaker|Adams, Andy|http://www.gutenberg.org/ebooks/12919
The Outlet|Adams, Andy|http://www.gutenberg.org/ebooks/1987
Brazilian Gold Mine Mystery: A Biff Brewster Mystery Adventure|Adams, Andy|http://www.gutenberg.org/ebooks/51538
Mystery of the Chinese Ring: A Biff Brewster Mystery Adventure|Adams, Andy|http://www.gutenberg.org/ebooks/51608
Hawaiian Sea Hunt Mystery: A Biff Brewster Mystery Adventure|Adams, Andy|http://www.gutenberg.org/ebooks/51755
Mystery of the Ambush in India: A Biff Brewster Mystery Adventure|Adams, Andy|http://www.gutenberg.org/ebooks/51830
"Christian Gellert's Last Christmas
From ""German Tales"" Published by the American Publishers' Corporation"|Auerbach, Berthold|http://www.gutenberg.org/ebooks/22665
Waldfried: A Novel|Auerbach, Berthold|http://www.gutenberg.org/ebooks/32446
Black Forest Village Stories|Auerbach, Berthold|http://www.gutenberg.org/ebooks/32517
Villa Eden: The Country-House on the Rhine|Auerbach, Berthold|http://www.gutenberg.org/ebooks/32902
Edelweiss: A Story|Auerbach, Berthold|http://www.gutenberg.org/ebooks/33007
Landolin|Auerbach, Berthold|http://www.gutenberg.org/ebooks/33008
Joseph in the Snow, and The Clockmaker. In Three Volumes. Vol. I.|Auerbach, Berthold|http://www.gutenberg.org/ebooks/33162
Joseph in the Snow, and The Clockmaker. In Three Volumes. Vol. II.|Auerbach, Berthold|http://www.gutenberg.org/ebooks/33163
Joseph in the Snow, and The Clockmaker. In Three Volumes. Vol. III.|Auerbach, Berthold|http://www.gutenberg.org/ebooks/33164
On the Heights: A Novel|Auerbach, Berthold|http://www.gutenberg.org/ebooks/33294
"From Chaucer to Tennyson
With Twenty-Nine Portraits and Selections from Thirty Authors"|Beers, Henry A. (Henry Augustin)|http://www.gutenberg.org/ebooks/11618
A History of English Romanticism in the Eighteenth Century|Beers, Henry A. (Henry Augustin)|http://www.gutenberg.org/ebooks/15447
Initial Studies in American Letters|Beers, Henry A. (Henry Augustin)|http://www.gutenberg.org/ebooks/15854
A History of English Romanticism in the Nineteenth Century|Beers, Henry A. (Henry Augustin)|http://www.gutenberg.org/ebooks/15931
Brief History of English and American Literature|Beers, Henry A. (Henry Augustin)|http://www.gutenberg.org/ebooks/21090
Four Americans: Roosevelt, Hawthorne, Emerson, Whitman|Beers, Henry A. (Henry Augustin)|http://www.gutenberg.org/ebooks/24435
"Milton's Tercentenary
An address delivered before the Modern Language Club of Yale University on Milton's Three Hundredth Birthday."|Beers, Henry A. (Henry Augustin)|http://www.gutenberg.org/ebooks/33248
The Two Twilights|Beers, Henry A. (Henry Augustin)|http://www.gutenberg.org/ebooks/34741
The Connecticut Wits, and Other Essays|Beers, Henry A. (Henry Augustin)|http://www.gutenberg.org/ebooks/50915
Nathaniel Parker Willis|Beers, Henry A. (Henry Augustin)|http://www.gutenberg.org/ebooks/53876
"Buffon's Natural History, Volume 01 (of 10)
Containing a Theory of the Earth, a General History of Man, of the Brute Creation, and of Vegetables, Mineral, &c. &c"|Buffon, Georges Louis Leclerc, comte de|http://www.gutenberg.org/ebooks/44792
"Buffon's Natural History, Volume 02 (of 10)
Containing a Theory of the Earth, a General History of Man, of the Brute Creation, and of Vegetables, Mineral, &c. &c"|Buffon, Georges Louis Leclerc, comte de|http://www.gutenberg.org/ebooks/45602
"Buffon's Natural History, Volume 03 (of 10)
Containing a Theory of the Earth, a General History of Man, of the Brute Creation, and of Vegetables, Minerals, &c. &c."|Buffon, Georges Louis Leclerc, comte de|http://www.gutenberg.org/ebooks/45639
"Buffon's Natural History. Volume 04 (of 10)
Containing a Theory of the Earth, a General History of Man, of the Brute Creation, and of Vegetables, Minerals, &c. &c"|Buffon, Georges Louis Leclerc, comte de|http://www.gutenberg.org/ebooks/45729
"Buffon's Natural History. Volume 05 (of 10)
Containing a Theory of the Earth, a General History of Man, of the Brute Creation, and of Vegetables, Minerals, &c. &c"|Buffon, Georges Louis Leclerc, comte de|http://www.gutenberg.org/ebooks/45730
"Buffon's Natural History. Volume 06 (of 10)
Containing a Theory of the Earth, a General History of Man, of the Brute Creation, and of Vegetables, Minerals, &c. &c"|Buffon, Georges Louis Leclerc, comte de|http://www.gutenberg.org/ebooks/45731
"Buffon's Natural History. Volume 07 (of 10)
Containing a Theory of the Earth, a General History of Man, of the Brute Creation, and of Vegetables, Minerals, &c. &c"|Buffon, Georges Louis Leclerc, comte de|http://www.gutenberg.org/ebooks/45820
"Buffon's Natural History. Volume 08 (of 10)
Containing a Theory of the Earth, a General History of Man, of the Brute Creation, and of Vegetables, Minerals, &c. &c"|Buffon, Georges Louis Leclerc, comte de|http://www.gutenberg.org/ebooks/45821
"Buffon's Natural History. Volume 09 (of 10)
Containing a Theory of the Earth, a General History of Man, of the Brute Creation, and of Vegetables, Minerals, &c. &c"|Buffon, Georges Louis Leclerc, comte de|http://www.gutenberg.org/ebooks/45867
"Buffon's Natural History. Volume 10 (of 10)
Containing a Theory of the Earth, a General History of Man, of the Brute Creation, and of Vegetables, Minerals, &c. &c"|Buffon, Georges Louis Leclerc, comte de|http://www.gutenberg.org/ebooks/45868
A Day with Keats|Byron, May|http://www.gutenberg.org/ebooks/30451
A Day with Lord Byron|Byron, May|http://www.gutenberg.org/ebooks/32990
A Day with Walt Whitman|Byron, May|http://www.gutenberg.org/ebooks/36305
A Day with Samuel Taylor Coleridge|Byron, May|http://www.gutenberg.org/ebooks/36337
A Day with Robert Schumann|Byron, May|http://www.gutenberg.org/ebooks/36472
Robin's Rambles|Byron, May|http://www.gutenberg.org/ebooks/38504
A Day with John Milton|Byron, May|http://www.gutenberg.org/ebooks/40130
A Day with William Shakespeare|Byron, May|http://www.gutenberg.org/ebooks/40441
A Day with Robert Louis Stevenson|Byron, May|http://www.gutenberg.org/ebooks/53165
A Day with Ludwig Beethoven|Byron, May|http://www.gutenberg.org/ebooks/59672
The Man Thou Gavest|Comstock, Harriet T. (Harriet Theresa)|http://www.gutenberg.org/ebooks/14858
Then Marched the Brave|Comstock, Harriet T. (Harriet Theresa)|http://www.gutenberg.org/ebooks/16156
The Shield of Silence|Comstock, Harriet T. (Harriet Theresa)|http://www.gutenberg.org/ebooks/18225
The Place Beyond the Winds|Comstock, Harriet T. (Harriet Theresa)|http://www.gutenberg.org/ebooks/18488
Joyce of the North Woods|Comstock, Harriet T. (Harriet Theresa)|http://www.gutenberg.org/ebooks/19225
A Son of the Hills|Comstock, Harriet T. (Harriet Theresa)|http://www.gutenberg.org/ebooks/20424
Janet of the Dunes|Comstock, Harriet T. (Harriet Theresa)|http://www.gutenberg.org/ebooks/22998
At the Crossroads|Comstock, Harriet T. (Harriet Theresa)|http://www.gutenberg.org/ebooks/30095
A Little Dusky Hero|Comstock, Harriet T. (Harriet Theresa)|http://www.gutenberg.org/ebooks/31366
Mam'selle Jo|Comstock, Harriet T. (Harriet Theresa)|http://www.gutenberg.org/ebooks/49361
The Guardians|Cox, Irving E.|http://www.gutenberg.org/ebooks/24152
Impact|Cox, Irving E.|http://www.gutenberg.org/ebooks/25567
The Cartels Jungle|Cox, Irving E.|http://www.gutenberg.org/ebooks/31062
The Instant of Now|Cox, Irving E.|http://www.gutenberg.org/ebooks/31651
Love Story|Cox, Irving E.|http://www.gutenberg.org/ebooks/32078
Adolescents Only|Cox, Irving E.|http://www.gutenberg.org/ebooks/32651
Miracle by Price|Cox, Irving E.|http://www.gutenberg.org/ebooks/58730
Firth's World|Cox, Irving E.|http://www.gutenberg.org/ebooks/59252
The Almost-Men|Cox, Irving E.|http://www.gutenberg.org/ebooks/59356
The Earthman|Cox, Irving E.|http://www.gutenberg.org/ebooks/59458
"Memoirs and Historical Chronicles of the Courts of Europe
Memoirs of Marguerite de Valois, Queen of France, Wife of Henri IV; of Madame de Pompadour of the Court of Louis XV; and of Catherine de Medici, Queen of France, Wife of Henri II"|Du Hausset, Mme.|http://www.gutenberg.org/ebooks/12967
Quotes and Images From Memoirs of Louis XV. and XVI.|Du Hausset, Mme.|http://www.gutenberg.org/ebooks/7561
"Memoirs of the Courts of Louis XV and XVI. — Volume 1
Being secret memoirs of Madame Du Hausset, lady's maid to Madame de Pompadour, and of the Princess Lamballe"|Du Hausset, Mme.|http://www.gutenberg.org/ebooks/3876
"Memoirs of the Courts of Louis XV and XVI. — Volume 2
Being secret memoirs of Madame Du Hausset, lady's maid to Madame de Pompadour, and of the Princess Lamballe"|Du Hausset, Mme.|http://www.gutenberg.org/ebooks/3877
"Memoirs of the Courts of Louis XV and XVI. — Volume 3
Being secret memoirs of Madame Du Hausset, lady's maid to Madame de Pompadour, and of the Princess Lamballe"|Du Hausset, Mme.|http://www.gutenberg.org/ebooks/3878
"Memoirs of the Courts of Louis XV and XVI. — Volume 4
Being secret memoirs of Madame Du Hausset, lady's maid to Madame de Pompadour, and of the Princess Lamballe"|Du Hausset, Mme.|http://www.gutenberg.org/ebooks/3879
"Memoirs of the Courts of Louis XV and XVI. — Volume 5
Being secret memoirs of Madame Du Hausset, lady's maid to Madame de Pompadour, and of the Princess Lamballe"|Du Hausset, Mme.|http://www.gutenberg.org/ebooks/3880
"Memoirs of the Courts of Louis XV and XVI. — Volume 6
Being secret memoirs of Madame Du Hausset, lady's maid to Madame de Pompadour, and of the Princess Lamballe"|Du Hausset, Mme.|http://www.gutenberg.org/ebooks/3881
"Memoirs of the Courts of Louis XV and XVI. — Volume 7
Being secret memoirs of Madame Du Hausset, lady's maid to Madame de Pompadour, and of the Princess Lamballe"|Du Hausset, Mme.|http://www.gutenberg.org/ebooks/3882
"Memoirs of the Courts of Louis XV and XVI. — Complete
Being secret memoirs of Madame Du Hausset, lady's maid to Madame de Pompadour, and of the Princess Lamballe"|Du Hausset, Mme.|http://www.gutenberg.org/ebooks/3883
The Pool in the Desert|Duncan, Sara Jeannette|http://www.gutenberg.org/ebooks/1168
A Daughter of To-Day|Duncan, Sara Jeannette|http://www.gutenberg.org/ebooks/14490
"A Voyage of Consolation
(being in the nature of a sequel to the experiences of 'An American girl in London')"|Duncan, Sara Jeannette|http://www.gutenberg.org/ebooks/15966
Hilda: A Story of Calcutta|Duncan, Sara Jeannette|http://www.gutenberg.org/ebooks/18051
The Story of Sonny Sahib|Duncan, Sara Jeannette|http://www.gutenberg.org/ebooks/4547
An American Girl in London|Duncan, Sara Jeannette|http://www.gutenberg.org/ebooks/45925
The Path of a Star|Duncan, Sara Jeannette|http://www.gutenberg.org/ebooks/5102
The Imperialist|Duncan, Sara Jeannette|http://www.gutenberg.org/ebooks/5301
His Honour, and a Lady|Duncan, Sara Jeannette|http://www.gutenberg.org/ebooks/53036
The Simple Adventures of a Memsahib|Duncan, Sara Jeannette|http://www.gutenberg.org/ebooks/56513
The Inheritors|Ford, Ford Madox|http://www.gutenberg.org/ebooks/14888
Romance|Ford, Ford Madox|http://www.gutenberg.org/ebooks/17642
The Young Lovell: A Romance|Ford, Ford Madox|http://www.gutenberg.org/ebooks/42801
Privy Seal: His Last Venture|Ford, Ford Madox|http://www.gutenberg.org/ebooks/26698
The Fifth Queen Crowned|Ford, Ford Madox|http://www.gutenberg.org/ebooks/27432
The Good Soldier|Ford, Ford Madox|http://www.gutenberg.org/ebooks/2775
The Fifth Queen: And How She Came to Court|Ford, Ford Madox|http://www.gutenberg.org/ebooks/30188
The Brown Owl: A Fairy Story|Ford, Ford Madox|http://www.gutenberg.org/ebooks/48860
The Feather|Ford, Ford Madox|http://www.gutenberg.org/ebooks/50658
The Queen Who Flew: A Fairy Tale|Ford, Ford Madox|http://www.gutenberg.org/ebooks/52636
The Longest Journey|Forster, E. M. (Edward Morgan)|http://www.gutenberg.org/ebooks/2604
A Room with a View|Forster, E. M. (Edward Morgan)|http://www.gutenberg.org/ebooks/2641
Howards End|Forster, E. M. (Edward Morgan)|http://www.gutenberg.org/ebooks/2891
Howards End|Forster, E. M. (Edward Morgan)|http://www.gutenberg.org/ebooks/2946
Where Angels Fear to Tread|Forster, E. M. (Edward Morgan)|http://www.gutenberg.org/ebooks/2948
The Celestial Omnibus, and Other Stories|Forster, E. M. (Edward Morgan)|http://www.gutenberg.org/ebooks/34089
Alexandria: A History and a Guide|Forster, E. M. (Edward Morgan)|http://www.gutenberg.org/ebooks/57010
The Story of the Siren|Forster, E. M. (Edward Morgan)|http://www.gutenberg.org/ebooks/58581
Pharos and Pharillon|Forster, E. M. (Edward Morgan)|http://www.gutenberg.org/ebooks/61116
A Passage to India|Forster, E. M. (Edward Morgan)|http://www.gutenberg.org/ebooks/61221
The Camp Fire Girls at Camp Keewaydin; Or, Paddles Down|Frey, Hildegard G.|http://www.gutenberg.org/ebooks/10688
The Camp Fire Girls Do Their Bit; Or, Over the Top with the Winnebagos|Frey, Hildegard G.|http://www.gutenberg.org/ebooks/11664
The Camp Fire Girls at School; Or, The Wohelo Weavers|Frey, Hildegard G.|http://www.gutenberg.org/ebooks/11718
The Camp Fire Girls in the Maine Woods; Or, The Winnebagos Go Camping|Frey, Hildegard G.|http://www.gutenberg.org/ebooks/18606
The Camp Fire Girls Go Motoring; Or, Along the Road That Leads the Way|Frey, Hildegard G.|http://www.gutenberg.org/ebooks/6895
The Camp Fire Girls on Ellen's Isle; Or, The Trail of the Seven Cedars|Frey, Hildegard G.|http://www.gutenberg.org/ebooks/30825
The Camp Fire Girls on the Open Road; Or, Glorify Work|Frey, Hildegard G.|http://www.gutenberg.org/ebooks/36485
The Camp Fire Girls at Onoway House; Or, The Magic Garden|Frey, Hildegard G.|http://www.gutenberg.org/ebooks/36833
The Camp Fire Girls' Larks and Pranks; Or, The House of the Open Door|Frey, Hildegard G.|http://www.gutenberg.org/ebooks/38934
The Camp Fire Girls Solve a Mystery; Or, The Christmas Adventure at Carver House|Frey, Hildegard G.|http://www.gutenberg.org/ebooks/38983
At Love's Cost|Garvice, Charles|http://www.gutenberg.org/ebooks/10379
Adrien Leroy|Garvice, Charles|http://www.gutenberg.org/ebooks/16682
The Woman's Way|Garvice, Charles|http://www.gutenberg.org/ebooks/19411
Nell, of Shorne Mills; or, One Heart's Burden|Garvice, Charles|http://www.gutenberg.org/ebooks/22961
Wild Margaret|Garvice, Charles|http://www.gutenberg.org/ebooks/44828
Only One Love; or, Who Was the Heir|Garvice, Charles|http://www.gutenberg.org/ebooks/35523
The Spider and the Fly; or, An Undesired Love|Garvice, Charles|http://www.gutenberg.org/ebooks/49537
Leslie's Loyalty|Garvice, Charles|http://www.gutenberg.org/ebooks/50440
Only a Girl's Love|Garvice, Charles|http://www.gutenberg.org/ebooks/53416
Just a Girl|Garvice, Charles|http://www.gutenberg.org/ebooks/57166
Poems|Goodrich, Samuel G. (Samuel Griswold)|http://www.gutenberg.org/ebooks/11558
Peter Parley's Tales About America and Australia|Goodrich, Samuel G. (Samuel Griswold)|http://www.gutenberg.org/ebooks/16891
Peter Parley's Visit to London, During the Coronation of Queen Victoria|Goodrich, Samuel G. (Samuel Griswold)|http://www.gutenberg.org/ebooks/43995
"Peter Parley's Own Story
From the Personal Narrative of the Late Samuel G. Goodrich, (""Peter Parley"")"|Goodrich, Samuel G. (Samuel Griswold)|http://www.gutenberg.org/ebooks/45165
Lives of Celebrated Women|Goodrich, Samuel G. (Samuel Griswold)|http://www.gutenberg.org/ebooks/33273
Illustrative Anecdotes of the Animal Kingdom|Goodrich, Samuel G. (Samuel Griswold)|http://www.gutenberg.org/ebooks/33687
The Life of Benjamin Franklin, Illustrated by Tales, Sketches, and Anecdotes|Goodrich, Samuel G. (Samuel Griswold)|http://www.gutenberg.org/ebooks/38469
Curiosities of Human Nature|Goodrich, Samuel G. (Samuel Griswold)|http://www.gutenberg.org/ebooks/39333
Famous Men of Ancient Times|Goodrich, Samuel G. (Samuel Griswold)|http://www.gutenberg.org/ebooks/52400
History of the Indians, of North and South America|Goodrich, Samuel G. (Samuel Griswold)|http://www.gutenberg.org/ebooks/54266
Misrepresentative Women|Graham, Harry|http://www.gutenberg.org/ebooks/42407
Perverted Proverbs: A Manual of Immorals for the Many|Graham, Harry|http://www.gutenberg.org/ebooks/34790
Ruthless Rhymes for Heartless Homes|Graham, Harry|http://www.gutenberg.org/ebooks/35051
Familiar Faces|Graham, Harry|http://www.gutenberg.org/ebooks/35059
Fiscal Ballads|Graham, Harry|http://www.gutenberg.org/ebooks/36038
Misrepresentative Men|Graham, Harry|http://www.gutenberg.org/ebooks/36321
The Motley Muse (Rhymes for the Times)|Graham, Harry|http://www.gutenberg.org/ebooks/36543
Verse and Worse|Graham, Harry|http://www.gutenberg.org/ebooks/36702
More Misrepresentative Men|Graham, Harry|http://www.gutenberg.org/ebooks/36782
The Mother of Parliaments|Graham, Harry|http://www.gutenberg.org/ebooks/41304
The Everlasting Whisper|Gregory, Jackson|http://www.gutenberg.org/ebooks/10213
Six Feet Four|Gregory, Jackson|http://www.gutenberg.org/ebooks/15148
The Bells of San Juan|Gregory, Jackson|http://www.gutenberg.org/ebooks/15438
The Desert Valley|Gregory, Jackson|http://www.gutenberg.org/ebooks/15502
"Under Handicap
A Novel"|Gregory, Jackson|http://www.gutenberg.org/ebooks/17981
"Daughter of the Sun
A Tale of Adventure"|Gregory, Jackson|http://www.gutenberg.org/ebooks/18916
Judith of Blue Lake Ranch|Gregory, Jackson|http://www.gutenberg.org/ebooks/18926
Man to Man|Gregory, Jackson|http://www.gutenberg.org/ebooks/18933
The Short Cut|Gregory, Jackson|http://www.gutenberg.org/ebooks/18950
Wolf Breed|Gregory, Jackson|http://www.gutenberg.org/ebooks/18964
Women and the Alphabet: A Series of Essays|Higginson, Thomas Wentworth|http://www.gutenberg.org/ebooks/13474
Army Life in a Black Regiment|Higginson, Thomas Wentworth|http://www.gutenberg.org/ebooks/6764
Tales of the Enchanted Islands of the Atlantic|Higginson, Thomas Wentworth|http://www.gutenberg.org/ebooks/7098
Black Rebellion: Five Slave Revolts|Higginson, Thomas Wentworth|http://www.gutenberg.org/ebooks/8432
Oldport Days|Higginson, Thomas Wentworth|http://www.gutenberg.org/ebooks/2418
The Sympathy of Religions|Higginson, Thomas Wentworth|http://www.gutenberg.org/ebooks/25792
Henry Wadsworth Longfellow|Higginson, Thomas Wentworth|http://www.gutenberg.org/ebooks/33402
Malbone: An Oldport Romance|Higginson, Thomas Wentworth|http://www.gutenberg.org/ebooks/993
A Book of American Explorers|Higginson, Thomas Wentworth|http://www.gutenberg.org/ebooks/56346
Index of the Project Gutenberg Works of Thomas Wentworth Higginson|Higginson, Thomas Wentworth|http://www.gutenberg.org/ebooks/59301
Legends of the Madonna as Represented in the Fine Arts|Jameson, Mrs. (Anna)|http://www.gutenberg.org/ebooks/12047
The Diary of an Ennuyée|Jameson, Mrs. (Anna)|http://www.gutenberg.org/ebooks/18049
Characteristics of Women: Moral, Poetical, and Historical|Jameson, Mrs. (Anna)|http://www.gutenberg.org/ebooks/26152
Sketches in Canada, and rambles among the red men|Jameson, Mrs. (Anna)|http://www.gutenberg.org/ebooks/35224
"The Romance of Biography (Vol 1 of 2)
or Memoirs of Women Loved and Celebrated by Poets, from the Days of the Troubadours to the Present Age. 3rd ed. 2 Vols."|Jameson, Mrs. (Anna)|http://www.gutenberg.org/ebooks/35382
"The Romance of Biography (Vol 2 of 2)
or Memoirs of Women Loved and Celebrated by Poets, from the Days of the Troubadours to the Present Age. 3rd ed. 2 Vols."|Jameson, Mrs. (Anna)|http://www.gutenberg.org/ebooks/35416
"Visits and Sketches at Home and Abroad, Vol. 1 (of 3)
With Tales and Miscellanies Now First Collected"|Jameson, Mrs. (Anna)|http://www.gutenberg.org/ebooks/36818
"Visits and Sketches at Home and Abroad, Vol. 2 (of 3)
With Tales and Miscellanies Now First Collected"|Jameson, Mrs. (Anna)|http://www.gutenberg.org/ebooks/36819
"Visits and Sketches at Home and Abroad, Vol. 3 (of 3)
With Tales and Miscellanies Now First Collected"|Jameson, Mrs. (Anna)|http://www.gutenberg.org/ebooks/36820
"A Commonplace Book of Thoughts, Memories, and Fancies.
2nd ed."|Jameson, Mrs. (Anna)|http://www.gutenberg.org/ebooks/39680
The Critique of Pure Reason|Kant, Immanuel|http://www.gutenberg.org/ebooks/4280
"Of the Injustice of Counterfeiting Books
From: Essays and Treaties on Moral, Political and various Philosophical Subjects"|Kant, Immanuel|http://www.gutenberg.org/ebooks/46060
Kant's Critique of Judgement|Kant, Immanuel|http://www.gutenberg.org/ebooks/48433
Perpetual Peace: A Philosophical Essay|Kant, Immanuel|http://www.gutenberg.org/ebooks/50922
Kant's Prolegomena to Any Future Metaphysics|Kant, Immanuel|http://www.gutenberg.org/ebooks/52821
Literary and Philosophical Essays: French, German and Italian|Kant, Immanuel|http://www.gutenberg.org/ebooks/5637
Fundamental Principles of the Metaphysic of Morals|Kant, Immanuel|http://www.gutenberg.org/ebooks/5682
The Critique of Practical Reason|Kant, Immanuel|http://www.gutenberg.org/ebooks/5683
The Metaphysical Elements of Ethics|Kant, Immanuel|http://www.gutenberg.org/ebooks/5684
Index of the Project Gutenberg Works of Immanuel Kant|Kant, Immanuel|http://www.gutenberg.org/ebooks/59023
The Go-Getter: A Story That Tells You How to be One|Kyne, Peter B. (Peter Bernard)|http://www.gutenberg.org/ebooks/12257
Kindred of the Dust|Kyne, Peter B. (Peter Bernard)|http://www.gutenberg.org/ebooks/13532
The Pride of Palomar|Kyne, Peter B. (Peter Bernard)|http://www.gutenberg.org/ebooks/16674
Captain Scraggs; Or, The Green-Pea Pirates|Kyne, Peter B. (Peter Bernard)|http://www.gutenberg.org/ebooks/18469
The Three Godfathers|Kyne, Peter B. (Peter Bernard)|http://www.gutenberg.org/ebooks/51942
Webster—Man's Man|Kyne, Peter B. (Peter Bernard)|http://www.gutenberg.org/ebooks/51987
The Valley of the Giants|Kyne, Peter B. (Peter Bernard)|http://www.gutenberg.org/ebooks/5735
Cappy Ricks; Or, the Subjugation of Matt Peasley|Kyne, Peter B. (Peter Bernard)|http://www.gutenberg.org/ebooks/5738
Cappy Ricks Retires: But That Doesn't Keep Him from Coming Back Stronger Than Ever|Kyne, Peter B. (Peter Bernard)|http://www.gutenberg.org/ebooks/6020
The Long Chance|Kyne, Peter B. (Peter Bernard)|http://www.gutenberg.org/ebooks/6115
Sodom and Gomorrah, Texas|Lafferty, R. A.|http://www.gutenberg.org/ebooks/23161
The Six Fingers of Time|Lafferty, R. A.|http://www.gutenberg.org/ebooks/31663
Aloys|Lafferty, R. A.|http://www.gutenberg.org/ebooks/51596
All the People|Lafferty, R. A.|http://www.gutenberg.org/ebooks/51603
Dream World|Lafferty, R. A.|http://www.gutenberg.org/ebooks/51668
The Weirdest World|Lafferty, R. A.|http://www.gutenberg.org/ebooks/51774
McGonigal's Worm|Lafferty, R. A.|http://www.gutenberg.org/ebooks/60940
The Polite People of Pudibundia|Lafferty, R. A.|http://www.gutenberg.org/ebooks/60955
In the Garden|Lafferty, R. A.|http://www.gutenberg.org/ebooks/61007
Seven-Day Terror|Lafferty, R. A.|http://www.gutenberg.org/ebooks/61128
The Wonderful Adventures of Nils|Lagerlöf, Selma|http://www.gutenberg.org/ebooks/10935
Invisible Links|Lagerlöf, Selma|http://www.gutenberg.org/ebooks/14273
The Emperor of Portugallia|Lagerlöf, Selma|http://www.gutenberg.org/ebooks/14356
Jerusalem|Lagerlöf, Selma|http://www.gutenberg.org/ebooks/15837
From a Swedish Homestead|Lagerlöf, Selma|http://www.gutenberg.org/ebooks/44630
Christ Legends|Lagerlöf, Selma|http://www.gutenberg.org/ebooks/44818
The Girl from the Marsh Croft|Lagerlöf, Selma|http://www.gutenberg.org/ebooks/41414
The Treasure|Lagerlöf, Selma|http://www.gutenberg.org/ebooks/5161
The Miracles of Antichrist: A Novel|Lagerlöf, Selma|http://www.gutenberg.org/ebooks/54615
The Story of Gösta Berling|Lagerlöf, Selma|http://www.gutenberg.org/ebooks/56158
"The Works of Charles and Mary Lamb — Volume 3
Books for Children"|Lamb, Mary|http://www.gutenberg.org/ebooks/10130
"The Works of Charles and Mary Lamb — Volume 2
Elia and The Last Essays of Elia"|Lamb, Mary|http://www.gutenberg.org/ebooks/10343
"The Works of Charles and Mary Lamb — Volume 6
Letters 1821-1842"|Lamb, Mary|http://www.gutenberg.org/ebooks/10851
"The Works of Charles and Mary Lamb — Volume 4
Poems and Plays"|Lamb, Mary|http://www.gutenberg.org/ebooks/11576
Tales from Shakespeare|Lamb, Mary|http://www.gutenberg.org/ebooks/1286
Tales from Shakespeare|Lamb, Mary|http://www.gutenberg.org/ebooks/20657
"The Works of Charles and Mary Lamb — Volume 5
The Letters of Charles and Mary Lamb, 1796-1820"|Lamb, Mary|http://www.gutenberg.org/ebooks/9365
The Blue Jar Story Book|Lamb, Mary|http://www.gutenberg.org/ebooks/34470
"The Works of Charles and Mary Lamb — Volume 1
Miscellaneous Prose"|Lamb, Mary|http://www.gutenberg.org/ebooks/40988
Tales from Shakespeare|Lamb, Mary|http://www.gutenberg.org/ebooks/573
The Black-Bearded Barbarian : The Life of George Leslie Mackay of Formosa|MacGregor, Mary Esther Miller|http://www.gutenberg.org/ebooks/1759
Stories from the Ballads, Told to the Children|MacGregor, Mary Esther Miller|http://www.gutenberg.org/ebooks/22175
Stories of King Arthur's Knights, Told to the Children by Mary MacGregor|MacGregor, Mary Esther Miller|http://www.gutenberg.org/ebooks/25654
Stories of Siegfried, Told to the Children|MacGregor, Mary Esther Miller|http://www.gutenberg.org/ebooks/26181
'Lizbeth of the Dale|MacGregor, Mary Esther Miller|http://www.gutenberg.org/ebooks/28234
In Orchard Glen|MacGregor, Mary Esther Miller|http://www.gutenberg.org/ebooks/28235
The End of the Rainbow|MacGregor, Mary Esther Miller|http://www.gutenberg.org/ebooks/28276
The Silver Maple|MacGregor, Mary Esther Miller|http://www.gutenberg.org/ebooks/28688
Duncan Polite, the Watchman of Glenoro|MacGregor, Mary Esther Miller|http://www.gutenberg.org/ebooks/28689
Treasure Valley|MacGregor, Mary Esther Miller|http://www.gutenberg.org/ebooks/29023
The Hill of Dreams|Machen, Arthur|http://www.gutenberg.org/ebooks/13969
The Angels of Mons: The Bowmen and Other Legends of the War|Machen, Arthur|http://www.gutenberg.org/ebooks/14044
The House of Souls|Machen, Arthur|http://www.gutenberg.org/ebooks/25016
Far Off Things|Machen, Arthur|http://www.gutenberg.org/ebooks/35153
The Three Impostors; or, The Transmutations|Machen, Arthur|http://www.gutenberg.org/ebooks/35517
The Great Return|Machen, Arthur|http://www.gutenberg.org/ebooks/35611
The Terror: A Mystery|Machen, Arthur|http://www.gutenberg.org/ebooks/35617
The Secret Glory|Machen, Arthur|http://www.gutenberg.org/ebooks/35637
The Great God Pan|Machen, Arthur|http://www.gutenberg.org/ebooks/389
Hieroglyphics|Machen, Arthur|http://www.gutenberg.org/ebooks/40241
The Poetical Works of John Milton|Milton, John|http://www.gutenberg.org/ebooks/1745
Milton's Comus|Milton, John|http://www.gutenberg.org/ebooks/19819
Paradise Lost|Milton, John|http://www.gutenberg.org/ebooks/20
"An Introduction to the Prose and Poetical Works of John Milton
Comprising All the Autobiographic Passages in His Works, the More Explicit Presentations of His Ideas of True Liberty."|Milton, John|http://www.gutenberg.org/ebooks/44733
Poemata : Latin, Greek and Italian Poems by John Milton|Milton, John|http://www.gutenberg.org/ebooks/6929
Paradise Lost|Milton, John|http://www.gutenberg.org/ebooks/26
Milton: Minor Poems|Milton, John|http://www.gutenberg.org/ebooks/31706
L'Allegro, Il Penseroso, Comus, and Lycidas|Milton, John|http://www.gutenberg.org/ebooks/397
Paradise Regained|Milton, John|http://www.gutenberg.org/ebooks/58
"Areopagitica
A Speech for the Liberty of Unlicensed Printing to the Parliament of England"|Milton, John|http://www.gutenberg.org/ebooks/608
Memories: A Story of German Love|Müller, F. Max (Friedrich Max)|http://www.gutenberg.org/ebooks/14521
"India: What can it teach us?
A Course of Lectures Delivered before the University Of Cambridge"|Müller, F. Max (Friedrich Max)|http://www.gutenberg.org/ebooks/20847
"Thoughts on Life and Religion
An Aftermath from the Writings of The Right Honourable Professor Max Müller"|Müller, F. Max (Friedrich Max)|http://www.gutenberg.org/ebooks/45122
The Silesian Horseherd - Questions of the Hour|Müller, F. Max (Friedrich Max)|http://www.gutenberg.org/ebooks/24315
"Chips from a German Workshop, Volume 1
Essays on the Science of Religion"|Müller, F. Max (Friedrich Max)|http://www.gutenberg.org/ebooks/24686
"Chips from a German Workshop, Volume 3
Essays on Literature, Biography, and Antiquities"|Müller, F. Max (Friedrich Max)|http://www.gutenberg.org/ebooks/26572
"Chips from a German Workshop, Volume 5
Miscellaneous Later Essays"|Müller, F. Max (Friedrich Max)|http://www.gutenberg.org/ebooks/27810
"Chips from a German Workshop, Volume 4
Essays Chiefly on the Science of Language"|Müller, F. Max (Friedrich Max)|http://www.gutenberg.org/ebooks/30192
My Autobiography: A Fragment|Müller, F. Max (Friedrich Max)|http://www.gutenberg.org/ebooks/30269
Lectures on the Science of Language|Müller, F. Max (Friedrich Max)|http://www.gutenberg.org/ebooks/32856
Vandover and the Brute|Norris, Frank|http://www.gutenberg.org/ebooks/14712
A Man's Woman|Norris, Frank|http://www.gutenberg.org/ebooks/16096
McTeague: A Story of San Francisco|Norris, Frank|http://www.gutenberg.org/ebooks/165
The Pit: A Story of Chicago|Norris, Frank|http://www.gutenberg.org/ebooks/4382
"The Surrender of Santiago
An Account of the Historic Surrender of Santiago to General
Shafter, July 17, 1898"|Norris, Frank|http://www.gutenberg.org/ebooks/26026
The Octopus : A Story of California|Norris, Frank|http://www.gutenberg.org/ebooks/268
Moran of the Lady Letty|Norris, Frank|http://www.gutenberg.org/ebooks/321
Blix|Norris, Frank|http://www.gutenberg.org/ebooks/401
A Deal in Wheat and Other Stories of the New and Old West|Norris, Frank|http://www.gutenberg.org/ebooks/9905
The Third Circle|Norris, Frank|http://www.gutenberg.org/ebooks/48620
The Precipice: A Novel|Peattie, Elia Wilkinson|http://www.gutenberg.org/ebooks/12177
Painted Windows|Peattie, Elia Wilkinson|http://www.gutenberg.org/ebooks/1875
The Shape of Fear|Peattie, Elia Wilkinson|http://www.gutenberg.org/ebooks/1876
A Mountain Woman|Peattie, Elia Wilkinson|http://www.gutenberg.org/ebooks/1877
"A Michigan Man
1891"|Peattie, Elia Wilkinson|http://www.gutenberg.org/ebooks/23176
Poems You Ought to Know|Peattie, Elia Wilkinson|http://www.gutenberg.org/ebooks/53415
Azalea: The Story of a Little Girl in the Blue Ridge Mountains|Peattie, Elia Wilkinson|http://www.gutenberg.org/ebooks/53727
Annie Laurie and Azalea|Peattie, Elia Wilkinson|http://www.gutenberg.org/ebooks/53975
Azalea at Sunset Gap|Peattie, Elia Wilkinson|http://www.gutenberg.org/ebooks/54813
Azalea's Silver Web|Peattie, Elia Wilkinson|http://www.gutenberg.org/ebooks/55304
Peck's Bad Boy with the Circus|Peck, George W. (George Wilbur)|http://www.gutenberg.org/ebooks/10212
"Peck's Compendium of Fun
Comprising the Choicest Gems of Wit, Humor, Sarcasm and Pathos of America's Favorite Humorist"|Peck, George W. (George Wilbur)|http://www.gutenberg.org/ebooks/14815
Peck's Bad Boy with the Cowboys|Peck, George W. (George Wilbur)|http://www.gutenberg.org/ebooks/6141
"Peck's Bad Boy and His Pa
1883"|Peck, George W. (George Wilbur)|http://www.gutenberg.org/ebooks/25487
"The Grocery Man And Peck's Bad Boy
Peck's Bad Boy and His Pa, No. 2 - 1883"|Peck, George W. (George Wilbur)|http://www.gutenberg.org/ebooks/25488
"Peck's Bad Boy Abroad
Being a Humorous Description of the Bad Boy and His Dad
in Their Journeys Through Foreign Lands - 1904"|Peck, George W. (George Wilbur)|http://www.gutenberg.org/ebooks/25489
"Peck's Uncle Ike and The Red Headed Boy
1899"|Peck, George W. (George Wilbur)|http://www.gutenberg.org/ebooks/25490
"Peck's Sunshine
Being a Collection of Articles Written for Peck's Sun,
Milwaukee, Wis. - 1882"|Peck, George W. (George Wilbur)|http://www.gutenberg.org/ebooks/25491
"How Private George W. Peck Put Down the Rebellion
or, The Funny Experiences of a Raw Recruit - 1887"|Peck, George W. (George Wilbur)|http://www.gutenberg.org/ebooks/25492
"Works of George W. Peck
A Linked Index to the Project Gutenberg Editions of the ""Bad Boy"" Series and Others"|Peck, George W. (George Wilbur)|http://www.gutenberg.org/ebooks/28970
The Gallery|Phillips, Rog|http://www.gutenberg.org/ebooks/26936
Unthinkable|Phillips, Rog|http://www.gutenberg.org/ebooks/27491
The Unthinking Destroyer|Phillips, Rog|http://www.gutenberg.org/ebooks/30683
The Old Martians|Phillips, Rog|http://www.gutenberg.org/ebooks/32590
Ye of Little Faith|Phillips, Rog|http://www.gutenberg.org/ebooks/32663
Cube Root of Conquest|Phillips, Rog|http://www.gutenberg.org/ebooks/32712
Tillie|Phillips, Rog|http://www.gutenberg.org/ebooks/32802
Game Preserve|Phillips, Rog|http://www.gutenberg.org/ebooks/60393
Captain Peabody|Phillips, Rog|http://www.gutenberg.org/ebooks/60442
Rat in the Skull|Phillips, Rog|http://www.gutenberg.org/ebooks/60614
The Colossus: A Novel|Read, Opie Percival|http://www.gutenberg.org/ebooks/15073
The Starbucks|Read, Opie Percival|http://www.gutenberg.org/ebooks/18984
An Arkansas Planter|Read, Opie Percival|http://www.gutenberg.org/ebooks/19107
Old Ebenezer|Read, Opie Percival|http://www.gutenberg.org/ebooks/23215
Up Terrapin River|Read, Opie Percival|http://www.gutenberg.org/ebooks/44879
The Jucklins: A Novel|Read, Opie Percival|http://www.gutenberg.org/ebooks/26499
A Yankee from the West: A Novel|Read, Opie Percival|http://www.gutenberg.org/ebooks/33773
Bolanyo|Read, Opie Percival|http://www.gutenberg.org/ebooks/38826
Judge Elbridge|Read, Opie Percival|http://www.gutenberg.org/ebooks/46699
My Young Master: A Novel|Read, Opie Percival|http://www.gutenberg.org/ebooks/59834
"Charles Bradlaugh: a Record of His Life and Work, Volume 1 (of 2)
With an Account of his Parliamentary Struggle, Politics and Teachings. Seventh Edition"|Robertson, J. M. (John Mackinnon)|http://www.gutenberg.org/ebooks/45130
"Charles Bradlaugh: a Record of His Life and Work, Volume 2 (of 2)
With an Account of his Parliamentary Struggle, Politics and Teachings. Seventh Edition"|Robertson, J. M. (John Mackinnon)|http://www.gutenberg.org/ebooks/45131
Montaigne and Shakspere|Robertson, J. M. (John Mackinnon)|http://www.gutenberg.org/ebooks/25535
Rationalism|Robertson, J. M. (John Mackinnon)|http://www.gutenberg.org/ebooks/31941
The Evolution of States|Robertson, J. M. (John Mackinnon)|http://www.gutenberg.org/ebooks/39860
The Historical Jesus: A Survey of Positions|Robertson, J. M. (John Mackinnon)|http://www.gutenberg.org/ebooks/51655
"A Short History of Freethought Ancient and Modern, Volume 2 of 2
Third edition, Revised and Expanded, in two volumes"|Robertson, J. M. (John Mackinnon)|http://www.gutenberg.org/ebooks/52160
"A Short History of Christianity
Second Edition, Revised, With Additions"|Robertson, J. M. (John Mackinnon)|http://www.gutenberg.org/ebooks/52550
The Jesus Problem: A Restatement of the Myth Theory|Robertson, J. M. (John Mackinnon)|http://www.gutenberg.org/ebooks/53616
"A Short History of Freethought Ancient and Modern, Volume 1 of 2
Third edition, Revised and Expanded, in two volumes"|Robertson, J. M. (John Mackinnon)|http://www.gutenberg.org/ebooks/51793
The Dragon's Secret|Seaman, Augusta Huiell|http://www.gutenberg.org/ebooks/25770
The Boarded-Up House|Seaman, Augusta Huiell|http://www.gutenberg.org/ebooks/30905
When a Cobbler Ruled the King|Seaman, Augusta Huiell|http://www.gutenberg.org/ebooks/38570
The Girl Next Door|Seaman, Augusta Huiell|http://www.gutenberg.org/ebooks/39896
The Slipper Point Mystery|Seaman, Augusta Huiell|http://www.gutenberg.org/ebooks/39900
The Slipper Point Mystery|Seaman, Augusta Huiell|http://www.gutenberg.org/ebooks/50961
The Crimson Patch|Seaman, Augusta Huiell|http://www.gutenberg.org/ebooks/52509
Three Sides of Paradise Green|Seaman, Augusta Huiell|http://www.gutenberg.org/ebooks/52946
The Sapphire Signet|Seaman, Augusta Huiell|http://www.gutenberg.org/ebooks/55964
Jacqueline of the Carrier Pigeons|Seaman, Augusta Huiell|http://www.gutenberg.org/ebooks/57466
On the Improvement of the Understanding|Spinoza, Benedictus de|http://www.gutenberg.org/ebooks/1016
Ethics — Part 1|Spinoza, Benedictus de|http://www.gutenberg.org/ebooks/919
Ethics — Part 2|Spinoza, Benedictus de|http://www.gutenberg.org/ebooks/920
Ethics — Part 3|Spinoza, Benedictus de|http://www.gutenberg.org/ebooks/948
The Philosophy of Spinoza|Spinoza, Benedictus de|http://www.gutenberg.org/ebooks/31205
Ethics|Spinoza, Benedictus de|http://www.gutenberg.org/ebooks/3800
Ethics — Part 4|Spinoza, Benedictus de|http://www.gutenberg.org/ebooks/971
Ethics — Part 5|Spinoza, Benedictus de|http://www.gutenberg.org/ebooks/975
Theologico-Political Treatise — Part 1|Spinoza, Benedictus de|http://www.gutenberg.org/ebooks/989
Theologico-Political Treatise — Part 2|Spinoza, Benedictus de|http://www.gutenberg.org/ebooks/990
Dracula's Guest|Stoker, Bram|http://www.gutenberg.org/ebooks/10150
The Lair of the White Worm|Stoker, Bram|http://www.gutenberg.org/ebooks/1188
The Mystery of the Sea|Stoker, Bram|http://www.gutenberg.org/ebooks/42455
Dracula|Stoker, Bram|http://www.gutenberg.org/ebooks/45839
The Man|Stoker, Bram|http://www.gutenberg.org/ebooks/2520
The Lady of the Shroud|Stoker, Bram|http://www.gutenberg.org/ebooks/3095
Dracula|Stoker, Bram|http://www.gutenberg.org/ebooks/345
The Jewel of Seven Stars|Stoker, Bram|http://www.gutenberg.org/ebooks/3781
Famous Impostors|Stoker, Bram|http://www.gutenberg.org/ebooks/51391
Index of the Project Gutenberg Works of Bram Stoker|Stoker, Bram|http://www.gutenberg.org/ebooks/59671
Tutt and Mr. Tutt|Train, Arthur Cheney|http://www.gutenberg.org/ebooks/10440
By Advice of Counsel|Train, Arthur Cheney|http://www.gutenberg.org/ebooks/11987
"The ""Goldfish""
Being the Confessions af a Successful Man"|Train, Arthur Cheney|http://www.gutenberg.org/ebooks/12920
True Stories of Crime From the District Attorney's Office|Train, Arthur Cheney|http://www.gutenberg.org/ebooks/13172
The Man Who Rocked the Earth|Train, Arthur Cheney|http://www.gutenberg.org/ebooks/19174
"The Confessions of Artemas Quibble
Being the Ingenuous and Unvarnished History of Artemas Quibble, Esquire, One-Time Practitioner in the New York Criminal Courts, Together with an Account of the Divers Wiles, Tricks, Sophistries, Technicalities, and Sundry Artifices of Himself and Others of the Fraternity, Commonly Yclept ""Shysters"" or ""Shyster Lawyers"""|Train, Arthur Cheney|http://www.gutenberg.org/ebooks/20451
McAllister and His Double|Train, Arthur Cheney|http://www.gutenberg.org/ebooks/34597
Mortmain|Train, Arthur Cheney|http://www.gutenberg.org/ebooks/37346
Courts and Criminals|Train, Arthur Cheney|http://www.gutenberg.org/ebooks/5268
The Prisoner at the Bar: Sidelights on the Administration of Criminal Justice|Train, Arthur Cheney|http://www.gutenberg.org/ebooks/58534
The Rejuvenation of Aunt Mary|Warner, Anne|http://www.gutenberg.org/ebooks/15775
Susan Clegg and Her Friend Mrs. Lathrop|Warner, Anne|http://www.gutenberg.org/ebooks/15899
Susan Clegg and Her Neighbors' Affairs|Warner, Anne|http://www.gutenberg.org/ebooks/18987
Susan Clegg and a Man in the House|Warner, Anne|http://www.gutenberg.org/ebooks/22872
A Woman's Will|Warner, Anne|http://www.gutenberg.org/ebooks/27225
Seeing France with Uncle John|Warner, Anne|http://www.gutenberg.org/ebooks/35574
The Tigress|Warner, Anne|http://www.gutenberg.org/ebooks/37236
Susan Clegg and Her Love Affairs|Warner, Anne|http://www.gutenberg.org/ebooks/37289
In a Mysterious Way|Warner, Anne|http://www.gutenberg.org/ebooks/37515
Sunshine Jane|Warner, Anne|http://www.gutenberg.org/ebooks/37972
Daddy-Long-Legs|Webster, Jean|http://www.gutenberg.org/ebooks/157
Jerry|Webster, Jean|http://www.gutenberg.org/ebooks/20357
Jerry Junior|Webster, Jean|http://www.gutenberg.org/ebooks/20358
Just Patty|Webster, Jean|http://www.gutenberg.org/ebooks/21048
The Four-Pools Mystery|Webster, Jean|http://www.gutenberg.org/ebooks/21264
When Patty Went to College|Webster, Jean|http://www.gutenberg.org/ebooks/21639
Dear Enemy|Webster, Jean|http://www.gutenberg.org/ebooks/238
Much Ado About Peter|Webster, Jean|http://www.gutenberg.org/ebooks/42768
Daddy Long-Legs: A Comedy in Four Acts|Webster, Jean|http://www.gutenberg.org/ebooks/40426
The Wheat Princess|Webster, Jean|http://www.gutenberg.org/ebooks/46761
The Eyes of the World|Wright, Harold Bell|http://www.gutenberg.org/ebooks/11715
The Uncrowned King|Wright, Harold Bell|http://www.gutenberg.org/ebooks/12991
When A Man's A Man|Wright, Harold Bell|http://www.gutenberg.org/ebooks/14367
That Printer of Udell's: A Story of the Middle West|Wright, Harold Bell|http://www.gutenberg.org/ebooks/6384
The Winning of Barbara Worth|Wright, Harold Bell|http://www.gutenberg.org/ebooks/6997
The Calling of Dan Matthews|Wright, Harold Bell|http://www.gutenberg.org/ebooks/9314
Helen of the Old House|Wright, Harold Bell|http://www.gutenberg.org/ebooks/9410
The Re-Creation of Brian Kent|Wright, Harold Bell|http://www.gutenberg.org/ebooks/3265
The Shepherd of the Hills|Wright, Harold Bell|http://www.gutenberg.org/ebooks/4735
Their Yesterdays|Wright, Harold Bell|http://www.gutenberg.org/ebooks/6105
