title|author|ID
The White Linen Nurse|Abbott, Eleanor Hallowell|http://www.gutenberg.org/ebooks/14506
Little Eve Edgarton|Abbott, Eleanor Hallowell|http://www.gutenberg.org/ebooks/15660
The Indiscreet Letter|Abbott, Eleanor Hallowell|http://www.gutenberg.org/ebooks/15728
Molly Make-Believe|Abbott, Eleanor Hallowell|http://www.gutenberg.org/ebooks/18665
Peace on Earth, Good-will to Dogs|Abbott, Eleanor Hallowell|http://www.gutenberg.org/ebooks/20213
Rainy Week|Abbott, Eleanor Hallowell|http://www.gutenberg.org/ebooks/43025
Fairy Prince and Other Stories|Abbott, Eleanor Hallowell|http://www.gutenberg.org/ebooks/26399
"The Sick-a-Bed Lady
And Also Hickory Dock, The Very Tired Girl, The Happy-Day, Something That Happened in October, The Amateur Lover, Heart of The City, The Pink Sash, Woman's Only Business"|Abbott, Eleanor Hallowell|http://www.gutenberg.org/ebooks/34829
Old-Dad|Abbott, Eleanor Hallowell|http://www.gutenberg.org/ebooks/48990
The Stingy Receiver|Abbott, Eleanor Hallowell|http://www.gutenberg.org/ebooks/49330
Cattle Brands: A Collection of Western Camp-Fire Stories|Adams, Andy|http://www.gutenberg.org/ebooks/12281
Wells Brothers: The Young Cattle Kings|Adams, Andy|http://www.gutenberg.org/ebooks/12791
The Log of a Cowboy: A Narrative of the Old Trail Days|Adams, Andy|http://www.gutenberg.org/ebooks/12797
Reed Anthony, Cowman: An Autobiography|Adams, Andy|http://www.gutenberg.org/ebooks/12884
A Texas Matchmaker|Adams, Andy|http://www.gutenberg.org/ebooks/12919
The Outlet|Adams, Andy|http://www.gutenberg.org/ebooks/1987
Brazilian Gold Mine Mystery: A Biff Brewster Mystery Adventure|Adams, Andy|http://www.gutenberg.org/ebooks/51538
Mystery of the Chinese Ring: A Biff Brewster Mystery Adventure|Adams, Andy|http://www.gutenberg.org/ebooks/51608
Hawaiian Sea Hunt Mystery: A Biff Brewster Mystery Adventure|Adams, Andy|http://www.gutenberg.org/ebooks/51755
Mystery of the Ambush in India: A Biff Brewster Mystery Adventure|Adams, Andy|http://www.gutenberg.org/ebooks/51830
"Christian Gellert's Last Christmas
From ""German Tales"" Published by the American Publishers' Corporation"|Auerbach, Berthold|http://www.gutenberg.org/ebooks/22665
Waldfried: A Novel|Auerbach, Berthold|http://www.gutenberg.org/ebooks/32446
Black Forest Village Stories|Auerbach, Berthold|http://www.gutenberg.org/ebooks/32517
Villa Eden: The Country-House on the Rhine|Auerbach, Berthold|http://www.gutenberg.org/ebooks/32902
Edelweiss: A Story|Auerbach, Berthold|http://www.gutenberg.org/ebooks/33007
Landolin|Auerbach, Berthold|http://www.gutenberg.org/ebooks/33008
Joseph in the Snow, and The Clockmaker. In Three Volumes. Vol. I.|Auerbach, Berthold|http://www.gutenberg.org/ebooks/33162
Joseph in the Snow, and The Clockmaker. In Three Volumes. Vol. II.|Auerbach, Berthold|http://www.gutenberg.org/ebooks/33163
Joseph in the Snow, and The Clockmaker. In Three Volumes. Vol. III.|Auerbach, Berthold|http://www.gutenberg.org/ebooks/33164
On the Heights: A Novel|Auerbach, Berthold|http://www.gutenberg.org/ebooks/33294
A Treatise on Domestic Economy; For the Use of Young Ladies at Home and at School|Beecher, Catharine Esther|http://www.gutenberg.org/ebooks/21829
"American Woman's Home: Or, Principles of Domestic Science;
Being a Guide to the Formation and Maintenance of Economical, Healthful, Beautiful, and Christian Homes"|Beecher, Catharine Esther|http://www.gutenberg.org/ebooks/6598
"An Essay on Slavery and Abolitionism
With reference to the duty of American females"|Beecher, Catharine Esther|http://www.gutenberg.org/ebooks/26123
The Duty of American Women to Their Country|Beecher, Catharine Esther|http://www.gutenberg.org/ebooks/53739
"Miss Beecher's Domestic Receipt Book
Designed as a Supplement to Her Treatise on Domestic Economy"|Beecher, Catharine Esther|http://www.gutenberg.org/ebooks/54965
Common Sense Applied to Religion; Or, The Bible and the People|Beecher, Catharine Esther|http://www.gutenberg.org/ebooks/55531
"Miss Beecher's Housekeeper and Healthkeeper
Containing Five Hundred Receipes for Economical and Healthful Cooking; also, Many Directions for Securing Health and Happiness"|Beecher, Catharine Esther|http://www.gutenberg.org/ebooks/55734
Woman's Profession as Mother and Educator, with Views in Opposition to Woman Suffrage|Beecher, Catharine Esther|http://www.gutenberg.org/ebooks/56090
An Appeal to the People in Behalf of Their Rights as Authorized Interpreters of the Bible|Beecher, Catharine Esther|http://www.gutenberg.org/ebooks/56354
Letters to Persons Who Are Engaged in Domestic Service|Beecher, Catharine Esther|http://www.gutenberg.org/ebooks/57985
Seven Men [Excerpts]|Beerbohm, Max, Sir|http://www.gutenberg.org/ebooks/1306
A Christmas Garland|Beerbohm, Max, Sir|http://www.gutenberg.org/ebooks/14667
Zuleika Dobson; Or, An Oxford Love Story|Beerbohm, Max, Sir|http://www.gutenberg.org/ebooks/1845
The Works of Max Beerbohm|Beerbohm, Max, Sir|http://www.gutenberg.org/ebooks/1859
And Even Now|Beerbohm, Max, Sir|http://www.gutenberg.org/ebooks/1956
Yet Again|Beerbohm, Max, Sir|http://www.gutenberg.org/ebooks/2292
James Pethel|Beerbohm, Max, Sir|http://www.gutenberg.org/ebooks/759
Enoch Soames: A Memory of the Eighteen-Nineties|Beerbohm, Max, Sir|http://www.gutenberg.org/ebooks/760
A. V. Laider|Beerbohm, Max, Sir|http://www.gutenberg.org/ebooks/761
The Happy Hypocrite: A Fairy Tale for Tired Men|Beerbohm, Max, Sir|http://www.gutenberg.org/ebooks/36497
"From Chaucer to Tennyson
With Twenty-Nine Portraits and Selections from Thirty Authors"|Beers, Henry A. (Henry Augustin)|http://www.gutenberg.org/ebooks/11618
A History of English Romanticism in the Eighteenth Century|Beers, Henry A. (Henry Augustin)|http://www.gutenberg.org/ebooks/15447
Initial Studies in American Letters|Beers, Henry A. (Henry Augustin)|http://www.gutenberg.org/ebooks/15854
A History of English Romanticism in the Nineteenth Century|Beers, Henry A. (Henry Augustin)|http://www.gutenberg.org/ebooks/15931
Brief History of English and American Literature|Beers, Henry A. (Henry Augustin)|http://www.gutenberg.org/ebooks/21090
Four Americans: Roosevelt, Hawthorne, Emerson, Whitman|Beers, Henry A. (Henry Augustin)|http://www.gutenberg.org/ebooks/24435
"Milton's Tercentenary
An address delivered before the Modern Language Club of Yale University on Milton's Three Hundredth Birthday."|Beers, Henry A. (Henry Augustin)|http://www.gutenberg.org/ebooks/33248
The Two Twilights|Beers, Henry A. (Henry Augustin)|http://www.gutenberg.org/ebooks/34741
The Connecticut Wits, and Other Essays|Beers, Henry A. (Henry Augustin)|http://www.gutenberg.org/ebooks/50915
Nathaniel Parker Willis|Beers, Henry A. (Henry Augustin)|http://www.gutenberg.org/ebooks/53876
Sympathetic Magic|Brown, Paul Cameron|http://www.gutenberg.org/ebooks/29761
Whispers|Brown, Paul Cameron|http://www.gutenberg.org/ebooks/30101
Eyeshine|Brown, Paul Cameron|http://www.gutenberg.org/ebooks/30504
The Land of Look Behind|Brown, Paul Cameron|http://www.gutenberg.org/ebooks/30874
Coming to Grips with White Knuckles|Brown, Paul Cameron|http://www.gutenberg.org/ebooks/30948
Mascara-Viscera|Brown, Paul Cameron|http://www.gutenberg.org/ebooks/31181
The Long Necked Bottle|Brown, Paul Cameron|http://www.gutenberg.org/ebooks/31476
Point Spread Poems|Brown, Paul Cameron|http://www.gutenberg.org/ebooks/31477
Prussian Blue|Brown, Paul Cameron|http://www.gutenberg.org/ebooks/31514
The Rake's Progress|Brown, Paul Cameron|http://www.gutenberg.org/ebooks/31515
Narrative of William W. Brown, a Fugitive Slave|Brown, William Wells|http://www.gutenberg.org/ebooks/15132
Three Years in Europe: Places I Have Seen and People I Have Met|Brown, William Wells|http://www.gutenberg.org/ebooks/15830
Clotel; Or, The President's Daughter|Brown, William Wells|http://www.gutenberg.org/ebooks/2046
Clotelle: A Tale of the Southern States|Brown, William Wells|http://www.gutenberg.org/ebooks/2095
Clotelle; Or, The Colored Heroine, a tale of the Southern States; Or, The President's Daughter|Brown, William Wells|http://www.gutenberg.org/ebooks/241
"Illustrated Edition of the Life and Escape of Wm. Wells Brown from American Slavery
Written by Himself"|Brown, William Wells|http://www.gutenberg.org/ebooks/50092
The Negro in the American Rebellion: His Heroism and His Fidelity|Brown, William Wells|http://www.gutenberg.org/ebooks/50130
The Anti-slavery Harp: A Collection of Songs for Anti-slavery Meetings|Brown, William Wells|http://www.gutenberg.org/ebooks/58414
My Southern Home: Or, the South and Its People|Brown, William Wells|http://www.gutenberg.org/ebooks/59114
Narrative of William W. Brown, a Fugitive Slave. Second Edition|Brown, William Wells|http://www.gutenberg.org/ebooks/59500
The Letters of Elizabeth Barrett Browning (Volume 1 of 2)|Browning, Elizabeth Barrett|http://www.gutenberg.org/ebooks/13018
The Letters of Robert Browning and Elizabeth Barrett Barrett, Vol. 1 (of 2) 1845-1846|Browning, Elizabeth Barrett|http://www.gutenberg.org/ebooks/16182
The Letters of Elizabeth Barrett Browning (Volume 2 of 2)|Browning, Elizabeth Barrett|http://www.gutenberg.org/ebooks/16646
Sonnets from the Portuguese|Browning, Elizabeth Barrett|http://www.gutenberg.org/ebooks/2002
O May I Join the Choir Invisible! and Other Favorite Poems|Browning, Elizabeth Barrett|http://www.gutenberg.org/ebooks/20742
'He Giveth His Beloved Sleep'|Browning, Elizabeth Barrett|http://www.gutenberg.org/ebooks/25643
The Poetical Works of Elizabeth Barrett Browning, Volume 4|Browning, Elizabeth Barrett|http://www.gutenberg.org/ebooks/31015
The Poetical Works of Elizabeth Barrett Browning, Volume 2|Browning, Elizabeth Barrett|http://www.gutenberg.org/ebooks/33363
The Poetical Works of Elizabeth Barrett Browning, Volume 1|Browning, Elizabeth Barrett|http://www.gutenberg.org/ebooks/37452
Aurora Leigh|Browning, Elizabeth Barrett|http://www.gutenberg.org/ebooks/56621
"Buffon's Natural History, Volume 01 (of 10)
Containing a Theory of the Earth, a General History of Man, of the Brute Creation, and of Vegetables, Mineral, &c. &c"|Buffon, Georges Louis Leclerc, comte de|http://www.gutenberg.org/ebooks/44792
"Buffon's Natural History, Volume 02 (of 10)
Containing a Theory of the Earth, a General History of Man, of the Brute Creation, and of Vegetables, Mineral, &c. &c"|Buffon, Georges Louis Leclerc, comte de|http://www.gutenberg.org/ebooks/45602
"Buffon's Natural History, Volume 03 (of 10)
Containing a Theory of the Earth, a General History of Man, of the Brute Creation, and of Vegetables, Minerals, &c. &c."|Buffon, Georges Louis Leclerc, comte de|http://www.gutenberg.org/ebooks/45639
"Buffon's Natural History. Volume 04 (of 10)
Containing a Theory of the Earth, a General History of Man, of the Brute Creation, and of Vegetables, Minerals, &c. &c"|Buffon, Georges Louis Leclerc, comte de|http://www.gutenberg.org/ebooks/45729
"Buffon's Natural History. Volume 05 (of 10)
Containing a Theory of the Earth, a General History of Man, of the Brute Creation, and of Vegetables, Minerals, &c. &c"|Buffon, Georges Louis Leclerc, comte de|http://www.gutenberg.org/ebooks/45730
"Buffon's Natural History. Volume 06 (of 10)
Containing a Theory of the Earth, a General History of Man, of the Brute Creation, and of Vegetables, Minerals, &c. &c"|Buffon, Georges Louis Leclerc, comte de|http://www.gutenberg.org/ebooks/45731
"Buffon's Natural History. Volume 07 (of 10)
Containing a Theory of the Earth, a General History of Man, of the Brute Creation, and of Vegetables, Minerals, &c. &c"|Buffon, Georges Louis Leclerc, comte de|http://www.gutenberg.org/ebooks/45820
"Buffon's Natural History. Volume 08 (of 10)
Containing a Theory of the Earth, a General History of Man, of the Brute Creation, and of Vegetables, Minerals, &c. &c"|Buffon, Georges Louis Leclerc, comte de|http://www.gutenberg.org/ebooks/45821
"Buffon's Natural History. Volume 09 (of 10)
Containing a Theory of the Earth, a General History of Man, of the Brute Creation, and of Vegetables, Minerals, &c. &c"|Buffon, Georges Louis Leclerc, comte de|http://www.gutenberg.org/ebooks/45867
"Buffon's Natural History. Volume 10 (of 10)
Containing a Theory of the Earth, a General History of Man, of the Brute Creation, and of Vegetables, Minerals, &c. &c"|Buffon, Georges Louis Leclerc, comte de|http://www.gutenberg.org/ebooks/45868
A Day with Keats|Byron, May|http://www.gutenberg.org/ebooks/30451
A Day with Lord Byron|Byron, May|http://www.gutenberg.org/ebooks/32990
A Day with Walt Whitman|Byron, May|http://www.gutenberg.org/ebooks/36305
A Day with Samuel Taylor Coleridge|Byron, May|http://www.gutenberg.org/ebooks/36337
A Day with Robert Schumann|Byron, May|http://www.gutenberg.org/ebooks/36472
Robin's Rambles|Byron, May|http://www.gutenberg.org/ebooks/38504
A Day with John Milton|Byron, May|http://www.gutenberg.org/ebooks/40130
A Day with William Shakespeare|Byron, May|http://www.gutenberg.org/ebooks/40441
A Day with Robert Louis Stevenson|Byron, May|http://www.gutenberg.org/ebooks/53165
A Day with Ludwig Beethoven|Byron, May|http://www.gutenberg.org/ebooks/59672
The Man Thou Gavest|Comstock, Harriet T. (Harriet Theresa)|http://www.gutenberg.org/ebooks/14858
Then Marched the Brave|Comstock, Harriet T. (Harriet Theresa)|http://www.gutenberg.org/ebooks/16156
The Shield of Silence|Comstock, Harriet T. (Harriet Theresa)|http://www.gutenberg.org/ebooks/18225
The Place Beyond the Winds|Comstock, Harriet T. (Harriet Theresa)|http://www.gutenberg.org/ebooks/18488
Joyce of the North Woods|Comstock, Harriet T. (Harriet Theresa)|http://www.gutenberg.org/ebooks/19225
A Son of the Hills|Comstock, Harriet T. (Harriet Theresa)|http://www.gutenberg.org/ebooks/20424
Janet of the Dunes|Comstock, Harriet T. (Harriet Theresa)|http://www.gutenberg.org/ebooks/22998
At the Crossroads|Comstock, Harriet T. (Harriet Theresa)|http://www.gutenberg.org/ebooks/30095
A Little Dusky Hero|Comstock, Harriet T. (Harriet Theresa)|http://www.gutenberg.org/ebooks/31366
Mam'selle Jo|Comstock, Harriet T. (Harriet Theresa)|http://www.gutenberg.org/ebooks/49361
The Guardians|Cox, Irving E.|http://www.gutenberg.org/ebooks/24152
Impact|Cox, Irving E.|http://www.gutenberg.org/ebooks/25567
The Cartels Jungle|Cox, Irving E.|http://www.gutenberg.org/ebooks/31062
The Instant of Now|Cox, Irving E.|http://www.gutenberg.org/ebooks/31651
Love Story|Cox, Irving E.|http://www.gutenberg.org/ebooks/32078
Adolescents Only|Cox, Irving E.|http://www.gutenberg.org/ebooks/32651
Miracle by Price|Cox, Irving E.|http://www.gutenberg.org/ebooks/58730
Firth's World|Cox, Irving E.|http://www.gutenberg.org/ebooks/59252
The Almost-Men|Cox, Irving E.|http://www.gutenberg.org/ebooks/59356
The Earthman|Cox, Irving E.|http://www.gutenberg.org/ebooks/59458
"The Botanical Magazine, Vol. 01
Or, Flower-Garden Displayed"|Curtis, William|http://www.gutenberg.org/ebooks/17198
"The Botanical Magazine, Vol. 02
Or, Flower-Garden Displayed"|Curtis, William|http://www.gutenberg.org/ebooks/17531
"The Botanical Magazine, Vol. 03
Or, Flower-Garden Displayed"|Curtis, William|http://www.gutenberg.org/ebooks/17672
"The Botanical Magazine, Vol. 04
Or, Flower-Garden Displayed"|Curtis, William|http://www.gutenberg.org/ebooks/17979
"The Botanical Magazine, Vol. 05
Or, Flower-Garden Displayed"|Curtis, William|http://www.gutenberg.org/ebooks/19123
"The Botanical Magazine, Vol. 06
Or, Flower-Garden Displayed"|Curtis, William|http://www.gutenberg.org/ebooks/21843
"The Botanical Magazine  Vol. 07
Or, Flower-Garden Displayed"|Curtis, William|http://www.gutenberg.org/ebooks/23579
"The Botanical Magazine,  Vol. 13
Or, Flower-Garden Displayed"|Curtis, William|http://www.gutenberg.org/ebooks/43858
"The Botanical Magazine Vol. 08
Or, Flower-Garden Displayed"|Curtis, William|http://www.gutenberg.org/ebooks/24670
"The Botanical Magazine, Vol. 09
Or, Flower-Garden Displayed"|Curtis, William|http://www.gutenberg.org/ebooks/38382
Love Among the Ruins|Deeping, Warwick|http://www.gutenberg.org/ebooks/42284
The King Behind the King|Deeping, Warwick|http://www.gutenberg.org/ebooks/48115
The Pride of Eve|Deeping, Warwick|http://www.gutenberg.org/ebooks/50176
Mad Barbara|Deeping, Warwick|http://www.gutenberg.org/ebooks/50995
Uther and Igraine|Deeping, Warwick|http://www.gutenberg.org/ebooks/52139
A Woman's War: A Novel|Deeping, Warwick|http://www.gutenberg.org/ebooks/52715
Bertrand of Brittany|Deeping, Warwick|http://www.gutenberg.org/ebooks/56707
Bess of the Woods|Deeping, Warwick|http://www.gutenberg.org/ebooks/57758
The Slanderers|Deeping, Warwick|http://www.gutenberg.org/ebooks/58287
The Seven Streams|Deeping, Warwick|http://www.gutenberg.org/ebooks/59096
Afloat; or, Adventures on Watery Trails|Douglas, Alan, Captain|http://www.gutenberg.org/ebooks/20499
Pathfinder; or, The Missing Tenderfoot|Douglas, Alan, Captain|http://www.gutenberg.org/ebooks/22924
Camp Fires of the Wolf Patrol|Douglas, Alan, Captain|http://www.gutenberg.org/ebooks/36838
Woodcraft; Or, How a Patrol Leader Made Good|Douglas, Alan, Captain|http://www.gutenberg.org/ebooks/37167
Fast Nine; or, A Challenge from Fairfield|Douglas, Alan, Captain|http://www.gutenberg.org/ebooks/37493
Under Canvas; or, The Hunt for the Cartaret Ghost|Douglas, Alan, Captain|http://www.gutenberg.org/ebooks/38299
Boy Scouts: Tenderfoot Squad; or, Camping at Raccoon Lodge|Douglas, Alan, Captain|http://www.gutenberg.org/ebooks/38300
Endurance Test; or, How Clear Grit Won the Day|Douglas, Alan, Captain|http://www.gutenberg.org/ebooks/38305
Great Hike; or, The Pride of the Khaki Troop|Douglas, Alan, Captain|http://www.gutenberg.org/ebooks/38307
Storm-Bound; or, A Vacation Among the Snow Drifts|Douglas, Alan, Captain|http://www.gutenberg.org/ebooks/38314
"Memoirs and Historical Chronicles of the Courts of Europe
Memoirs of Marguerite de Valois, Queen of France, Wife of Henri IV; of Madame de Pompadour of the Court of Louis XV; and of Catherine de Medici, Queen of France, Wife of Henri II"|Du Hausset, Mme.|http://www.gutenberg.org/ebooks/12967
Quotes and Images From Memoirs of Louis XV. and XVI.|Du Hausset, Mme.|http://www.gutenberg.org/ebooks/7561
"Memoirs of the Courts of Louis XV and XVI. — Volume 1
Being secret memoirs of Madame Du Hausset, lady's maid to Madame de Pompadour, and of the Princess Lamballe"|Du Hausset, Mme.|http://www.gutenberg.org/ebooks/3876
"Memoirs of the Courts of Louis XV and XVI. — Volume 2
Being secret memoirs of Madame Du Hausset, lady's maid to Madame de Pompadour, and of the Princess Lamballe"|Du Hausset, Mme.|http://www.gutenberg.org/ebooks/3877
"Memoirs of the Courts of Louis XV and XVI. — Volume 3
Being secret memoirs of Madame Du Hausset, lady's maid to Madame de Pompadour, and of the Princess Lamballe"|Du Hausset, Mme.|http://www.gutenberg.org/ebooks/3878
"Memoirs of the Courts of Louis XV and XVI. — Volume 4
Being secret memoirs of Madame Du Hausset, lady's maid to Madame de Pompadour, and of the Princess Lamballe"|Du Hausset, Mme.|http://www.gutenberg.org/ebooks/3879
"Memoirs of the Courts of Louis XV and XVI. — Volume 5
Being secret memoirs of Madame Du Hausset, lady's maid to Madame de Pompadour, and of the Princess Lamballe"|Du Hausset, Mme.|http://www.gutenberg.org/ebooks/3880
"Memoirs of the Courts of Louis XV and XVI. — Volume 6
Being secret memoirs of Madame Du Hausset, lady's maid to Madame de Pompadour, and of the Princess Lamballe"|Du Hausset, Mme.|http://www.gutenberg.org/ebooks/3881
"Memoirs of the Courts of Louis XV and XVI. — Volume 7
Being secret memoirs of Madame Du Hausset, lady's maid to Madame de Pompadour, and of the Princess Lamballe"|Du Hausset, Mme.|http://www.gutenberg.org/ebooks/3882
"Memoirs of the Courts of Louis XV and XVI. — Complete
Being secret memoirs of Madame Du Hausset, lady's maid to Madame de Pompadour, and of the Princess Lamballe"|Du Hausset, Mme.|http://www.gutenberg.org/ebooks/3883
The Pool in the Desert|Duncan, Sara Jeannette|http://www.gutenberg.org/ebooks/1168
A Daughter of To-Day|Duncan, Sara Jeannette|http://www.gutenberg.org/ebooks/14490
"A Voyage of Consolation
(being in the nature of a sequel to the experiences of 'An American girl in London')"|Duncan, Sara Jeannette|http://www.gutenberg.org/ebooks/15966
Hilda: A Story of Calcutta|Duncan, Sara Jeannette|http://www.gutenberg.org/ebooks/18051
The Story of Sonny Sahib|Duncan, Sara Jeannette|http://www.gutenberg.org/ebooks/4547
An American Girl in London|Duncan, Sara Jeannette|http://www.gutenberg.org/ebooks/45925
The Path of a Star|Duncan, Sara Jeannette|http://www.gutenberg.org/ebooks/5102
The Imperialist|Duncan, Sara Jeannette|http://www.gutenberg.org/ebooks/5301
His Honour, and a Lady|Duncan, Sara Jeannette|http://www.gutenberg.org/ebooks/53036
The Simple Adventures of a Memsahib|Duncan, Sara Jeannette|http://www.gutenberg.org/ebooks/56513
Indian Child Life|Eastman, Charles A.|http://www.gutenberg.org/ebooks/25907
The Indian To-day: The Past and Future of the First American|Eastman, Charles A.|http://www.gutenberg.org/ebooks/27448
Wigwam Evenings: Sioux Folk Tales Retold|Eastman, Charles A.|http://www.gutenberg.org/ebooks/28099
Indian Heroes and Great Chieftains|Eastman, Charles A.|http://www.gutenberg.org/ebooks/336
Indian Boyhood|Eastman, Charles A.|http://www.gutenberg.org/ebooks/337
Old Indian Days|Eastman, Charles A.|http://www.gutenberg.org/ebooks/339
The Soul of the Indian: An Interpretation|Eastman, Charles A.|http://www.gutenberg.org/ebooks/340
Red Hunters and the Animal People|Eastman, Charles A.|http://www.gutenberg.org/ebooks/34461
Indian Scout Talks: A Guide for Boy Scouts and Camp Fire Girls|Eastman, Charles A.|http://www.gutenberg.org/ebooks/37373
Index of the Project Gutenberg Works of Charles A. Eastman|Eastman, Charles A.|http://www.gutenberg.org/ebooks/57696
Social Life in the Insect World|Fabre, Jean-Henri|http://www.gutenberg.org/ebooks/18350
The Life of the Spider|Fabre, Jean-Henri|http://www.gutenberg.org/ebooks/1887
Insect Adventures|Fabre, Jean-Henri|http://www.gutenberg.org/ebooks/45812
The Glow-Worm and Other Beetles|Fabre, Jean-Henri|http://www.gutenberg.org/ebooks/27868
The Mason-Bees|Fabre, Jean-Henri|http://www.gutenberg.org/ebooks/2884
Bramble-Bees and Others|Fabre, Jean-Henri|http://www.gutenberg.org/ebooks/3421
The Life of the Fly; With Which are Interspersed Some Chapters of Autobiography|Fabre, Jean-Henri|http://www.gutenberg.org/ebooks/3422
More Hunting Wasps|Fabre, Jean-Henri|http://www.gutenberg.org/ebooks/3462
The Wonders of Instinct: Chapters in the Psychology of Insects|Fabre, Jean-Henri|http://www.gutenberg.org/ebooks/3754
The Story-book of Science|Fabre, Jean-Henri|http://www.gutenberg.org/ebooks/56795
The Inheritors|Ford, Ford Madox|http://www.gutenberg.org/ebooks/14888
Romance|Ford, Ford Madox|http://www.gutenberg.org/ebooks/17642
The Young Lovell: A Romance|Ford, Ford Madox|http://www.gutenberg.org/ebooks/42801
Privy Seal: His Last Venture|Ford, Ford Madox|http://www.gutenberg.org/ebooks/26698
The Fifth Queen Crowned|Ford, Ford Madox|http://www.gutenberg.org/ebooks/27432
The Good Soldier|Ford, Ford Madox|http://www.gutenberg.org/ebooks/2775
The Fifth Queen: And How She Came to Court|Ford, Ford Madox|http://www.gutenberg.org/ebooks/30188
The Brown Owl: A Fairy Story|Ford, Ford Madox|http://www.gutenberg.org/ebooks/48860
The Feather|Ford, Ford Madox|http://www.gutenberg.org/ebooks/50658
The Queen Who Flew: A Fairy Tale|Ford, Ford Madox|http://www.gutenberg.org/ebooks/52636
The Longest Journey|Forster, E. M. (Edward Morgan)|http://www.gutenberg.org/ebooks/2604
A Room with a View|Forster, E. M. (Edward Morgan)|http://www.gutenberg.org/ebooks/2641
Howards End|Forster, E. M. (Edward Morgan)|http://www.gutenberg.org/ebooks/2891
Howards End|Forster, E. M. (Edward Morgan)|http://www.gutenberg.org/ebooks/2946
Where Angels Fear to Tread|Forster, E. M. (Edward Morgan)|http://www.gutenberg.org/ebooks/2948
The Celestial Omnibus, and Other Stories|Forster, E. M. (Edward Morgan)|http://www.gutenberg.org/ebooks/34089
Alexandria: A History and a Guide|Forster, E. M. (Edward Morgan)|http://www.gutenberg.org/ebooks/57010
The Story of the Siren|Forster, E. M. (Edward Morgan)|http://www.gutenberg.org/ebooks/58581
Pharos and Pharillon|Forster, E. M. (Edward Morgan)|http://www.gutenberg.org/ebooks/61116
A Passage to India|Forster, E. M. (Edward Morgan)|http://www.gutenberg.org/ebooks/61221
The Camp Fire Girls at Camp Keewaydin; Or, Paddles Down|Frey, Hildegard G.|http://www.gutenberg.org/ebooks/10688
The Camp Fire Girls Do Their Bit; Or, Over the Top with the Winnebagos|Frey, Hildegard G.|http://www.gutenberg.org/ebooks/11664
The Camp Fire Girls at School; Or, The Wohelo Weavers|Frey, Hildegard G.|http://www.gutenberg.org/ebooks/11718
The Camp Fire Girls in the Maine Woods; Or, The Winnebagos Go Camping|Frey, Hildegard G.|http://www.gutenberg.org/ebooks/18606
The Camp Fire Girls Go Motoring; Or, Along the Road That Leads the Way|Frey, Hildegard G.|http://www.gutenberg.org/ebooks/6895
The Camp Fire Girls on Ellen's Isle; Or, The Trail of the Seven Cedars|Frey, Hildegard G.|http://www.gutenberg.org/ebooks/30825
The Camp Fire Girls on the Open Road; Or, Glorify Work|Frey, Hildegard G.|http://www.gutenberg.org/ebooks/36485
The Camp Fire Girls at Onoway House; Or, The Magic Garden|Frey, Hildegard G.|http://www.gutenberg.org/ebooks/36833
The Camp Fire Girls' Larks and Pranks; Or, The House of the Open Door|Frey, Hildegard G.|http://www.gutenberg.org/ebooks/38934
The Camp Fire Girls Solve a Mystery; Or, The Christmas Adventure at Carver House|Frey, Hildegard G.|http://www.gutenberg.org/ebooks/38983
At Love's Cost|Garvice, Charles|http://www.gutenberg.org/ebooks/10379
Adrien Leroy|Garvice, Charles|http://www.gutenberg.org/ebooks/16682
The Woman's Way|Garvice, Charles|http://www.gutenberg.org/ebooks/19411
Nell, of Shorne Mills; or, One Heart's Burden|Garvice, Charles|http://www.gutenberg.org/ebooks/22961
Wild Margaret|Garvice, Charles|http://www.gutenberg.org/ebooks/44828
Only One Love; or, Who Was the Heir|Garvice, Charles|http://www.gutenberg.org/ebooks/35523
The Spider and the Fly; or, An Undesired Love|Garvice, Charles|http://www.gutenberg.org/ebooks/49537
Leslie's Loyalty|Garvice, Charles|http://www.gutenberg.org/ebooks/50440
Only a Girl's Love|Garvice, Charles|http://www.gutenberg.org/ebooks/53416
Just a Girl|Garvice, Charles|http://www.gutenberg.org/ebooks/57166
"Pinnock's improved edition of Dr. Goldsmith's History of Rome
 to which is prefixed an introduction to the study of Roman history, and a great variety of valuable information added throughout the work, on the manners, institutions, and antiquities of the Romans; with numerous biographical and historical notes; and questions for examination at the end of each section.
 By Wm. C. Taylor."|Goldsmith, Oliver|http://www.gutenberg.org/ebooks/16387
An Elegy on the Death of a Mad Dog|Goldsmith, Oliver|http://www.gutenberg.org/ebooks/17102
An Elegy on the Glory of Her Sex, Mrs. Mary Blaize|Goldsmith, Oliver|http://www.gutenberg.org/ebooks/17117
The Vicar of Wakefield|Goldsmith, Oliver|http://www.gutenberg.org/ebooks/2667
The Complete Poetical Works of Oliver Goldsmith|Goldsmith, Oliver|http://www.gutenberg.org/ebooks/3545
She Stoops to Conquer; Or, The Mistakes of a Night: A Comedy|Goldsmith, Oliver|http://www.gutenberg.org/ebooks/383
Dalziels' Illustrated Goldsmith|Goldsmith, Oliver|http://www.gutenberg.org/ebooks/49325
The Poems of Oliver Goldsmith|Goldsmith, Oliver|http://www.gutenberg.org/ebooks/49723
The Deserted Village|Goldsmith, Oliver|http://www.gutenberg.org/ebooks/50500
Index of the Project Gutenberg Works of Oliver Goldsmith|Goldsmith, Oliver|http://www.gutenberg.org/ebooks/58029
Poems|Goodrich, Samuel G. (Samuel Griswold)|http://www.gutenberg.org/ebooks/11558
Peter Parley's Tales About America and Australia|Goodrich, Samuel G. (Samuel Griswold)|http://www.gutenberg.org/ebooks/16891
Peter Parley's Visit to London, During the Coronation of Queen Victoria|Goodrich, Samuel G. (Samuel Griswold)|http://www.gutenberg.org/ebooks/43995
"Peter Parley's Own Story
From the Personal Narrative of the Late Samuel G. Goodrich, (""Peter Parley"")"|Goodrich, Samuel G. (Samuel Griswold)|http://www.gutenberg.org/ebooks/45165
Lives of Celebrated Women|Goodrich, Samuel G. (Samuel Griswold)|http://www.gutenberg.org/ebooks/33273
Illustrative Anecdotes of the Animal Kingdom|Goodrich, Samuel G. (Samuel Griswold)|http://www.gutenberg.org/ebooks/33687
The Life of Benjamin Franklin, Illustrated by Tales, Sketches, and Anecdotes|Goodrich, Samuel G. (Samuel Griswold)|http://www.gutenberg.org/ebooks/38469
Curiosities of Human Nature|Goodrich, Samuel G. (Samuel Griswold)|http://www.gutenberg.org/ebooks/39333
Famous Men of Ancient Times|Goodrich, Samuel G. (Samuel Griswold)|http://www.gutenberg.org/ebooks/52400
History of the Indians, of North and South America|Goodrich, Samuel G. (Samuel Griswold)|http://www.gutenberg.org/ebooks/54266
Misrepresentative Women|Graham, Harry|http://www.gutenberg.org/ebooks/42407
Perverted Proverbs: A Manual of Immorals for the Many|Graham, Harry|http://www.gutenberg.org/ebooks/34790
Ruthless Rhymes for Heartless Homes|Graham, Harry|http://www.gutenberg.org/ebooks/35051
Familiar Faces|Graham, Harry|http://www.gutenberg.org/ebooks/35059
Fiscal Ballads|Graham, Harry|http://www.gutenberg.org/ebooks/36038
Misrepresentative Men|Graham, Harry|http://www.gutenberg.org/ebooks/36321
The Motley Muse (Rhymes for the Times)|Graham, Harry|http://www.gutenberg.org/ebooks/36543
Verse and Worse|Graham, Harry|http://www.gutenberg.org/ebooks/36702
More Misrepresentative Men|Graham, Harry|http://www.gutenberg.org/ebooks/36782
The Mother of Parliaments|Graham, Harry|http://www.gutenberg.org/ebooks/41304
Dream Days|Grahame, Kenneth|http://www.gutenberg.org/ebooks/1288
Dream Days|Grahame, Kenneth|http://www.gutenberg.org/ebooks/270
The Wind in the Willows|Grahame, Kenneth|http://www.gutenberg.org/ebooks/27805
The Wind in the Willows|Grahame, Kenneth|http://www.gutenberg.org/ebooks/289
The Golden Age|Grahame, Kenneth|http://www.gutenberg.org/ebooks/291
The Golden Age|Grahame, Kenneth|http://www.gutenberg.org/ebooks/32501
The Headswoman|Grahame, Kenneth|http://www.gutenberg.org/ebooks/34243
Dream Days|Grahame, Kenneth|http://www.gutenberg.org/ebooks/35187
Pagan Papers|Grahame, Kenneth|http://www.gutenberg.org/ebooks/5319
The Golden Age|Grahame, Kenneth|http://www.gutenberg.org/ebooks/53250
The Everlasting Whisper|Gregory, Jackson|http://www.gutenberg.org/ebooks/10213
Six Feet Four|Gregory, Jackson|http://www.gutenberg.org/ebooks/15148
The Bells of San Juan|Gregory, Jackson|http://www.gutenberg.org/ebooks/15438
The Desert Valley|Gregory, Jackson|http://www.gutenberg.org/ebooks/15502
"Under Handicap
A Novel"|Gregory, Jackson|http://www.gutenberg.org/ebooks/17981
"Daughter of the Sun
A Tale of Adventure"|Gregory, Jackson|http://www.gutenberg.org/ebooks/18916
Judith of Blue Lake Ranch|Gregory, Jackson|http://www.gutenberg.org/ebooks/18926
Man to Man|Gregory, Jackson|http://www.gutenberg.org/ebooks/18933
The Short Cut|Gregory, Jackson|http://www.gutenberg.org/ebooks/18950
Wolf Breed|Gregory, Jackson|http://www.gutenberg.org/ebooks/18964
"The Introduction to Hegel's Philosophy of Fine Arts
Translated from the German with Notes and Prefatory Essay"|Hegel, Georg Wilhelm Friedrich|http://www.gutenberg.org/ebooks/46330
Hegel's Philosophy of Mind|Hegel, Georg Wilhelm Friedrich|http://www.gutenberg.org/ebooks/39064
Hegel's Lectures on the History of Philosophy: Volume 1 (of 3)|Hegel, Georg Wilhelm Friedrich|http://www.gutenberg.org/ebooks/51635
Hegel's Lectures on the History of Philosophy: Volume 2 (of 3)|Hegel, Georg Wilhelm Friedrich|http://www.gutenberg.org/ebooks/51636
The Logic of Hegel|Hegel, Georg Wilhelm Friedrich|http://www.gutenberg.org/ebooks/55108
"The Philosophy of Fine Art, volume 1 (of 4)
Hegel's Aesthetik"|Hegel, Georg Wilhelm Friedrich|http://www.gutenberg.org/ebooks/55334
"The Philosophy of Fine Art, volume 2 (of 4)
Hegel's Aesthetik"|Hegel, Georg Wilhelm Friedrich|http://www.gutenberg.org/ebooks/55445
"The Philosophy of Fine Art, volume 3 (of 4)
Hegel's Aesthetik"|Hegel, Georg Wilhelm Friedrich|http://www.gutenberg.org/ebooks/55623
"The Philosophy of Fine Art, volume 4 (of 4)
Hegel's Aesthetik"|Hegel, Georg Wilhelm Friedrich|http://www.gutenberg.org/ebooks/55731
Hegel's Lectures on the History of Philosophy: Volume 3 (of 3)|Hegel, Georg Wilhelm Friedrich|http://www.gutenberg.org/ebooks/58169
Women and the Alphabet: A Series of Essays|Higginson, Thomas Wentworth|http://www.gutenberg.org/ebooks/13474
Army Life in a Black Regiment|Higginson, Thomas Wentworth|http://www.gutenberg.org/ebooks/6764
Tales of the Enchanted Islands of the Atlantic|Higginson, Thomas Wentworth|http://www.gutenberg.org/ebooks/7098
Black Rebellion: Five Slave Revolts|Higginson, Thomas Wentworth|http://www.gutenberg.org/ebooks/8432
Oldport Days|Higginson, Thomas Wentworth|http://www.gutenberg.org/ebooks/2418
The Sympathy of Religions|Higginson, Thomas Wentworth|http://www.gutenberg.org/ebooks/25792
Henry Wadsworth Longfellow|Higginson, Thomas Wentworth|http://www.gutenberg.org/ebooks/33402
Malbone: An Oldport Romance|Higginson, Thomas Wentworth|http://www.gutenberg.org/ebooks/993
A Book of American Explorers|Higginson, Thomas Wentworth|http://www.gutenberg.org/ebooks/56346
Index of the Project Gutenberg Works of Thomas Wentworth Higginson|Higginson, Thomas Wentworth|http://www.gutenberg.org/ebooks/59301
Legends of the Madonna as Represented in the Fine Arts|Jameson, Mrs. (Anna)|http://www.gutenberg.org/ebooks/12047
The Diary of an Ennuyée|Jameson, Mrs. (Anna)|http://www.gutenberg.org/ebooks/18049
Characteristics of Women: Moral, Poetical, and Historical|Jameson, Mrs. (Anna)|http://www.gutenberg.org/ebooks/26152
Sketches in Canada, and rambles among the red men|Jameson, Mrs. (Anna)|http://www.gutenberg.org/ebooks/35224
"The Romance of Biography (Vol 1 of 2)
or Memoirs of Women Loved and Celebrated by Poets, from the Days of the Troubadours to the Present Age. 3rd ed. 2 Vols."|Jameson, Mrs. (Anna)|http://www.gutenberg.org/ebooks/35382
"The Romance of Biography (Vol 2 of 2)
or Memoirs of Women Loved and Celebrated by Poets, from the Days of the Troubadours to the Present Age. 3rd ed. 2 Vols."|Jameson, Mrs. (Anna)|http://www.gutenberg.org/ebooks/35416
"Visits and Sketches at Home and Abroad, Vol. 1 (of 3)
With Tales and Miscellanies Now First Collected"|Jameson, Mrs. (Anna)|http://www.gutenberg.org/ebooks/36818
"Visits and Sketches at Home and Abroad, Vol. 2 (of 3)
With Tales and Miscellanies Now First Collected"|Jameson, Mrs. (Anna)|http://www.gutenberg.org/ebooks/36819
"Visits and Sketches at Home and Abroad, Vol. 3 (of 3)
With Tales and Miscellanies Now First Collected"|Jameson, Mrs. (Anna)|http://www.gutenberg.org/ebooks/36820
"A Commonplace Book of Thoughts, Memories, and Fancies.
2nd ed."|Jameson, Mrs. (Anna)|http://www.gutenberg.org/ebooks/39680
"Life of Wm. Tecumseh Sherman.
Late Retired General. U. S. A."|Johnson, Willis Fletcher|http://www.gutenberg.org/ebooks/44686
The History of Cuba, vol. 1|Johnson, Willis Fletcher|http://www.gutenberg.org/ebooks/33847
The History of Cuba, vol. 4|Johnson, Willis Fletcher|http://www.gutenberg.org/ebooks/33848
The History of Cuba, vol. 2|Johnson, Willis Fletcher|http://www.gutenberg.org/ebooks/37676
The History of Cuba, vol. 3|Johnson, Willis Fletcher|http://www.gutenberg.org/ebooks/38139
"Stanley's Adventures in the Wilds of Africa
A Graphic Account of the Several Expeditions of Henry M. Stanley into the Heart of the Dark Continent"|Johnson, Willis Fletcher|http://www.gutenberg.org/ebooks/38389
The History of Cuba, vol. 5|Johnson, Willis Fletcher|http://www.gutenberg.org/ebooks/41267
"History of the Johnstown Flood
Including all the Fearful Record; the Breaking of the South Fork Dam; the Sweeping Out of the Conemaugh Valley; the Over-Throw of Johnstown; the Massing of the Wreck at the Railroad Bridge; Escapes, Rescues, Searches for Survivors and the Dead; Relief Organizations, Stupendous Charities, etc., etc., With Full Accounts also of the Destruction on the Susquehanna and Juniata Rivers, and the Bald Eagle Creek."|Johnson, Willis Fletcher|http://www.gutenberg.org/ebooks/41271
"""My country, 'tis of thee!""
Or, the United States of America; past, present and future. A philosophic view of American history and of our present status, to be seen in the Columbian exhibition."|Johnson, Willis Fletcher|http://www.gutenberg.org/ebooks/50036
Colonel Henry Ludington: A Memoir|Johnson, Willis Fletcher|http://www.gutenberg.org/ebooks/58125
The Critique of Pure Reason|Kant, Immanuel|http://www.gutenberg.org/ebooks/4280
"Of the Injustice of Counterfeiting Books
From: Essays and Treaties on Moral, Political and various Philosophical Subjects"|Kant, Immanuel|http://www.gutenberg.org/ebooks/46060
Kant's Critique of Judgement|Kant, Immanuel|http://www.gutenberg.org/ebooks/48433
Perpetual Peace: A Philosophical Essay|Kant, Immanuel|http://www.gutenberg.org/ebooks/50922
Kant's Prolegomena to Any Future Metaphysics|Kant, Immanuel|http://www.gutenberg.org/ebooks/52821
Literary and Philosophical Essays: French, German and Italian|Kant, Immanuel|http://www.gutenberg.org/ebooks/5637
Fundamental Principles of the Metaphysic of Morals|Kant, Immanuel|http://www.gutenberg.org/ebooks/5682
The Critique of Practical Reason|Kant, Immanuel|http://www.gutenberg.org/ebooks/5683
The Metaphysical Elements of Ethics|Kant, Immanuel|http://www.gutenberg.org/ebooks/5684
Index of the Project Gutenberg Works of Immanuel Kant|Kant, Immanuel|http://www.gutenberg.org/ebooks/59023
The Go-Getter: A Story That Tells You How to be One|Kyne, Peter B. (Peter Bernard)|http://www.gutenberg.org/ebooks/12257
Kindred of the Dust|Kyne, Peter B. (Peter Bernard)|http://www.gutenberg.org/ebooks/13532
The Pride of Palomar|Kyne, Peter B. (Peter Bernard)|http://www.gutenberg.org/ebooks/16674
Captain Scraggs; Or, The Green-Pea Pirates|Kyne, Peter B. (Peter Bernard)|http://www.gutenberg.org/ebooks/18469
The Three Godfathers|Kyne, Peter B. (Peter Bernard)|http://www.gutenberg.org/ebooks/51942
Webster—Man's Man|Kyne, Peter B. (Peter Bernard)|http://www.gutenberg.org/ebooks/51987
The Valley of the Giants|Kyne, Peter B. (Peter Bernard)|http://www.gutenberg.org/ebooks/5735
Cappy Ricks; Or, the Subjugation of Matt Peasley|Kyne, Peter B. (Peter Bernard)|http://www.gutenberg.org/ebooks/5738
Cappy Ricks Retires: But That Doesn't Keep Him from Coming Back Stronger Than Ever|Kyne, Peter B. (Peter Bernard)|http://www.gutenberg.org/ebooks/6020
The Long Chance|Kyne, Peter B. (Peter Bernard)|http://www.gutenberg.org/ebooks/6115
Sodom and Gomorrah, Texas|Lafferty, R. A.|http://www.gutenberg.org/ebooks/23161
The Six Fingers of Time|Lafferty, R. A.|http://www.gutenberg.org/ebooks/31663
Aloys|Lafferty, R. A.|http://www.gutenberg.org/ebooks/51596
All the People|Lafferty, R. A.|http://www.gutenberg.org/ebooks/51603
Dream World|Lafferty, R. A.|http://www.gutenberg.org/ebooks/51668
The Weirdest World|Lafferty, R. A.|http://www.gutenberg.org/ebooks/51774
McGonigal's Worm|Lafferty, R. A.|http://www.gutenberg.org/ebooks/60940
The Polite People of Pudibundia|Lafferty, R. A.|http://www.gutenberg.org/ebooks/60955
In the Garden|Lafferty, R. A.|http://www.gutenberg.org/ebooks/61007
Seven-Day Terror|Lafferty, R. A.|http://www.gutenberg.org/ebooks/61128
The Wonderful Adventures of Nils|Lagerlöf, Selma|http://www.gutenberg.org/ebooks/10935
Invisible Links|Lagerlöf, Selma|http://www.gutenberg.org/ebooks/14273
The Emperor of Portugallia|Lagerlöf, Selma|http://www.gutenberg.org/ebooks/14356
Jerusalem|Lagerlöf, Selma|http://www.gutenberg.org/ebooks/15837
From a Swedish Homestead|Lagerlöf, Selma|http://www.gutenberg.org/ebooks/44630
Christ Legends|Lagerlöf, Selma|http://www.gutenberg.org/ebooks/44818
The Girl from the Marsh Croft|Lagerlöf, Selma|http://www.gutenberg.org/ebooks/41414
The Treasure|Lagerlöf, Selma|http://www.gutenberg.org/ebooks/5161
The Miracles of Antichrist: A Novel|Lagerlöf, Selma|http://www.gutenberg.org/ebooks/54615
The Story of Gösta Berling|Lagerlöf, Selma|http://www.gutenberg.org/ebooks/56158
"The Works of Charles and Mary Lamb — Volume 3
Books for Children"|Lamb, Mary|http://www.gutenberg.org/ebooks/10130
"The Works of Charles and Mary Lamb — Volume 2
Elia and The Last Essays of Elia"|Lamb, Mary|http://www.gutenberg.org/ebooks/10343
"The Works of Charles and Mary Lamb — Volume 6
Letters 1821-1842"|Lamb, Mary|http://www.gutenberg.org/ebooks/10851
"The Works of Charles and Mary Lamb — Volume 4
Poems and Plays"|Lamb, Mary|http://www.gutenberg.org/ebooks/11576
Tales from Shakespeare|Lamb, Mary|http://www.gutenberg.org/ebooks/1286
Tales from Shakespeare|Lamb, Mary|http://www.gutenberg.org/ebooks/20657
"The Works of Charles and Mary Lamb — Volume 5
The Letters of Charles and Mary Lamb, 1796-1820"|Lamb, Mary|http://www.gutenberg.org/ebooks/9365
The Blue Jar Story Book|Lamb, Mary|http://www.gutenberg.org/ebooks/34470
"The Works of Charles and Mary Lamb — Volume 1
Miscellaneous Prose"|Lamb, Mary|http://www.gutenberg.org/ebooks/40988
Tales from Shakespeare|Lamb, Mary|http://www.gutenberg.org/ebooks/573
The Black-Bearded Barbarian : The Life of George Leslie Mackay of Formosa|MacGregor, Mary Esther Miller|http://www.gutenberg.org/ebooks/1759
Stories from the Ballads, Told to the Children|MacGregor, Mary Esther Miller|http://www.gutenberg.org/ebooks/22175
Stories of King Arthur's Knights, Told to the Children by Mary MacGregor|MacGregor, Mary Esther Miller|http://www.gutenberg.org/ebooks/25654
Stories of Siegfried, Told to the Children|MacGregor, Mary Esther Miller|http://www.gutenberg.org/ebooks/26181
'Lizbeth of the Dale|MacGregor, Mary Esther Miller|http://www.gutenberg.org/ebooks/28234
In Orchard Glen|MacGregor, Mary Esther Miller|http://www.gutenberg.org/ebooks/28235
The End of the Rainbow|MacGregor, Mary Esther Miller|http://www.gutenberg.org/ebooks/28276
The Silver Maple|MacGregor, Mary Esther Miller|http://www.gutenberg.org/ebooks/28688
Duncan Polite, the Watchman of Glenoro|MacGregor, Mary Esther Miller|http://www.gutenberg.org/ebooks/28689
Treasure Valley|MacGregor, Mary Esther Miller|http://www.gutenberg.org/ebooks/29023
The Hill of Dreams|Machen, Arthur|http://www.gutenberg.org/ebooks/13969
The Angels of Mons: The Bowmen and Other Legends of the War|Machen, Arthur|http://www.gutenberg.org/ebooks/14044
The House of Souls|Machen, Arthur|http://www.gutenberg.org/ebooks/25016
Far Off Things|Machen, Arthur|http://www.gutenberg.org/ebooks/35153
The Three Impostors; or, The Transmutations|Machen, Arthur|http://www.gutenberg.org/ebooks/35517
The Great Return|Machen, Arthur|http://www.gutenberg.org/ebooks/35611
The Terror: A Mystery|Machen, Arthur|http://www.gutenberg.org/ebooks/35617
The Secret Glory|Machen, Arthur|http://www.gutenberg.org/ebooks/35637
The Great God Pan|Machen, Arthur|http://www.gutenberg.org/ebooks/389
Hieroglyphics|Machen, Arthur|http://www.gutenberg.org/ebooks/40241
A Spring Walk in Provence|Marshall, Archibald|http://www.gutenberg.org/ebooks/46035
The Squire's Daughter: Being the First Book in the Chronicles of the Clintons|Marshall, Archibald|http://www.gutenberg.org/ebooks/31381
Abington Abbey: A Novel|Marshall, Archibald|http://www.gutenberg.org/ebooks/35106
The Eldest Son|Marshall, Archibald|http://www.gutenberg.org/ebooks/38646
The Honour of the Clintons|Marshall, Archibald|http://www.gutenberg.org/ebooks/38647
Peter Binney: A Novel|Marshall, Archibald|http://www.gutenberg.org/ebooks/38694
The Graftons: A Novel|Marshall, Archibald|http://www.gutenberg.org/ebooks/39587
The Hall and the Grange: A Novel|Marshall, Archibald|http://www.gutenberg.org/ebooks/39595
Upsidonia|Marshall, Archibald|http://www.gutenberg.org/ebooks/39905
Sir Harry: A Love Story|Marshall, Archibald|http://www.gutenberg.org/ebooks/54673
A Selection of Books Published by Methuen and Co. Ltd., October 1910|Methuen & Co.|http://www.gutenberg.org/ebooks/15751
A Selection of Books published by Methuen and Co. Ltd., London, 36, Essex Street, W.C, September, 1911|Methuen & Co.|http://www.gutenberg.org/ebooks/17247
A Selection of Books Published by Methuen & Co. September 1913|Methuen & Co.|http://www.gutenberg.org/ebooks/42977
A Catalogue of Books Published by Methuen and Company, February, 1908|Methuen & Co.|http://www.gutenberg.org/ebooks/36569
A Catalogue of Books Published by Methuen and Co., October 1909|Methuen & Co.|http://www.gutenberg.org/ebooks/37796
A Catalogue of Books and Announcements of Methuen and Company, October 1902|Methuen & Co.|http://www.gutenberg.org/ebooks/46506
A Catalogue of Books and Announcements of Methuen and Company, March 1897|Methuen & Co.|http://www.gutenberg.org/ebooks/46507
A List of Educational Works Published by Methuen & Company - June 1900|Methuen & Co.|http://www.gutenberg.org/ebooks/47779
A Catalogue of Books Published by Methuen and Company, November 1907|Methuen & Co.|http://www.gutenberg.org/ebooks/55595
A Selection of Books Published by Methuen and Co. Ltd. London, June 1919.|Methuen & Co.|http://www.gutenberg.org/ebooks/59969
The Poetical Works of John Milton|Milton, John|http://www.gutenberg.org/ebooks/1745
Milton's Comus|Milton, John|http://www.gutenberg.org/ebooks/19819
Paradise Lost|Milton, John|http://www.gutenberg.org/ebooks/20
"An Introduction to the Prose and Poetical Works of John Milton
Comprising All the Autobiographic Passages in His Works, the More Explicit Presentations of His Ideas of True Liberty."|Milton, John|http://www.gutenberg.org/ebooks/44733
Poemata : Latin, Greek and Italian Poems by John Milton|Milton, John|http://www.gutenberg.org/ebooks/6929
Paradise Lost|Milton, John|http://www.gutenberg.org/ebooks/26
Milton: Minor Poems|Milton, John|http://www.gutenberg.org/ebooks/31706
L'Allegro, Il Penseroso, Comus, and Lycidas|Milton, John|http://www.gutenberg.org/ebooks/397
Paradise Regained|Milton, John|http://www.gutenberg.org/ebooks/58
"Areopagitica
A Speech for the Liberty of Unlicensed Printing to the Parliament of England"|Milton, John|http://www.gutenberg.org/ebooks/608
Doom Castle|Munro, Neil|http://www.gutenberg.org/ebooks/21333
Gilian The Dreamer: His Fancy, His Love and Adventure|Munro, Neil|http://www.gutenberg.org/ebooks/22211
John Splendid: The Tale of a Poor Gentleman, and the Little Wars of Lorn|Munro, Neil|http://www.gutenberg.org/ebooks/22321
The Lost Pibroch, and other Sheiling Stories|Munro, Neil|http://www.gutenberg.org/ebooks/43729
Bud: A Novel|Munro, Neil|http://www.gutenberg.org/ebooks/43731
The Shoes of Fortune|Munro, Neil|http://www.gutenberg.org/ebooks/43732
Erchie, My Droll Friend|Munro, Neil|http://www.gutenberg.org/ebooks/47991
The Daft Days|Munro, Neil|http://www.gutenberg.org/ebooks/49906
Jaunty Jock, and Other Stories|Munro, Neil|http://www.gutenberg.org/ebooks/50438
"Index for Works of Neil Munro
Hyperlinks to all Chapters of all Individual Ebooks"|Munro, Neil|http://www.gutenberg.org/ebooks/57542
Memories: A Story of German Love|Müller, F. Max (Friedrich Max)|http://www.gutenberg.org/ebooks/14521
"India: What can it teach us?
A Course of Lectures Delivered before the University Of Cambridge"|Müller, F. Max (Friedrich Max)|http://www.gutenberg.org/ebooks/20847
"Thoughts on Life and Religion
An Aftermath from the Writings of The Right Honourable Professor Max Müller"|Müller, F. Max (Friedrich Max)|http://www.gutenberg.org/ebooks/45122
The Silesian Horseherd - Questions of the Hour|Müller, F. Max (Friedrich Max)|http://www.gutenberg.org/ebooks/24315
"Chips from a German Workshop, Volume 1
Essays on the Science of Religion"|Müller, F. Max (Friedrich Max)|http://www.gutenberg.org/ebooks/24686
"Chips from a German Workshop, Volume 3
Essays on Literature, Biography, and Antiquities"|Müller, F. Max (Friedrich Max)|http://www.gutenberg.org/ebooks/26572
"Chips from a German Workshop, Volume 5
Miscellaneous Later Essays"|Müller, F. Max (Friedrich Max)|http://www.gutenberg.org/ebooks/27810
"Chips from a German Workshop, Volume 4
Essays Chiefly on the Science of Language"|Müller, F. Max (Friedrich Max)|http://www.gutenberg.org/ebooks/30192
My Autobiography: A Fragment|Müller, F. Max (Friedrich Max)|http://www.gutenberg.org/ebooks/30269
Lectures on the Science of Language|Müller, F. Max (Friedrich Max)|http://www.gutenberg.org/ebooks/32856
Vandover and the Brute|Norris, Frank|http://www.gutenberg.org/ebooks/14712
A Man's Woman|Norris, Frank|http://www.gutenberg.org/ebooks/16096
McTeague: A Story of San Francisco|Norris, Frank|http://www.gutenberg.org/ebooks/165
The Pit: A Story of Chicago|Norris, Frank|http://www.gutenberg.org/ebooks/4382
"The Surrender of Santiago
An Account of the Historic Surrender of Santiago to General
Shafter, July 17, 1898"|Norris, Frank|http://www.gutenberg.org/ebooks/26026
The Octopus : A Story of California|Norris, Frank|http://www.gutenberg.org/ebooks/268
Moran of the Lady Letty|Norris, Frank|http://www.gutenberg.org/ebooks/321
Blix|Norris, Frank|http://www.gutenberg.org/ebooks/401
A Deal in Wheat and Other Stories of the New and Old West|Norris, Frank|http://www.gutenberg.org/ebooks/9905
The Third Circle|Norris, Frank|http://www.gutenberg.org/ebooks/48620
The Sorcery Club|O'Donnell, Elliott|http://www.gutenberg.org/ebooks/14317
Animal Ghosts; Or, Animal Hauntings and the Hereafter|O'Donnell, Elliott|http://www.gutenberg.org/ebooks/18233
Scottish Ghost Stories|O'Donnell, Elliott|http://www.gutenberg.org/ebooks/20034
Haunted Places in England|O'Donnell, Elliott|http://www.gutenberg.org/ebooks/44397
Werwolves|O'Donnell, Elliott|http://www.gutenberg.org/ebooks/26629
Byways of Ghost-Land|O'Donnell, Elliott|http://www.gutenberg.org/ebooks/30440
The Banshee|O'Donnell, Elliott|http://www.gutenberg.org/ebooks/34263
Ghostly Phenomena|O'Donnell, Elliott|http://www.gutenberg.org/ebooks/40823
Twenty Years' Experience as a Ghost Hunter|O'Donnell, Elliott|http://www.gutenberg.org/ebooks/50775
Some Haunted Houses of England & Wales.|O'Donnell, Elliott|http://www.gutenberg.org/ebooks/51568
Ontario Teachers' Manuals: History|Ontario. Department of Education|http://www.gutenberg.org/ebooks/17268
Ontario Normal School Manuals: Science of Education|Ontario. Department of Education|http://www.gutenberg.org/ebooks/18451
The Ontario Readers: Third Book|Ontario. Department of Education|http://www.gutenberg.org/ebooks/18561
The Ontario Readers: Fourth Book|Ontario. Department of Education|http://www.gutenberg.org/ebooks/18702
The Ontario Readers: The High School Reader, 1886|Ontario. Department of Education|http://www.gutenberg.org/ebooks/19923
Ontario Teachers' Manuals: Household Science in Rural Schools|Ontario. Department of Education|http://www.gutenberg.org/ebooks/20557
Ontario Teachers' Manuals: Household Management|Ontario. Department of Education|http://www.gutenberg.org/ebooks/24656
Ontario Teachers' Manuals: Literature|Ontario. Department of Education|http://www.gutenberg.org/ebooks/24974
Ontario Teachers' Manuals: Nature Study|Ontario. Department of Education|http://www.gutenberg.org/ebooks/26139
The Ontario Readers: Third Reader|Ontario. Department of Education|http://www.gutenberg.org/ebooks/51707
Bert Lloyd's Boyhood: A Story from Nova Scotia|Oxley, J. Macdonald (James Macdonald)|http://www.gutenberg.org/ebooks/25358
The Wreckers of Sable Island|Oxley, J. Macdonald (James Macdonald)|http://www.gutenberg.org/ebooks/33714
Donalblane of Darien|Oxley, J. Macdonald (James Macdonald)|http://www.gutenberg.org/ebooks/33722
Ti-Ti-Pu: A Boy of Red River|Oxley, J. Macdonald (James Macdonald)|http://www.gutenberg.org/ebooks/33740
In Paths of Peril: A Boy's Adventures in Nova Scotia|Oxley, J. Macdonald (James Macdonald)|http://www.gutenberg.org/ebooks/33753
Terry's Trials and Triumphs|Oxley, J. Macdonald (James Macdonald)|http://www.gutenberg.org/ebooks/33754
The Young Woodsman; Or, Life in the Forests of Canada|Oxley, J. Macdonald (James Macdonald)|http://www.gutenberg.org/ebooks/9968
My Strange Rescue, and Other Stories of Sport and Adventure in Canada|Oxley, J. Macdonald (James Macdonald)|http://www.gutenberg.org/ebooks/51308
With Rogers on the Frontier: A Story of 1756|Oxley, J. Macdonald (James Macdonald)|http://www.gutenberg.org/ebooks/53560
The Family on Wheels|Oxley, J. Macdonald (James Macdonald)|http://www.gutenberg.org/ebooks/55891
The Precipice: A Novel|Peattie, Elia Wilkinson|http://www.gutenberg.org/ebooks/12177
Painted Windows|Peattie, Elia Wilkinson|http://www.gutenberg.org/ebooks/1875
The Shape of Fear|Peattie, Elia Wilkinson|http://www.gutenberg.org/ebooks/1876
A Mountain Woman|Peattie, Elia Wilkinson|http://www.gutenberg.org/ebooks/1877
"A Michigan Man
1891"|Peattie, Elia Wilkinson|http://www.gutenberg.org/ebooks/23176
Poems You Ought to Know|Peattie, Elia Wilkinson|http://www.gutenberg.org/ebooks/53415
Azalea: The Story of a Little Girl in the Blue Ridge Mountains|Peattie, Elia Wilkinson|http://www.gutenberg.org/ebooks/53727
Annie Laurie and Azalea|Peattie, Elia Wilkinson|http://www.gutenberg.org/ebooks/53975
Azalea at Sunset Gap|Peattie, Elia Wilkinson|http://www.gutenberg.org/ebooks/54813
Azalea's Silver Web|Peattie, Elia Wilkinson|http://www.gutenberg.org/ebooks/55304
Peck's Bad Boy with the Circus|Peck, George W. (George Wilbur)|http://www.gutenberg.org/ebooks/10212
"Peck's Compendium of Fun
Comprising the Choicest Gems of Wit, Humor, Sarcasm and Pathos of America's Favorite Humorist"|Peck, George W. (George Wilbur)|http://www.gutenberg.org/ebooks/14815
Peck's Bad Boy with the Cowboys|Peck, George W. (George Wilbur)|http://www.gutenberg.org/ebooks/6141
"Peck's Bad Boy and His Pa
1883"|Peck, George W. (George Wilbur)|http://www.gutenberg.org/ebooks/25487
"The Grocery Man And Peck's Bad Boy
Peck's Bad Boy and His Pa, No. 2 - 1883"|Peck, George W. (George Wilbur)|http://www.gutenberg.org/ebooks/25488
"Peck's Bad Boy Abroad
Being a Humorous Description of the Bad Boy and His Dad
in Their Journeys Through Foreign Lands - 1904"|Peck, George W. (George Wilbur)|http://www.gutenberg.org/ebooks/25489
"Peck's Uncle Ike and The Red Headed Boy
1899"|Peck, George W. (George Wilbur)|http://www.gutenberg.org/ebooks/25490
"Peck's Sunshine
Being a Collection of Articles Written for Peck's Sun,
Milwaukee, Wis. - 1882"|Peck, George W. (George Wilbur)|http://www.gutenberg.org/ebooks/25491
"How Private George W. Peck Put Down the Rebellion
or, The Funny Experiences of a Raw Recruit - 1887"|Peck, George W. (George Wilbur)|http://www.gutenberg.org/ebooks/25492
"Works of George W. Peck
A Linked Index to the Project Gutenberg Editions of the ""Bad Boy"" Series and Others"|Peck, George W. (George Wilbur)|http://www.gutenberg.org/ebooks/28970
Mary Wollstonecraft|Pennell, Elizabeth Robins|http://www.gutenberg.org/ebooks/22800
The Feasts of Autolycus: The Diary of a Greedy Woman|Pennell, Elizabeth Robins|http://www.gutenberg.org/ebooks/41696
Nights: Rome, Venice, in the Aesthetic Eighties; London, Paris, in the Fighting Nineties|Pennell, Elizabeth Robins|http://www.gutenberg.org/ebooks/24452
A Canterbury Pilgrimage|Pennell, Elizabeth Robins|http://www.gutenberg.org/ebooks/36383
Our Philadelphia|Pennell, Elizabeth Robins|http://www.gutenberg.org/ebooks/38076
Our House and London out of Our Windows|Pennell, Elizabeth Robins|http://www.gutenberg.org/ebooks/38749
Our Journey to the Hebrides|Pennell, Elizabeth Robins|http://www.gutenberg.org/ebooks/39026
The Life of James McNeill Whistler|Pennell, Elizabeth Robins|http://www.gutenberg.org/ebooks/47363
Two Pilgrims' Progress; from fair Florence, to the eternal city of Rome|Pennell, Elizabeth Robins|http://www.gutenberg.org/ebooks/49831
"Our sentimental journey through France and Italy
A new edition with Appendix"|Pennell, Elizabeth Robins|http://www.gutenberg.org/ebooks/56438
The Gallery|Phillips, Rog|http://www.gutenberg.org/ebooks/26936
Unthinkable|Phillips, Rog|http://www.gutenberg.org/ebooks/27491
The Unthinking Destroyer|Phillips, Rog|http://www.gutenberg.org/ebooks/30683
The Old Martians|Phillips, Rog|http://www.gutenberg.org/ebooks/32590
Ye of Little Faith|Phillips, Rog|http://www.gutenberg.org/ebooks/32663
Cube Root of Conquest|Phillips, Rog|http://www.gutenberg.org/ebooks/32712
Tillie|Phillips, Rog|http://www.gutenberg.org/ebooks/32802
Game Preserve|Phillips, Rog|http://www.gutenberg.org/ebooks/60393
Captain Peabody|Phillips, Rog|http://www.gutenberg.org/ebooks/60442
Rat in the Skull|Phillips, Rog|http://www.gutenberg.org/ebooks/60614
The Day of the Boomer Dukes|Pohl, Frederik|http://www.gutenberg.org/ebooks/22559
The Hated|Pohl, Frederik|http://www.gutenberg.org/ebooks/29503
Pythias|Pohl, Frederik|http://www.gutenberg.org/ebooks/30399
The Tunnel Under the World|Pohl, Frederik|http://www.gutenberg.org/ebooks/31979
The Knights of Arthur|Pohl, Frederik|http://www.gutenberg.org/ebooks/32004
My Lady Greensleeves|Pohl, Frederik|http://www.gutenberg.org/ebooks/51310
Search the Sky|Pohl, Frederik|http://www.gutenberg.org/ebooks/52228
Plague of Pythons|Pohl, Frederik|http://www.gutenberg.org/ebooks/51804
Survival Kit|Pohl, Frederik|http://www.gutenberg.org/ebooks/51809
Wolfbane|Pohl, Frederik|http://www.gutenberg.org/ebooks/51845
The Daughter of the Commandant|Pushkin, Aleksandr Sergeevich|http://www.gutenberg.org/ebooks/13511
The Queen Of Spades|Pushkin, Aleksandr Sergeevich|http://www.gutenberg.org/ebooks/23058
Marie; a story of Russian love|Pushkin, Aleksandr Sergeevich|http://www.gutenberg.org/ebooks/4344
"Eugene Oneguine [Onegin]
A Romance of Russian Life in Verse"|Pushkin, Aleksandr Sergeevich|http://www.gutenberg.org/ebooks/23997
Boris Godunov: a drama in verse|Pushkin, Aleksandr Sergeevich|http://www.gutenberg.org/ebooks/5089
"Poems
With Introduction and Notes"|Pushkin, Aleksandr Sergeevich|http://www.gutenberg.org/ebooks/54991
The Queen of Spades, and other stories|Pushkin, Aleksandr Sergeevich|http://www.gutenberg.org/ebooks/55024
The Prose Tales of Alexander Pushkin|Pushkin, Aleksandr Sergeevich|http://www.gutenberg.org/ebooks/55219
Index of the Project Gutenberg Works of Aleksandr Pushkin|Pushkin, Aleksandr Sergeevich|http://www.gutenberg.org/ebooks/58272
Index of the Project Gutenberg Works of Alexander Pushkin|Pushkin, Aleksandr Sergeevich|http://www.gutenberg.org/ebooks/59194
Ancient Egypt|Rawlinson, George|http://www.gutenberg.org/ebooks/15663
"The Seven Great Monarchies Of The Ancient Eastern World, Vol 1: Chaldaea
The History, Geography, And Antiquities Of Chaldaea, Assyria, Babylon, Media, Persia, Parthia, And Sassanian or New Persian Empire; With Maps and Illustrations."|Rawlinson, George|http://www.gutenberg.org/ebooks/16161
"The Seven Great Monarchies Of The Ancient Eastern World, Vol 2: Assyria
The History, Geography, And Antiquities Of Chaldaea, Assyria, Babylon, Media, Persia, Parthia, And Sassanian or New Persian Empire; With Maps and Illustrations."|Rawlinson, George|http://www.gutenberg.org/ebooks/16162
"The Seven Great Monarchies Of The Ancient Eastern World, Vol 3: Media
The History, Geography, And Antiquities Of Chaldaea, Assyria, Babylon, Media, Persia, Parthia, And Sassanian or New Persian Empire; With Maps and Illustrations."|Rawlinson, George|http://www.gutenberg.org/ebooks/16163
"The Seven Great Monarchies Of The Ancient Eastern World, Vol 4: Babylon
The History, Geography, And Antiquities Of Chaldaea, Assyria, Babylon, Media, Persia, Parthia, And Sassanian or New Persian Empire; With Maps and Illustrations."|Rawlinson, George|http://www.gutenberg.org/ebooks/16164
"The Seven Great Monarchies Of The Ancient Eastern World, Vol 5: Persia
The History, Geography, And Antiquities Of Chaldaea, Assyria, Babylon, Media, Persia, Parthia, And Sassanian or New Persian Empire; With Maps and Illustrations."|Rawlinson, George|http://www.gutenberg.org/ebooks/16165
"The Seven Great Monarchies Of The Ancient Eastern World, Vol 6: Parthia
The History, Geography, And Antiquities Of Chaldaea, Assyria, Babylon, Media, Persia, Parthia, And Sassanian or New Persian Empire; With Maps and Illustrations."|Rawlinson, George|http://www.gutenberg.org/ebooks/16166
"The Seven Great Monarchies Of The Ancient Eastern World, Vol 7: The Sassanian or New Persian Empire
The History, Geography, And Antiquities Of Chaldaea, Assyria, Babylon, Media, Persia, Parthia, And Sassanian or New Persian Empire; With Maps and Illustrations."|Rawlinson, George|http://www.gutenberg.org/ebooks/16167
History of Phoenicia|Rawlinson, George|http://www.gutenberg.org/ebooks/2331
"The Seven Great Monarchies of the Ancient Asian World
A Linked Index to the Project Gutenberg Editions"|Rawlinson, George|http://www.gutenberg.org/ebooks/28871
The Colossus: A Novel|Read, Opie Percival|http://www.gutenberg.org/ebooks/15073
The Starbucks|Read, Opie Percival|http://www.gutenberg.org/ebooks/18984
An Arkansas Planter|Read, Opie Percival|http://www.gutenberg.org/ebooks/19107
Old Ebenezer|Read, Opie Percival|http://www.gutenberg.org/ebooks/23215
Up Terrapin River|Read, Opie Percival|http://www.gutenberg.org/ebooks/44879
The Jucklins: A Novel|Read, Opie Percival|http://www.gutenberg.org/ebooks/26499
A Yankee from the West: A Novel|Read, Opie Percival|http://www.gutenberg.org/ebooks/33773
Bolanyo|Read, Opie Percival|http://www.gutenberg.org/ebooks/38826
Judge Elbridge|Read, Opie Percival|http://www.gutenberg.org/ebooks/46699
My Young Master: A Novel|Read, Opie Percival|http://www.gutenberg.org/ebooks/59834
Sandy|Rice, Alice Caldwell Hegan|http://www.gutenberg.org/ebooks/14079
The Honorable Percival|Rice, Alice Caldwell Hegan|http://www.gutenberg.org/ebooks/15180
Miss Mink's Soldier and Other Stories|Rice, Alice Caldwell Hegan|http://www.gutenberg.org/ebooks/15230
Quin|Rice, Alice Caldwell Hegan|http://www.gutenberg.org/ebooks/20033
Mrs. Wiggs of the Cabbage Patch|Rice, Alice Caldwell Hegan|http://www.gutenberg.org/ebooks/4377
A Romance of Billy-Goat Hill|Rice, Alice Caldwell Hegan|http://www.gutenberg.org/ebooks/6635
Mr. Opp|Rice, Alice Caldwell Hegan|http://www.gutenberg.org/ebooks/25070
Captain June|Rice, Alice Caldwell Hegan|http://www.gutenberg.org/ebooks/38228
Calvary Alley|Rice, Alice Caldwell Hegan|http://www.gutenberg.org/ebooks/9794
Lovey Mary|Rice, Alice Caldwell Hegan|http://www.gutenberg.org/ebooks/5970
Wau-nan-gee; Or, the Massacre at Chicago: A Romance of the American Revolution|Richardson, Major (John)|http://www.gutenberg.org/ebooks/31745
Matilda Montgomerie; Or, The Prophecy Fulfilled|Richardson, Major (John)|http://www.gutenberg.org/ebooks/39758
Wacousta : a tale of the Pontiac conspiracy — Volume 1|Richardson, Major (John)|http://www.gutenberg.org/ebooks/4719
Wacousta : a tale of the Pontiac conspiracy — Volume 2|Richardson, Major (John)|http://www.gutenberg.org/ebooks/4720
Wacousta : a tale of the Pontiac conspiracy — Volume 3|Richardson, Major (John)|http://www.gutenberg.org/ebooks/4911
Wacousta : a tale of the Pontiac conspiracy (Complete)|Richardson, Major (John)|http://www.gutenberg.org/ebooks/4912
The Canadian Brothers; Or, The Prophecy Fulfilled: A Tale of the Late American War — Volume 1|Richardson, Major (John)|http://www.gutenberg.org/ebooks/5106
The Canadian Brothers; Or, The Prophecy Fulfilled: A Tale of the Late American War — Volume 2|Richardson, Major (John)|http://www.gutenberg.org/ebooks/5107
The Canadian Brothers; Or, The Prophecy Fulfilled: A Tale of the Late American War — Complete|Richardson, Major (John)|http://www.gutenberg.org/ebooks/5108
Hardscrabble; or, the fall of Chicago: a tale of Indian warfare|Richardson, Major (John)|http://www.gutenberg.org/ebooks/5169
"Charles Bradlaugh: a Record of His Life and Work, Volume 1 (of 2)
With an Account of his Parliamentary Struggle, Politics and Teachings. Seventh Edition"|Robertson, J. M. (John Mackinnon)|http://www.gutenberg.org/ebooks/45130
"Charles Bradlaugh: a Record of His Life and Work, Volume 2 (of 2)
With an Account of his Parliamentary Struggle, Politics and Teachings. Seventh Edition"|Robertson, J. M. (John Mackinnon)|http://www.gutenberg.org/ebooks/45131
Montaigne and Shakspere|Robertson, J. M. (John Mackinnon)|http://www.gutenberg.org/ebooks/25535
Rationalism|Robertson, J. M. (John Mackinnon)|http://www.gutenberg.org/ebooks/31941
The Evolution of States|Robertson, J. M. (John Mackinnon)|http://www.gutenberg.org/ebooks/39860
The Historical Jesus: A Survey of Positions|Robertson, J. M. (John Mackinnon)|http://www.gutenberg.org/ebooks/51655
"A Short History of Freethought Ancient and Modern, Volume 2 of 2
Third edition, Revised and Expanded, in two volumes"|Robertson, J. M. (John Mackinnon)|http://www.gutenberg.org/ebooks/52160
"A Short History of Christianity
Second Edition, Revised, With Additions"|Robertson, J. M. (John Mackinnon)|http://www.gutenberg.org/ebooks/52550
The Jesus Problem: A Restatement of the Myth Theory|Robertson, J. M. (John Mackinnon)|http://www.gutenberg.org/ebooks/53616
"A Short History of Freethought Ancient and Modern, Volume 1 of 2
Third edition, Revised and Expanded, in two volumes"|Robertson, J. M. (John Mackinnon)|http://www.gutenberg.org/ebooks/51793
Pluck on the Long Trail; Or, Boy Scouts in the Rockies|Sabin, Edwin L. (Edwin Legrand)|http://www.gutenberg.org/ebooks/20710
Gold Seekers of '49|Sabin, Edwin L. (Edwin Legrand)|http://www.gutenberg.org/ebooks/23192
Desert Dust|Sabin, Edwin L. (Edwin Legrand)|http://www.gutenberg.org/ebooks/27437
Boys' Book of Frontier Fighters|Sabin, Edwin L. (Edwin Legrand)|http://www.gutenberg.org/ebooks/31130
Boys' Book of Indian Warriors and Heroic Indian Women|Sabin, Edwin L. (Edwin Legrand)|http://www.gutenberg.org/ebooks/31131
The Pike's Peak Rush; Or, Terry in the New Gold Fields|Sabin, Edwin L. (Edwin Legrand)|http://www.gutenberg.org/ebooks/37943
Beaufort Chums|Sabin, Edwin L. (Edwin Legrand)|http://www.gutenberg.org/ebooks/54887
When You Were a Boy|Sabin, Edwin L. (Edwin Legrand)|http://www.gutenberg.org/ebooks/58165
"With Carson and Frémont
Being the Adventures, in the Years 1842-'43-'44, on Trail Over Mountains and Through Deserts From the East of the Rockies to the West of the Sierras, of Scout Christopher Carson and Lieutenant John Charles Frémont, Leading Their Brave Company Including the Boy Oliver"|Sabin, Edwin L. (Edwin Legrand)|http://www.gutenberg.org/ebooks/59807
"On the Plains with Custer
The Western Life and Deeds of the Chief With the Yellow Hair, Under Whom Served Boy Bugler Ned Fletcher, When in the Troublous Years 1866–1876 the Fighting Seventh Cavalry Helped to Win Pioneer Kansas, Nebraska, and Dakota for White Civilization and Today's Peace"|Sabin, Edwin L. (Edwin Legrand)|http://www.gutenberg.org/ebooks/60157
Blanche: The Maid of Lille|Schubin, Ossip|http://www.gutenberg.org/ebooks/35385
Asbeïn: From the Life of a Virtuoso|Schubin, Ossip|http://www.gutenberg.org/ebooks/35396
"""O Thou, My Austria!"""|Schubin, Ossip|http://www.gutenberg.org/ebooks/35454
Boris Lensky|Schubin, Ossip|http://www.gutenberg.org/ebooks/35491
Countess Erika's Apprenticeship|Schubin, Ossip|http://www.gutenberg.org/ebooks/35531
Erlach Court|Schubin, Ossip|http://www.gutenberg.org/ebooks/35541
Felix Lanzberg's Expiation|Schubin, Ossip|http://www.gutenberg.org/ebooks/35571
The Story of a Genius|Schubin, Ossip|http://www.gutenberg.org/ebooks/35590
'Gloria Victis!' A Romance|Schubin, Ossip|http://www.gutenberg.org/ebooks/35672
Our Own Set: A Novel|Schubin, Ossip|http://www.gutenberg.org/ebooks/35673
The Dragon's Secret|Seaman, Augusta Huiell|http://www.gutenberg.org/ebooks/25770
The Boarded-Up House|Seaman, Augusta Huiell|http://www.gutenberg.org/ebooks/30905
When a Cobbler Ruled the King|Seaman, Augusta Huiell|http://www.gutenberg.org/ebooks/38570
The Girl Next Door|Seaman, Augusta Huiell|http://www.gutenberg.org/ebooks/39896
The Slipper Point Mystery|Seaman, Augusta Huiell|http://www.gutenberg.org/ebooks/39900
The Slipper Point Mystery|Seaman, Augusta Huiell|http://www.gutenberg.org/ebooks/50961
The Crimson Patch|Seaman, Augusta Huiell|http://www.gutenberg.org/ebooks/52509
Three Sides of Paradise Green|Seaman, Augusta Huiell|http://www.gutenberg.org/ebooks/52946
The Sapphire Signet|Seaman, Augusta Huiell|http://www.gutenberg.org/ebooks/55964
Jacqueline of the Carrier Pigeons|Seaman, Augusta Huiell|http://www.gutenberg.org/ebooks/57466
Square Deal Sanderson|Seltzer, Charles Alden|http://www.gutenberg.org/ebooks/16597
The Trail Horde|Seltzer, Charles Alden|http://www.gutenberg.org/ebooks/17477
The Two-Gun Man|Seltzer, Charles Alden|http://www.gutenberg.org/ebooks/19012
The Boss of the Lazy Y|Seltzer, Charles Alden|http://www.gutenberg.org/ebooks/19026
The Range Boss|Seltzer, Charles Alden|http://www.gutenberg.org/ebooks/25754
'Drag' Harlan|Seltzer, Charles Alden|http://www.gutenberg.org/ebooks/25779
'Firebrand' Trevison|Seltzer, Charles Alden|http://www.gutenberg.org/ebooks/26951
The Trail to Yesterday|Seltzer, Charles Alden|http://www.gutenberg.org/ebooks/27051
The Coming of the Law|Seltzer, Charles Alden|http://www.gutenberg.org/ebooks/31512
The Ranchman|Seltzer, Charles Alden|http://www.gutenberg.org/ebooks/37204
"Other Worlds
Their Nature, Possibilities and Habitability in the Light of the Latest Discoveries"|Serviss, Garrett Putman|http://www.gutenberg.org/ebooks/18431
Edison's Conquest of Mars|Serviss, Garrett Putman|http://www.gutenberg.org/ebooks/19141
Edison's Conquest of Mars|Serviss, Garrett Putman|http://www.gutenberg.org/ebooks/21670
Curiosities of the Sky|Serviss, Garrett Putman|http://www.gutenberg.org/ebooks/6630
The Moon Metal|Serviss, Garrett Putman|http://www.gutenberg.org/ebooks/8199
A Columbus of Space|Serviss, Garrett Putman|http://www.gutenberg.org/ebooks/8673
The Second Deluge|Serviss, Garrett Putman|http://www.gutenberg.org/ebooks/9194
"Pleasures of the telescope
An Illustrated Guide for Amateur Astronomers and a Popular Description of the Chief Wonders of the Heavens for General Readers"|Serviss, Garrett Putman|http://www.gutenberg.org/ebooks/28752
"Astronomy with an Opera-glass
A Popular Introduction to the Study of the Starry Heavens with the Simplest of Optical Instruments"|Serviss, Garrett Putman|http://www.gutenberg.org/ebooks/36741
How to Use the Popular Science Library; History of Science; General Index|Serviss, Garrett Putman|http://www.gutenberg.org/ebooks/51133
"The Fourth ""R"""|Smith, George O. (George Oliver)|http://www.gutenberg.org/ebooks/18602
Stop Look and Dig|Smith, George O. (George Oliver)|http://www.gutenberg.org/ebooks/19963
Highways in Hiding|Smith, George O. (George Oliver)|http://www.gutenberg.org/ebooks/20519
The Big Fix|Smith, George O. (George Oliver)|http://www.gutenberg.org/ebooks/23599
History Repeats|Smith, George O. (George Oliver)|http://www.gutenberg.org/ebooks/23884
Instinct|Smith, George O. (George Oliver)|http://www.gutenberg.org/ebooks/23931
Operation Interstellar|Smith, George O. (George Oliver)|http://www.gutenberg.org/ebooks/50406
Amateur in Chancery|Smith, George O. (George Oliver)|http://www.gutenberg.org/ebooks/51681
The Undetected|Smith, George O. (George Oliver)|http://www.gutenberg.org/ebooks/51810
The Troublemakers|Smith, George O. (George Oliver)|http://www.gutenberg.org/ebooks/51868
"The Book of Mormon
An Account Written by the Hand of Mormon, Upon Plates Taken from the Plates of Nephi"|Smith, Joseph, Jr.|http://www.gutenberg.org/ebooks/17
General Smith's Views of the Powers and Policy of the Government of the United States|Smith, Joseph, Jr.|http://www.gutenberg.org/ebooks/45006
The Wentworth Letter|Smith, Joseph, Jr.|http://www.gutenberg.org/ebooks/6720
History of the Church of Jesus Christ of Latter-Day Saints, Volume 1|Smith, Joseph, Jr.|http://www.gutenberg.org/ebooks/47091
History of the Church of Jesus Christ of Latter-day Saints, Volume 2|Smith, Joseph, Jr.|http://www.gutenberg.org/ebooks/47192
History of the Church of Jesus Christ of Latter-day Saints, Volume 3|Smith, Joseph, Jr.|http://www.gutenberg.org/ebooks/47707
The Lectures on Faith|Smith, Joseph, Jr.|http://www.gutenberg.org/ebooks/56684
History of the Church of Jesus Christ of Latter-day Saints, Volume 4|Smith, Joseph, Jr.|http://www.gutenberg.org/ebooks/60708
History of the Church of Jesus Christ of Latter-day Saints, Volume 5|Smith, Joseph, Jr.|http://www.gutenberg.org/ebooks/60736
History of the Church of Jesus Christ of Latter-day Saints, Volume 6|Smith, Joseph, Jr.|http://www.gutenberg.org/ebooks/60758
On the Improvement of the Understanding|Spinoza, Benedictus de|http://www.gutenberg.org/ebooks/1016
Ethics — Part 1|Spinoza, Benedictus de|http://www.gutenberg.org/ebooks/919
Ethics — Part 2|Spinoza, Benedictus de|http://www.gutenberg.org/ebooks/920
Ethics — Part 3|Spinoza, Benedictus de|http://www.gutenberg.org/ebooks/948
The Philosophy of Spinoza|Spinoza, Benedictus de|http://www.gutenberg.org/ebooks/31205
Ethics|Spinoza, Benedictus de|http://www.gutenberg.org/ebooks/3800
Ethics — Part 4|Spinoza, Benedictus de|http://www.gutenberg.org/ebooks/971
Ethics — Part 5|Spinoza, Benedictus de|http://www.gutenberg.org/ebooks/975
Theologico-Political Treatise — Part 1|Spinoza, Benedictus de|http://www.gutenberg.org/ebooks/989
Theologico-Political Treatise — Part 2|Spinoza, Benedictus de|http://www.gutenberg.org/ebooks/990
"Philip Winwood
A Sketch of the Domestic History of an American Captain in the War of Independence; Embracing Events that Occurred between and during the Years 1763 and 1786, in New York and London: written by His Enemy in War, Herbert Russell, Lieutenant in the Loyalist Forces."|Stephens, Robert Neilson|http://www.gutenberg.org/ebooks/15506
Tales from Bohemia|Stephens, Robert Neilson|http://www.gutenberg.org/ebooks/8869
The Mystery of Murray Davenport: A Story of New York at the Present Day|Stephens, Robert Neilson|http://www.gutenberg.org/ebooks/9185
"The Bright Face of Danger
Being an Account of Some Adventures of Henri de Launay, Son of the Sieur de la Tournoire"|Stephens, Robert Neilson|http://www.gutenberg.org/ebooks/30417
"The Continental Dragoon
A Love Story of Philipse Manor-House in 1778"|Stephens, Robert Neilson|http://www.gutenberg.org/ebooks/30589
A Gentleman Player; His Adventures on a Secret Mission for Queen Elizabeth|Stephens, Robert Neilson|http://www.gutenberg.org/ebooks/34650
The Road to Paris: A Story of Adventure|Stephens, Robert Neilson|http://www.gutenberg.org/ebooks/35488
"An Enemy to the King
From the Recently Discovered Memoirs of the Sieur de la Tournoire"|Stephens, Robert Neilson|http://www.gutenberg.org/ebooks/9965
Captain Ravenshaw; Or, The Maid of Cheapside. A Romance of Elizabethan London|Stephens, Robert Neilson|http://www.gutenberg.org/ebooks/47738
The Flight of Georgiana: A Story of Love and Peril in England in 1746|Stephens, Robert Neilson|http://www.gutenberg.org/ebooks/56364
Dracula's Guest|Stoker, Bram|http://www.gutenberg.org/ebooks/10150
The Lair of the White Worm|Stoker, Bram|http://www.gutenberg.org/ebooks/1188
The Mystery of the Sea|Stoker, Bram|http://www.gutenberg.org/ebooks/42455
Dracula|Stoker, Bram|http://www.gutenberg.org/ebooks/45839
The Man|Stoker, Bram|http://www.gutenberg.org/ebooks/2520
The Lady of the Shroud|Stoker, Bram|http://www.gutenberg.org/ebooks/3095
Dracula|Stoker, Bram|http://www.gutenberg.org/ebooks/345
The Jewel of Seven Stars|Stoker, Bram|http://www.gutenberg.org/ebooks/3781
Famous Impostors|Stoker, Bram|http://www.gutenberg.org/ebooks/51391
Index of the Project Gutenberg Works of Bram Stoker|Stoker, Bram|http://www.gutenberg.org/ebooks/59671
Tutt and Mr. Tutt|Train, Arthur Cheney|http://www.gutenberg.org/ebooks/10440
By Advice of Counsel|Train, Arthur Cheney|http://www.gutenberg.org/ebooks/11987
"The ""Goldfish""
Being the Confessions af a Successful Man"|Train, Arthur Cheney|http://www.gutenberg.org/ebooks/12920
True Stories of Crime From the District Attorney's Office|Train, Arthur Cheney|http://www.gutenberg.org/ebooks/13172
The Man Who Rocked the Earth|Train, Arthur Cheney|http://www.gutenberg.org/ebooks/19174
"The Confessions of Artemas Quibble
Being the Ingenuous and Unvarnished History of Artemas Quibble, Esquire, One-Time Practitioner in the New York Criminal Courts, Together with an Account of the Divers Wiles, Tricks, Sophistries, Technicalities, and Sundry Artifices of Himself and Others of the Fraternity, Commonly Yclept ""Shysters"" or ""Shyster Lawyers"""|Train, Arthur Cheney|http://www.gutenberg.org/ebooks/20451
McAllister and His Double|Train, Arthur Cheney|http://www.gutenberg.org/ebooks/34597
Mortmain|Train, Arthur Cheney|http://www.gutenberg.org/ebooks/37346
Courts and Criminals|Train, Arthur Cheney|http://www.gutenberg.org/ebooks/5268
The Prisoner at the Bar: Sidelights on the Administration of Criminal Justice|Train, Arthur Cheney|http://www.gutenberg.org/ebooks/58534
The Rejuvenation of Aunt Mary|Warner, Anne|http://www.gutenberg.org/ebooks/15775
Susan Clegg and Her Friend Mrs. Lathrop|Warner, Anne|http://www.gutenberg.org/ebooks/15899
Susan Clegg and Her Neighbors' Affairs|Warner, Anne|http://www.gutenberg.org/ebooks/18987
Susan Clegg and a Man in the House|Warner, Anne|http://www.gutenberg.org/ebooks/22872
A Woman's Will|Warner, Anne|http://www.gutenberg.org/ebooks/27225
Seeing France with Uncle John|Warner, Anne|http://www.gutenberg.org/ebooks/35574
The Tigress|Warner, Anne|http://www.gutenberg.org/ebooks/37236
Susan Clegg and Her Love Affairs|Warner, Anne|http://www.gutenberg.org/ebooks/37289
In a Mysterious Way|Warner, Anne|http://www.gutenberg.org/ebooks/37515
Sunshine Jane|Warner, Anne|http://www.gutenberg.org/ebooks/37972
Daddy-Long-Legs|Webster, Jean|http://www.gutenberg.org/ebooks/157
Jerry|Webster, Jean|http://www.gutenberg.org/ebooks/20357
Jerry Junior|Webster, Jean|http://www.gutenberg.org/ebooks/20358
Just Patty|Webster, Jean|http://www.gutenberg.org/ebooks/21048
The Four-Pools Mystery|Webster, Jean|http://www.gutenberg.org/ebooks/21264
When Patty Went to College|Webster, Jean|http://www.gutenberg.org/ebooks/21639
Dear Enemy|Webster, Jean|http://www.gutenberg.org/ebooks/238
Much Ado About Peter|Webster, Jean|http://www.gutenberg.org/ebooks/42768
Daddy Long-Legs: A Comedy in Four Acts|Webster, Jean|http://www.gutenberg.org/ebooks/40426
The Wheat Princess|Webster, Jean|http://www.gutenberg.org/ebooks/46761
Stories by American Authors (Volume 4)|Willis, Nathaniel Parker|http://www.gutenberg.org/ebooks/22401
Fugitive Poetry|Willis, Nathaniel Parker|http://www.gutenberg.org/ebooks/32146
"Pencillings by the Way
Written During Some Years of Residence and Travel in Europe"|Willis, Nathaniel Parker|http://www.gutenberg.org/ebooks/39179
Canadian Scenery, Volume 1 (of 2)|Willis, Nathaniel Parker|http://www.gutenberg.org/ebooks/47690
Canadian Scenery, Volume 2 (of 2)|Willis, Nathaniel Parker|http://www.gutenberg.org/ebooks/47691
Summer Cruise in the Mediterranean on board an American frigate|Willis, Nathaniel Parker|http://www.gutenberg.org/ebooks/48264
"Forest, Rock, and Stream
A series of twenty steel line-engravings"|Willis, Nathaniel Parker|http://www.gutenberg.org/ebooks/48283
"American Scenery, Vol. 1 (of 2)
or, Land, lake, and river illustrations of transatlantic nature"|Willis, Nathaniel Parker|http://www.gutenberg.org/ebooks/49042
"American Scenery, Vol. 2 (of 2)
or, Land, lake, and river illustrations of transatlantic nature"|Willis, Nathaniel Parker|http://www.gutenberg.org/ebooks/49043
Famous Persons and Places|Willis, Nathaniel Parker|http://www.gutenberg.org/ebooks/49841
The Eyes of the World|Wright, Harold Bell|http://www.gutenberg.org/ebooks/11715
The Uncrowned King|Wright, Harold Bell|http://www.gutenberg.org/ebooks/12991
When A Man's A Man|Wright, Harold Bell|http://www.gutenberg.org/ebooks/14367
That Printer of Udell's: A Story of the Middle West|Wright, Harold Bell|http://www.gutenberg.org/ebooks/6384
The Winning of Barbara Worth|Wright, Harold Bell|http://www.gutenberg.org/ebooks/6997
The Calling of Dan Matthews|Wright, Harold Bell|http://www.gutenberg.org/ebooks/9314
Helen of the Old House|Wright, Harold Bell|http://www.gutenberg.org/ebooks/9410
The Re-Creation of Brian Kent|Wright, Harold Bell|http://www.gutenberg.org/ebooks/3265
The Shepherd of the Hills|Wright, Harold Bell|http://www.gutenberg.org/ebooks/4735
Their Yesterdays|Wright, Harold Bell|http://www.gutenberg.org/ebooks/6105
