idnum|extra|title|percent|clusterid|real_author|label|filename
0|1289aa|Ruth|100.0|Cluster 0|Elizabeth Cleghorn Gaskell|Elizabeth Cleghorn Gaskell|corpora/baseline/corpus2/pg4275.epub
1|1289aa|SylviasLovers—Complete|0.92|Cluster 0|Elizabeth Cleghorn Gaskell|Elizabeth Cleghorn Gaskell|corpora/baseline/corpus2/pg4537.epub
2|1289aa|MaryBarton|0.63|Cluster 0|Elizabeth Cleghorn Gaskell|Elizabeth Cleghorn Gaskell|corpora/baseline/corpus2/pg2153.epub
3|1289aa|NorthandSouth|0.25|Cluster 0|Elizabeth Cleghorn Gaskell|Elizabeth Cleghorn Gaskell|corpora/baseline/corpus2/pg4276.epub
4|1289aa|Cranford|0.95|Cluster 0|Elizabeth Cleghorn Gaskell|Elizabeth Cleghorn Gaskell|corpora/baseline/corpus2/pg394.epub
0|1289aa|FathersandChildren|100.0|Cluster 1|Ivan Sergeevich Turgenev|Ivan Sergeevich Turgenev|corpora/baseline/corpus2/pg30723.epub
1|1289aa|OntheEveANovel|0.81|Cluster 1|Ivan Sergeevich Turgenev|Ivan Sergeevich Turgenev|corpora/baseline/corpus2/pg6902.epub
2|1289aa|VirginSoil|0.03|Cluster 1|Ivan Sergeevich Turgenev|Ivan Sergeevich Turgenev|corpora/baseline/corpus2/pg2466.epub
3|1289aa|Smoke|0.73|Cluster 1|Ivan Sergeevich Turgenev|Ivan Sergeevich Turgenev|corpora/baseline/corpus2/pg40813.epub
4|1289aa|AHouseofGentlefolk|0.89|Cluster 1|Ivan Sergeevich Turgenev|Ivan Sergeevich Turgenev|corpora/baseline/corpus2/pg5721.epub
5|1289aa|CrimeandPunishment|0.3|Cluster 1|Fyodor Dostoyevsky|Ivan Sergeevich Turgenev|corpora/baseline/corpus2/pg2554.epub
6|1289aa|ThePossessedTheDevils|0.05|Cluster 1|Fyodor Dostoyevsky|Ivan Sergeevich Turgenev|corpora/baseline/corpus2/pg8117.epub
7|1289aa|TheBrothersKaramazov|0.36|Cluster 1|Fyodor Dostoyevsky|Ivan Sergeevich Turgenev|corpora/baseline/corpus2/pg28054.epub
8|1289aa|RudinANovel|0.04|Cluster 1|Ivan Sergeevich Turgenev|Ivan Sergeevich Turgenev|corpora/baseline/corpus2/pg6900.epub
0|1289aa|TheNewcomesMemoirsofaMostRespectableFamily|100.0|Cluster 2|William Makepeace Thackeray|William Makepeace Thackeray|corpora/baseline/corpus2/pg7467.epub
1|1289aa|CatherineAStory|0.75|Cluster 2|William Makepeace Thackeray|William Makepeace Thackeray|corpora/baseline/corpus2/pg1969.epub
2|1289aa|TheHistoryofPendennis|0.92|Cluster 2|William Makepeace Thackeray|William Makepeace Thackeray|corpora/baseline/corpus2/pg7265.epub
3|1289aa|TheHistoryofHenryEsmondEsqaColonelintheServiceofHerMajestyQueenAnne|0.51|Cluster 2|William Makepeace Thackeray|William Makepeace Thackeray|corpora/baseline/corpus2/pg2511.epub
4|1289aa|VanityFair|0.83|Cluster 2|William Makepeace Thackeray|William Makepeace Thackeray|corpora/baseline/corpus2/pg599.epub
5|1289aa|TheVirginians|0.17|Cluster 2|William Makepeace Thackeray|William Makepeace Thackeray|corpora/baseline/corpus2/pg8123.epub
0|1289aa|SenseandSensibility|100.0|Cluster 3|Jane Austen|Jane Austen|corpora/baseline/corpus2/pg161.epub
1|1289aa|MansfieldPark|0.58|Cluster 3|Jane Austen|Jane Austen|corpora/baseline/corpus2/pg141.epub
2|1289aa|NorthangerAbbey|0.8|Cluster 3|Jane Austen|Jane Austen|corpora/baseline/corpus2/pg121.epub
3|1289aa|Emma|0.73|Cluster 3|Jane Austen|Jane Austen|corpora/baseline/corpus2/pg158.epub
4|1289aa|Persuasion|0.61|Cluster 3|Jane Austen|Jane Austen|corpora/baseline/corpus2/pg105.epub
5|1289aa|PrideandPrejudice|0.61|Cluster 3|Jane Austen|Jane Austen|corpora/baseline/corpus2/pg42671.epub
0|1289aa|NicholasNickleby|100.0|Cluster 4|Charles Dickens|Charles Dickens|corpora/baseline/corpus2/pg967.epub
1|1289aa|HardTimes|0.17|Cluster 4|Charles Dickens|Charles Dickens|corpora/baseline/corpus2/pg786.epub
2|1289aa|MartinChuzzlewit|0.85|Cluster 4|Charles Dickens|Charles Dickens|corpora/baseline/corpus2/pg968.epub
3|1289aa|ATaleofTwoCities|0.08|Cluster 4|Charles Dickens|Charles Dickens|corpora/baseline/corpus2/pg98.epub
4|1289aa|BarnabyRudgeATaleoftheRiotsofEighty|0.16|Cluster 4|Charles Dickens|Charles Dickens|corpora/baseline/corpus2/pg917.epub
5|1289aa|OurMutualFriend|0.18|Cluster 4|Charles Dickens|Charles Dickens|corpora/baseline/corpus2/pg883.epub
6|1289aa|DombeyandSon|0.18|Cluster 4|Charles Dickens|Charles Dickens|corpora/baseline/corpus2/pg821.epub
7|1289aa|TheMysteryofEdwinDrood|0.48|Cluster 4|Charles Dickens|Charles Dickens|corpora/baseline/corpus2/pg564.epub
8|1289aa|LittleDorrit|0.59|Cluster 4|Charles Dickens|Charles Dickens|corpora/baseline/corpus2/pg963.epub
9|1289aa|OliverTwist|0.6|Cluster 4|Charles Dickens|Charles Dickens|corpora/baseline/corpus2/pg730.epub
10|1289aa|ThePickwickPapers|0.53|Cluster 4|Charles Dickens|Charles Dickens|corpora/baseline/corpus2/pg580.epub
0|1289aa|SilasMarner|100.0|Cluster 5|George Eliot|George Eliot|corpora/baseline/corpus2/pg550.epub
1|1289aa|FelixHolttheRadical|0.89|Cluster 5|George Eliot|George Eliot|corpora/baseline/corpus2/pg40882.epub
2|1289aa|AdamBede|0.32|Cluster 5|George Eliot|George Eliot|corpora/baseline/corpus2/pg507.epub
3|1289aa|Middlemarch|0.8|Cluster 5|George Eliot|George Eliot|corpora/baseline/corpus2/pg145.epub
4|1289aa|TheMillontheFloss|0.55|Cluster 5|George Eliot|George Eliot|corpora/baseline/corpus2/pg6688.epub
5|1289aa|DanielDeronda|0.72|Cluster 5|George Eliot|George Eliot|corpora/baseline/corpus2/pg7469.epub
6|1289aa|Romola|0.57|Cluster 5|George Eliot|George Eliot|corpora/baseline/corpus2/pg24020.epub
0|1289aa|TheIdiot|100.0|Cluster 6|Fyodor Dostoyevsky|Fyodor Dostoyevsky|corpora/baseline/corpus2/pg2638.epub
