idnum|extra|title|percent|clusterid|real_author|label|filename
0|6209aa|TheBotanicalMagazineVol03OrFlowerGardenDisplayed|100.0|Cluster 0|William Curtis|William Curtis|corpora/multiauthor/corpus_50_filtered/17672.epub
1|6209aa|BuffonsNaturalHistoryVolume09of10ContainingaTheoryoftheEarthaGeneralHistoryofManoftheBruteCreationandofVegetablesMinerals&c&c|0.24|Cluster 0|comte de Georges Louis Leclerc Buffon|William Curtis|corpora/multiauthor/corpus_50_filtered/45867.epub
2|6209aa|LivesofCelebratedWomen|0.04|Cluster 0|Samuel G. Goodrich|William Curtis|corpora/multiauthor/corpus_50_filtered/33273.epub
3|6209aa|BuffonsNaturalHistoryVolume03of10ContainingaTheoryoftheEarthaGeneralHistoryofManoftheBruteCreationandofVegetablesMinerals&c&c|0.62|Cluster 0|comte de Georges Louis Leclerc Buffon|William Curtis|corpora/multiauthor/corpus_50_filtered/45639.epub
4|6209aa|TheCritiqueofPracticalReason|0.06|Cluster 0|Immanuel Kant|William Curtis|corpora/multiauthor/corpus_50_filtered/5683.epub
5|6209aa|OntarioTeachersManualsNatureStudy|0.83|Cluster 0|Ontario. Department of Education|William Curtis|corpora/multiauthor/corpus_50_filtered/26139.epub
6|6209aa|MiltonsTercentenaryAnaddressdeliveredbeforetheModernLanguageClubofYaleUniversityonMiltonsThreeHundredthBirthday|0.09|Cluster 0|Henry A. Beers|William Curtis|corpora/multiauthor/corpus_50_filtered/33248.epub
7|6209aa|TheBotanicalMagazineVol04OrFlowerGardenDisplayed|0.73|Cluster 0|William Curtis|William Curtis|corpora/multiauthor/corpus_50_filtered/17979.epub
8|6209aa|TheSevenGreatMonarchiesOfTheAncientEasternWorldVol4BabylonTheHistoryGeographyAndAntiquitiesOfChaldaeaAssyriaBabylonMediaPersiaParthiaAndSassanianorNewPersianEmpireWithMapsandIllustrations|0.84|Cluster 0|George Rawlinson|William Curtis|corpora/multiauthor/corpus_50_filtered/16164.epub
9|6209aa|OntarioTeachersManualsHouseholdScienceinRuralSchools|0.38|Cluster 0|Ontario. Department of Education|William Curtis|corpora/multiauthor/corpus_50_filtered/20557.epub
10|6209aa|TheSevenGreatMonarchiesOfTheAncientEasternWorldVol3MediaTheHistoryGeographyAndAntiquitiesOfChaldaeaAssyriaBabylonMediaPersiaParthiaAndSassanianorNewPersianEmpireWithMapsandIllustrations|0.75|Cluster 0|George Rawlinson|William Curtis|corpora/multiauthor/corpus_50_filtered/16163.epub
11|6209aa|TheBotanicalMagazineVol02OrFlowerGardenDisplayed|0.62|Cluster 0|William Curtis|William Curtis|corpora/multiauthor/corpus_50_filtered/17531.epub
12|6209aa|TheBotanicalMagazineVol06OrFlowerGardenDisplayed|0.47|Cluster 0|William Curtis|William Curtis|corpora/multiauthor/corpus_50_filtered/21843.epub
13|6209aa|TheBotanicalMagazineVol01OrFlowerGardenDisplayed|0.02|Cluster 0|William Curtis|William Curtis|corpora/multiauthor/corpus_50_filtered/17198.epub
14|6209aa|TheBotanicalMagazineVol05OrFlowerGardenDisplayed|0.18|Cluster 0|William Curtis|William Curtis|corpora/multiauthor/corpus_50_filtered/19123.epub
15|6209aa|OntarioTeachersManualsHouseholdManagement|0.92|Cluster 0|Ontario. Department of Education|William Curtis|corpora/multiauthor/corpus_50_filtered/24656.epub
16|6209aa|TheSevenGreatMonarchiesOfTheAncientEasternWorldVol1ChaldaeaTheHistoryGeographyAndAntiquitiesOfChaldaeaAssyriaBabylonMediaPersiaParthiaAndSassanianorNewPersianEmpireWithMapsandIllustrations|0.99|Cluster 0|George Rawlinson|William Curtis|corpora/multiauthor/corpus_50_filtered/16161.epub
17|6209aa|TheBotanicalMagazineVol08OrFlowerGardenDisplayed|0.04|Cluster 0|William Curtis|William Curtis|corpora/multiauthor/corpus_50_filtered/24670.epub
18|6209aa|BriefHistoryofEnglishandAmericanLiterature|0.58|Cluster 0|Henry A. Beers|William Curtis|corpora/multiauthor/corpus_50_filtered/21090.epub
19|6209aa|TheBotanicalMagazineVol13OrFlowerGardenDisplayed|0.85|Cluster 0|William Curtis|William Curtis|corpora/multiauthor/corpus_50_filtered/43858.epub
20|6209aa|LegendsoftheMadonnaasRepresentedintheFineArts|0.64|Cluster 0|Mrs. Jameson|William Curtis|corpora/multiauthor/corpus_50_filtered/12047.epub
21|6209aa|BuffonsNaturalHistoryVolume01of10ContainingaTheoryoftheEarthaGeneralHistoryofManoftheBruteCreationandofVegetablesMineral&c&c|0.82|Cluster 0|comte de Georges Louis Leclerc Buffon|William Curtis|corpora/multiauthor/corpus_50_filtered/44792.epub
22|6209aa|OntarioTeachersManualsHistory|0.23|Cluster 0|Ontario. Department of Education|William Curtis|corpora/multiauthor/corpus_50_filtered/17268.epub
23|6209aa|TheBotanicalMagazineVol09OrFlowerGardenDisplayed|0.28|Cluster 0|William Curtis|William Curtis|corpora/multiauthor/corpus_50_filtered/38382.epub
24|6209aa|AShortHistoryofChristianitySecondEditionRevisedWithAdditions|0.89|Cluster 0|J. M. Robertson|William Curtis|corpora/multiauthor/corpus_50_filtered/52550.epub
25|6209aa|TheBotanicalMagazineVol07OrFlowerGardenDisplayed|0.15|Cluster 0|William Curtis|William Curtis|corpora/multiauthor/corpus_50_filtered/23579.epub
26|6209aa|BuffonsNaturalHistoryVolume02of10ContainingaTheoryoftheEarthaGeneralHistoryofManoftheBruteCreationandofVegetablesMineral&c&c|0.0|Cluster 0|comte de Georges Louis Leclerc Buffon|William Curtis|corpora/multiauthor/corpus_50_filtered/45602.epub
0|6209aa|InvisibleLinks|100.0|Cluster 1|Selma Lagerlöf|Selma Lagerlöf|corpora/multiauthor/corpus_50_filtered/14273.epub
1|6209aa|SusanCleggandaManintheHouse|0.97|Cluster 1|Anne Warner|Selma Lagerlöf|corpora/multiauthor/corpus_50_filtered/22872.epub
2|6209aa|PaganPapers|0.92|Cluster 1|Kenneth Grahame|Selma Lagerlöf|corpora/multiauthor/corpus_50_filtered/5319.epub
3|6209aa|ThePrisonerattheBarSidelightsontheAdministrationofCriminalJustice|0.84|Cluster 1|Arthur Cheney Train|Selma Lagerlöf|corpora/multiauthor/corpus_50_filtered/58534.epub
4|6209aa|TheBlackBeardedBarbarianTheLifeofGeorgeLeslieMackayofFormosa|0.06|Cluster 1|Mary Esther Miller MacGregor|Selma Lagerlöf|corpora/multiauthor/corpus_50_filtered/1759.epub
5|6209aa|TheStoryofSonnySahib|0.74|Cluster 1|Sara Jeannette Duncan|Selma Lagerlöf|corpora/multiauthor/corpus_50_filtered/4547.epub
6|6209aa|TheRangeBoss|0.92|Cluster 1|Charles Alden Seltzer|Selma Lagerlöf|corpora/multiauthor/corpus_50_filtered/25754.epub
7|6209aa|DaddyLongLegs|0.02|Cluster 1|Jean Webster|Selma Lagerlöf|corpora/multiauthor/corpus_50_filtered/157.epub
8|6209aa|TheGirlNextDoor|0.6|Cluster 1|Augusta Huiell Seaman|Selma Lagerlöf|corpora/multiauthor/corpus_50_filtered/39896.epub
9|6209aa|JanetoftheDunes|0.82|Cluster 1|Harriet T. Comstock|Selma Lagerlöf|corpora/multiauthor/corpus_50_filtered/22998.epub
10|6209aa|MontaigneandShakspere|0.77|Cluster 1|J. M. Robertson|Selma Lagerlöf|corpora/multiauthor/corpus_50_filtered/25535.epub
11|6209aa|"PeterParleysOwnStoryFromthePersonalNarrativeoftheLateSamuelGGoodrich""PeterParley"""|0.29|Cluster 1|Samuel G. Goodrich|Selma Lagerlöf|corpora/multiauthor/corpus_50_filtered/45165.epub
12|6209aa|TheCampFireGirlsatSchoolOrTheWoheloWeavers|0.36|Cluster 1|Hildegard G. Frey|Selma Lagerlöf|corpora/multiauthor/corpus_50_filtered/11718.epub
13|6209aa|AVoyageofConsolationbeinginthenatureofasequeltotheexperiencesofAnAmericangirlinLondon|0.24|Cluster 1|Sara Jeannette Duncan|Selma Lagerlöf|corpora/multiauthor/corpus_50_filtered/15966.epub
14|6209aa|TheCartelsJungle|0.89|Cluster 1|Irving E. Cox|Selma Lagerlöf|corpora/multiauthor/corpus_50_filtered/31062.epub
15|6209aa|TheCampFireGirlsDoTheirBitOrOvertheTopwiththeWinnebagos|0.53|Cluster 1|Hildegard G. Frey|Selma Lagerlöf|corpora/multiauthor/corpus_50_filtered/11664.epub
16|6209aa|TheStoryoftheSiren|0.38|Cluster 1|E. M. Forster|Selma Lagerlöf|corpora/multiauthor/corpus_50_filtered/58581.epub
17|6209aa|TheThreeGodfathers|0.08|Cluster 1|Peter B. Kyne|Selma Lagerlöf|corpora/multiauthor/corpus_50_filtered/51942.epub
18|6209aa|TheSimpleAdventuresofaMemsahib|0.15|Cluster 1|Sara Jeannette Duncan|Selma Lagerlöf|corpora/multiauthor/corpus_50_filtered/56513.epub
19|6209aa|McAllisterandHisDouble|0.18|Cluster 1|Arthur Cheney Train|Selma Lagerlöf|corpora/multiauthor/corpus_50_filtered/34597.epub
20|6209aa|SusanCleggandHerNeighborsAffairs|0.84|Cluster 1|Anne Warner|Selma Lagerlöf|corpora/multiauthor/corpus_50_filtered/18987.epub
21|6209aa|MoranoftheLadyLetty|0.24|Cluster 1|Frank Norris|Selma Lagerlöf|corpora/multiauthor/corpus_50_filtered/321.epub
22|6209aa|WellsBrothersTheYoungCattleKings|0.22|Cluster 1|Andy Adams|Selma Lagerlöf|corpora/multiauthor/corpus_50_filtered/12791.epub
23|6209aa|TheCampFireGirlsontheOpenRoadOrGlorifyWork|0.64|Cluster 1|Hildegard G. Frey|Selma Lagerlöf|corpora/multiauthor/corpus_50_filtered/36485.epub
24|6209aa|ABookofAmericanExplorers|0.88|Cluster 1|Thomas Wentworth Higginson|Selma Lagerlöf|corpora/multiauthor/corpus_50_filtered/56346.epub
25|6209aa|ClotelleATaleoftheSouthernStates|0.25|Cluster 1|William Wells Brown|Selma Lagerlöf|corpora/multiauthor/corpus_50_filtered/2095.epub
26|6209aa|TheCrimsonPatch|0.66|Cluster 1|Augusta Huiell Seaman|Selma Lagerlöf|corpora/multiauthor/corpus_50_filtered/52509.epub
27|6209aa|TheGoldenAge|0.61|Cluster 1|Kenneth Grahame|Selma Lagerlöf|corpora/multiauthor/corpus_50_filtered/53250.epub
28|6209aa|DreamDays|0.79|Cluster 1|Kenneth Grahame|Selma Lagerlöf|corpora/multiauthor/corpus_50_filtered/1288.epub
29|6209aa|TheDesertValley|0.11|Cluster 1|Jackson Gregory|Selma Lagerlöf|corpora/multiauthor/corpus_50_filtered/15502.epub
30|6209aa|AzaleaatSunsetGap|0.75|Cluster 1|Elia Wilkinson Peattie|Selma Lagerlöf|corpora/multiauthor/corpus_50_filtered/54813.epub
31|6209aa|NarrativeofWilliamWBrownaFugitiveSlaveSecondEdition|0.87|Cluster 1|William Wells Brown|Selma Lagerlöf|corpora/multiauthor/corpus_50_filtered/59500.epub
32|6209aa|EdelweissAStory|0.38|Cluster 1|Berthold Auerbach|Selma Lagerlöf|corpora/multiauthor/corpus_50_filtered/33007.epub
33|6209aa|SearchtheSky|0.73|Cluster 1|C. M. Kornbluth|Selma Lagerlöf|corpora/multiauthor/corpus_50_filtered/52228.epub
34|6209aa|TheMan|0.38|Cluster 1|Bram Stoker|Selma Lagerlöf|corpora/multiauthor/corpus_50_filtered/2520.epub
35|6209aa|JoyceoftheNorthWoods|0.23|Cluster 1|Harriet T. Comstock|Selma Lagerlöf|corpora/multiauthor/corpus_50_filtered/19225.epub
36|6209aa|ReedAnthonyCowmanAnAutobiography|0.8|Cluster 1|Andy Adams|Selma Lagerlöf|corpora/multiauthor/corpus_50_filtered/12884.epub
37|6209aa|ADaywithSamuelTaylorColeridge|0.71|Cluster 1|May Byron|Selma Lagerlöf|corpora/multiauthor/corpus_50_filtered/36337.epub
38|6209aa|TheEarthman|0.92|Cluster 1|Irving E. Cox|Selma Lagerlöf|corpora/multiauthor/corpus_50_filtered/59458.epub
39|6209aa|RatintheSkull|0.12|Cluster 1|Rog Phillips|Selma Lagerlöf|corpora/multiauthor/corpus_50_filtered/60614.epub
40|6209aa|AMountainWoman|0.35|Cluster 1|Elia Wilkinson Peattie|Selma Lagerlöf|corpora/multiauthor/corpus_50_filtered/1877.epub
41|6209aa|TheSlipperPointMystery|0.81|Cluster 1|Augusta Huiell Seaman|Selma Lagerlöf|corpora/multiauthor/corpus_50_filtered/50961.epub
42|6209aa|FarOffThings|0.66|Cluster 1|Arthur Machen|Selma Lagerlöf|corpora/multiauthor/corpus_50_filtered/35153.epub
43|6209aa|DaughteroftheSunATaleofAdventure|0.42|Cluster 1|Jackson Gregory|Selma Lagerlöf|corpora/multiauthor/corpus_50_filtered/18916.epub
44|6209aa|DuncanPolitetheWatchmanofGlenoro|0.33|Cluster 1|Mary Esther Miller MacGregor|Selma Lagerlöf|corpora/multiauthor/corpus_50_filtered/28689.epub
45|6209aa|SketchesinCanadaandramblesamongtheredmen|0.61|Cluster 1|Mrs. Jameson|Selma Lagerlöf|corpora/multiauthor/corpus_50_filtered/35224.epub
46|6209aa|CaptainPeabody|0.09|Cluster 1|Rog Phillips|Selma Lagerlöf|corpora/multiauthor/corpus_50_filtered/60442.epub
47|6209aa|TheTwoGunMan|0.0|Cluster 1|Charles Alden Seltzer|Selma Lagerlöf|corpora/multiauthor/corpus_50_filtered/19012.epub
48|6209aa|HildaAStoryofCalcutta|0.81|Cluster 1|Sara Jeannette Duncan|Selma Lagerlöf|corpora/multiauthor/corpus_50_filtered/18051.epub
49|6209aa|VisitsandSketchesatHomeandAbroadVol1of3WithTalesandMiscellaniesNowFirstCollected|0.69|Cluster 1|Mrs. Jameson|Selma Lagerlöf|corpora/multiauthor/corpus_50_filtered/36818.epub
50|6209aa|ThePathofaStar|0.72|Cluster 1|Sara Jeannette Duncan|Selma Lagerlöf|corpora/multiauthor/corpus_50_filtered/5102.epub
51|6209aa|AHistoryofEnglishRomanticismintheEighteenthCentury|0.63|Cluster 1|Henry A. Beers|Selma Lagerlöf|corpora/multiauthor/corpus_50_filtered/15447.epub
52|6209aa|HelenoftheOldHouse|0.54|Cluster 1|Harold Bell Wright|Selma Lagerlöf|corpora/multiauthor/corpus_50_filtered/9410.epub
53|6209aa|MiltonsComus|0.59|Cluster 1|John Milton|Selma Lagerlöf|corpora/multiauthor/corpus_50_filtered/19819.epub
54|6209aa|JosephintheSnowandTheClockmakerInThreeVolumesVolII|0.64|Cluster 1|Berthold Auerbach|Selma Lagerlöf|corpora/multiauthor/corpus_50_filtered/33163.epub
55|6209aa|CharlesBradlaughaRecordofHisLifeandWorkVolume1of2WithanAccountofhisParliamentaryStrugglePoliticsandTeachingsSeventhEdition|0.05|Cluster 1|Hypatia Bradlaugh Bonner|Selma Lagerlöf|corpora/multiauthor/corpus_50_filtered/45130.epub
56|6209aa|ADaywithLudwigBeethoven|0.72|Cluster 1|May Byron|Selma Lagerlöf|corpora/multiauthor/corpus_50_filtered/59672.epub
57|6209aa|TheDiaryofanEnnuyée|0.42|Cluster 1|Mrs. Jameson|Selma Lagerlöf|corpora/multiauthor/corpus_50_filtered/18049.epub
58|6209aa|PrivySealHisLastVenture|0.94|Cluster 1|Ford Madox Ford|Selma Lagerlöf|corpora/multiauthor/corpus_50_filtered/26698.epub
59|6209aa|TheYoungLovellARomance|0.21|Cluster 1|Ford Madox Ford|Selma Lagerlöf|corpora/multiauthor/corpus_50_filtered/42801.epub
60|6209aa|NathanielParkerWillis|0.84|Cluster 1|Henry A. Beers|Selma Lagerlöf|corpora/multiauthor/corpus_50_filtered/53876.epub
61|6209aa|MysteryoftheChineseRingABiffBrewsterMysteryAdventure|0.49|Cluster 1|Andy Adams|Selma Lagerlöf|corpora/multiauthor/corpus_50_filtered/51608.epub
62|6209aa|TheFifthQueenCrowned|0.02|Cluster 1|Ford Madox Ford|Selma Lagerlöf|corpora/multiauthor/corpus_50_filtered/27432.epub
63|6209aa|WaldfriedANovel|0.22|Cluster 1|Berthold Auerbach|Selma Lagerlöf|corpora/multiauthor/corpus_50_filtered/32446.epub
64|6209aa|TheSapphireSignet|0.45|Cluster 1|Augusta Huiell Seaman|Selma Lagerlöf|corpora/multiauthor/corpus_50_filtered/55964.epub
65|6209aa|TheQueenWhoFlewAFairyTale|0.8|Cluster 1|Ford Madox Ford|Selma Lagerlöf|corpora/multiauthor/corpus_50_filtered/52636.epub
66|6209aa|PharosandPharillon|0.72|Cluster 1|E. M. Forster|Selma Lagerlöf|corpora/multiauthor/corpus_50_filtered/61116.epub
67|6209aa|HowardsEnd|0.67|Cluster 1|E. M. Forster|Selma Lagerlöf|corpora/multiauthor/corpus_50_filtered/2946.epub
68|6209aa|TheStoryofGöstaBerling|0.43|Cluster 1|Selma Lagerlöf|Selma Lagerlöf|corpora/multiauthor/corpus_50_filtered/56158.epub
69|6209aa|MantoMan|0.79|Cluster 1|Jackson Gregory|Selma Lagerlöf|corpora/multiauthor/corpus_50_filtered/18933.epub
70|6209aa|Landolin|0.31|Cluster 1|Berthold Auerbach|Selma Lagerlöf|corpora/multiauthor/corpus_50_filtered/33008.epub
71|6209aa|PinnocksimprovededitionofDrGoldsmithsHistoryofRometowhichisprefixedanintroductiontothestudyofRomanhistoryandagreatvarietyofvaluableinformationaddedthroughouttheworkonthemannersinstitutionsandantiquitiesoftheRomanswithnumerousbiographicalandhistoricalnotesandquestionsforexaminationattheendofeachsectionByWmCTaylor|0.27|Cluster 1|Oliver Goldsmith|Selma Lagerlöf|corpora/multiauthor/corpus_50_filtered/16387.epub
72|6209aa|TheUncrownedKing|0.8|Cluster 1|Harold Bell Wright|Selma Lagerlöf|corpora/multiauthor/corpus_50_filtered/12991.epub
73|6209aa|VillaEdenTheCountryHouseontheRhine|0.6|Cluster 1|Berthold Auerbach|Selma Lagerlöf|corpora/multiauthor/corpus_50_filtered/32902.epub
74|6209aa|IllustrativeAnecdotesoftheAnimalKingdom|0.21|Cluster 1|Samuel G. Goodrich|Selma Lagerlöf|corpora/multiauthor/corpus_50_filtered/33687.epub
75|6209aa|ChristLegends|0.52|Cluster 1|Selma Lagerlöf|Selma Lagerlöf|corpora/multiauthor/corpus_50_filtered/44818.epub
76|6209aa|SummerCruiseintheMediterraneanonboardanAmericanfrigate|0.52|Cluster 1|Nathaniel Parker Willis|Selma Lagerlöf|corpora/multiauthor/corpus_50_filtered/48264.epub
77|6209aa|TheWheatPrincess|0.19|Cluster 1|Jean Webster|Selma Lagerlöf|corpora/multiauthor/corpus_50_filtered/46761.epub
78|6209aa|LittleEveEdgarton|0.26|Cluster 1|Eleanor Hallowell Abbott|Selma Lagerlöf|corpora/multiauthor/corpus_50_filtered/15660.epub
79|6209aa|LoveStory|0.05|Cluster 1|Irving E. Cox|Selma Lagerlöf|corpora/multiauthor/corpus_50_filtered/32078.epub
80|6209aa|PecksBadBoywiththeCircus|0.58|Cluster 1|George W. Peck|Selma Lagerlöf|corpora/multiauthor/corpus_50_filtered/10212.epub
81|6209aa|TheInstantofNow|0.0|Cluster 1|Irving E. Cox|Selma Lagerlöf|corpora/multiauthor/corpus_50_filtered/31651.epub
82|6209aa|TheFourPoolsMystery|0.66|Cluster 1|Jean Webster|Selma Lagerlöf|corpora/multiauthor/corpus_50_filtered/21264.epub
83|6209aa|TheSpiderandtheFlyorAnUndesiredLove|0.53|Cluster 1|Charles Garvice|Selma Lagerlöf|corpora/multiauthor/corpus_50_filtered/49537.epub
84|6209aa|TheIndiscreetLetter|0.6|Cluster 1|Eleanor Hallowell Abbott|Selma Lagerlöf|corpora/multiauthor/corpus_50_filtered/15728.epub
85|6209aa|UnderHandicapANovel|0.82|Cluster 1|Jackson Gregory|Selma Lagerlöf|corpora/multiauthor/corpus_50_filtered/17981.epub
86|6209aa|TheHillofDreams|0.99|Cluster 1|Arthur Machen|Selma Lagerlöf|corpora/multiauthor/corpus_50_filtered/13969.epub
87|6209aa|Dracula|0.06|Cluster 1|Bram Stoker|Selma Lagerlöf|corpora/multiauthor/corpus_50_filtered/345.epub
88|6209aa|ClotelleOrTheColoredHeroineataleoftheSouthernStatesOrThePresidentsDaughter|0.77|Cluster 1|William Wells Brown|Selma Lagerlöf|corpora/multiauthor/corpus_50_filtered/241.epub
89|6209aa|StoriesfromtheBalladsToldtotheChildren|0.7|Cluster 1|Mary Esther Miller MacGregor|Selma Lagerlöf|corpora/multiauthor/corpus_50_filtered/22175.epub
90|6209aa|TheThirdCircle|0.43|Cluster 1|Frank Norris|Selma Lagerlöf|corpora/multiauthor/corpus_50_filtered/48620.epub
91|6209aa|ThatPrinterofUdellsAStoryoftheMiddleWest|0.58|Cluster 1|Harold Bell Wright|Selma Lagerlöf|corpora/multiauthor/corpus_50_filtered/6384.epub
92|6209aa|PeterParleysVisittoLondonDuringtheCoronationofQueenVictoria|0.89|Cluster 1|Samuel G. Goodrich|Selma Lagerlöf|corpora/multiauthor/corpus_50_filtered/43995.epub
93|6209aa|ChipsfromaGermanWorkshopVolume3EssaysonLiteratureBiographyandAntiquities|0.56|Cluster 1|F. Max Müller|Selma Lagerlöf|corpora/multiauthor/corpus_50_filtered/26572.epub
94|6209aa|ThePitAStoryofChicago|0.86|Cluster 1|Frank Norris|Selma Lagerlöf|corpora/multiauthor/corpus_50_filtered/4382.epub
95|6209aa|KindredoftheDust|0.3|Cluster 1|Peter B. Kyne|Selma Lagerlöf|corpora/multiauthor/corpus_50_filtered/13532.epub
96|6209aa|TheDragonsSecret|0.77|Cluster 1|Augusta Huiell Seaman|Selma Lagerlöf|corpora/multiauthor/corpus_50_filtered/25770.epub
97|6209aa|TheInheritors|0.27|Cluster 1|Joseph Conrad|Selma Lagerlöf|corpora/multiauthor/corpus_50_filtered/14888.epub
98|6209aa|AlexandriaAHistoryandaGuide|0.68|Cluster 1|E. M. Forster|Selma Lagerlöf|corpora/multiauthor/corpus_50_filtered/57010.epub
99|6209aa|CharlesBradlaughaRecordofHisLifeandWorkVolume2of2WithanAccountofhisParliamentaryStrugglePoliticsandTeachingsSeventhEdition|0.11|Cluster 1|Hypatia Bradlaugh Bonner|Selma Lagerlöf|corpora/multiauthor/corpus_50_filtered/45131.epub
100|6209aa|TheEyesoftheWorld|0.22|Cluster 1|Harold Bell Wright|Selma Lagerlöf|corpora/multiauthor/corpus_50_filtered/11715.epub
101|6209aa|StoriesofKingArthursKnightsToldtotheChildrenbyMaryMacGregor|0.0|Cluster 1|Mary Esther Miller MacGregor|Selma Lagerlöf|corpora/multiauthor/corpus_50_filtered/25654.epub
102|6209aa|TheSilverMaple|0.12|Cluster 1|Mary Esther Miller MacGregor|Selma Lagerlöf|corpora/multiauthor/corpus_50_filtered/28688.epub
103|6209aa|TheTreasure|0.97|Cluster 1|Selma Lagerlöf|Selma Lagerlöf|corpora/multiauthor/corpus_50_filtered/5161.epub
104|6209aa|ThePlaceBeyondtheWinds|0.62|Cluster 1|Harriet T. Comstock|Selma Lagerlöf|corpora/multiauthor/corpus_50_filtered/18488.epub
105|6209aa|MemoirsoftheCourtsofLouisXVandXVI—Volume1BeingsecretmemoirsofMadameDuHaussetladysmaidtoMadamedePompadourandofthePrincessLamballe|0.03|Cluster 1|Mme. Du Hausset|Selma Lagerlöf|corpora/multiauthor/corpus_50_filtered/3876.epub
106|6209aa|TheLongestJourney|0.77|Cluster 1|E. M. Forster|Selma Lagerlöf|corpora/multiauthor/corpus_50_filtered/2604.epub
107|6209aa|TheSickaBedLadyAndAlsoHickoryDockTheVeryTiredGirlTheHappyDaySomethingThatHappenedinOctoberTheAmateurLoverHeartofTheCityThePinkSashWomansOnlyBusiness|0.72|Cluster 1|Eleanor Hallowell Abbott|Selma Lagerlöf|corpora/multiauthor/corpus_50_filtered/34829.epub
108|6209aa|TheWindintheWillows|0.87|Cluster 1|Kenneth Grahame|Selma Lagerlöf|corpora/multiauthor/corpus_50_filtered/27805.epub
109|6209aa|SheStoopstoConquerOrTheMistakesofaNightAComedy|0.58|Cluster 1|Oliver Goldsmith|Selma Lagerlöf|corpora/multiauthor/corpus_50_filtered/383.epub
110|6209aa|OntarioTeachersManualsLiterature|0.79|Cluster 1|Ontario. Department of Education|Selma Lagerlöf|corpora/multiauthor/corpus_50_filtered/24974.epub
111|6209aa|TheShortCut|0.03|Cluster 1|Jackson Gregory|Selma Lagerlöf|corpora/multiauthor/corpus_50_filtered/18950.epub
112|6209aa|VerseandWorse|0.68|Cluster 1|Harry Graham|Selma Lagerlöf|corpora/multiauthor/corpus_50_filtered/36702.epub
113|6209aa|AmericanSceneryVol2of2orLandlakeandriverillustrationsoftransatlanticnature|0.39|Cluster 1|Nathaniel Parker Willis|Selma Lagerlöf|corpora/multiauthor/corpus_50_filtered/49043.epub
114|6209aa|TheJewelofSevenStars|0.1|Cluster 1|Bram Stoker|Selma Lagerlöf|corpora/multiauthor/corpus_50_filtered/3781.epub
115|6209aa|UpTerrapinRiver|0.42|Cluster 1|Opie Percival Read|Selma Lagerlöf|corpora/multiauthor/corpus_50_filtered/44879.epub
116|6209aa|TheShieldofSilence|0.83|Cluster 1|Harriet T. Comstock|Selma Lagerlöf|corpora/multiauthor/corpus_50_filtered/18225.epub
117|6209aa|Bolanyo|0.77|Cluster 1|Opie Percival Read|Selma Lagerlöf|corpora/multiauthor/corpus_50_filtered/38826.epub
118|6209aa|HenryWadsworthLongfellow|0.42|Cluster 1|Thomas Wentworth Higginson|Selma Lagerlöf|corpora/multiauthor/corpus_50_filtered/33402.epub
119|6209aa|Impact|0.39|Cluster 1|Irving E. Cox|Selma Lagerlöf|corpora/multiauthor/corpus_50_filtered/25567.epub
120|6209aa|ThreeSidesofParadiseGreen|0.21|Cluster 1|Augusta Huiell Seaman|Selma Lagerlöf|corpora/multiauthor/corpus_50_filtered/52946.epub
121|6209aa|CourtsandCriminals|0.23|Cluster 1|Arthur Cheney Train|Selma Lagerlöf|corpora/multiauthor/corpus_50_filtered/5268.epub
122|6209aa|OldEbenezer|0.32|Cluster 1|Opie Percival Read|Selma Lagerlöf|corpora/multiauthor/corpus_50_filtered/23215.epub
123|6209aa|TheGreatReturn|0.71|Cluster 1|Arthur Machen|Selma Lagerlöf|corpora/multiauthor/corpus_50_filtered/35611.epub
124|6209aa|SurvivalKit|0.26|Cluster 1|Frederik Pohl|Selma Lagerlöf|corpora/multiauthor/corpus_50_filtered/51809.epub
125|6209aa|TheWorksofCharlesandMaryLamb—Volume2EliaandTheLastEssaysofElia|0.88|Cluster 1|Charles Lamb|Selma Lagerlöf|corpora/multiauthor/corpus_50_filtered/10343.epub
126|6209aa|PecksBadBoyAbroadBeingaHumorousDescriptionoftheBadBoyandHisDadinTheirJourneysThroughForeignLands1904|0.45|Cluster 1|George W. Peck|Selma Lagerlöf|corpora/multiauthor/corpus_50_filtered/25489.epub
127|6209aa|TheTrailtoYesterday|0.95|Cluster 1|Charles Alden Seltzer|Selma Lagerlöf|corpora/multiauthor/corpus_50_filtered/27051.epub
128|6209aa|BlackForestVillageStories|0.28|Cluster 1|Berthold Auerbach|Selma Lagerlöf|corpora/multiauthor/corpus_50_filtered/32517.epub
129|6209aa|ThePoolintheDesert|0.8|Cluster 1|Sara Jeannette Duncan|Selma Lagerlöf|corpora/multiauthor/corpus_50_filtered/1168.epub
130|6209aa|SixFeetFour|0.91|Cluster 1|Jackson Gregory|Selma Lagerlöf|corpora/multiauthor/corpus_50_filtered/15148.epub
131|6209aa|MemoriesAStoryofGermanLove|0.37|Cluster 1|F. Max Müller|Selma Lagerlöf|corpora/multiauthor/corpus_50_filtered/14521.epub
132|6209aa|TheCelestialOmnibusandOtherStories|0.98|Cluster 1|E. M. Forster|Selma Lagerlöf|corpora/multiauthor/corpus_50_filtered/34089.epub
133|6209aa|AWomansWill|0.45|Cluster 1|Anne Warner|Selma Lagerlöf|corpora/multiauthor/corpus_50_filtered/27225.epub
134|6209aa|OnlyaGirlsLove|0.11|Cluster 1|Charles Garvice|Selma Lagerlöf|corpora/multiauthor/corpus_50_filtered/53416.epub
135|6209aa|MuchAdoAboutPeter|0.69|Cluster 1|Jean Webster|Selma Lagerlöf|corpora/multiauthor/corpus_50_filtered/42768.epub
136|6209aa|TheCampFireGirlsLarksandPranksOrTheHouseoftheOpenDoor|0.56|Cluster 1|Hildegard G. Frey|Selma Lagerlöf|corpora/multiauthor/corpus_50_filtered/38934.epub
137|6209aa|TheTerrorAMystery|0.08|Cluster 1|Arthur Machen|Selma Lagerlöf|corpora/multiauthor/corpus_50_filtered/35617.epub
138|6209aa|ALittleDuskyHero|0.27|Cluster 1|Harriet T. Comstock|Selma Lagerlöf|corpora/multiauthor/corpus_50_filtered/31366.epub
139|6209aa|ATexasMatchmaker|0.6|Cluster 1|Andy Adams|Selma Lagerlöf|corpora/multiauthor/corpus_50_filtered/12919.epub
140|6209aa|ADaywithLordByron|0.46|Cluster 1|May Byron|Selma Lagerlöf|corpora/multiauthor/corpus_50_filtered/32990.epub
141|6209aa|AMansWoman|0.24|Cluster 1|Frank Norris|Selma Lagerlöf|corpora/multiauthor/corpus_50_filtered/16096.epub
142|6209aa|TheColossusANovel|0.75|Cluster 1|Opie Percival Read|Selma Lagerlöf|corpora/multiauthor/corpus_50_filtered/15073.epub
143|6209aa|Jerry|0.22|Cluster 1|Jean Webster|Selma Lagerlöf|corpora/multiauthor/corpus_50_filtered/20357.epub
144|6209aa|TheEverlastingWhisper|0.3|Cluster 1|Jackson Gregory|Selma Lagerlöf|corpora/multiauthor/corpus_50_filtered/10213.epub
145|6209aa|TheWinningofBarbaraWorth|0.62|Cluster 1|Harold Bell Wright|Selma Lagerlöf|corpora/multiauthor/corpus_50_filtered/6997.epub
146|6209aa|AnAmericanGirlinLondon|0.24|Cluster 1|Sara Jeannette Duncan|Selma Lagerlöf|corpora/multiauthor/corpus_50_filtered/45925.epub
147|6209aa|TheMiraclesofAntichristANovel|0.4|Cluster 1|Selma Lagerlöf|Selma Lagerlöf|corpora/multiauthor/corpus_50_filtered/54615.epub
148|6209aa|TheGirlfromtheMarshCroft|0.17|Cluster 1|Selma Lagerlöf|Selma Lagerlöf|corpora/multiauthor/corpus_50_filtered/41414.epub
149|6209aa|VisitsandSketchesatHomeandAbroadVol3of3WithTalesandMiscellaniesNowFirstCollected|0.48|Cluster 1|Mrs. Jameson|Selma Lagerlöf|corpora/multiauthor/corpus_50_filtered/36820.epub
150|6209aa|MysteryoftheAmbushinIndiaABiffBrewsterMysteryAdventure|0.91|Cluster 1|Andy Adams|Selma Lagerlöf|corpora/multiauthor/corpus_50_filtered/51830.epub
151|6209aa|TheirYesterdays|0.51|Cluster 1|Harold Bell Wright|Selma Lagerlöf|corpora/multiauthor/corpus_50_filtered/6105.epub
152|6209aa|TheEmperorofPortugallia|0.65|Cluster 1|Selma Lagerlöf|Selma Lagerlöf|corpora/multiauthor/corpus_50_filtered/14356.epub
153|6209aa|TheCampFireGirlsatOnowayHouseOrTheMagicGarden|0.79|Cluster 1|Hildegard G. Frey|Selma Lagerlöf|corpora/multiauthor/corpus_50_filtered/36833.epub
154|6209aa|APassagetoIndia|0.11|Cluster 1|E. M. Forster|Selma Lagerlöf|corpora/multiauthor/corpus_50_filtered/61221.epub
155|6209aa|TheHouseofSouls|0.83|Cluster 1|Arthur Machen|Selma Lagerlöf|corpora/multiauthor/corpus_50_filtered/25016.epub
156|6209aa|TalesfromShakespeare|0.93|Cluster 1|Charles Lamb|Selma Lagerlöf|corpora/multiauthor/corpus_50_filtered/1286.epub
157|6209aa|AdolescentsOnly|0.13|Cluster 1|Irving E. Cox|Selma Lagerlöf|corpora/multiauthor/corpus_50_filtered/32651.epub
158|6209aa|ADaywithJohnMilton|0.52|Cluster 1|May Byron|Selma Lagerlöf|corpora/multiauthor/corpus_50_filtered/40130.epub
159|6209aa|TheCampFireGirlsatCampKeewaydinOrPaddlesDown|0.88|Cluster 1|Hildegard G. Frey|Selma Lagerlöf|corpora/multiauthor/corpus_50_filtered/10688.epub
160|6209aa|TheComingoftheLaw|0.97|Cluster 1|Charles Alden Seltzer|Selma Lagerlöf|corpora/multiauthor/corpus_50_filtered/31512.epub
161|6209aa|TheBossoftheLazyY|0.31|Cluster 1|Charles Alden Seltzer|Selma Lagerlöf|corpora/multiauthor/corpus_50_filtered/19026.epub
162|6209aa|WildMargaret|0.33|Cluster 1|Charles Garvice|Selma Lagerlöf|corpora/multiauthor/corpus_50_filtered/44828.epub
163|6209aa|TheHeadswoman|0.08|Cluster 1|Kenneth Grahame|Selma Lagerlöf|corpora/multiauthor/corpus_50_filtered/34243.epub
164|6209aa|InitialStudiesinAmericanLetters|0.41|Cluster 1|Henry A. Beers|Selma Lagerlöf|corpora/multiauthor/corpus_50_filtered/15854.epub
165|6209aa|ASonoftheHills|0.82|Cluster 1|Harriet T. Comstock|Selma Lagerlöf|corpora/multiauthor/corpus_50_filtered/20424.epub
166|6209aa|OldDad|0.93|Cluster 1|Eleanor Hallowell Abbott|Selma Lagerlöf|corpora/multiauthor/corpus_50_filtered/48990.epub
167|6209aa|TheRanchman|0.24|Cluster 1|Charles Alden Seltzer|Selma Lagerlöf|corpora/multiauthor/corpus_50_filtered/37204.epub
168|6209aa|DaddyLongLegsAComedyinFourActs|0.94|Cluster 1|Jean Webster|Selma Lagerlöf|corpora/multiauthor/corpus_50_filtered/40426.epub
169|6209aa|TheRejuvenationofAuntMary|0.42|Cluster 1|Anne Warner|Selma Lagerlöf|corpora/multiauthor/corpus_50_filtered/15775.epub
170|6209aa|TheBrownOwlAFairyStory|0.43|Cluster 1|Ford Madox Ford|Selma Lagerlöf|corpora/multiauthor/corpus_50_filtered/48860.epub
171|6209aa|AYankeefromtheWestANovel|0.17|Cluster 1|Opie Percival Read|Selma Lagerlöf|corpora/multiauthor/corpus_50_filtered/33773.epub
172|6209aa|InaMysteriousWay|0.32|Cluster 1|Anne Warner|Selma Lagerlöf|corpora/multiauthor/corpus_50_filtered/37515.epub
173|6209aa|TheLairoftheWhiteWorm|0.98|Cluster 1|Bram Stoker|Selma Lagerlöf|corpora/multiauthor/corpus_50_filtered/1188.epub
174|6209aa|RainyWeek|0.36|Cluster 1|Eleanor Hallowell Abbott|Selma Lagerlöf|corpora/multiauthor/corpus_50_filtered/43025.epub
175|6209aa|CuriositiesofHumanNature|0.58|Cluster 1|Samuel G. Goodrich|Selma Lagerlöf|corpora/multiauthor/corpus_50_filtered/39333.epub
176|6209aa|TheCallingofDanMatthews|0.75|Cluster 1|Harold Bell Wright|Selma Lagerlöf|corpora/multiauthor/corpus_50_filtered/9314.epub
177|6209aa|FamousPersonsandPlaces|0.47|Cluster 1|Nathaniel Parker Willis|Selma Lagerlöf|corpora/multiauthor/corpus_50_filtered/49841.epub
178|6209aa|PecksCompendiumofFunComprisingtheChoicestGemsofWitHumorSarcasmandPathosofAmericasFavoriteHumorist|0.56|Cluster 1|George W. Peck|Selma Lagerlöf|corpora/multiauthor/corpus_50_filtered/14815.epub
179|6209aa|TheCampFireGirlsGoMotoringOrAlongtheRoadThatLeadstheWay|0.1|Cluster 1|Hildegard G. Frey|Selma Lagerlöf|corpora/multiauthor/corpus_50_filtered/6895.epub
180|6209aa|ThenMarchedtheBrave|0.87|Cluster 1|Harriet T. Comstock|Selma Lagerlöf|corpora/multiauthor/corpus_50_filtered/16156.epub
181|6209aa|FamousMenofAncientTimes|0.89|Cluster 1|Samuel G. Goodrich|Selma Lagerlöf|corpora/multiauthor/corpus_50_filtered/52400.epub
182|6209aa|DraculasGuest|0.55|Cluster 1|Bram Stoker|Selma Lagerlöf|corpora/multiauthor/corpus_50_filtered/10150.epub
183|6209aa|TheGoGetterAStoryThatTellsYouHowtobeOne|0.28|Cluster 1|Peter B. Kyne|Selma Lagerlöf|corpora/multiauthor/corpus_50_filtered/12257.epub
184|6209aa|TheMysteryoftheSea|0.21|Cluster 1|Bram Stoker|Selma Lagerlöf|corpora/multiauthor/corpus_50_filtered/42455.epub
185|6209aa|TheBoardedUpHouse|0.79|Cluster 1|Augusta Huiell Seaman|Selma Lagerlöf|corpora/multiauthor/corpus_50_filtered/30905.epub
186|6209aa|ThePrideofPalomar|0.59|Cluster 1|Peter B. Kyne|Selma Lagerlöf|corpora/multiauthor/corpus_50_filtered/16674.epub
187|6209aa|OntheHeightsANovel|0.35|Cluster 1|Berthold Auerbach|Selma Lagerlöf|corpora/multiauthor/corpus_50_filtered/33294.epub
188|6209aa|TheLadyoftheShroud|0.36|Cluster 1|Bram Stoker|Selma Lagerlöf|corpora/multiauthor/corpus_50_filtered/3095.epub
189|6209aa|FourAmericansRooseveltHawthorneEmersonWhitman|0.23|Cluster 1|Henry A. Beers|Selma Lagerlöf|corpora/multiauthor/corpus_50_filtered/24435.epub
190|6209aa|TheStingyReceiver|0.92|Cluster 1|Eleanor Hallowell Abbott|Selma Lagerlöf|corpora/multiauthor/corpus_50_filtered/49330.epub
191|6209aa|CappyRicksOrtheSubjugationofMattPeasley|0.61|Cluster 1|Peter B. Kyne|Selma Lagerlöf|corpora/multiauthor/corpus_50_filtered/5738.epub
192|6209aa|TheImperialist|0.75|Cluster 1|Sara Jeannette Duncan|Selma Lagerlöf|corpora/multiauthor/corpus_50_filtered/5301.epub
193|6209aa|MamselleJo|0.74|Cluster 1|Harriet T. Comstock|Selma Lagerlöf|corpora/multiauthor/corpus_50_filtered/49361.epub
194|6209aa|TheReCreationofBrianKent|0.38|Cluster 1|Harold Bell Wright|Selma Lagerlöf|corpora/multiauthor/corpus_50_filtered/3265.epub
195|6209aa|TheTigress|0.91|Cluster 1|Anne Warner|Selma Lagerlöf|corpora/multiauthor/corpus_50_filtered/37236.epub
196|6209aa|McTeagueAStoryofSanFrancisco|0.59|Cluster 1|Frank Norris|Selma Lagerlöf|corpora/multiauthor/corpus_50_filtered/165.epub
197|6209aa|SusanCleggandHerLoveAffairs|0.33|Cluster 1|Anne Warner|Selma Lagerlöf|corpora/multiauthor/corpus_50_filtered/37289.epub
198|6209aa|MisrepresentativeWomen|0.22|Cluster 1|Harry Graham|Selma Lagerlöf|corpora/multiauthor/corpus_50_filtered/42407.epub
199|6209aa|JerryJunior|0.22|Cluster 1|Jean Webster|Selma Lagerlöf|corpora/multiauthor/corpus_50_filtered/20358.epub
200|6209aa|PecksUncleIkeandTheRedHeadedBoy1899|0.56|Cluster 1|George W. Peck|Selma Lagerlöf|corpora/multiauthor/corpus_50_filtered/25490.epub
201|6209aa|FromChaucertoTennysonWithTwentyNinePortraitsandSelectionsfromThirtyAuthors|0.6|Cluster 1|Henry A. Beers|Selma Lagerlöf|corpora/multiauthor/corpus_50_filtered/11618.epub
202|6209aa|FairyPrinceandOtherStories|0.42|Cluster 1|Eleanor Hallowell Abbott|Selma Lagerlöf|corpora/multiauthor/corpus_50_filtered/26399.epub
203|6209aa|TheGoodSoldier|0.25|Cluster 1|Ford Madox Ford|Selma Lagerlöf|corpora/multiauthor/corpus_50_filtered/2775.epub
204|6209aa|ADaywithRobertLouisStevenson|0.89|Cluster 1|May Byron|Selma Lagerlöf|corpora/multiauthor/corpus_50_filtered/53165.epub
205|6209aa|ARoomwithaView|0.78|Cluster 1|E. M. Forster|Selma Lagerlöf|corpora/multiauthor/corpus_50_filtered/2641.epub
206|6209aa|FromaSwedishHomestead|0.83|Cluster 1|Selma Lagerlöf|Selma Lagerlöf|corpora/multiauthor/corpus_50_filtered/44630.epub
207|6209aa|StoriesbyAmericanAuthorsVolume4|0.85|Cluster 1|H. C. Bunner|Selma Lagerlöf|corpora/multiauthor/corpus_50_filtered/22401.epub
208|6209aa|Jerusalem|0.71|Cluster 1|Selma Lagerlöf|Selma Lagerlöf|corpora/multiauthor/corpus_50_filtered/15837.epub
209|6209aa|HowPrivateGeorgeWPeckPutDowntheRebellionorTheFunnyExperiencesofaRawRecruit1887|0.01|Cluster 1|George W. Peck|Selma Lagerlöf|corpora/multiauthor/corpus_50_filtered/25492.epub
210|6209aa|MyYoungMasterANovel|0.8|Cluster 1|Opie Percival Read|Selma Lagerlöf|corpora/multiauthor/corpus_50_filtered/59834.epub
211|6209aa|WhenPattyWenttoCollege|0.51|Cluster 1|Jean Webster|Selma Lagerlöf|corpora/multiauthor/corpus_50_filtered/21639.epub
212|6209aa|WhenaCobblerRuledtheKing|0.35|Cluster 1|Augusta Huiell Seaman|Selma Lagerlöf|corpora/multiauthor/corpus_50_filtered/38570.epub
213|6209aa|Wolfbane|0.82|Cluster 1|C. M. Kornbluth|Selma Lagerlöf|corpora/multiauthor/corpus_50_filtered/51845.epub
214|6209aa|TheLogofaCowboyANarrativeoftheOldTrailDays|0.15|Cluster 1|Andy Adams|Selma Lagerlöf|corpora/multiauthor/corpus_50_filtered/12797.epub
215|6209aa|ThePrecipiceANovel|0.7|Cluster 1|Elia Wilkinson Peattie|Selma Lagerlöf|corpora/multiauthor/corpus_50_filtered/12177.epub
216|6209aa|TheOntarioReadersFourthBook|0.24|Cluster 1|Ontario. Department of Education|Selma Lagerlöf|corpora/multiauthor/corpus_50_filtered/18702.epub
217|6209aa|ADaywithWaltWhitman|0.81|Cluster 1|May Byron|Selma Lagerlöf|corpora/multiauthor/corpus_50_filtered/36305.epub
218|6209aa|CattleBrandsACollectionofWesternCampFireStories|0.53|Cluster 1|Andy Adams|Selma Lagerlöf|corpora/multiauthor/corpus_50_filtered/12281.epub
219|6209aa|LizbethoftheDale|0.96|Cluster 1|Mary Esther Miller MacGregor|Selma Lagerlöf|corpora/multiauthor/corpus_50_filtered/28234.epub
220|6209aa|Blix|0.9|Cluster 1|Frank Norris|Selma Lagerlöf|corpora/multiauthor/corpus_50_filtered/401.epub
221|6209aa|PlagueofPythons|0.08|Cluster 1|Frederik Pohl|Selma Lagerlöf|corpora/multiauthor/corpus_50_filtered/51804.epub
222|6209aa|TheLifeofBenjaminFranklinIllustratedbyTalesSketchesandAnecdotes|0.47|Cluster 1|Samuel G. Goodrich|Selma Lagerlöf|corpora/multiauthor/corpus_50_filtered/38469.epub
223|6209aa|JustPatty|0.19|Cluster 1|Jean Webster|Selma Lagerlöf|corpora/multiauthor/corpus_50_filtered/21048.epub
224|6209aa|TalesoftheEnchantedIslandsoftheAtlantic|0.14|Cluster 1|Thomas Wentworth Higginson|Selma Lagerlöf|corpora/multiauthor/corpus_50_filtered/7098.epub
225|6209aa|ADaywithWilliamShakespeare|0.55|Cluster 1|May Byron|Selma Lagerlöf|corpora/multiauthor/corpus_50_filtered/40441.epub
226|6209aa|MemoirsandHistoricalChroniclesoftheCourtsofEuropeMemoirsofMargueritedeValoisQueenofFranceWifeofHenriIVofMadamedePompadouroftheCourtofLouisXVandofCatherinedeMediciQueenofFranceWifeofHenriII|0.72|Cluster 1|Pierre de Bourdeille Brantôme|Selma Lagerlöf|corpora/multiauthor/corpus_50_filtered/12967.epub
227|6209aa|SeeingFrancewithUncleJohn|0.98|Cluster 1|Anne Warner|Selma Lagerlöf|corpora/multiauthor/corpus_50_filtered/35574.epub
228|6209aa|Webster—MansMan|0.72|Cluster 1|Peter B. Kyne|Selma Lagerlöf|corpora/multiauthor/corpus_50_filtered/51987.epub
229|6209aa|TheKnightsofArthur|0.59|Cluster 1|Frederik Pohl|Selma Lagerlöf|corpora/multiauthor/corpus_50_filtered/32004.epub
230|6209aa|TheBlueJarStoryBook|0.45|Cluster 1|Maria Edgeworth|Selma Lagerlöf|corpora/multiauthor/corpus_50_filtered/34470.epub
231|6209aa|TheTunnelUndertheWorld|0.43|Cluster 1|Frederik Pohl|Selma Lagerlöf|corpora/multiauthor/corpus_50_filtered/31979.epub
232|6209aa|AzaleaTheStoryofaLittleGirlintheBlueRidgeMountains|0.8|Cluster 1|Elia Wilkinson Peattie|Selma Lagerlöf|corpora/multiauthor/corpus_50_filtered/53727.epub
233|6209aa|TheLongChance|0.8|Cluster 1|Peter B. Kyne|Selma Lagerlöf|corpora/multiauthor/corpus_50_filtered/6115.epub
234|6209aa|TuttandMrTutt|0.45|Cluster 1|Arthur Cheney Train|Selma Lagerlöf|corpora/multiauthor/corpus_50_filtered/10440.epub
235|6209aa|TreasureValley|0.54|Cluster 1|Mary Esther Miller MacGregor|Selma Lagerlöf|corpora/multiauthor/corpus_50_filtered/29023.epub
236|6209aa|TheTrailHorde|0.82|Cluster 1|Charles Alden Seltzer|Selma Lagerlöf|corpora/multiauthor/corpus_50_filtered/17477.epub
237|6209aa|TheSecretGlory|0.64|Cluster 1|Arthur Machen|Selma Lagerlöf|corpora/multiauthor/corpus_50_filtered/35637.epub
238|6209aa|TheGreatGodPan|0.16|Cluster 1|Arthur Machen|Selma Lagerlöf|corpora/multiauthor/corpus_50_filtered/389.epub
239|6209aa|PecksBadBoywiththeCowboys|0.08|Cluster 1|George W. Peck|Selma Lagerlöf|corpora/multiauthor/corpus_50_filtered/6141.epub
240|6209aa|TheWorksofCharlesandMaryLamb—Volume3BooksforChildren|0.38|Cluster 1|Charles Lamb|Selma Lagerlöf|corpora/multiauthor/corpus_50_filtered/10130.epub
241|6209aa|SquareDealSanderson|0.03|Cluster 1|Charles Alden Seltzer|Selma Lagerlöf|corpora/multiauthor/corpus_50_filtered/16597.epub
242|6209aa|AttheCrossroads|0.22|Cluster 1|Harriet T. Comstock|Selma Lagerlöf|corpora/multiauthor/corpus_50_filtered/30095.epub
243|6209aa|TheNegrointheAmericanRebellionHisHeroismandHisFidelity|0.6|Cluster 1|William Wells Brown|Selma Lagerlöf|corpora/multiauthor/corpus_50_filtered/50130.epub
244|6209aa|TheFeather|0.75|Cluster 1|Ford Madox Ford|Selma Lagerlöf|corpora/multiauthor/corpus_50_filtered/50658.epub
245|6209aa|PecksSunshineBeingaCollectionofArticlesWrittenforPecksSunMilwaukeeWis1882|0.74|Cluster 1|George W. Peck|Selma Lagerlöf|corpora/multiauthor/corpus_50_filtered/25491.epub
246|6209aa|"TheConfessionsofArtemasQuibbleBeingtheIngenuousandUnvarnishedHistoryofArtemasQuibbleEsquireOneTimePractitionerintheNewYorkCriminalCourtsTogetherwithanAccountoftheDiversWilesTricksSophistriesTechnicalitiesandSundryArtificesofHimselfandOthersoftheFraternityCommonlyYclept""Shysters""or""ShysterLawyers"""|0.61|Cluster 1|Arthur Cheney Train|Selma Lagerlöf|corpora/multiauthor/corpus_50_filtered/20451.epub
247|6209aa|TheCampFireGirlsSolveaMysteryOrTheChristmasAdventureatCarverHouse|0.63|Cluster 1|Hildegard G. Frey|Selma Lagerlöf|corpora/multiauthor/corpus_50_filtered/38983.epub
248|6209aa|TheSixFingersofTime|0.0|Cluster 1|R. A. Lafferty|Selma Lagerlöf|corpora/multiauthor/corpus_50_filtered/31663.epub
249|6209aa|TheManWhoRockedtheEarth|0.87|Cluster 1|Arthur Cheney Train|Selma Lagerlöf|corpora/multiauthor/corpus_50_filtered/19174.epub
250|6209aa|PencillingsbytheWayWrittenDuringSomeYearsofResidenceandTravelinEurope|0.84|Cluster 1|Nathaniel Parker Willis|Selma Lagerlöf|corpora/multiauthor/corpus_50_filtered/39179.epub
251|6209aa|TheDayoftheBoomerDukes|0.86|Cluster 1|Frederik Pohl|Selma Lagerlöf|corpora/multiauthor/corpus_50_filtered/22559.epub
252|6209aa|BrazilianGoldMineMysteryABiffBrewsterMysteryAdventure|0.8|Cluster 1|Andy Adams|Selma Lagerlöf|corpora/multiauthor/corpus_50_filtered/51538.epub
253|6209aa|MalboneAnOldportRomance|0.22|Cluster 1|Thomas Wentworth Higginson|Selma Lagerlöf|corpora/multiauthor/corpus_50_filtered/993.epub
254|6209aa|MemoirsoftheCourtsofLouisXVandXVI—Volume3BeingsecretmemoirsofMadameDuHaussetladysmaidtoMadamedePompadourandofthePrincessLamballe|0.89|Cluster 1|Mme. Du Hausset|Selma Lagerlöf|corpora/multiauthor/corpus_50_filtered/3878.epub
255|6209aa|CaptainScraggsOrTheGreenPeaPirates|0.49|Cluster 1|Peter B. Kyne|Selma Lagerlöf|corpora/multiauthor/corpus_50_filtered/18469.epub
256|6209aa|PeterParleysTalesAboutAmericaandAustralia|0.91|Cluster 1|Samuel G. Goodrich|Selma Lagerlöf|corpora/multiauthor/corpus_50_filtered/16891.epub
257|6209aa|TheWorksofCharlesandMaryLamb—Volume1MiscellaneousProse|0.58|Cluster 1|Charles Lamb|Selma Lagerlöf|corpora/multiauthor/corpus_50_filtered/40988.epub
258|6209aa|Mortmain|0.53|Cluster 1|Arthur Cheney Train|Selma Lagerlöf|corpora/multiauthor/corpus_50_filtered/37346.epub
259|6209aa|HisHonourandaLady|0.7|Cluster 1|Sara Jeannette Duncan|Selma Lagerlöf|corpora/multiauthor/corpus_50_filtered/53036.epub
260|6209aa|JudgeElbridge|0.05|Cluster 1|Opie Percival Read|Selma Lagerlöf|corpora/multiauthor/corpus_50_filtered/46699.epub
261|6209aa|VandoverandtheBrute|0.5|Cluster 1|Frank Norris|Selma Lagerlöf|corpora/multiauthor/corpus_50_filtered/14712.epub
262|6209aa|TheAlmostMen|0.71|Cluster 1|Irving E. Cox|Selma Lagerlöf|corpora/multiauthor/corpus_50_filtered/59356.epub
263|6209aa|VisitsandSketchesatHomeandAbroadVol2of3WithTalesandMiscellaniesNowFirstCollected|0.1|Cluster 1|Mrs. Jameson|Selma Lagerlöf|corpora/multiauthor/corpus_50_filtered/36819.epub
264|6209aa|BlackRebellionFiveSlaveRevolts|0.05|Cluster 1|Thomas Wentworth Higginson|Selma Lagerlöf|corpora/multiauthor/corpus_50_filtered/8432.epub
265|6209aa|TheShapeofFear|0.49|Cluster 1|Elia Wilkinson Peattie|Selma Lagerlöf|corpora/multiauthor/corpus_50_filtered/1876.epub
266|6209aa|SusanCleggandHerFriendMrsLathrop|0.53|Cluster 1|Anne Warner|Selma Lagerlöf|corpora/multiauthor/corpus_50_filtered/15899.epub
267|6209aa|JustaGirl|0.75|Cluster 1|Charles Garvice|Selma Lagerlöf|corpora/multiauthor/corpus_50_filtered/57166.epub
268|6209aa|MollyMakeBelieve|0.53|Cluster 1|Eleanor Hallowell Abbott|Selma Lagerlöf|corpora/multiauthor/corpus_50_filtered/18665.epub
269|6209aa|TheCampFireGirlsonEllensIsleOrTheTrailoftheSevenCedars|0.89|Cluster 1|Hildegard G. Frey|Selma Lagerlöf|corpora/multiauthor/corpus_50_filtered/30825.epub
270|6209aa|JosephintheSnowandTheClockmakerInThreeVolumesVolI|0.06|Cluster 1|Berthold Auerbach|Selma Lagerlöf|corpora/multiauthor/corpus_50_filtered/33162.epub
271|6209aa|ADealinWheatandOtherStoriesoftheNewandOldWest|0.43|Cluster 1|Frank Norris|Selma Lagerlöf|corpora/multiauthor/corpus_50_filtered/9905.epub
272|6209aa|WhenAMansAMan|0.06|Cluster 1|Harold Bell Wright|Selma Lagerlöf|corpora/multiauthor/corpus_50_filtered/14367.epub
273|6209aa|Romance|0.06|Cluster 1|Joseph Conrad|Selma Lagerlöf|corpora/multiauthor/corpus_50_filtered/17642.epub
274|6209aa|InOrchardGlen|0.72|Cluster 1|Mary Esther Miller MacGregor|Selma Lagerlöf|corpora/multiauthor/corpus_50_filtered/28235.epub
275|6209aa|TheStarbucks|0.76|Cluster 1|Opie Percival Read|Selma Lagerlöf|corpora/multiauthor/corpus_50_filtered/18984.epub
276|6209aa|MySouthernHomeOrtheSouthandItsPeople|0.47|Cluster 1|William Wells Brown|Selma Lagerlöf|corpora/multiauthor/corpus_50_filtered/59114.epub
277|6209aa|TheManThouGavest|0.44|Cluster 1|Harriet T. Comstock|Selma Lagerlöf|corpora/multiauthor/corpus_50_filtered/14858.epub
278|6209aa|TheShepherdoftheHills|0.62|Cluster 1|Harold Bell Wright|Selma Lagerlöf|corpora/multiauthor/corpus_50_filtered/4735.epub
279|6209aa|ArmyLifeinaBlackRegiment|0.92|Cluster 1|Thomas Wentworth Higginson|Selma Lagerlöf|corpora/multiauthor/corpus_50_filtered/6764.epub
280|6209aa|TheBellsofSanJuan|0.62|Cluster 1|Jackson Gregory|Selma Lagerlöf|corpora/multiauthor/corpus_50_filtered/15438.epub
281|6209aa|MyAutobiographyAFragment|0.77|Cluster 1|F. Max Müller|Selma Lagerlöf|corpora/multiauthor/corpus_50_filtered/30269.epub
282|6209aa|ThreeYearsinEuropePlacesIHaveSeenandPeopleIHaveMet|0.95|Cluster 1|William Wells Brown|Selma Lagerlöf|corpora/multiauthor/corpus_50_filtered/15830.epub
283|6209aa|TheGroceryManAndPecksBadBoyPecksBadBoyandHisPaNo21883|0.92|Cluster 1|George W. Peck|Selma Lagerlöf|corpora/multiauthor/corpus_50_filtered/25488.epub
284|6209aa|PeaceonEarthGoodwilltoDogs|0.45|Cluster 1|Eleanor Hallowell Abbott|Selma Lagerlöf|corpora/multiauthor/corpus_50_filtered/20213.epub
285|6209aa|JudithofBlueLakeRanch|0.66|Cluster 1|Jackson Gregory|Selma Lagerlöf|corpora/multiauthor/corpus_50_filtered/18926.epub
286|6209aa|TheOntarioReadersThirdReader|0.79|Cluster 1|Ontario. Department of Education|Selma Lagerlöf|corpora/multiauthor/corpus_50_filtered/51707.epub
287|6209aa|WolfBreed|0.79|Cluster 1|Jackson Gregory|Selma Lagerlöf|corpora/multiauthor/corpus_50_filtered/18964.epub
288|6209aa|AdrienLeroy|0.15|Cluster 1|Charles Garvice|Selma Lagerlöf|corpora/multiauthor/corpus_50_filtered/16682.epub
289|6209aa|AtLovesCost|0.17|Cluster 1|Charles Garvice|Selma Lagerlöf|corpora/multiauthor/corpus_50_filtered/10379.epub
290|6209aa|TheWomansWay|0.4|Cluster 1|Charles Garvice|Selma Lagerlöf|corpora/multiauthor/corpus_50_filtered/19411.epub
291|6209aa|JosephintheSnowandTheClockmakerInThreeVolumesVolIII|0.93|Cluster 1|Berthold Auerbach|Selma Lagerlöf|corpora/multiauthor/corpus_50_filtered/33164.epub
292|6209aa|PaintedWindows|0.0|Cluster 1|Elia Wilkinson Peattie|Selma Lagerlöf|corpora/multiauthor/corpus_50_filtered/1875.epub
293|6209aa|ADaughterofToDay|0.22|Cluster 1|Sara Jeannette Duncan|Selma Lagerlöf|corpora/multiauthor/corpus_50_filtered/14490.epub
294|6209aa|TheAngelsofMonsTheBowmenandOtherLegendsoftheWar|0.19|Cluster 1|Arthur Machen|Selma Lagerlöf|corpora/multiauthor/corpus_50_filtered/14044.epub
295|6209aa|TheGuardians|0.59|Cluster 1|Irving E. Cox|Selma Lagerlöf|corpora/multiauthor/corpus_50_filtered/24152.epub
296|6209aa|TheWorksofCharlesandMaryLamb—Volume6Letters18211842|0.77|Cluster 1|Charles Lamb|Selma Lagerlöf|corpora/multiauthor/corpus_50_filtered/10851.epub
297|6209aa|PecksBadBoyandHisPa1883|0.95|Cluster 1|George W. Peck|Selma Lagerlöf|corpora/multiauthor/corpus_50_filtered/25487.epub
298|6209aa|TheCampFireGirlsintheMaineWoodsOrTheWinnebagosGoCamping|0.98|Cluster 1|Hildegard G. Frey|Selma Lagerlöf|corpora/multiauthor/corpus_50_filtered/18606.epub
299|6209aa|TheThreeImpostorsorTheTransmutations|0.93|Cluster 1|Arthur Machen|Selma Lagerlöf|corpora/multiauthor/corpus_50_filtered/35517.epub
300|6209aa|WhereAngelsFeartoTread|0.22|Cluster 1|E. M. Forster|Selma Lagerlöf|corpora/multiauthor/corpus_50_filtered/2948.epub
301|6209aa|"ChristianGellertsLastChristmasFrom""GermanTales""PublishedbytheAmericanPublishersCorporation"|0.66|Cluster 1|Berthold Auerbach|Selma Lagerlöf|corpora/multiauthor/corpus_50_filtered/22665.epub
302|6209aa|TheOntarioReadersThirdBook|0.2|Cluster 1|Ontario. Department of Education|Selma Lagerlöf|corpora/multiauthor/corpus_50_filtered/18561.epub
303|6209aa|ADaywithRobertSchumann|0.18|Cluster 1|May Byron|Selma Lagerlöf|corpora/multiauthor/corpus_50_filtered/36472.epub
304|6209aa|AmericanSceneryVol1of2orLandlakeandriverillustrationsoftransatlanticnature|0.54|Cluster 1|Nathaniel Parker Willis|Selma Lagerlöf|corpora/multiauthor/corpus_50_filtered/49042.epub
305|6209aa|MemoirsoftheCourtsofLouisXVandXVI—Volume4BeingsecretmemoirsofMadameDuHaussetladysmaidtoMadamedePompadourandofthePrincessLamballe|0.57|Cluster 1|Mme. Du Hausset|Selma Lagerlöf|corpora/multiauthor/corpus_50_filtered/3879.epub
306|6209aa|TrueStoriesofCrimeFromtheDistrictAttorneysOffice|0.79|Cluster 1|Arthur Cheney Train|Selma Lagerlöf|corpora/multiauthor/corpus_50_filtered/13172.epub
307|6209aa|DragHarlan|0.65|Cluster 1|Charles Alden Seltzer|Selma Lagerlöf|corpora/multiauthor/corpus_50_filtered/25779.epub
308|6209aa|AnArkansasPlanter|0.66|Cluster 1|Opie Percival Read|Selma Lagerlöf|corpora/multiauthor/corpus_50_filtered/19107.epub
309|6209aa|MemoirsoftheCourtsofLouisXVandXVI—Volume6BeingsecretmemoirsofMadameDuHaussetladysmaidtoMadamedePompadourandofthePrincessLamballe|0.07|Cluster 1|Mme. Du Hausset|Selma Lagerlöf|corpora/multiauthor/corpus_50_filtered/3881.epub
310|6209aa|AzaleasSilverWeb|0.35|Cluster 1|Elia Wilkinson Peattie|Selma Lagerlöf|corpora/multiauthor/corpus_50_filtered/55304.epub
311|6209aa|TheFifthQueenAndHowSheCametoCourt|0.51|Cluster 1|Ford Madox Ford|Selma Lagerlöf|corpora/multiauthor/corpus_50_filtered/30188.epub
312|6209aa|MemoirsoftheCourtsofLouisXVandXVI—CompleteBeingsecretmemoirsofMadameDuHaussetladysmaidtoMadamedePompadourandofthePrincessLamballe|0.72|Cluster 1|Mme. Du Hausset|Selma Lagerlöf|corpora/multiauthor/corpus_50_filtered/3883.epub
313|6209aa|FirebrandTrevison|0.93|Cluster 1|Charles Alden Seltzer|Selma Lagerlöf|corpora/multiauthor/corpus_50_filtered/26951.epub
314|6209aa|MyLadyGreensleeves|0.19|Cluster 1|Frederik Pohl|Selma Lagerlöf|corpora/multiauthor/corpus_50_filtered/51310.epub
315|6209aa|JacquelineoftheCarrierPigeons|0.58|Cluster 1|Augusta Huiell Seaman|Selma Lagerlöf|corpora/multiauthor/corpus_50_filtered/57466.epub
316|6209aa|ByAdviceofCounsel|0.37|Cluster 1|Arthur Cheney Train|Selma Lagerlöf|corpora/multiauthor/corpus_50_filtered/11987.epub
317|6209aa|NarrativeofWilliamWBrownaFugitiveSlave|0.89|Cluster 1|William Wells Brown|Selma Lagerlöf|corpora/multiauthor/corpus_50_filtered/15132.epub
318|6209aa|LesliesLoyalty|0.83|Cluster 1|Charles Garvice|Selma Lagerlöf|corpora/multiauthor/corpus_50_filtered/50440.epub
319|6209aa|TheWhiteLinenNurse|0.34|Cluster 1|Eleanor Hallowell Abbott|Selma Lagerlöf|corpora/multiauthor/corpus_50_filtered/14506.epub
320|6209aa|MemoirsoftheCourtsofLouisXVandXVI—Volume5BeingsecretmemoirsofMadameDuHaussetladysmaidtoMadamedePompadourandofthePrincessLamballe|0.17|Cluster 1|Mme. Du Hausset|Selma Lagerlöf|corpora/multiauthor/corpus_50_filtered/3880.epub
321|6209aa|TheConnecticutWitsandOtherEssays|0.69|Cluster 1|Henry A. Beers|Selma Lagerlöf|corpora/multiauthor/corpus_50_filtered/50915.epub
322|6209aa|SunshineJane|0.14|Cluster 1|Anne Warner|Selma Lagerlöf|corpora/multiauthor/corpus_50_filtered/37972.epub
323|6209aa|MemoirsoftheCourtsofLouisXVandXVI—Volume2BeingsecretmemoirsofMadameDuHaussetladysmaidtoMadamedePompadourandofthePrincessLamballe|0.0|Cluster 1|Mme. Du Hausset|Selma Lagerlöf|corpora/multiauthor/corpus_50_filtered/3877.epub
324|6209aa|DearEnemy|0.47|Cluster 1|Jean Webster|Selma Lagerlöf|corpora/multiauthor/corpus_50_filtered/238.epub
325|6209aa|IllustratedEditionoftheLifeandEscapeofWmWellsBrownfromAmericanSlaveryWrittenbyHimself|0.74|Cluster 1|William Wells Brown|Selma Lagerlöf|corpora/multiauthor/corpus_50_filtered/50092.epub
326|6209aa|WomenandtheAlphabetASeriesofEssays|0.52|Cluster 1|Thomas Wentworth Higginson|Selma Lagerlöf|corpora/multiauthor/corpus_50_filtered/13474.epub
327|6209aa|MemoirsoftheCourtsofLouisXVandXVI—Volume7BeingsecretmemoirsofMadameDuHaussetladysmaidtoMadamedePompadourandofthePrincessLamballe|0.55|Cluster 1|Mme. Du Hausset|Selma Lagerlöf|corpora/multiauthor/corpus_50_filtered/3882.epub
328|6209aa|TheJucklinsANovel|0.72|Cluster 1|Opie Percival Read|Selma Lagerlöf|corpora/multiauthor/corpus_50_filtered/26499.epub
329|6209aa|OnlyOneLoveorWhoWastheHeir|0.22|Cluster 1|Charles Garvice|Selma Lagerlöf|corpora/multiauthor/corpus_50_filtered/35523.epub
330|6209aa|AnnieLaurieandAzalea|0.99|Cluster 1|Elia Wilkinson Peattie|Selma Lagerlöf|corpora/multiauthor/corpus_50_filtered/53975.epub
331|6209aa|NellofShorneMillsorOneHeartsBurden|0.14|Cluster 1|Charles Garvice|Selma Lagerlöf|corpora/multiauthor/corpus_50_filtered/22961.epub
332|6209aa|OldportDays|0.84|Cluster 1|Thomas Wentworth Higginson|Selma Lagerlöf|corpora/multiauthor/corpus_50_filtered/2418.epub
333|6209aa|TheWonderfulAdventuresofNils|0.6|Cluster 1|Selma Lagerlöf|Selma Lagerlöf|corpora/multiauthor/corpus_50_filtered/10935.epub
334|6209aa|TheOutlet|0.65|Cluster 1|Andy Adams|Selma Lagerlöf|corpora/multiauthor/corpus_50_filtered/1987.epub
335|6209aa|ADaywithKeats|0.27|Cluster 1|May Byron|Selma Lagerlöf|corpora/multiauthor/corpus_50_filtered/30451.epub
336|6209aa|"The""Goldfish""BeingtheConfessionsafaSuccessfulMan"|0.23|Cluster 1|Arthur Cheney Train|Selma Lagerlöf|corpora/multiauthor/corpus_50_filtered/12920.epub
337|6209aa|TheValleyoftheGiants|0.34|Cluster 1|Peter B. Kyne|Selma Lagerlöf|corpora/multiauthor/corpus_50_filtered/5735.epub
338|6209aa|TheEndoftheRainbow|0.11|Cluster 1|Mary Esther Miller MacGregor|Selma Lagerlöf|corpora/multiauthor/corpus_50_filtered/28276.epub
339|6209aa|TheWorksofCharlesandMaryLamb—Volume5TheLettersofCharlesandMaryLamb17961820|0.55|Cluster 1|Charles Lamb|Selma Lagerlöf|corpora/multiauthor/corpus_50_filtered/9365.epub
340|6209aa|CappyRicksRetiresButThatDoesntKeepHimfromComingBackStrongerThanEver|0.47|Cluster 1|Peter B. Kyne|Selma Lagerlöf|corpora/multiauthor/corpus_50_filtered/6020.epub
341|6209aa|TheOctopusAStoryofCalifornia|0.14|Cluster 1|Frank Norris|Selma Lagerlöf|corpora/multiauthor/corpus_50_filtered/268.epub
0|6209aa|ThePhilosophyofSpinoza|100.0|Cluster 2|Benedictus de Spinoza|Benedictus de Spinoza|corpora/multiauthor/corpus_50_filtered/31205.epub
1|6209aa|AShortHistoryofFreethoughtAncientandModernVolume1of2ThirdeditionRevisedandExpandedintwovolumes|0.21|Cluster 2|J. M. Robertson|Benedictus de Spinoza|corpora/multiauthor/corpus_50_filtered/51793.epub
2|6209aa|BuffonsNaturalHistoryVolume04of10ContainingaTheoryoftheEarthaGeneralHistoryofManoftheBruteCreationandofVegetablesMinerals&c&c|0.89|Cluster 2|comte de Georges Louis Leclerc Buffon|Benedictus de Spinoza|corpora/multiauthor/corpus_50_filtered/45729.epub
3|6209aa|TheCritiqueofPureReason|0.96|Cluster 2|Immanuel Kant|Benedictus de Spinoza|corpora/multiauthor/corpus_50_filtered/4280.epub
4|6209aa|TheSympathyofReligions|0.39|Cluster 2|Thomas Wentworth Higginson|Benedictus de Spinoza|corpora/multiauthor/corpus_50_filtered/25792.epub
5|6209aa|Hieroglyphics|0.42|Cluster 2|Arthur Machen|Benedictus de Spinoza|corpora/multiauthor/corpus_50_filtered/40241.epub
6|6209aa|Rationalism|0.66|Cluster 2|J. M. Robertson|Benedictus de Spinoza|corpora/multiauthor/corpus_50_filtered/31941.epub
7|6209aa|Ethics—Part1|0.28|Cluster 2|Benedictus de Spinoza|Benedictus de Spinoza|corpora/multiauthor/corpus_50_filtered/919.epub
8|6209aa|TheSevenGreatMonarchiesOfTheAncientEasternWorldVol2AssyriaTheHistoryGeographyAndAntiquitiesOfChaldaeaAssyriaBabylonMediaPersiaParthiaAndSassanianorNewPersianEmpireWithMapsandIllustrations|0.23|Cluster 2|George Rawlinson|Benedictus de Spinoza|corpora/multiauthor/corpus_50_filtered/16162.epub
9|6209aa|Ethics—Part4|0.1|Cluster 2|Benedictus de Spinoza|Benedictus de Spinoza|corpora/multiauthor/corpus_50_filtered/971.epub
10|6209aa|LecturesontheScienceofLanguage|0.64|Cluster 2|F. Max Müller|Benedictus de Spinoza|corpora/multiauthor/corpus_50_filtered/32856.epub
11|6209aa|TheologicoPoliticalTreatise—Part1|0.84|Cluster 2|Benedictus de Spinoza|Benedictus de Spinoza|corpora/multiauthor/corpus_50_filtered/989.epub
12|6209aa|TheEvolutionofStates|0.46|Cluster 2|J. M. Robertson|Benedictus de Spinoza|corpora/multiauthor/corpus_50_filtered/39860.epub
13|6209aa|FundamentalPrinciplesoftheMetaphysicofMorals|0.91|Cluster 2|Immanuel Kant|Benedictus de Spinoza|corpora/multiauthor/corpus_50_filtered/5682.epub
14|6209aa|KantsProlegomenatoAnyFutureMetaphysics|0.38|Cluster 2|Immanuel Kant|Benedictus de Spinoza|corpora/multiauthor/corpus_50_filtered/52821.epub
15|6209aa|IndiaWhatcanitteachus?ACourseofLecturesDeliveredbeforetheUniversityOfCambridge|0.22|Cluster 2|F. Max Müller|Benedictus de Spinoza|corpora/multiauthor/corpus_50_filtered/20847.epub
16|6209aa|OntarioNormalSchoolManualsScienceofEducation|0.89|Cluster 2|Ontario. Department of Education|Benedictus de Spinoza|corpora/multiauthor/corpus_50_filtered/18451.epub
17|6209aa|TheSilesianHorseherdQuestionsoftheHour|0.48|Cluster 2|F. Max Müller|Benedictus de Spinoza|corpora/multiauthor/corpus_50_filtered/24315.epub
18|6209aa|AncientEgypt|0.13|Cluster 2|Arthur Gilman|Benedictus de Spinoza|corpora/multiauthor/corpus_50_filtered/15663.epub
19|6209aa|OntheImprovementoftheUnderstanding|0.48|Cluster 2|Benedictus de Spinoza|Benedictus de Spinoza|corpora/multiauthor/corpus_50_filtered/1016.epub
20|6209aa|TheologicoPoliticalTreatise—Part2|0.75|Cluster 2|Benedictus de Spinoza|Benedictus de Spinoza|corpora/multiauthor/corpus_50_filtered/990.epub
21|6209aa|TheMetaphysicalElementsofEthics|0.0|Cluster 2|Immanuel Kant|Benedictus de Spinoza|corpora/multiauthor/corpus_50_filtered/5684.epub
22|6209aa|ChipsfromaGermanWorkshopVolume1EssaysontheScienceofReligion|0.45|Cluster 2|F. Max Müller|Benedictus de Spinoza|corpora/multiauthor/corpus_50_filtered/24686.epub
23|6209aa|BuffonsNaturalHistoryVolume05of10ContainingaTheoryoftheEarthaGeneralHistoryofManoftheBruteCreationandofVegetablesMinerals&c&c|0.47|Cluster 2|comte de Georges Louis Leclerc Buffon|Benedictus de Spinoza|corpora/multiauthor/corpus_50_filtered/45730.epub
24|6209aa|BuffonsNaturalHistoryVolume06of10ContainingaTheoryoftheEarthaGeneralHistoryofManoftheBruteCreationandofVegetablesMinerals&c&c|0.55|Cluster 2|comte de Georges Louis Leclerc Buffon|Benedictus de Spinoza|corpora/multiauthor/corpus_50_filtered/45731.epub
25|6209aa|LiteraryandPhilosophicalEssaysFrenchGermanandItalian|0.06|Cluster 2|Immanuel Kant|Benedictus de Spinoza|corpora/multiauthor/corpus_50_filtered/5637.epub
26|6209aa|AShortHistoryofFreethoughtAncientandModernVolume2of2ThirdeditionRevisedandExpandedintwovolumes|0.86|Cluster 2|J. M. Robertson|Benedictus de Spinoza|corpora/multiauthor/corpus_50_filtered/52160.epub
27|6209aa|ChipsfromaGermanWorkshopVolume5MiscellaneousLaterEssays|0.83|Cluster 2|F. Max Müller|Benedictus de Spinoza|corpora/multiauthor/corpus_50_filtered/27810.epub
28|6209aa|ThoughtsonLifeandReligionAnAftermathfromtheWritingsofTheRightHonourableProfessorMaxMüller|0.08|Cluster 2|F. Max Müller|Benedictus de Spinoza|corpora/multiauthor/corpus_50_filtered/45122.epub
29|6209aa|BuffonsNaturalHistoryVolume10of10ContainingaTheoryoftheEarthaGeneralHistoryofManoftheBruteCreationandofVegetablesMinerals&c&c|0.93|Cluster 2|comte de Georges Louis Leclerc Buffon|Benedictus de Spinoza|corpora/multiauthor/corpus_50_filtered/45868.epub
30|6209aa|Ethics|0.55|Cluster 2|Benedictus de Spinoza|Benedictus de Spinoza|corpora/multiauthor/corpus_50_filtered/3800.epub
31|6209aa|TheHistoricalJesusASurveyofPositions|0.1|Cluster 2|J. M. Robertson|Benedictus de Spinoza|corpora/multiauthor/corpus_50_filtered/51655.epub
32|6209aa|BuffonsNaturalHistoryVolume08of10ContainingaTheoryoftheEarthaGeneralHistoryofManoftheBruteCreationandofVegetablesMinerals&c&c|0.1|Cluster 2|comte de Georges Louis Leclerc Buffon|Benedictus de Spinoza|corpora/multiauthor/corpus_50_filtered/45821.epub
33|6209aa|ACommonplaceBookofThoughtsMemoriesandFancies2nded|0.94|Cluster 2|Mrs. Jameson|Benedictus de Spinoza|corpora/multiauthor/corpus_50_filtered/39680.epub
34|6209aa|TheJesusProblemARestatementoftheMythTheory|0.44|Cluster 2|J. M. Robertson|Benedictus de Spinoza|corpora/multiauthor/corpus_50_filtered/53616.epub
35|6209aa|HistoryofPhoenicia|0.68|Cluster 2|George Rawlinson|Benedictus de Spinoza|corpora/multiauthor/corpus_50_filtered/2331.epub
36|6209aa|AHistoryofEnglishRomanticismintheNineteenthCentury|0.73|Cluster 2|Henry A. Beers|Benedictus de Spinoza|corpora/multiauthor/corpus_50_filtered/15931.epub
37|6209aa|Ethics—Part3|0.47|Cluster 2|Benedictus de Spinoza|Benedictus de Spinoza|corpora/multiauthor/corpus_50_filtered/948.epub
38|6209aa|TheMotherofParliaments|0.15|Cluster 2|Harry Graham|Benedictus de Spinoza|corpora/multiauthor/corpus_50_filtered/41304.epub
39|6209aa|TheSevenGreatMonarchiesOfTheAncientEasternWorldVol6ParthiaTheHistoryGeographyAndAntiquitiesOfChaldaeaAssyriaBabylonMediaPersiaParthiaAndSassanianorNewPersianEmpireWithMapsandIllustrations|0.28|Cluster 2|George Rawlinson|Benedictus de Spinoza|corpora/multiauthor/corpus_50_filtered/16166.epub
40|6209aa|FamousImpostors|0.57|Cluster 2|Bram Stoker|Benedictus de Spinoza|corpora/multiauthor/corpus_50_filtered/51391.epub
41|6209aa|Ethics—Part5|0.84|Cluster 2|Benedictus de Spinoza|Benedictus de Spinoza|corpora/multiauthor/corpus_50_filtered/975.epub
42|6209aa|Ethics—Part2|0.35|Cluster 2|Benedictus de Spinoza|Benedictus de Spinoza|corpora/multiauthor/corpus_50_filtered/920.epub
43|6209aa|KantsCritiqueofJudgement|0.44|Cluster 2|Immanuel Kant|Benedictus de Spinoza|corpora/multiauthor/corpus_50_filtered/48433.epub
44|6209aa|TheSevenGreatMonarchiesOfTheAncientEasternWorldVol7TheSassanianorNewPersianEmpireTheHistoryGeographyAndAntiquitiesOfChaldaeaAssyriaBabylonMediaPersiaParthiaAndSassanianorNewPersianEmpireWithMapsandIllustrations|0.49|Cluster 2|George Rawlinson|Benedictus de Spinoza|corpora/multiauthor/corpus_50_filtered/16167.epub
45|6209aa|BuffonsNaturalHistoryVolume07of10ContainingaTheoryoftheEarthaGeneralHistoryofManoftheBruteCreationandofVegetablesMinerals&c&c|0.98|Cluster 2|comte de Georges Louis Leclerc Buffon|Benedictus de Spinoza|corpora/multiauthor/corpus_50_filtered/45820.epub
46|6209aa|PerpetualPeaceAPhilosophicalEssay|0.72|Cluster 2|Immanuel Kant|Benedictus de Spinoza|corpora/multiauthor/corpus_50_filtered/50922.epub
47|6209aa|TheSevenGreatMonarchiesOfTheAncientEasternWorldVol5PersiaTheHistoryGeographyAndAntiquitiesOfChaldaeaAssyriaBabylonMediaPersiaParthiaAndSassanianorNewPersianEmpireWithMapsandIllustrations|0.1|Cluster 2|George Rawlinson|Benedictus de Spinoza|corpora/multiauthor/corpus_50_filtered/16165.epub
0|6209aa|TheUnthinkingDestroyer|100.0|Cluster 3|Rog Phillips|unknown_4|corpora/multiauthor/corpus_50_filtered/30683.epub
1|6209aa|CubeRootofConquest|0.79|Cluster 3|Rog Phillips|unknown_4|corpora/multiauthor/corpus_50_filtered/32712.epub
2|6209aa|Pythias|0.73|Cluster 3|Frederik Pohl|unknown_4|corpora/multiauthor/corpus_50_filtered/30399.epub
3|6209aa|TheOldMartians|0.49|Cluster 3|Rog Phillips|unknown_4|corpora/multiauthor/corpus_50_filtered/32590.epub
0|6209aa|FiscalBallads|100.0|Cluster 4|Harry Graham|unknown_5|corpora/multiauthor/corpus_50_filtered/36038.epub
1|6209aa|TheMotleyMuseRhymesfortheTimes|0.7|Cluster 4|Harry Graham|unknown_5|corpora/multiauthor/corpus_50_filtered/36543.epub
2|6209aa|FamiliarFaces|0.91|Cluster 4|Harry Graham|unknown_5|corpora/multiauthor/corpus_50_filtered/35059.epub
0|6209aa|AllthePeople|100.0|Cluster 5|R. A. Lafferty|R. A. Lafferty|corpora/multiauthor/corpus_50_filtered/51603.epub
1|6209aa|SodomandGomorrahTexas|0.09|Cluster 5|R. A. Lafferty|R. A. Lafferty|corpora/multiauthor/corpus_50_filtered/23161.epub
2|6209aa|SevenDayTerror|0.28|Cluster 5|R. A. Lafferty|R. A. Lafferty|corpora/multiauthor/corpus_50_filtered/61128.epub
3|6209aa|ThePolitePeopleofPudibundia|0.31|Cluster 5|R. A. Lafferty|R. A. Lafferty|corpora/multiauthor/corpus_50_filtered/60955.epub
4|6209aa|FirthsWorld|0.09|Cluster 5|Irving E. Cox|R. A. Lafferty|corpora/multiauthor/corpus_50_filtered/59252.epub
5|6209aa|Aloys|0.2|Cluster 5|R. A. Lafferty|R. A. Lafferty|corpora/multiauthor/corpus_50_filtered/51596.epub
6|6209aa|McGonigalsWorm|0.32|Cluster 5|R. A. Lafferty|R. A. Lafferty|corpora/multiauthor/corpus_50_filtered/60940.epub
7|6209aa|TheWeirdestWorld|0.1|Cluster 5|R. A. Lafferty|R. A. Lafferty|corpora/multiauthor/corpus_50_filtered/51774.epub
8|6209aa|IntheGarden|0.89|Cluster 5|R. A. Lafferty|R. A. Lafferty|corpora/multiauthor/corpus_50_filtered/61007.epub
9|6209aa|DreamWorld|0.51|Cluster 5|R. A. Lafferty|R. A. Lafferty|corpora/multiauthor/corpus_50_filtered/51668.epub
10|6209aa|MiraclebyPrice|0.09|Cluster 5|Irving E. Cox|R. A. Lafferty|corpora/multiauthor/corpus_50_filtered/58730.epub
0|6209aa|TheSevenGreatMonarchiesoftheAncientAsianWorldALinkedIndextotheProjectGutenbergEditions|100.0|Cluster 6|George Rawlinson|Oliver Goldsmith|corpora/multiauthor/corpus_50_filtered/28871.epub
1|6209aa|IndexoftheProjectGutenbergWorksofThomasWentworthHigginson|0.18|Cluster 6|Thomas Wentworth Higginson|Oliver Goldsmith|corpora/multiauthor/corpus_50_filtered/59301.epub
2|6209aa|AnElegyontheGloryofHerSexMrsMaryBlaize|0.74|Cluster 6|Oliver Goldsmith|Oliver Goldsmith|corpora/multiauthor/corpus_50_filtered/17117.epub
3|6209aa|AnElegyontheDeathofaMadDog|0.92|Cluster 6|Oliver Goldsmith|Oliver Goldsmith|corpora/multiauthor/corpus_50_filtered/17102.epub
4|6209aa|"WorksofGeorgeWPeckALinkedIndextotheProjectGutenbergEditionsofthe""BadBoy""SeriesandOthers"|0.62|Cluster 6|George W. Peck|Oliver Goldsmith|corpora/multiauthor/corpus_50_filtered/28970.epub
5|6209aa|IndexoftheProjectGutenbergWorksofImmanuelKant|0.37|Cluster 6|Immanuel Kant|Oliver Goldsmith|corpora/multiauthor/corpus_50_filtered/59023.epub
6|6209aa|IndexoftheProjectGutenbergWorksofBramStoker|0.7|Cluster 6|Bram Stoker|Oliver Goldsmith|corpora/multiauthor/corpus_50_filtered/59671.epub
0|6209aa|ThePoeticalWorksofJohnMilton|100.0|Cluster 7|John Milton|John Milton|corpora/multiauthor/corpus_50_filtered/1745.epub
1|6209aa|ParadiseLost|0.9|Cluster 7|John Milton|John Milton|corpora/multiauthor/corpus_50_filtered/20.epub
2|6209aa|TheCompletePoeticalWorksofOliverGoldsmith|0.69|Cluster 7|Oliver Goldsmith|John Milton|corpora/multiauthor/corpus_50_filtered/3545.epub
3|6209aa|HistoryoftheIndiansofNorthandSouthAmerica|0.22|Cluster 7|Samuel G. Goodrich|John Milton|corpora/multiauthor/corpus_50_filtered/54266.epub
4|6209aa|TheTwoTwilights|0.54|Cluster 7|Henry A. Beers|John Milton|corpora/multiauthor/corpus_50_filtered/34741.epub
5|6209aa|PoemsYouOughttoKnow|0.56|Cluster 7|Elia Wilkinson Peattie|John Milton|corpora/multiauthor/corpus_50_filtered/53415.epub
6|6209aa|LAllegroIlPenserosoComusandLycidas|0.93|Cluster 7|John Milton|John Milton|corpora/multiauthor/corpus_50_filtered/397.epub
7|6209aa|CanadianSceneryVolume2of2|0.93|Cluster 7|Nathaniel Parker Willis|John Milton|corpora/multiauthor/corpus_50_filtered/47691.epub
8|6209aa|ThePoemsofOliverGoldsmith|0.87|Cluster 7|Oliver Goldsmith|John Milton|corpora/multiauthor/corpus_50_filtered/49723.epub
9|6209aa|DalzielsIllustratedGoldsmith|0.45|Cluster 7|Oliver Goldsmith|John Milton|corpora/multiauthor/corpus_50_filtered/49325.epub
10|6209aa|CanadianSceneryVolume1of2|0.89|Cluster 7|Nathaniel Parker Willis|John Milton|corpora/multiauthor/corpus_50_filtered/47690.epub
11|6209aa|MiltonMinorPoems|0.32|Cluster 7|John Milton|John Milton|corpora/multiauthor/corpus_50_filtered/31706.epub
12|6209aa|TheRomanceofBiographyVol1of2orMemoirsofWomenLovedandCelebratedbyPoetsfromtheDaysoftheTroubadourstothePresentAge3rded2Vols|0.63|Cluster 7|Mrs. Jameson|John Milton|corpora/multiauthor/corpus_50_filtered/35382.epub
13|6209aa|TheRomanceofBiographyVol2of2orMemoirsofWomenLovedandCelebratedbyPoetsfromtheDaysoftheTroubadourstothePresentAge3rded2Vols|0.77|Cluster 7|Mrs. Jameson|John Milton|corpora/multiauthor/corpus_50_filtered/35416.epub
14|6209aa|ParadiseRegained|0.33|Cluster 7|John Milton|John Milton|corpora/multiauthor/corpus_50_filtered/58.epub
15|6209aa|TheOntarioReadersTheHighSchoolReader1886|0.17|Cluster 7|Ontario. Department of Education|John Milton|corpora/multiauthor/corpus_50_filtered/19923.epub
16|6209aa|AreopagiticaASpeechfortheLibertyofUnlicensedPrintingtotheParliamentofEngland|0.81|Cluster 7|John Milton|John Milton|corpora/multiauthor/corpus_50_filtered/608.epub
17|6209aa|CharacteristicsofWomenMoralPoeticalandHistorical|0.71|Cluster 7|Mrs. Jameson|John Milton|corpora/multiauthor/corpus_50_filtered/26152.epub
18|6209aa|AnIntroductiontotheProseandPoeticalWorksofJohnMiltonComprisingAlltheAutobiographicPassagesinHisWorkstheMoreExplicitPresentationsofHisIdeasofTrueLiberty|0.75|Cluster 7|John Milton|John Milton|corpora/multiauthor/corpus_50_filtered/44733.epub
19|6209aa|TheVicarofWakefield|0.07|Cluster 7|Oliver Goldsmith|John Milton|corpora/multiauthor/corpus_50_filtered/2667.epub
20|6209aa|TheWorksofCharlesandMaryLamb—Volume4PoemsandPlays|0.01|Cluster 7|Charles Lamb|John Milton|corpora/multiauthor/corpus_50_filtered/11576.epub
21|6209aa|PoemataLatinGreekandItalianPoemsbyJohnMilton|0.67|Cluster 7|John Milton|John Milton|corpora/multiauthor/corpus_50_filtered/6929.epub
0|6209aa|GamePreserve|100.0|Cluster 8|Rog Phillips|Rog Phillips|corpora/multiauthor/corpus_50_filtered/60393.epub
1|6209aa|TheGallery|0.56|Cluster 8|Rog Phillips|Rog Phillips|corpora/multiauthor/corpus_50_filtered/26936.epub
2|6209aa|Unthinkable|0.52|Cluster 8|Rog Phillips|Rog Phillips|corpora/multiauthor/corpus_50_filtered/27491.epub
3|6209aa|AMichiganMan1891|0.98|Cluster 8|Elia Wilkinson Peattie|Rog Phillips|corpora/multiauthor/corpus_50_filtered/23176.epub
4|6209aa|HawaiianSeaHuntMysteryABiffBrewsterMysteryAdventure|0.3|Cluster 8|Andy Adams|Rog Phillips|corpora/multiauthor/corpus_50_filtered/51755.epub
5|6209aa|Tillie|0.44|Cluster 8|Rog Phillips|Rog Phillips|corpora/multiauthor/corpus_50_filtered/32802.epub
6|6209aa|YeofLittleFaith|0.32|Cluster 8|Rog Phillips|Rog Phillips|corpora/multiauthor/corpus_50_filtered/32663.epub
0|6209aa|IndexoftheProjectGutenbergWorksofOliverGoldsmith|100.0|Cluster 9|Oliver Goldsmith|unknown_10|corpora/multiauthor/corpus_50_filtered/58029.epub
1|6209aa|TheDesertedVillage|0.01|Cluster 9|Oliver Goldsmith|unknown_10|corpora/multiauthor/corpus_50_filtered/50500.epub
2|6209aa|ChipsfromaGermanWorkshopVolume4EssaysChieflyontheScienceofLanguage|0.44|Cluster 9|F. Max Müller|unknown_10|corpora/multiauthor/corpus_50_filtered/30192.epub
0|6209aa|Poems|100.0|Cluster 10|Samuel G. Goodrich|Nathaniel Parker Willis|corpora/multiauthor/corpus_50_filtered/11558.epub
1|6209aa|ForestRockandStreamAseriesoftwentysteellineengravings|0.0|Cluster 10|Nathaniel Parker Willis|Nathaniel Parker Willis|corpora/multiauthor/corpus_50_filtered/48283.epub
2|6209aa|TheAntislaveryHarpACollectionofSongsforAntislaveryMeetings|0.95|Cluster 10|William Wells Brown|Nathaniel Parker Willis|corpora/multiauthor/corpus_50_filtered/58414.epub
3|6209aa|FugitivePoetry|0.71|Cluster 10|Nathaniel Parker Willis|Nathaniel Parker Willis|corpora/multiauthor/corpus_50_filtered/32146.epub
4|6209aa|StoriesofSiegfriedToldtotheChildren|0.01|Cluster 10|Mary Esther Miller MacGregor|Nathaniel Parker Willis|corpora/multiauthor/corpus_50_filtered/26181.epub
0|6209aa|RobinsRambles|100.0|Cluster 11|May Byron|May Byron|corpora/multiauthor/corpus_50_filtered/38504.epub
0|6209aa|MisrepresentativeMen|100.0|Cluster 12|Harry Graham|Harry Graham|corpora/multiauthor/corpus_50_filtered/36321.epub
1|6209aa|MoreMisrepresentativeMen|0.34|Cluster 12|Harry Graham|Harry Graham|corpora/multiauthor/corpus_50_filtered/36782.epub
2|6209aa|RuthlessRhymesforHeartlessHomes|0.84|Cluster 12|Harry Graham|Harry Graham|corpora/multiauthor/corpus_50_filtered/35051.epub
3|6209aa|PervertedProverbsAManualofImmoralsfortheMany|0.41|Cluster 12|Harry Graham|Harry Graham|corpora/multiauthor/corpus_50_filtered/34790.epub
0|6209aa|TheHated|100.0|Cluster 13|Frederik Pohl|Frederik Pohl|corpora/multiauthor/corpus_50_filtered/29503.epub
0|6209aa|QuotesandImagesFromMemoirsofLouisXVandXVI|100.0|Cluster 14|Mme. Du Hausset|Mme. Du Hausset|corpora/multiauthor/corpus_50_filtered/7561.epub
0|6209aa|OftheInjusticeofCounterfeitingBooksFromEssaysandTreatiesonMoralPoliticalandvariousPhilosophicalSubjects|100.0|Cluster 15|Immanuel Kant|Immanuel Kant|corpora/multiauthor/corpus_50_filtered/46060.epub
0|6209aa|TheSurrenderofSantiagoAnAccountoftheHistoricSurrenderofSantiagotoGeneralShafterJuly171898|100.0|Cluster 16|Frank Norris|Frank Norris|corpora/multiauthor/corpus_50_filtered/26026.epub
