idnum|extra|percent|title|clusterid|real_author|label|filename
7|||MartinChuzzlewit|Cluster 7|Charles Dickens|Charles Dickens|corpora/baseline/corpus4/pg968.epub
7|||TheMysteryofEdwinDrood|Cluster 7|Charles Dickens|Charles Dickens|corpora/baseline/corpus4/pg564.epub
7|||OurMutualFriend|Cluster 7|Charles Dickens|Charles Dickens|corpora/baseline/corpus4/pg883.epub
7|||LittleDorrit|Cluster 7|Charles Dickens|Charles Dickens|corpora/baseline/corpus4/pg963.epub
7|||NicholasNickleby|Cluster 7|Charles Dickens|Charles Dickens|corpora/baseline/corpus4/pg967.epub
7|||HardTimes|Cluster 7|Charles Dickens|Charles Dickens|corpora/baseline/corpus4/pg786.epub
5|||TheHistoryofHenryEsmondEsqaColonelintheServiceofHerMajestyQueenAnne|Cluster 5|William Makepeace Thackeray|William Makepeace Thackeray|corpora/baseline/corpus4/pg2511.epub
5|||CatherineAStory|Cluster 5|William Makepeace Thackeray|William Makepeace Thackeray|corpora/baseline/corpus4/pg1969.epub
5|||VanityFair|Cluster 5|William Makepeace Thackeray|William Makepeace Thackeray|corpora/baseline/corpus4/pg599.epub
5|||TheHistoryofPendennis|Cluster 5|William Makepeace Thackeray|William Makepeace Thackeray|corpora/baseline/corpus4/pg7265.epub
5|||TheVirginians|Cluster 5|William Makepeace Thackeray|William Makepeace Thackeray|corpora/baseline/corpus4/pg8123.epub
5|||TheNewcomesMemoirsofaMostRespectableFamily|Cluster 5|William Makepeace Thackeray|William Makepeace Thackeray|corpora/baseline/corpus4/pg7467.epub
2|||HarryPotterandthePhilosophersStone|Cluster 2|J.K. Rowling|J.K. Rowling|corpora/baseline/corpus4/Harry Potter and the Philosopher's Stone - J.K. Rowling.epub
2|||HarryPotterandtheChamberofSecrets|Cluster 2|J.K. Rowling|J.K. Rowling|corpora/baseline/corpus4/Harry Potter and the Chamber of Secrets - J.K. Rowling.epub
2|||HarryPotterandtheDeathlyHallows|Cluster 2|J.K. Rowling|J.K. Rowling|corpora/baseline/corpus4/Harry Potter and the Deathly Hallows - J.K. Rowling.epub
2|||HarryPotterandtheOrderofthePhoenix|Cluster 2|J.K. Rowling|J.K. Rowling|corpora/baseline/corpus4/Harry Potter and the Order of the Phoenix - J.K. Rowling.epub
2|||HarryPotterandthePrisonerofAzkaban|Cluster 2|J.K. Rowling|J.K. Rowling|corpora/baseline/corpus4/Harry Potter and the Prisoner of Azkaban - J.K. Rowling.epub
2|||HarryPotterandtheHalfBloodPrince|Cluster 2|J.K. Rowling|J.K. Rowling|corpora/baseline/corpus4/Harry Potter and the Half-Blood Prince - J.K. Rowling.epub
2|||HarryPotterandtheGobletofFire|Cluster 2|J.K. Rowling|J.K. Rowling|corpora/baseline/corpus4/Harry Potter and the Goblet of Fire - J.K. Rowling.epub
0|||TheBrothersKaramazov|Cluster 0|Fyodor Dostoyevsky|Ivan Sergeevich Turgenev|corpora/baseline/corpus4/pg28054.epub
0|||FathersandChildren|Cluster 0|Ivan Sergeevich Turgenev|Ivan Sergeevich Turgenev|corpora/baseline/corpus4/pg30723.epub
0|||OntheEveANovel|Cluster 0|Ivan Sergeevich Turgenev|Ivan Sergeevich Turgenev|corpora/baseline/corpus4/pg6902.epub
0|||Smoke|Cluster 0|Ivan Sergeevich Turgenev|Ivan Sergeevich Turgenev|corpora/baseline/corpus4/pg40813.epub
0|||AHouseofGentlefolk|Cluster 0|Ivan Sergeevich Turgenev|Ivan Sergeevich Turgenev|corpora/baseline/corpus4/pg5721.epub
0|||ThePossessedTheDevils|Cluster 0|Fyodor Dostoyevsky|Ivan Sergeevich Turgenev|corpora/baseline/corpus4/pg8117.epub
0|||RudinANovel|Cluster 0|Ivan Sergeevich Turgenev|Ivan Sergeevich Turgenev|corpora/baseline/corpus4/pg6900.epub
0|||TheIdiot|Cluster 0|Fyodor Dostoyevsky|Ivan Sergeevich Turgenev|corpora/baseline/corpus4/pg2638.epub
0|||VirginSoil|Cluster 0|Ivan Sergeevich Turgenev|Ivan Sergeevich Turgenev|corpora/baseline/corpus4/pg2466.epub
0|||CrimeandPunishment|Cluster 0|Fyodor Dostoyevsky|Ivan Sergeevich Turgenev|corpora/baseline/corpus4/pg2554.epub
3|||ATaleofTwoCities|Cluster 3|Charles Dickens|unknown_5|corpora/baseline/corpus4/pg98.epub
3|||ThePickwickPapers|Cluster 3|Charles Dickens|unknown_5|corpora/baseline/corpus4/pg580.epub
3|||BarnabyRudgeATaleoftheRiotsofEighty|Cluster 3|Charles Dickens|unknown_5|corpora/baseline/corpus4/pg917.epub
3|||OliverTwist|Cluster 3|Charles Dickens|unknown_5|corpora/baseline/corpus4/pg730.epub
3|||DombeyandSon|Cluster 3|Charles Dickens|unknown_5|corpora/baseline/corpus4/pg821.epub
1|||Persuasion|Cluster 1|Jane Austen|Jane Austen|corpora/baseline/corpus4/pg105.epub
1|||NorthangerAbbey|Cluster 1|Jane Austen|Jane Austen|corpora/baseline/corpus4/pg121.epub
1|||SenseandSensibility|Cluster 1|Jane Austen|Jane Austen|corpora/baseline/corpus4/pg161.epub
1|||MansfieldPark|Cluster 1|Jane Austen|Jane Austen|corpora/baseline/corpus4/pg141.epub
1|||PrideandPrejudice|Cluster 1|Jane Austen|Jane Austen|corpora/baseline/corpus4/pg42671.epub
1|||Emma|Cluster 1|Jane Austen|Jane Austen|corpora/baseline/corpus4/pg158.epub
4|||DanielDeronda|Cluster 4|George Eliot|George Eliot|corpora/baseline/corpus4/pg7469.epub
4|||SilasMarner|Cluster 4|George Eliot|George Eliot|corpora/baseline/corpus4/pg550.epub
4|||TheMillontheFloss|Cluster 4|George Eliot|George Eliot|corpora/baseline/corpus4/pg6688.epub
4|||FelixHolttheRadical|Cluster 4|George Eliot|George Eliot|corpora/baseline/corpus4/pg40882.epub
4|||Middlemarch|Cluster 4|George Eliot|George Eliot|corpora/baseline/corpus4/pg145.epub
4|||Romola|Cluster 4|George Eliot|George Eliot|corpora/baseline/corpus4/pg24020.epub
4|||AdamBede|Cluster 4|George Eliot|George Eliot|corpora/baseline/corpus4/pg507.epub
6|||SylviasLovers—Complete|Cluster 6|Elizabeth Cleghorn Gaskell|Elizabeth Cleghorn Gaskell|corpora/baseline/corpus4/pg4537.epub
6|||MaryBarton|Cluster 6|Elizabeth Cleghorn Gaskell|Elizabeth Cleghorn Gaskell|corpora/baseline/corpus4/pg2153.epub
6|||Cranford|Cluster 6|Elizabeth Cleghorn Gaskell|Elizabeth Cleghorn Gaskell|corpora/baseline/corpus4/pg394.epub
6|||Ruth|Cluster 6|Elizabeth Cleghorn Gaskell|Elizabeth Cleghorn Gaskell|corpora/baseline/corpus4/pg4275.epub
6|||NorthandSouth|Cluster 6|Elizabeth Cleghorn Gaskell|Elizabeth Cleghorn Gaskell|corpora/baseline/corpus4/pg4276.epub
