idnum|extra|percent|title|clusterid|real_author|label|filename
5|||Emma|Cluster 5|Jane Austen|Jane Austen|corpora/baseline/corpus2/pg158.epub
5|||Persuasion|Cluster 5|Jane Austen|Jane Austen|corpora/baseline/corpus2/pg105.epub
5|||NorthangerAbbey|Cluster 5|Jane Austen|Jane Austen|corpora/baseline/corpus2/pg121.epub
5|||PrideandPrejudice|Cluster 5|Jane Austen|Jane Austen|corpora/baseline/corpus2/pg42671.epub
5|||MansfieldPark|Cluster 5|Jane Austen|Jane Austen|corpora/baseline/corpus2/pg141.epub
5|||SenseandSensibility|Cluster 5|Jane Austen|Jane Austen|corpora/baseline/corpus2/pg161.epub
2|||MartinChuzzlewit|Cluster 2|Charles Dickens|unknown_2|corpora/baseline/corpus2/pg968.epub
2|||OurMutualFriend|Cluster 2|Charles Dickens|unknown_2|corpora/baseline/corpus2/pg883.epub
2|||TheMysteryofEdwinDrood|Cluster 2|Charles Dickens|unknown_2|corpora/baseline/corpus2/pg564.epub
2|||LittleDorrit|Cluster 2|Charles Dickens|unknown_2|corpora/baseline/corpus2/pg963.epub
2|||HardTimes|Cluster 2|Charles Dickens|unknown_2|corpora/baseline/corpus2/pg786.epub
0|||VanityFair|Cluster 0|William Makepeace Thackeray|William Makepeace Thackeray|corpora/baseline/corpus2/pg599.epub
0|||TheVirginians|Cluster 0|William Makepeace Thackeray|William Makepeace Thackeray|corpora/baseline/corpus2/pg8123.epub
0|||TheHistoryofHenryEsmondEsqaColonelintheServiceofHerMajestyQueenAnne|Cluster 0|William Makepeace Thackeray|William Makepeace Thackeray|corpora/baseline/corpus2/pg2511.epub
0|||TheNewcomesMemoirsofaMostRespectableFamily|Cluster 0|William Makepeace Thackeray|William Makepeace Thackeray|corpora/baseline/corpus2/pg7467.epub
0|||TheHistoryofPendennis|Cluster 0|William Makepeace Thackeray|William Makepeace Thackeray|corpora/baseline/corpus2/pg7265.epub
0|||CatherineAStory|Cluster 0|William Makepeace Thackeray|William Makepeace Thackeray|corpora/baseline/corpus2/pg1969.epub
3|||NorthandSouth|Cluster 3|Elizabeth Cleghorn Gaskell|Elizabeth Cleghorn Gaskell|corpora/baseline/corpus2/pg4276.epub
3|||Ruth|Cluster 3|Elizabeth Cleghorn Gaskell|Elizabeth Cleghorn Gaskell|corpora/baseline/corpus2/pg4275.epub
3|||Cranford|Cluster 3|Elizabeth Cleghorn Gaskell|Elizabeth Cleghorn Gaskell|corpora/baseline/corpus2/pg394.epub
3|||MaryBarton|Cluster 3|Elizabeth Cleghorn Gaskell|Elizabeth Cleghorn Gaskell|corpora/baseline/corpus2/pg2153.epub
3|||SylviasLovers—Complete|Cluster 3|Elizabeth Cleghorn Gaskell|Elizabeth Cleghorn Gaskell|corpora/baseline/corpus2/pg4537.epub
1|||AHouseofGentlefolk|Cluster 1|Ivan Sergeevich Turgenev|Ivan Sergeevich Turgenev|corpora/baseline/corpus2/pg5721.epub
1|||VirginSoil|Cluster 1|Ivan Sergeevich Turgenev|Ivan Sergeevich Turgenev|corpora/baseline/corpus2/pg2466.epub
1|||Smoke|Cluster 1|Ivan Sergeevich Turgenev|Ivan Sergeevich Turgenev|corpora/baseline/corpus2/pg40813.epub
1|||CrimeandPunishment|Cluster 1|Fyodor Dostoyevsky|Ivan Sergeevich Turgenev|corpora/baseline/corpus2/pg2554.epub
1|||RudinANovel|Cluster 1|Ivan Sergeevich Turgenev|Ivan Sergeevich Turgenev|corpora/baseline/corpus2/pg6900.epub
1|||ThePossessedTheDevils|Cluster 1|Fyodor Dostoyevsky|Ivan Sergeevich Turgenev|corpora/baseline/corpus2/pg8117.epub
1|||TheIdiot|Cluster 1|Fyodor Dostoyevsky|Ivan Sergeevich Turgenev|corpora/baseline/corpus2/pg2638.epub
1|||FathersandChildren|Cluster 1|Ivan Sergeevich Turgenev|Ivan Sergeevich Turgenev|corpora/baseline/corpus2/pg30723.epub
1|||OntheEveANovel|Cluster 1|Ivan Sergeevich Turgenev|Ivan Sergeevich Turgenev|corpora/baseline/corpus2/pg6902.epub
1|||TheBrothersKaramazov|Cluster 1|Fyodor Dostoyevsky|Ivan Sergeevich Turgenev|corpora/baseline/corpus2/pg28054.epub
4|||NicholasNickleby|Cluster 4|Charles Dickens|Charles Dickens|corpora/baseline/corpus2/pg967.epub
4|||ThePickwickPapers|Cluster 4|Charles Dickens|Charles Dickens|corpora/baseline/corpus2/pg580.epub
4|||OliverTwist|Cluster 4|Charles Dickens|Charles Dickens|corpora/baseline/corpus2/pg730.epub
4|||ATaleofTwoCities|Cluster 4|Charles Dickens|Charles Dickens|corpora/baseline/corpus2/pg98.epub
4|||DombeyandSon|Cluster 4|Charles Dickens|Charles Dickens|corpora/baseline/corpus2/pg821.epub
4|||BarnabyRudgeATaleoftheRiotsofEighty|Cluster 4|Charles Dickens|Charles Dickens|corpora/baseline/corpus2/pg917.epub
6|||FelixHolttheRadical|Cluster 6|George Eliot|George Eliot|corpora/baseline/corpus2/pg40882.epub
6|||TheMillontheFloss|Cluster 6|George Eliot|George Eliot|corpora/baseline/corpus2/pg6688.epub
6|||DanielDeronda|Cluster 6|George Eliot|George Eliot|corpora/baseline/corpus2/pg7469.epub
6|||AdamBede|Cluster 6|George Eliot|George Eliot|corpora/baseline/corpus2/pg507.epub
6|||Middlemarch|Cluster 6|George Eliot|George Eliot|corpora/baseline/corpus2/pg145.epub
6|||Romola|Cluster 6|George Eliot|George Eliot|corpora/baseline/corpus2/pg24020.epub
6|||SilasMarner|Cluster 6|George Eliot|George Eliot|corpora/baseline/corpus2/pg550.epub
