idnum|extra|percent|title|clusterid|real_author|label|filename
5|||Together|Cluster 5|Robert Herrick|Robert Herrick|corpora/first_corpus_filtered/8134.epub
5|||TheWebofLife|Cluster 5|Robert Herrick|Robert Herrick|corpora/first_corpus_filtered/7828.epub
5|||TheMemoirsofanAmericanCitizen|Cluster 5|Robert Herrick|Robert Herrick|corpora/first_corpus_filtered/41338.epub
5|||HisGreatAdventure|Cluster 5|Robert Herrick|Robert Herrick|corpora/first_corpus_filtered/59463.epub
5|||LiteraryLoveLettersandOtherStories|Cluster 5|Robert Herrick|Robert Herrick|corpora/first_corpus_filtered/8113.epub
5|||TheCommonLot|Cluster 5|Robert Herrick|Robert Herrick|corpora/first_corpus_filtered/57830.epub
5|||TheManWhoWins|Cluster 5|Robert Herrick|Robert Herrick|corpora/first_corpus_filtered/29808.epub
3|||AVindicationofNaturalDiet|Cluster 3|Percy Bysshe Shelley|Percy Bysshe Shelley|corpora/first_corpus_filtered/38727.epub
3|||TheWitchofAtlas|Cluster 3|Percy Bysshe Shelley|Percy Bysshe Shelley|corpora/first_corpus_filtered/4696.epub
3|||TheDaemonoftheWorld|Cluster 3|Percy Bysshe Shelley|Percy Bysshe Shelley|corpora/first_corpus_filtered/4654.epub
3|||TheCompletePoeticalWorksofPercyByssheShelley—Volume2|Cluster 3|Percy Bysshe Shelley|Percy Bysshe Shelley|corpora/first_corpus_filtered/4798.epub
3|||TheCompletePoeticalWorksofPercyByssheShelley—Volume3|Cluster 3|Percy Bysshe Shelley|Percy Bysshe Shelley|corpora/first_corpus_filtered/4799.epub
3|||HistoryofaSixWeeksTourThroughaPartofFranceSwitzerlandGermanyandHollandWithLettersDescriptiveofaSailRoundtheLakeofGenevaandofthe|Cluster 3|Mary Wollstonecraft Shelley|Percy Bysshe Shelley|corpora/first_corpus_filtered/52790.epub
3|||TheCompletePoeticalWorksofPercyByssheShelley—Complete|Cluster 3|Percy Bysshe Shelley|Percy Bysshe Shelley|corpora/first_corpus_filtered/4800.epub
3|||TheCompletePoeticalWorksofPercyByssheShelley—Volume1|Cluster 3|Percy Bysshe Shelley|Percy Bysshe Shelley|corpora/first_corpus_filtered/4797.epub
3|||TheWorldDecision|Cluster 3|Robert Herrick|Percy Bysshe Shelley|corpora/first_corpus_filtered/8529.epub
7|||InPathsofPerilABoysAdventuresinNovaScotia|Cluster 7|J. Macdonald Oxley|unknown_3|corpora/first_corpus_filtered/33753.epub
7|||WithRogersontheFrontierAStoryof1756|Cluster 7|J. Macdonald Oxley|unknown_3|corpora/first_corpus_filtered/53560.epub
7|||DonalblaneofDarien|Cluster 7|J. Macdonald Oxley|unknown_3|corpora/first_corpus_filtered/33722.epub
7|||TiTiPuABoyofRedRiver|Cluster 7|J. Macdonald Oxley|unknown_3|corpora/first_corpus_filtered/33740.epub
6|||TheHistoryofPhilosophyVolumeThreeof3|Cluster 6|Georg Wilhelm Friedrich Hegel|unknown_4|corpora/first_corpus_filtered/58169.epub
6|||HegelsLecturesontheHistoryofPhilosophyVolume2of3|Cluster 6|Georg Wilhelm Friedrich Hegel|unknown_4|corpora/first_corpus_filtered/51636.epub
6|||HegelsLecturesontheHistoryofPhilosophyVolume1of3|Cluster 6|Georg Wilhelm Friedrich Hegel|unknown_4|corpora/first_corpus_filtered/51635.epub
4|||PeterBelltheThird|Cluster 4|Percy Bysshe Shelley|unknown_5|corpora/first_corpus_filtered/4697.epub
4|||TheMasteroftheInn|Cluster 4|Robert Herrick|unknown_5|corpora/first_corpus_filtered/35388.epub
4|||BalladoftheLostHare|Cluster 4|Margaret Sidney|unknown_5|corpora/first_corpus_filtered/49624.epub
1|||ThePhilosophyofFineArtvolume2of4HegelsAesthetik|Cluster 1|Georg Wilhelm Friedrich Hegel|Georg Wilhelm Friedrich Hegel|corpora/first_corpus_filtered/55445.epub
1|||ThePhilosophyofFineArtvolume4of4HegelsAesthetik|Cluster 1|Georg Wilhelm Friedrich Hegel|Georg Wilhelm Friedrich Hegel|corpora/first_corpus_filtered/55731.epub
1|||TheIntroductiontoHegelsPhilosophyofFineArtsTranslatedfromtheGermanwithNotesandPrefatoryEssay|Cluster 1|Georg Wilhelm Friedrich Hegel|Georg Wilhelm Friedrich Hegel|corpora/first_corpus_filtered/46330.epub
1|||ThePhilosophyofFineArtvolume3of4HegelsAesthetik|Cluster 1|Georg Wilhelm Friedrich Hegel|Georg Wilhelm Friedrich Hegel|corpora/first_corpus_filtered/55623.epub
1|||ThePhilosophyofFineArtvolume1of4HegelsAesthetik|Cluster 1|Georg Wilhelm Friedrich Hegel|Georg Wilhelm Friedrich Hegel|corpora/first_corpus_filtered/55334.epub
1|||ADefenceofPoetryandOtherEssays|Cluster 1|Percy Bysshe Shelley|Georg Wilhelm Friedrich Hegel|corpora/first_corpus_filtered/5428.epub
1|||HegelsPhilosophyofMind|Cluster 1|Georg Wilhelm Friedrich Hegel|Georg Wilhelm Friedrich Hegel|corpora/first_corpus_filtered/39064.epub
1|||TheLogicofHegel|Cluster 1|Georg Wilhelm Friedrich Hegel|Georg Wilhelm Friedrich Hegel|corpora/first_corpus_filtered/55108.epub
2|||BenPepper|Cluster 2|Margaret Sidney|Margaret Sidney|corpora/first_corpus_filtered/35178.epub
2|||FiveLittlePeppersandtheirFriends|Cluster 2|Margaret Sidney|Margaret Sidney|corpora/first_corpus_filtered/6418.epub
2|||FiveLittlePeppersandHowTheyGrew|Cluster 2|Margaret Sidney|Margaret Sidney|corpora/first_corpus_filtered/2770.epub
2|||FiveLittlePeppersAbroad|Cluster 2|Margaret Sidney|Margaret Sidney|corpora/first_corpus_filtered/6987.epub
2|||TheStoriesPollyPepperToldtotheFiveLittlePeppersintheLittleBrownHouse|Cluster 2|Margaret Sidney|Margaret Sidney|corpora/first_corpus_filtered/49471.epub
2|||FiveLittlePeppersatSchool|Cluster 2|Margaret Sidney|Margaret Sidney|corpora/first_corpus_filtered/26122.epub
2|||FiveLittlePeppersMidway|Cluster 2|Margaret Sidney|Margaret Sidney|corpora/first_corpus_filtered/5632.epub
2|||TheAdventuresofJoelPepper|Cluster 2|Margaret Sidney|Margaret Sidney|corpora/first_corpus_filtered/7434.epub
2|||FiveLittlePeppersGrownUp|Cluster 2|Margaret Sidney|Margaret Sidney|corpora/first_corpus_filtered/7498.epub
0|||ClarksField|Cluster 0|Robert Herrick|J. Macdonald Oxley|corpora/first_corpus_filtered/30736.epub
0|||MyStrangeRescueandOtherStoriesofSportandAdventureinCanada|Cluster 0|J. Macdonald Oxley|J. Macdonald Oxley|corpora/first_corpus_filtered/51308.epub
0|||BertLloydsBoyhoodAStoryfromNovaScotia|Cluster 0|J. Macdonald Oxley|J. Macdonald Oxley|corpora/first_corpus_filtered/25358.epub
0|||TheYoungWoodsmanOrLifeintheForestsofCanada|Cluster 0|J. Macdonald Oxley|J. Macdonald Oxley|corpora/first_corpus_filtered/9968.epub
0|||TheFamilyonWheels|Cluster 0|J. Macdonald Oxley|J. Macdonald Oxley|corpora/first_corpus_filtered/55891.epub
0|||TheWreckersofSableIsland|Cluster 0|J. Macdonald Oxley|J. Macdonald Oxley|corpora/first_corpus_filtered/33714.epub
0|||TerrysTrialsandTriumphs|Cluster 0|J. Macdonald Oxley|J. Macdonald Oxley|corpora/first_corpus_filtered/33754.epub
