idnum|extra|title|percent|clusterid|real_author|label|filename
0|1241aa|HarryPotterandthePhilosophersStone|100.0|Cluster 0|J.K. Rowling|J.K. Rowling|corpora/baseline/corpus3/Harry Potter and the Philosopher's Stone - J.K. Rowling.epub
1|1241aa|HarryPotterandthePrisonerofAzkaban|0.5|Cluster 0|J.K. Rowling|J.K. Rowling|corpora/baseline/corpus3/Harry Potter and the Prisoner of Azkaban - J.K. Rowling.epub
2|1241aa|HarryPotterandtheOrderofthePhoenix|0.83|Cluster 0|J.K. Rowling|J.K. Rowling|corpora/baseline/corpus3/Harry Potter and the Order of the Phoenix - J.K. Rowling.epub
3|1241aa|HarryPotterandtheChamberofSecrets|0.5|Cluster 0|J.K. Rowling|J.K. Rowling|corpora/baseline/corpus3/Harry Potter and the Chamber of Secrets - J.K. Rowling.epub
4|1241aa|HarryPotterandtheHalfBloodPrince|0.05|Cluster 0|J.K. Rowling|J.K. Rowling|corpora/baseline/corpus3/Harry Potter and the Half-Blood Prince - J.K. Rowling.epub
5|1241aa|HarryPotterandtheGobletofFire|0.36|Cluster 0|J.K. Rowling|J.K. Rowling|corpora/baseline/corpus3/Harry Potter and the Goblet of Fire - J.K. Rowling.epub
6|1241aa|HarryPotterandtheDeathlyHallows|0.07|Cluster 0|J.K. Rowling|J.K. Rowling|corpora/baseline/corpus3/Harry Potter and the Deathly Hallows - J.K. Rowling.epub
0|1241aa|TheVirginians|100.0|Cluster 1|William Makepeace Thackeray|William Makepeace Thackeray|corpora/baseline/corpus3/pg8123.epub
1|1241aa|TheNewcomesMemoirsofaMostRespectableFamily|0.41|Cluster 1|William Makepeace Thackeray|William Makepeace Thackeray|corpora/baseline/corpus3/pg7467.epub
2|1241aa|TheHistoryofPendennis|0.32|Cluster 1|William Makepeace Thackeray|William Makepeace Thackeray|corpora/baseline/corpus3/pg7265.epub
3|1241aa|TheHistoryofHenryEsmondEsqaColonelintheServiceofHerMajestyQueenAnne|0.4|Cluster 1|William Makepeace Thackeray|William Makepeace Thackeray|corpora/baseline/corpus3/pg2511.epub
4|1241aa|CatherineAStory|0.87|Cluster 1|William Makepeace Thackeray|William Makepeace Thackeray|corpora/baseline/corpus3/pg1969.epub
5|1241aa|VanityFair|0.38|Cluster 1|William Makepeace Thackeray|William Makepeace Thackeray|corpora/baseline/corpus3/pg599.epub
0|1241aa|OliverTwist|100.0|Cluster 2|Charles Dickens|unknown_3|corpora/baseline/corpus3/pg730.epub
1|1241aa|BarnabyRudgeATaleoftheRiotsofEighty|0.89|Cluster 2|Charles Dickens|unknown_3|corpora/baseline/corpus3/pg917.epub
2|1241aa|MartinChuzzlewit|0.77|Cluster 2|Charles Dickens|unknown_3|corpora/baseline/corpus3/pg968.epub
3|1241aa|NicholasNickleby|0.19|Cluster 2|Charles Dickens|unknown_3|corpora/baseline/corpus3/pg967.epub
4|1241aa|ThePickwickPapers|0.71|Cluster 2|Charles Dickens|unknown_3|corpora/baseline/corpus3/pg580.epub
0|1241aa|SenseandSensibility|100.0|Cluster 3|Jane Austen|Jane Austen|corpora/baseline/corpus3/pg161.epub
1|1241aa|Emma|0.42|Cluster 3|Jane Austen|Jane Austen|corpora/baseline/corpus3/pg158.epub
2|1241aa|PrideandPrejudice|0.72|Cluster 3|Jane Austen|Jane Austen|corpora/baseline/corpus3/pg42671.epub
3|1241aa|Persuasion|0.94|Cluster 3|Jane Austen|Jane Austen|corpora/baseline/corpus3/pg105.epub
4|1241aa|NorthangerAbbey|0.6|Cluster 3|Jane Austen|Jane Austen|corpora/baseline/corpus3/pg121.epub
5|1241aa|MansfieldPark|0.89|Cluster 3|Jane Austen|Jane Austen|corpora/baseline/corpus3/pg141.epub
0|1241aa|Romola|100.0|Cluster 4|George Eliot|George Eliot|corpora/baseline/corpus3/pg24020.epub
1|1241aa|SilasMarner|0.45|Cluster 4|George Eliot|George Eliot|corpora/baseline/corpus3/pg550.epub
2|1241aa|FelixHolttheRadical|0.67|Cluster 4|George Eliot|George Eliot|corpora/baseline/corpus3/pg40882.epub
3|1241aa|AdamBede|0.78|Cluster 4|George Eliot|George Eliot|corpora/baseline/corpus3/pg507.epub
4|1241aa|TheMillontheFloss|0.9|Cluster 4|George Eliot|George Eliot|corpora/baseline/corpus3/pg6688.epub
5|1241aa|Middlemarch|0.69|Cluster 4|George Eliot|George Eliot|corpora/baseline/corpus3/pg145.epub
6|1241aa|DanielDeronda|0.85|Cluster 4|George Eliot|George Eliot|corpora/baseline/corpus3/pg7469.epub
0|1241aa|Ruth|100.0|Cluster 5|Elizabeth Cleghorn Gaskell|Elizabeth Cleghorn Gaskell|corpora/baseline/corpus3/pg4275.epub
1|1241aa|Cranford|0.72|Cluster 5|Elizabeth Cleghorn Gaskell|Elizabeth Cleghorn Gaskell|corpora/baseline/corpus3/pg394.epub
2|1241aa|NorthandSouth|0.47|Cluster 5|Elizabeth Cleghorn Gaskell|Elizabeth Cleghorn Gaskell|corpora/baseline/corpus3/pg4276.epub
3|1241aa|MaryBarton|0.89|Cluster 5|Elizabeth Cleghorn Gaskell|Elizabeth Cleghorn Gaskell|corpora/baseline/corpus3/pg2153.epub
4|1241aa|SylviasLovers—Complete|0.27|Cluster 5|Elizabeth Cleghorn Gaskell|Elizabeth Cleghorn Gaskell|corpora/baseline/corpus3/pg4537.epub
0|1241aa|TheMysteryofEdwinDrood|100.0|Cluster 6|Charles Dickens|Charles Dickens|corpora/baseline/corpus3/pg564.epub
1|1241aa|DombeyandSon|0.08|Cluster 6|Charles Dickens|Charles Dickens|corpora/baseline/corpus3/pg821.epub
2|1241aa|OurMutualFriend|0.83|Cluster 6|Charles Dickens|Charles Dickens|corpora/baseline/corpus3/pg883.epub
3|1241aa|LittleDorrit|0.29|Cluster 6|Charles Dickens|Charles Dickens|corpora/baseline/corpus3/pg963.epub
4|1241aa|HardTimes|0.68|Cluster 6|Charles Dickens|Charles Dickens|corpora/baseline/corpus3/pg786.epub
5|1241aa|ATaleofTwoCities|0.38|Cluster 6|Charles Dickens|Charles Dickens|corpora/baseline/corpus3/pg98.epub
