idnum|extra|percent|title|clusterid|real_author|label|filename
1|||VirginSoil|Cluster 1|Ivan Sergeevich Turgenev|Ivan Sergeevich Turgenev|corpora/baseline/corpus2/pg2466.epub
1|||TheBrothersKaramazov|Cluster 1|Fyodor Dostoyevsky|Ivan Sergeevich Turgenev|corpora/baseline/corpus2/pg28054.epub
1|||TheIdiot|Cluster 1|Fyodor Dostoyevsky|Ivan Sergeevich Turgenev|corpora/baseline/corpus2/pg2638.epub
1|||CrimeandPunishment|Cluster 1|Fyodor Dostoyevsky|Ivan Sergeevich Turgenev|corpora/baseline/corpus2/pg2554.epub
1|||RudinANovel|Cluster 1|Ivan Sergeevich Turgenev|Ivan Sergeevich Turgenev|corpora/baseline/corpus2/pg6900.epub
1|||OntheEveANovel|Cluster 1|Ivan Sergeevich Turgenev|Ivan Sergeevich Turgenev|corpora/baseline/corpus2/pg6902.epub
1|||ThePossessedTheDevils|Cluster 1|Fyodor Dostoyevsky|Ivan Sergeevich Turgenev|corpora/baseline/corpus2/pg8117.epub
1|||Smoke|Cluster 1|Ivan Sergeevich Turgenev|Ivan Sergeevich Turgenev|corpora/baseline/corpus2/pg40813.epub
1|||AHouseofGentlefolk|Cluster 1|Ivan Sergeevich Turgenev|Ivan Sergeevich Turgenev|corpora/baseline/corpus2/pg5721.epub
1|||FathersandChildren|Cluster 1|Ivan Sergeevich Turgenev|Ivan Sergeevich Turgenev|corpora/baseline/corpus2/pg30723.epub
4|||TheHistoryofHenryEsmondEsqaColonelintheServiceofHerMajestyQueenAnne|Cluster 4|William Makepeace Thackeray|William Makepeace Thackeray|corpora/baseline/corpus2/pg2511.epub
4|||TheNewcomesMemoirsofaMostRespectableFamily|Cluster 4|William Makepeace Thackeray|William Makepeace Thackeray|corpora/baseline/corpus2/pg7467.epub
4|||TheVirginians|Cluster 4|William Makepeace Thackeray|William Makepeace Thackeray|corpora/baseline/corpus2/pg8123.epub
4|||CatherineAStory|Cluster 4|William Makepeace Thackeray|William Makepeace Thackeray|corpora/baseline/corpus2/pg1969.epub
4|||VanityFair|Cluster 4|William Makepeace Thackeray|William Makepeace Thackeray|corpora/baseline/corpus2/pg599.epub
4|||TheHistoryofPendennis|Cluster 4|William Makepeace Thackeray|William Makepeace Thackeray|corpora/baseline/corpus2/pg7265.epub
5|||LittleDorrit|Cluster 5|Charles Dickens|Charles Dickens|corpora/baseline/corpus2/pg963.epub
5|||MartinChuzzlewit|Cluster 5|Charles Dickens|Charles Dickens|corpora/baseline/corpus2/pg968.epub
5|||OurMutualFriend|Cluster 5|Charles Dickens|Charles Dickens|corpora/baseline/corpus2/pg883.epub
5|||HardTimes|Cluster 5|Charles Dickens|Charles Dickens|corpora/baseline/corpus2/pg786.epub
5|||TheMysteryofEdwinDrood|Cluster 5|Charles Dickens|Charles Dickens|corpora/baseline/corpus2/pg564.epub
5|||DombeyandSon|Cluster 5|Charles Dickens|Charles Dickens|corpora/baseline/corpus2/pg821.epub
5|||NicholasNickleby|Cluster 5|Charles Dickens|Charles Dickens|corpora/baseline/corpus2/pg967.epub
2|||SylviasLovers—Complete|Cluster 2|Elizabeth Cleghorn Gaskell|unknown_4|corpora/baseline/corpus2/pg4537.epub
2|||BarnabyRudgeATaleoftheRiotsofEighty|Cluster 2|Charles Dickens|unknown_4|corpora/baseline/corpus2/pg917.epub
2|||OliverTwist|Cluster 2|Charles Dickens|unknown_4|corpora/baseline/corpus2/pg730.epub
2|||ATaleofTwoCities|Cluster 2|Charles Dickens|unknown_4|corpora/baseline/corpus2/pg98.epub
2|||ThePickwickPapers|Cluster 2|Charles Dickens|unknown_4|corpora/baseline/corpus2/pg580.epub
3|||FelixHolttheRadical|Cluster 3|George Eliot|George Eliot|corpora/baseline/corpus2/pg40882.epub
3|||TheMillontheFloss|Cluster 3|George Eliot|George Eliot|corpora/baseline/corpus2/pg6688.epub
3|||DanielDeronda|Cluster 3|George Eliot|George Eliot|corpora/baseline/corpus2/pg7469.epub
3|||Middlemarch|Cluster 3|George Eliot|George Eliot|corpora/baseline/corpus2/pg145.epub
3|||Romola|Cluster 3|George Eliot|George Eliot|corpora/baseline/corpus2/pg24020.epub
3|||AdamBede|Cluster 3|George Eliot|George Eliot|corpora/baseline/corpus2/pg507.epub
3|||SilasMarner|Cluster 3|George Eliot|George Eliot|corpora/baseline/corpus2/pg550.epub
0|||Cranford|Cluster 0|Elizabeth Cleghorn Gaskell|Jane Austen|corpora/baseline/corpus2/pg394.epub
0|||SenseandSensibility|Cluster 0|Jane Austen|Jane Austen|corpora/baseline/corpus2/pg161.epub
0|||NorthandSouth|Cluster 0|Elizabeth Cleghorn Gaskell|Jane Austen|corpora/baseline/corpus2/pg4276.epub
0|||Ruth|Cluster 0|Elizabeth Cleghorn Gaskell|Jane Austen|corpora/baseline/corpus2/pg4275.epub
0|||PrideandPrejudice|Cluster 0|Jane Austen|Jane Austen|corpora/baseline/corpus2/pg42671.epub
0|||Emma|Cluster 0|Jane Austen|Jane Austen|corpora/baseline/corpus2/pg158.epub
0|||MaryBarton|Cluster 0|Elizabeth Cleghorn Gaskell|Jane Austen|corpora/baseline/corpus2/pg2153.epub
0|||Persuasion|Cluster 0|Jane Austen|Jane Austen|corpora/baseline/corpus2/pg105.epub
0|||NorthangerAbbey|Cluster 0|Jane Austen|Jane Austen|corpora/baseline/corpus2/pg121.epub
0|||MansfieldPark|Cluster 0|Jane Austen|Jane Austen|corpora/baseline/corpus2/pg141.epub
