idnum|extra|percent|title|clusterid|real_author|label|filename
5|||NicholasNickleby|Cluster 5|Charles Dickens|Charles Dickens|corpora/baseline/corpus2/pg967.epub
5|||ATaleofTwoCities|Cluster 5|Charles Dickens|Charles Dickens|corpora/baseline/corpus2/pg98.epub
5|||BarnabyRudgeATaleoftheRiotsofEighty|Cluster 5|Charles Dickens|Charles Dickens|corpora/baseline/corpus2/pg917.epub
5|||OliverTwist|Cluster 5|Charles Dickens|Charles Dickens|corpora/baseline/corpus2/pg730.epub
5|||DombeyandSon|Cluster 5|Charles Dickens|Charles Dickens|corpora/baseline/corpus2/pg821.epub
5|||ThePickwickPapers|Cluster 5|Charles Dickens|Charles Dickens|corpora/baseline/corpus2/pg580.epub
2|||FelixHolttheRadical|Cluster 2|George Eliot|George Eliot|corpora/baseline/corpus2/pg40882.epub
2|||SilasMarner|Cluster 2|George Eliot|George Eliot|corpora/baseline/corpus2/pg550.epub
2|||AdamBede|Cluster 2|George Eliot|George Eliot|corpora/baseline/corpus2/pg507.epub
2|||Middlemarch|Cluster 2|George Eliot|George Eliot|corpora/baseline/corpus2/pg145.epub
2|||Romola|Cluster 2|George Eliot|George Eliot|corpora/baseline/corpus2/pg24020.epub
2|||TheMillontheFloss|Cluster 2|George Eliot|George Eliot|corpora/baseline/corpus2/pg6688.epub
2|||DanielDeronda|Cluster 2|George Eliot|George Eliot|corpora/baseline/corpus2/pg7469.epub
0|||MansfieldPark|Cluster 0|Jane Austen|Jane Austen|corpora/baseline/corpus2/pg141.epub
0|||Persuasion|Cluster 0|Jane Austen|Jane Austen|corpora/baseline/corpus2/pg105.epub
0|||SenseandSensibility|Cluster 0|Jane Austen|Jane Austen|corpora/baseline/corpus2/pg161.epub
0|||NorthangerAbbey|Cluster 0|Jane Austen|Jane Austen|corpora/baseline/corpus2/pg121.epub
0|||Emma|Cluster 0|Jane Austen|Jane Austen|corpora/baseline/corpus2/pg158.epub
0|||PrideandPrejudice|Cluster 0|Jane Austen|Jane Austen|corpora/baseline/corpus2/pg42671.epub
3|||LittleDorrit|Cluster 3|Charles Dickens|unknown_4|corpora/baseline/corpus2/pg963.epub
3|||TheMysteryofEdwinDrood|Cluster 3|Charles Dickens|unknown_4|corpora/baseline/corpus2/pg564.epub
3|||OurMutualFriend|Cluster 3|Charles Dickens|unknown_4|corpora/baseline/corpus2/pg883.epub
3|||MartinChuzzlewit|Cluster 3|Charles Dickens|unknown_4|corpora/baseline/corpus2/pg968.epub
3|||HardTimes|Cluster 3|Charles Dickens|unknown_4|corpora/baseline/corpus2/pg786.epub
1|||FathersandChildren|Cluster 1|Ivan Sergeevich Turgenev|Ivan Sergeevich Turgenev|corpora/baseline/corpus2/pg30723.epub
1|||CrimeandPunishment|Cluster 1|Fyodor Dostoyevsky|Ivan Sergeevich Turgenev|corpora/baseline/corpus2/pg2554.epub
1|||OntheEveANovel|Cluster 1|Ivan Sergeevich Turgenev|Ivan Sergeevich Turgenev|corpora/baseline/corpus2/pg6902.epub
1|||TheBrothersKaramazov|Cluster 1|Fyodor Dostoyevsky|Ivan Sergeevich Turgenev|corpora/baseline/corpus2/pg28054.epub
1|||TheIdiot|Cluster 1|Fyodor Dostoyevsky|Ivan Sergeevich Turgenev|corpora/baseline/corpus2/pg2638.epub
1|||RudinANovel|Cluster 1|Ivan Sergeevich Turgenev|Ivan Sergeevich Turgenev|corpora/baseline/corpus2/pg6900.epub
1|||AHouseofGentlefolk|Cluster 1|Ivan Sergeevich Turgenev|Ivan Sergeevich Turgenev|corpora/baseline/corpus2/pg5721.epub
1|||VirginSoil|Cluster 1|Ivan Sergeevich Turgenev|Ivan Sergeevich Turgenev|corpora/baseline/corpus2/pg2466.epub
1|||ThePossessedTheDevils|Cluster 1|Fyodor Dostoyevsky|Ivan Sergeevich Turgenev|corpora/baseline/corpus2/pg8117.epub
1|||Smoke|Cluster 1|Ivan Sergeevich Turgenev|Ivan Sergeevich Turgenev|corpora/baseline/corpus2/pg40813.epub
4|||TheNewcomesMemoirsofaMostRespectableFamily|Cluster 4|William Makepeace Thackeray|William Makepeace Thackeray|corpora/baseline/corpus2/pg7467.epub
4|||VanityFair|Cluster 4|William Makepeace Thackeray|William Makepeace Thackeray|corpora/baseline/corpus2/pg599.epub
4|||TheHistoryofHenryEsmondEsqaColonelintheServiceofHerMajestyQueenAnne|Cluster 4|William Makepeace Thackeray|William Makepeace Thackeray|corpora/baseline/corpus2/pg2511.epub
4|||CatherineAStory|Cluster 4|William Makepeace Thackeray|William Makepeace Thackeray|corpora/baseline/corpus2/pg1969.epub
4|||TheVirginians|Cluster 4|William Makepeace Thackeray|William Makepeace Thackeray|corpora/baseline/corpus2/pg8123.epub
4|||TheHistoryofPendennis|Cluster 4|William Makepeace Thackeray|William Makepeace Thackeray|corpora/baseline/corpus2/pg7265.epub
6|||NorthandSouth|Cluster 6|Elizabeth Cleghorn Gaskell|Elizabeth Cleghorn Gaskell|corpora/baseline/corpus2/pg4276.epub
6|||SylviasLovers—Complete|Cluster 6|Elizabeth Cleghorn Gaskell|Elizabeth Cleghorn Gaskell|corpora/baseline/corpus2/pg4537.epub
6|||Ruth|Cluster 6|Elizabeth Cleghorn Gaskell|Elizabeth Cleghorn Gaskell|corpora/baseline/corpus2/pg4275.epub
6|||Cranford|Cluster 6|Elizabeth Cleghorn Gaskell|Elizabeth Cleghorn Gaskell|corpora/baseline/corpus2/pg394.epub
6|||MaryBarton|Cluster 6|Elizabeth Cleghorn Gaskell|Elizabeth Cleghorn Gaskell|corpora/baseline/corpus2/pg2153.epub
