\relax 
\providecommand\hyper@newdestlabel[2]{}
\providecommand\HyperFirstAtBeginDocument{\AtBeginDocument}
\HyperFirstAtBeginDocument{\ifx\hyper@anchor\@undefined
\global\let\oldcontentsline\contentsline
\gdef\contentsline#1#2#3#4{\oldcontentsline{#1}{#2}{#3}}
\global\let\oldnewlabel\newlabel
\gdef\newlabel#1#2{\newlabelxx{#1}#2}
\gdef\newlabelxx#1#2#3#4#5#6{\oldnewlabel{#1}{{#2}{#3}}}
\AtEndDocument{\ifx\hyper@anchor\@undefined
\let\contentsline\oldcontentsline
\let\newlabel\oldnewlabel
\fi}
\fi}
\global\let\hyper@last\relax 
\gdef\HyperFirstAtBeginDocument#1{#1}
\providecommand\HyField@AuxAddToFields[1]{}
\providecommand\HyField@AuxAddToCoFields[2]{}
\catcode `"\active 
\providecommand \oddpage@label [2]{}
\babel@aux{dutch}{}
\bibstyle{apacite}
\citation{gray}
\citation{musicgenome}
\citation{paup}
\@writefile{toc}{\contentsline {section}{\numberline {1}Introductie}{2}{section.1}\protected@file@percent }
\newlabel{sec:introductie}{{1}{2}{Introductie}{section.1}{}}
\citation{holmes}
\citation{gender}
\citation{platoart}
\providecommand*\caption@xref[2]{\@setref\relax\@undefined{#1}}
\newlabel{fig:stappen}{{\caption@xref {fig:stappen}{ on input line 86}}{3}{Introductie}{figure.caption.2}{}}
\@writefile{toc}{\contentsline {section}{\numberline {2}Stylometrie}{3}{section.2}\protected@file@percent }
\@writefile{toc}{\contentsline {subsection}{\numberline {2.1}Stylometrische technieken}{4}{subsection.2.1}\protected@file@percent }
\@writefile{toc}{\contentsline {subsubsection}{\numberline {2.1.1}POS tagging}{4}{subsubsection.2.1.1}\protected@file@percent }
\citation{postag}
\citation{holmes}
\citation{survey}
\citation{spam}
\citation{nltk}
\citation{daelemans2004timbl}
\citation{mbt}
\citation{walewein}
\citation{waldelt}
\citation{weigh}
\@writefile{toc}{\contentsline {subsection}{\numberline {2.2}Middelnederlands}{5}{subsection.2.2}\protected@file@percent }
\citation{gysseling}
\citation{instbase}
\citation{weigh}
\citation{paup}
\@writefile{toc}{\contentsline {subsubsection}{\numberline {2.2.1}Tagging}{6}{subsubsection.2.2.1}\protected@file@percent }
\@writefile{toc}{\contentsline {subsubsection}{\numberline {2.2.2}Lemmatisatie}{6}{subsubsection.2.2.2}\protected@file@percent }
\@writefile{lot}{\contentsline {table}{\numberline {1}{\ignorespaces Tabel met mogelijke nuciotiden\relax }}{7}{table.caption.3}\protected@file@percent }
\newlabel{tab:dna}{{1}{7}{Tabel met mogelijke nuciotiden\relax }{table.caption.3}{}}
\@writefile{toc}{\contentsline {section}{\numberline {3}Omvormen tot DNA}{7}{section.3}\protected@file@percent }
\@writefile{lof}{\contentsline {figure}{\numberline {1}{\ignorespaces Een voorbeeld van een encodingboom van lengte 2\relax }}{8}{figure.caption.4}\protected@file@percent }
\newlabel{fig:examplenc}{{1}{8}{Een voorbeeld van een encodingboom van lengte 2\relax }{figure.caption.4}{}}
\newlabel{eq:normal}{{3}{8}{Omvormen tot DNA}{equation.3.3}{}}
\citation{gender}
\citation{function_words}
\citation{function_words_extra}
\citation{function_words}
\@writefile{toc}{\contentsline {subsection}{\numberline {3.1}Functiewoorden}{9}{subsection.3.1}\protected@file@percent }
\citation{better_richness}
\@writefile{toc}{\contentsline {subsubsection}{\numberline {3.1.1}Varieteit in woordenschat}{10}{subsubsection.3.1.1}\protected@file@percent }
\newlabel{eq:ttr}{{4}{10}{Varieteit in woordenschat}{equation.3.4}{}}
\citation{jurafsky}
\citation{joining}
\citation{joining_review}
\@writefile{toc}{\contentsline {subsection}{\numberline {3.2}Het maken van phylogenetische bomen uit DNA}{11}{subsection.3.2}\protected@file@percent }
\newlabel{sec:joining}{{3.2}{11}{Het maken van phylogenetische bomen uit DNA}{subsection.3.2}{}}
\newlabel{eq:qmat}{{5}{11}{Het maken van phylogenetische bomen uit DNA}{equation.3.5}{}}
\newlabel{eq:distance}{{6}{11}{Het maken van phylogenetische bomen uit DNA}{equation.3.6}{}}
\@writefile{lof}{\contentsline {figure}{\numberline {2}{\ignorespaces Voorbeeld van neighbour joining}}{12}{figure.caption.5}\protected@file@percent }
\newlabel{fig:joining}{{2}{12}{Voorbeeld van neighbour joining}{figure.caption.5}{}}
\citation{parsimony}
\citation{intro_computation}
\citation{Amigo2009}
\citation{retrieval}
\@writefile{toc}{\contentsline {subsection}{\numberline {3.3}Metrics}{13}{subsection.3.3}\protected@file@percent }
\@writefile{toc}{\contentsline {subsubsection}{\numberline {3.3.1}Zuiverheid}{13}{subsubsection.3.3.1}\protected@file@percent }
\newlabel{eq:purity}{{7}{13}{Zuiverheid}{equation.3.7}{}}
\@writefile{lof}{\contentsline {figure}{\numberline {3}{\ignorespaces Woordfrequentie DNA (Ongetraind)\relax }}{14}{figure.caption.6}\protected@file@percent }
\@writefile{toc}{\contentsline {section}{\numberline {4}Resultaten en besluit}{14}{section.4}\protected@file@percent }
\@writefile{toc}{\contentsline {subsection}{\numberline {4.1}Zonder de training}{14}{subsection.4.1}\protected@file@percent }
\newlabel{fig:fant}{{4.1}{14}{Zonder de training}{subsection.4.1}{}}
\@writefile{lot}{\contentsline {table}{\numberline {2}{\ignorespaces Corpus van moderne fantasy literatuur\relax }}{15}{table.caption.7}\protected@file@percent }
\newlabel{tab:fantasy}{{2}{15}{Corpus van moderne fantasy literatuur\relax }{table.caption.7}{}}
\citation{walewein}
\citation{waldelt}
\bibdata{biblio.bib}
\@writefile{lof}{\contentsline {figure}{\numberline {4}{\ignorespaces Walewein met tokens\relax }}{16}{figure.caption.8}\protected@file@percent }
\newlabel{fig:waltok}{{4}{16}{Walewein met tokens\relax }{figure.caption.8}{}}
\bibcite{instbase}{\citeauthoryear {Aha, Kibler{}\ \BBA{} Albert}{Aha\ \BOthers {.}}{{\APACyear {1991}}}}
\APACbibcite{instbase}{\citeauthoryear {Aha, Kibler{}\ \BBA{} Albert}{Aha\ \BOthers {.}}{{\APACyear {1991}}}}
\bibcite{Amigo2009}{\citeauthoryear {Amigo, Gonzalo, Artiles{}\ \BBA{} Verdejo}{Amigo\ \BOthers {.}}{{\APACyear {2009}}}}
\APACbibcite{Amigo2009}{\citeauthoryear {Amigo, Gonzalo, Artiles{}\ \BBA{} Verdejo}{Amigo\ \BOthers {.}}{{\APACyear {2009}}}}
\bibcite{spam}{\citeauthoryear {Androutsopoulos\ \BOthers {.}}{Androutsopoulos\ \BOthers {.}}{{\APACyear {2000}}}}
\APACbibcite{spam}{\citeauthoryear {Androutsopoulos\ \BOthers {.}}{Androutsopoulos\ \BOthers {.}}{{\APACyear {2000}}}}
\bibcite{function_words_extra}{\citeauthoryear {Bell, Brenier, Gregory, Girand{}\ \BBA{} Jurafsky}{Bell\ \BOthers {.}}{{\APACyear {2009}}}}
\APACbibcite{function_words_extra}{\citeauthoryear {Bell, Brenier, Gregory, Girand{}\ \BBA{} Jurafsky}{Bell\ \BOthers {.}}{{\APACyear {2009}}}}
\bibcite{nltk}{\citeauthoryear {Bird, Klein{}\ \BBA{} Loper}{Bird\ \BOthers {.}}{{\APACyear {2009}}}}
\APACbibcite{nltk}{\citeauthoryear {Bird, Klein{}\ \BBA{} Loper}{Bird\ \BOthers {.}}{{\APACyear {2009}}}}
\bibcite{musicgenome}{\citeauthoryear {Castelluccio}{Castelluccio}{{\APACyear {2006}}}}
\APACbibcite{musicgenome}{\citeauthoryear {Castelluccio}{Castelluccio}{{\APACyear {2006}}}}
\bibcite{function_words}{\citeauthoryear {Chung\ \BBA{} Pennebaker}{Chung\ \BBA{} Pennebaker}{{\APACyear {2007}}}}
\APACbibcite{function_words}{\citeauthoryear {Chung\ \BBA{} Pennebaker}{Chung\ \BBA{} Pennebaker}{{\APACyear {2007}}}}
\bibcite{better_richness}{\citeauthoryear {Covington\ \BBA{} McFall}{Covington\ \BBA{} McFall}{{\APACyear {2010}}}}
\APACbibcite{better_richness}{\citeauthoryear {Covington\ \BBA{} McFall}{Covington\ \BBA{} McFall}{{\APACyear {2010}}}}
\bibcite{mbt}{\citeauthoryear {Daelemans, Zavrel, Van Den~Bosch{}\ \BBA{} Van~der Sloot}{Daelemans\ \BOthers {.}}{{\APACyear {2003}}}}
\APACbibcite{mbt}{\citeauthoryear {Daelemans, Zavrel, Van Den~Bosch{}\ \BBA{} Van~der Sloot}{Daelemans\ \BOthers {.}}{{\APACyear {2003}}}}
\@writefile{lof}{\contentsline {figure}{\numberline {5}{\ignorespaces Walewein met lemma's\relax }}{17}{figure.caption.9}\protected@file@percent }
\newlabel{fig:walem}{{5}{17}{Walewein met lemma's\relax }{figure.caption.9}{}}
\@writefile{toc}{\contentsline {section}{Literatuur}{17}{section*.10}\protected@file@percent }
\bibcite{daelemans2004timbl}{\citeauthoryear {Daelemans, Zavrel, Van Der~Sloot{}\ \BBA{} Van~den Bosch}{Daelemans\ \BOthers {.}}{{\APACyear {2004}}}}
\APACbibcite{daelemans2004timbl}{\citeauthoryear {Daelemans, Zavrel, Van Der~Sloot{}\ \BBA{} Van~den Bosch}{Daelemans\ \BOthers {.}}{{\APACyear {2004}}}}
\bibcite{parsimony}{\citeauthoryear {Fitch}{Fitch}{{\APACyear {1971}}}}
\APACbibcite{parsimony}{\citeauthoryear {Fitch}{Fitch}{{\APACyear {1971}}}}
\bibcite{joining_review}{\citeauthoryear {Gascuel\ \BBA{} Steel}{Gascuel\ \BBA{} Steel}{{\APACyear {2006}}}}
\APACbibcite{joining_review}{\citeauthoryear {Gascuel\ \BBA{} Steel}{Gascuel\ \BBA{} Steel}{{\APACyear {2006}}}}
\bibcite{gray}{\citeauthoryear {Gray\ \BBA{} Atkinson}{Gray\ \BBA{} Atkinson}{{\APACyear {2003}}}}
\APACbibcite{gray}{\citeauthoryear {Gray\ \BBA{} Atkinson}{Gray\ \BBA{} Atkinson}{{\APACyear {2003}}}}
\bibcite{gysseling}{\citeauthoryear {Gysseling}{Gysseling}{{\APACyear {1980}}}}
\APACbibcite{gysseling}{\citeauthoryear {Gysseling}{Gysseling}{{\APACyear {1980}}}}
\bibcite{holmes}{\citeauthoryear {HOLMES}{HOLMES}{{\APACyear {1998}}}}
\APACbibcite{holmes}{\citeauthoryear {HOLMES}{HOLMES}{{\APACyear {1998}}}}
\bibcite{jurafsky}{\citeauthoryear {Jurafsky\ \BBA{} Martin}{Jurafsky\ \BBA{} Martin}{{\APACyear {2014}}}}
\APACbibcite{jurafsky}{\citeauthoryear {Jurafsky\ \BBA{} Martin}{Jurafsky\ \BBA{} Martin}{{\APACyear {2014}}}}
\bibcite{weigh}{\citeauthoryear {Kestemont, Daelemans{}\ \BBA{} De~Pauw}{Kestemont\ \BOthers {.}}{{\APACyear {2010}}}}
\APACbibcite{weigh}{\citeauthoryear {Kestemont, Daelemans{}\ \BBA{} De~Pauw}{Kestemont\ \BOthers {.}}{{\APACyear {2010}}}}
\bibcite{walewein}{\citeauthoryear {Kestemont\ \BBA{} van Dalen-Oskam}{Kestemont\ \BBA{} van Dalen-Oskam}{{\APACyear {2009}}}}
\APACbibcite{walewein}{\citeauthoryear {Kestemont\ \BBA{} van Dalen-Oskam}{Kestemont\ \BBA{} van Dalen-Oskam}{{\APACyear {2009}}}}
\bibcite{gender}{\citeauthoryear {Koppel, Argamon{}\ \BBA{} Shimoni}{Koppel\ \BOthers {.}}{{\APACyear {2002}}}}
\APACbibcite{gender}{\citeauthoryear {Koppel, Argamon{}\ \BBA{} Shimoni}{Koppel\ \BOthers {.}}{{\APACyear {2002}}}}
\bibcite{platoart}{\citeauthoryear {Lutoslawski}{Lutoslawski}{{\APACyear {1898}}}}
\APACbibcite{platoart}{\citeauthoryear {Lutoslawski}{Lutoslawski}{{\APACyear {1898}}}}
\bibcite{retrieval}{\citeauthoryear {Manning, Raghevan{}\ \BBA{} Sch\IeC {\"u}tze}{Manning\ \BOthers {.}}{{\APACyear {2008}}}}
\APACbibcite{retrieval}{\citeauthoryear {Manning, Raghevan{}\ \BBA{} Sch\IeC {\"u}tze}{Manning\ \BOthers {.}}{{\APACyear {2008}}}}
\bibcite{postag}{\citeauthoryear {M\IeC {\`a}rquez\ \BBA{} Rodr\IeC {\'\i }guez}{M\IeC {\`a}rquez\ \BBA{} Rodr\IeC {\'\i }guez}{{\APACyear {2006}}}}
\APACbibcite{postag}{\citeauthoryear {M\IeC {\`a}rquez\ \BBA{} Rodr\IeC {\'\i }guez}{M\IeC {\`a}rquez\ \BBA{} Rodr\IeC {\'\i }guez}{{\APACyear {2006}}}}
\bibcite{joining}{\citeauthoryear {Saitou\ \BBA{} Nei}{Saitou\ \BBA{} Nei}{{\APACyear {1987}}}}
\APACbibcite{joining}{\citeauthoryear {Saitou\ \BBA{} Nei}{Saitou\ \BBA{} Nei}{{\APACyear {1987}}}}
\bibcite{intro_computation}{\citeauthoryear {Sipser}{Sipser}{{\APACyear {2012}}}}
\APACbibcite{intro_computation}{\citeauthoryear {Sipser}{Sipser}{{\APACyear {2012}}}}
\bibcite{survey}{\citeauthoryear {Stamatatos}{Stamatatos}{{\APACyear {2009}}}}
\APACbibcite{survey}{\citeauthoryear {Stamatatos}{Stamatatos}{{\APACyear {2009}}}}
\bibcite{paup}{\citeauthoryear {Swofford}{Swofford}{{\APACyear {2003}}}}
\APACbibcite{paup}{\citeauthoryear {Swofford}{Swofford}{{\APACyear {2003}}}}
\bibcite{waldelt}{\citeauthoryear {van Dalen-Oskam\ \BBA{} van Zundert}{van Dalen-Oskam\ \BBA{} van Zundert}{{\APACyear {2007}}}}
\APACbibcite{waldelt}{\citeauthoryear {van Dalen-Oskam\ \BBA{} van Zundert}{van Dalen-Oskam\ \BBA{} van Zundert}{{\APACyear {2007}}}}
