\BOOKMARK [1][-]{section.1}{Introductie}{}% 1
\BOOKMARK [1][-]{section.2}{Stylometrie}{}% 2
\BOOKMARK [2][-]{subsection.2.1}{Stylometrische technieken}{section.2}% 3
\BOOKMARK [3][-]{subsubsection.2.1.1}{POS tagging}{subsection.2.1}% 4
\BOOKMARK [2][-]{subsection.2.2}{Middelnederlands}{section.2}% 5
\BOOKMARK [3][-]{subsubsection.2.2.1}{Tagging}{subsection.2.2}% 6
\BOOKMARK [3][-]{subsubsection.2.2.2}{Lemmatisatie}{subsection.2.2}% 7
\BOOKMARK [1][-]{section.3}{Omvormen tot DNA}{}% 8
\BOOKMARK [2][-]{subsection.3.1}{Functiewoorden}{section.3}% 9
\BOOKMARK [3][-]{subsubsection.3.1.1}{Varieteit in woordenschat}{subsection.3.1}% 10
\BOOKMARK [2][-]{subsection.3.2}{Het maken van phylogenetische bomen uit DNA}{section.3}% 11
\BOOKMARK [2][-]{subsection.3.3}{Metrics}{section.3}% 12
\BOOKMARK [3][-]{subsubsection.3.3.1}{Zuiverheid}{subsection.3.3}% 13
\BOOKMARK [1][-]{section.4}{Resultaten en besluit}{}% 14
\BOOKMARK [2][-]{subsection.4.1}{Zonder de training}{section.4}% 15
\BOOKMARK [1][-]{section*.10}{Literatuur}{}% 16
