idnum|extra|percent|title|clusterid|real_author|label|filename
4|||VanityFair|Cluster 4|William Makepeace Thackeray|William Makepeace Thackeray|corpora/baseline/corpus4/pg599.epub
4|||TheVirginians|Cluster 4|William Makepeace Thackeray|William Makepeace Thackeray|corpora/baseline/corpus4/pg8123.epub
4|||TheNewcomesMemoirsofaMostRespectableFamily|Cluster 4|William Makepeace Thackeray|William Makepeace Thackeray|corpora/baseline/corpus4/pg7467.epub
4|||CatherineAStory|Cluster 4|William Makepeace Thackeray|William Makepeace Thackeray|corpora/baseline/corpus4/pg1969.epub
4|||TheHistoryofHenryEsmondEsqaColonelintheServiceofHerMajestyQueenAnne|Cluster 4|William Makepeace Thackeray|William Makepeace Thackeray|corpora/baseline/corpus4/pg2511.epub
4|||TheHistoryofPendennis|Cluster 4|William Makepeace Thackeray|William Makepeace Thackeray|corpora/baseline/corpus4/pg7265.epub
6|||TheMysteryofEdwinDrood|Cluster 6|Charles Dickens|Charles Dickens|corpora/baseline/corpus4/pg564.epub
6|||DombeyandSon|Cluster 6|Charles Dickens|Charles Dickens|corpora/baseline/corpus4/pg821.epub
6|||LittleDorrit|Cluster 6|Charles Dickens|Charles Dickens|corpora/baseline/corpus4/pg963.epub
6|||HardTimes|Cluster 6|Charles Dickens|Charles Dickens|corpora/baseline/corpus4/pg786.epub
6|||OurMutualFriend|Cluster 6|Charles Dickens|Charles Dickens|corpora/baseline/corpus4/pg883.epub
6|||MartinChuzzlewit|Cluster 6|Charles Dickens|Charles Dickens|corpora/baseline/corpus4/pg968.epub
6|||ATaleofTwoCities|Cluster 6|Charles Dickens|Charles Dickens|corpora/baseline/corpus4/pg98.epub
7|||BarnabyRudgeATaleoftheRiotsofEighty|Cluster 7|Charles Dickens|unknown_3|corpora/baseline/corpus4/pg917.epub
7|||NicholasNickleby|Cluster 7|Charles Dickens|unknown_3|corpora/baseline/corpus4/pg967.epub
7|||ThePickwickPapers|Cluster 7|Charles Dickens|unknown_3|corpora/baseline/corpus4/pg580.epub
7|||OliverTwist|Cluster 7|Charles Dickens|unknown_3|corpora/baseline/corpus4/pg730.epub
5|||DanielDeronda|Cluster 5|George Eliot|George Eliot|corpora/baseline/corpus4/pg7469.epub
5|||AdamBede|Cluster 5|George Eliot|George Eliot|corpora/baseline/corpus4/pg507.epub
5|||TheMillontheFloss|Cluster 5|George Eliot|George Eliot|corpora/baseline/corpus4/pg6688.epub
5|||Romola|Cluster 5|George Eliot|George Eliot|corpora/baseline/corpus4/pg24020.epub
5|||FelixHolttheRadical|Cluster 5|George Eliot|George Eliot|corpora/baseline/corpus4/pg40882.epub
5|||Middlemarch|Cluster 5|George Eliot|George Eliot|corpora/baseline/corpus4/pg145.epub
5|||SilasMarner|Cluster 5|George Eliot|George Eliot|corpora/baseline/corpus4/pg550.epub
0|||Persuasion|Cluster 0|Jane Austen|Jane Austen|corpora/baseline/corpus4/pg105.epub
0|||NorthangerAbbey|Cluster 0|Jane Austen|Jane Austen|corpora/baseline/corpus4/pg121.epub
0|||MansfieldPark|Cluster 0|Jane Austen|Jane Austen|corpora/baseline/corpus4/pg141.epub
0|||PrideandPrejudice|Cluster 0|Jane Austen|Jane Austen|corpora/baseline/corpus4/pg42671.epub
0|||SenseandSensibility|Cluster 0|Jane Austen|Jane Austen|corpora/baseline/corpus4/pg161.epub
0|||Emma|Cluster 0|Jane Austen|Jane Austen|corpora/baseline/corpus4/pg158.epub
3|||TheIdiot|Cluster 3|Fyodor Dostoyevsky|Ivan Sergeevich Turgenev|corpora/baseline/corpus4/pg2638.epub
3|||TheBrothersKaramazov|Cluster 3|Fyodor Dostoyevsky|Ivan Sergeevich Turgenev|corpora/baseline/corpus4/pg28054.epub
3|||ThePossessedTheDevils|Cluster 3|Fyodor Dostoyevsky|Ivan Sergeevich Turgenev|corpora/baseline/corpus4/pg8117.epub
3|||FathersandChildren|Cluster 3|Ivan Sergeevich Turgenev|Ivan Sergeevich Turgenev|corpora/baseline/corpus4/pg30723.epub
3|||AHouseofGentlefolk|Cluster 3|Ivan Sergeevich Turgenev|Ivan Sergeevich Turgenev|corpora/baseline/corpus4/pg5721.epub
3|||VirginSoil|Cluster 3|Ivan Sergeevich Turgenev|Ivan Sergeevich Turgenev|corpora/baseline/corpus4/pg2466.epub
3|||CrimeandPunishment|Cluster 3|Fyodor Dostoyevsky|Ivan Sergeevich Turgenev|corpora/baseline/corpus4/pg2554.epub
3|||RudinANovel|Cluster 3|Ivan Sergeevich Turgenev|Ivan Sergeevich Turgenev|corpora/baseline/corpus4/pg6900.epub
3|||Smoke|Cluster 3|Ivan Sergeevich Turgenev|Ivan Sergeevich Turgenev|corpora/baseline/corpus4/pg40813.epub
3|||OntheEveANovel|Cluster 3|Ivan Sergeevich Turgenev|Ivan Sergeevich Turgenev|corpora/baseline/corpus4/pg6902.epub
1|||HarryPotterandtheHalfBloodPrince|Cluster 1|J.K. Rowling|J.K. Rowling|corpora/baseline/corpus4/Harry Potter and the Half-Blood Prince - J.K. Rowling.epub
1|||HarryPotterandtheDeathlyHallows|Cluster 1|J.K. Rowling|J.K. Rowling|corpora/baseline/corpus4/Harry Potter and the Deathly Hallows - J.K. Rowling.epub
1|||HarryPotterandthePrisonerofAzkaban|Cluster 1|J.K. Rowling|J.K. Rowling|corpora/baseline/corpus4/Harry Potter and the Prisoner of Azkaban - J.K. Rowling.epub
1|||HarryPotterandtheGobletofFire|Cluster 1|J.K. Rowling|J.K. Rowling|corpora/baseline/corpus4/Harry Potter and the Goblet of Fire - J.K. Rowling.epub
1|||HarryPotterandtheOrderofthePhoenix|Cluster 1|J.K. Rowling|J.K. Rowling|corpora/baseline/corpus4/Harry Potter and the Order of the Phoenix - J.K. Rowling.epub
1|||HarryPotterandthePhilosophersStone|Cluster 1|J.K. Rowling|J.K. Rowling|corpora/baseline/corpus4/Harry Potter and the Philosopher's Stone - J.K. Rowling.epub
1|||HarryPotterandtheChamberofSecrets|Cluster 1|J.K. Rowling|J.K. Rowling|corpora/baseline/corpus4/Harry Potter and the Chamber of Secrets - J.K. Rowling.epub
2|||Cranford|Cluster 2|Elizabeth Cleghorn Gaskell|Elizabeth Cleghorn Gaskell|corpora/baseline/corpus4/pg394.epub
2|||MaryBarton|Cluster 2|Elizabeth Cleghorn Gaskell|Elizabeth Cleghorn Gaskell|corpora/baseline/corpus4/pg2153.epub
2|||NorthandSouth|Cluster 2|Elizabeth Cleghorn Gaskell|Elizabeth Cleghorn Gaskell|corpora/baseline/corpus4/pg4276.epub
2|||SylviasLovers—Complete|Cluster 2|Elizabeth Cleghorn Gaskell|Elizabeth Cleghorn Gaskell|corpora/baseline/corpus4/pg4537.epub
2|||Ruth|Cluster 2|Elizabeth Cleghorn Gaskell|Elizabeth Cleghorn Gaskell|corpora/baseline/corpus4/pg4275.epub
