Cluster 0: object 0 has index 5 (=seq HegelsLecturesontheHistoryofPhilosophyVolume2of3 2846~len)	 000
Cluster 0: object 1 has index 35 (=seq HegelsLecturesontheHistoryofPhilosophyVolume1of3 2846~len)	 000
Cluster 0: object 2 has index 45 (=seq TheHistoryofPhilosophyVolumeThreeof3 2846~len)	 000
Cluster 1: object 0 has index 4 (=seq FiveLittlePeppersandtheirFriends 2846~len)	 10
Cluster 1: object 1 has index 6 (=seq FiveLittlePeppersatSchool 2846~len)	 10
Cluster 1: object 2 has index 8 (=seq FiveLittlePeppersandHowTheyGrew 2846~len)	 10
Cluster 1: object 3 has index 9 (=seq FiveLittlePeppersMidway 2846~len)	 10
Cluster 1: object 4 has index 16 (=seq TheStoriesPollyPepperToldtotheFiveLittlePeppersintheLittleBrownHouse 2846~len)	 10
Cluster 1: object 5 has index 17 (=seq FiveLittlePeppersAbroad 2846~len)	 10
Cluster 1: object 6 has index 25 (=seq FiveLittlePeppersGrownUp 2846~len)	 10
Cluster 1: object 7 has index 27 (=seq TheAdventuresofJoelPepper 2846~len)	 10
Cluster 1: object 8 has index 40 (=seq BenPepper 2846~len)	 10
Cluster 2: object 0 has index 0 (=seq TheWorldDecision 2846~len)	 01
Cluster 2: object 1 has index 11 (=seq TheWitchofAtlas 2846~len)	 01
Cluster 2: object 2 has index 13 (=seq TheDaemonoftheWorld 2846~len)	 01
Cluster 2: object 3 has index 15 (=seq AVindicationofNaturalDiet 2846~len)	 01
Cluster 2: object 4 has index 19 (=seq TheCompletePoeticalWorksofPercyByssheShelley—Volume2 2846~len)	 01
Cluster 2: object 5 has index 23 (=seq HistoryofaSixWeeksTourThroughaPartofFranceSwitzerlandGermanyandHollandWithLettersDescriptiveofaSailRoundtheLakeofGenevaandofthe 2846~len)	 01
Cluster 2: object 6 has index 26 (=seq TheCompletePoeticalWorksofPercyByssheShelley—Complete 2846~len)	 01
Cluster 2: object 7 has index 33 (=seq TheCompletePoeticalWorksofPercyByssheShelley—Volume1 2846~len)	 01
Cluster 2: object 8 has index 48 (=seq TheCompletePoeticalWorksofPercyByssheShelley—Volume3 2846~len)	 01
Cluster 3: object 0 has index 14 (=seq LiteraryLoveLettersandOtherStories 2846~len)	 1100
Cluster 3: object 1 has index 28 (=seq HisGreatAdventure 2846~len)	 1100
Cluster 3: object 2 has index 34 (=seq TheManWhoWins 2846~len)	 1100
Cluster 3: object 3 has index 38 (=seq Together 2846~len)	 1100
Cluster 3: object 4 has index 39 (=seq TheMemoirsofanAmericanCitizen 2846~len)	 1100
Cluster 3: object 5 has index 43 (=seq TheWebofLife 2846~len)	 1100
Cluster 3: object 6 has index 49 (=seq TheCommonLot 2846~len)	 1100
Cluster 4: object 0 has index 10 (=seq TheIntroductiontoHegelsPhilosophyofFineArtsTranslatedfromtheGermanwithNotesandPrefatoryEssay 2846~len)	 001
Cluster 4: object 1 has index 22 (=seq ThePhilosophyofFineArtvolume4of4HegelsAesthetik 2846~len)	 001
Cluster 4: object 2 has index 30 (=seq HegelsPhilosophyofMind 2846~len)	 001
Cluster 4: object 3 has index 41 (=seq ThePhilosophyofFineArtvolume2of4HegelsAesthetik 2846~len)	 001
Cluster 4: object 4 has index 42 (=seq ThePhilosophyofFineArtvolume1of4HegelsAesthetik 2846~len)	 001
Cluster 4: object 5 has index 44 (=seq TheLogicofHegel 2846~len)	 001
Cluster 4: object 6 has index 46 (=seq ADefenceofPoetryandOtherEssays 2846~len)	 001
Cluster 4: object 7 has index 47 (=seq ThePhilosophyofFineArtvolume3of4HegelsAesthetik 2846~len)	 001
Cluster 5: object 0 has index 7 (=seq TheMasteroftheInn 2846~len)	 111
Cluster 5: object 1 has index 20 (=seq TiTiPuABoyofRedRiver 2846~len)	 111
Cluster 5: object 2 has index 24 (=seq PeterBelltheThird 2846~len)	 111
Cluster 5: object 3 has index 31 (=seq DonalblaneofDarien 2846~len)	 111
Cluster 5: object 4 has index 36 (=seq BalladoftheLostHare 2846~len)	 111
Cluster 6: object 0 has index 1 (=seq TheYoungWoodsmanOrLifeintheForestsofCanada 2846~len)	 1101
Cluster 6: object 1 has index 2 (=seq MyStrangeRescueandOtherStoriesofSportandAdventureinCanada 2846~len)	 1101
Cluster 6: object 2 has index 3 (=seq TerrysTrialsandTriumphs 2846~len)	 1101
Cluster 6: object 3 has index 12 (=seq WithRogersontheFrontierAStoryof1756 2846~len)	 1101
Cluster 6: object 4 has index 18 (=seq BertLloydsBoyhoodAStoryfromNovaScotia 2846~len)	 1101
Cluster 6: object 5 has index 21 (=seq InPathsofPerilABoysAdventuresinNovaScotia 2846~len)	 1101
Cluster 6: object 6 has index 29 (=seq TheFamilyonWheels 2846~len)	 1101
Cluster 6: object 7 has index 32 (=seq TheWreckersofSableIsland 2846~len)	 1101
Cluster 6: object 8 has index 37 (=seq ClarksField 2846~len)	 1101
