idnum|extra|title|percent|clusterid|real_author|label|filename
0|1289aa|PrideandPrejudice|100.0|Cluster 0|Jane Austen|Jane Austen|corpora/baseline/corpus2/pg42671.epub
1|1289aa|NorthangerAbbey|0.71|Cluster 0|Jane Austen|Jane Austen|corpora/baseline/corpus2/pg121.epub
2|1289aa|Emma|0.19|Cluster 0|Jane Austen|Jane Austen|corpora/baseline/corpus2/pg158.epub
3|1289aa|Persuasion|0.82|Cluster 0|Jane Austen|Jane Austen|corpora/baseline/corpus2/pg105.epub
4|1289aa|SenseandSensibility|0.61|Cluster 0|Jane Austen|Jane Austen|corpora/baseline/corpus2/pg161.epub
5|1289aa|MansfieldPark|0.94|Cluster 0|Jane Austen|Jane Austen|corpora/baseline/corpus2/pg141.epub
0|1289aa|HardTimes|100.0|Cluster 1|Charles Dickens|Charles Dickens|corpora/baseline/corpus2/pg786.epub
1|1289aa|DombeyandSon|0.37|Cluster 1|Charles Dickens|Charles Dickens|corpora/baseline/corpus2/pg821.epub
2|1289aa|NicholasNickleby|0.17|Cluster 1|Charles Dickens|Charles Dickens|corpora/baseline/corpus2/pg967.epub
3|1289aa|MartinChuzzlewit|0.44|Cluster 1|Charles Dickens|Charles Dickens|corpora/baseline/corpus2/pg968.epub
4|1289aa|OurMutualFriend|0.39|Cluster 1|Charles Dickens|Charles Dickens|corpora/baseline/corpus2/pg883.epub
5|1289aa|TheMysteryofEdwinDrood|0.23|Cluster 1|Charles Dickens|Charles Dickens|corpora/baseline/corpus2/pg564.epub
6|1289aa|BarnabyRudgeATaleoftheRiotsofEighty|0.55|Cluster 1|Charles Dickens|Charles Dickens|corpora/baseline/corpus2/pg917.epub
7|1289aa|ATaleofTwoCities|0.55|Cluster 1|Charles Dickens|Charles Dickens|corpora/baseline/corpus2/pg98.epub
8|1289aa|OliverTwist|0.6|Cluster 1|Charles Dickens|Charles Dickens|corpora/baseline/corpus2/pg730.epub
9|1289aa|LittleDorrit|0.35|Cluster 1|Charles Dickens|Charles Dickens|corpora/baseline/corpus2/pg963.epub
0|1289aa|AHouseofGentlefolk|100.0|Cluster 2|Ivan Sergeevich Turgenev|Ivan Sergeevich Turgenev|corpora/baseline/corpus2/pg5721.epub
1|1289aa|CrimeandPunishment|0.43|Cluster 2|Fyodor Dostoyevsky|Ivan Sergeevich Turgenev|corpora/baseline/corpus2/pg2554.epub
2|1289aa|RudinANovel|0.38|Cluster 2|Ivan Sergeevich Turgenev|Ivan Sergeevich Turgenev|corpora/baseline/corpus2/pg6900.epub
3|1289aa|Smoke|0.61|Cluster 2|Ivan Sergeevich Turgenev|Ivan Sergeevich Turgenev|corpora/baseline/corpus2/pg40813.epub
4|1289aa|FathersandChildren|0.89|Cluster 2|Ivan Sergeevich Turgenev|Ivan Sergeevich Turgenev|corpora/baseline/corpus2/pg30723.epub
5|1289aa|TheBrothersKaramazov|0.49|Cluster 2|Fyodor Dostoyevsky|Ivan Sergeevich Turgenev|corpora/baseline/corpus2/pg28054.epub
6|1289aa|OntheEveANovel|0.12|Cluster 2|Ivan Sergeevich Turgenev|Ivan Sergeevich Turgenev|corpora/baseline/corpus2/pg6902.epub
0|1289aa|TheHistoryofHenryEsmondEsqaColonelintheServiceofHerMajestyQueenAnne|100.0|Cluster 3|William Makepeace Thackeray|William Makepeace Thackeray|corpora/baseline/corpus2/pg2511.epub
1|1289aa|TheNewcomesMemoirsofaMostRespectableFamily|0.51|Cluster 3|William Makepeace Thackeray|William Makepeace Thackeray|corpora/baseline/corpus2/pg7467.epub
2|1289aa|TheVirginians|0.27|Cluster 3|William Makepeace Thackeray|William Makepeace Thackeray|corpora/baseline/corpus2/pg8123.epub
3|1289aa|CatherineAStory|0.41|Cluster 3|William Makepeace Thackeray|William Makepeace Thackeray|corpora/baseline/corpus2/pg1969.epub
4|1289aa|TheHistoryofPendennis|0.25|Cluster 3|William Makepeace Thackeray|William Makepeace Thackeray|corpora/baseline/corpus2/pg7265.epub
5|1289aa|VanityFair|0.48|Cluster 3|William Makepeace Thackeray|William Makepeace Thackeray|corpora/baseline/corpus2/pg599.epub
0|1289aa|TheMillontheFloss|100.0|Cluster 4|George Eliot|George Eliot|corpora/baseline/corpus2/pg6688.epub
1|1289aa|FelixHolttheRadical|0.46|Cluster 4|George Eliot|George Eliot|corpora/baseline/corpus2/pg40882.epub
2|1289aa|Romola|0.87|Cluster 4|George Eliot|George Eliot|corpora/baseline/corpus2/pg24020.epub
3|1289aa|Middlemarch|0.47|Cluster 4|George Eliot|George Eliot|corpora/baseline/corpus2/pg145.epub
4|1289aa|AdamBede|0.81|Cluster 4|George Eliot|George Eliot|corpora/baseline/corpus2/pg507.epub
5|1289aa|SilasMarner|0.55|Cluster 4|George Eliot|George Eliot|corpora/baseline/corpus2/pg550.epub
6|1289aa|DanielDeronda|0.39|Cluster 4|George Eliot|George Eliot|corpora/baseline/corpus2/pg7469.epub
0|1289aa|Ruth|100.0|Cluster 5|Elizabeth Cleghorn Gaskell|Elizabeth Cleghorn Gaskell|corpora/baseline/corpus2/pg4275.epub
1|1289aa|NorthandSouth|0.25|Cluster 5|Elizabeth Cleghorn Gaskell|Elizabeth Cleghorn Gaskell|corpora/baseline/corpus2/pg4276.epub
2|1289aa|SylviasLovers—Complete|0.92|Cluster 5|Elizabeth Cleghorn Gaskell|Elizabeth Cleghorn Gaskell|corpora/baseline/corpus2/pg4537.epub
3|1289aa|MaryBarton|0.63|Cluster 5|Elizabeth Cleghorn Gaskell|Elizabeth Cleghorn Gaskell|corpora/baseline/corpus2/pg2153.epub
4|1289aa|Cranford|0.95|Cluster 5|Elizabeth Cleghorn Gaskell|Elizabeth Cleghorn Gaskell|corpora/baseline/corpus2/pg394.epub
0|1289aa|TheIdiot|100.0|Cluster 6|Fyodor Dostoyevsky|Fyodor Dostoyevsky|corpora/baseline/corpus2/pg2638.epub
1|1289aa|ThePossessedTheDevils|0.89|Cluster 6|Fyodor Dostoyevsky|Fyodor Dostoyevsky|corpora/baseline/corpus2/pg8117.epub
2|1289aa|VirginSoil|0.0|Cluster 6|Ivan Sergeevich Turgenev|Fyodor Dostoyevsky|corpora/baseline/corpus2/pg2466.epub
0|1289aa|ThePickwickPapers|100.0|Cluster 7|Charles Dickens|unknown_8|corpora/baseline/corpus2/pg580.epub
