idnum|extra|title|percent|clusterid|real_author|label|filename
0|929aa|TheVirginians|100.0|Cluster 0|William Makepeace Thackeray|William Makepeace Thackeray|corpora/baseline/corpus1/pg8123.epub
1|929aa|TheHistoryofHenryEsmondEsqaColonelintheServiceofHerMajestyQueenAnne|0.32|Cluster 0|William Makepeace Thackeray|William Makepeace Thackeray|corpora/baseline/corpus1/pg2511.epub
2|929aa|CatherineAStory|0.72|Cluster 0|William Makepeace Thackeray|William Makepeace Thackeray|corpora/baseline/corpus1/pg1969.epub
3|929aa|TheNewcomesMemoirsofaMostRespectableFamily|0.67|Cluster 0|William Makepeace Thackeray|William Makepeace Thackeray|corpora/baseline/corpus1/pg7467.epub
4|929aa|TheHistoryofPendennis|0.6|Cluster 0|William Makepeace Thackeray|William Makepeace Thackeray|corpora/baseline/corpus1/pg7265.epub
5|929aa|VanityFair|0.58|Cluster 0|William Makepeace Thackeray|William Makepeace Thackeray|corpora/baseline/corpus1/pg599.epub
0|929aa|DombeyandSon|100.0|Cluster 1|Charles Dickens|Charles Dickens|corpora/baseline/corpus1/pg821.epub
1|929aa|MartinChuzzlewit|0.72|Cluster 1|Charles Dickens|Charles Dickens|corpora/baseline/corpus1/pg968.epub
2|929aa|OliverTwist|0.16|Cluster 1|Charles Dickens|Charles Dickens|corpora/baseline/corpus1/pg730.epub
3|929aa|OurMutualFriend|0.91|Cluster 1|Charles Dickens|Charles Dickens|corpora/baseline/corpus1/pg883.epub
4|929aa|ThePickwickPapers|0.4|Cluster 1|Charles Dickens|Charles Dickens|corpora/baseline/corpus1/pg580.epub
5|929aa|HardTimes|0.35|Cluster 1|Charles Dickens|Charles Dickens|corpora/baseline/corpus1/pg786.epub
6|929aa|TheMysteryofEdwinDrood|0.37|Cluster 1|Charles Dickens|Charles Dickens|corpora/baseline/corpus1/pg564.epub
7|929aa|ATaleofTwoCities|0.14|Cluster 1|Charles Dickens|Charles Dickens|corpora/baseline/corpus1/pg98.epub
8|929aa|LittleDorrit|0.78|Cluster 1|Charles Dickens|Charles Dickens|corpora/baseline/corpus1/pg963.epub
9|929aa|NicholasNickleby|0.33|Cluster 1|Charles Dickens|Charles Dickens|corpora/baseline/corpus1/pg967.epub
10|929aa|BarnabyRudgeATaleoftheRiotsofEighty|0.42|Cluster 1|Charles Dickens|Charles Dickens|corpora/baseline/corpus1/pg917.epub
0|929aa|Middlemarch|100.0|Cluster 2|George Eliot|George Eliot|corpora/baseline/corpus1/pg145.epub
1|929aa|DanielDeronda|0.13|Cluster 2|George Eliot|George Eliot|corpora/baseline/corpus1/pg7469.epub
2|929aa|AdamBede|0.29|Cluster 2|George Eliot|George Eliot|corpora/baseline/corpus1/pg507.epub
3|929aa|SilasMarner|0.94|Cluster 2|George Eliot|George Eliot|corpora/baseline/corpus1/pg550.epub
4|929aa|Romola|0.97|Cluster 2|George Eliot|George Eliot|corpora/baseline/corpus1/pg24020.epub
5|929aa|FelixHolttheRadical|0.74|Cluster 2|George Eliot|George Eliot|corpora/baseline/corpus1/pg40882.epub
6|929aa|TheMillontheFloss|0.57|Cluster 2|George Eliot|George Eliot|corpora/baseline/corpus1/pg6688.epub
0|929aa|MansfieldPark|100.0|Cluster 3|Jane Austen|Jane Austen|corpora/baseline/corpus1/pg141.epub
1|929aa|NorthangerAbbey|0.33|Cluster 3|Jane Austen|Jane Austen|corpora/baseline/corpus1/pg121.epub
2|929aa|SenseandSensibility|0.18|Cluster 3|Jane Austen|Jane Austen|corpora/baseline/corpus1/pg161.epub
3|929aa|Emma|0.52|Cluster 3|Jane Austen|Jane Austen|corpora/baseline/corpus1/pg158.epub
4|929aa|PrideandPrejudice|0.67|Cluster 3|Jane Austen|Jane Austen|corpora/baseline/corpus1/pg42671.epub
5|929aa|Persuasion|0.76|Cluster 3|Jane Austen|Jane Austen|corpora/baseline/corpus1/pg105.epub
0|929aa|Ruth|100.0|Cluster 4|Elizabeth Cleghorn Gaskell|Elizabeth Cleghorn Gaskell|corpora/baseline/corpus1/pg4275.epub
1|929aa|MaryBarton|0.47|Cluster 4|Elizabeth Cleghorn Gaskell|Elizabeth Cleghorn Gaskell|corpora/baseline/corpus1/pg2153.epub
2|929aa|Cranford|0.71|Cluster 4|Elizabeth Cleghorn Gaskell|Elizabeth Cleghorn Gaskell|corpora/baseline/corpus1/pg394.epub
3|929aa|NorthandSouth|0.3|Cluster 4|Elizabeth Cleghorn Gaskell|Elizabeth Cleghorn Gaskell|corpora/baseline/corpus1/pg4276.epub
4|929aa|SylviasLovers—Complete|0.57|Cluster 4|Elizabeth Cleghorn Gaskell|Elizabeth Cleghorn Gaskell|corpora/baseline/corpus1/pg4537.epub
