threshold;Purity;MutualInformation;Accuracy;Clusters
0.6;0.1016949152542373;0.23061331449856015;0.1016949152542373;4
0.601010101010101;0.1016949152542373;0.2394350088581917;0.1016949152542373;4
0.602020202020202;0.1016949152542373;0.2394350088581917;0.1016949152542373;4
0.603030303030303;0.1016949152542373;0.2394350088581917;0.1016949152542373;4
0.604040404040404;0.1016949152542373;0.2394350088581917;0.1016949152542373;4
0.6050505050505051;0.1016949152542373;0.2394350088581917;0.1016949152542373;4
0.6060606060606061;0.1016949152542373;0.2394350088581917;0.1016949152542373;4
0.6070707070707071;0.1016949152542373;0.2394350088581917;0.1016949152542373;4
0.6080808080808081;0.1016949152542373;0.2394350088581917;0.1016949152542373;4
0.609090909090909;0.1016949152542373;0.2394350088581917;0.1016949152542373;4
0.61010101010101;0.1016949152542373;0.2394350088581917;0.1016949152542373;4
0.611111111111111;0.1016949152542373;0.2394350088581917;0.1016949152542373;4
0.6121212121212121;0.1016949152542373;0.2394350088581917;0.1016949152542373;4
0.6131313131313131;0.1016949152542373;0.2394350088581917;0.1016949152542373;4
0.6141414141414141;0.1016949152542373;0.2394350088581917;0.1016949152542373;4
0.6151515151515151;0.1016949152542373;0.2394350088581917;0.1016949152542373;4
0.6161616161616161;0.1016949152542373;0.2394350088581917;0.1016949152542373;4
0.6171717171717171;0.1152542372881356;0.21264966675028563;0.1152542372881356;5
0.6181818181818182;0.1152542372881356;0.21264966675028563;0.1152542372881356;5
0.6191919191919192;0.1152542372881356;0.21264966675028563;0.1152542372881356;5
0.6202020202020202;0.1152542372881356;0.21264966675028563;0.1152542372881356;5
0.6212121212121212;0.1152542372881356;0.21264966675028563;0.1152542372881356;5
0.6222222222222222;0.1152542372881356;0.21264966675028563;0.1152542372881356;5
0.6232323232323232;0.1152542372881356;0.21264966675028563;0.1152542372881356;5
0.6242424242424243;0.1152542372881356;0.21264966675028563;0.1152542372881356;5
0.6252525252525252;0.13220338983050847;0.2678520050018297;0.13220338983050847;5
0.6262626262626262;0.13220338983050847;0.2678520050018297;0.13220338983050847;5
0.6272727272727272;0.1423728813559322;0.29276416896881063;0.1423728813559322;6
0.6282828282828282;0.1423728813559322;0.29276416896881063;0.1423728813559322;6
0.6292929292929292;0.14576271186440679;0.2573506575152978;0.14576271186440679;6
0.6303030303030303;0.14576271186440679;0.2573506575152978;0.14576271186440679;6
0.6313131313131313;0.14915254237288136;0.30447351489058416;0.14915254237288136;7
0.6323232323232323;0.14915254237288136;0.30447351489058416;0.14915254237288136;7
0.6333333333333333;0.14915254237288136;0.30447351489058416;0.14915254237288136;7
0.6343434343434343;0.14915254237288136;0.30447351489058416;0.14915254237288136;7
0.6353535353535353;0.17966101694915254;0.33399838959396083;0.17966101694915254;8
0.6363636363636364;0.17966101694915254;0.33399838959396083;0.17966101694915254;8
0.6373737373737374;0.17966101694915254;0.33399838959396083;0.17966101694915254;8
0.6383838383838384;0.17966101694915254;0.33399838959396083;0.17966101694915254;8
0.6393939393939394;0.17966101694915254;0.33399838959396083;0.17966101694915254;8
0.6404040404040404;0.17966101694915254;0.33399838959396083;0.17966101694915254;8
0.6414141414141414;0.17966101694915254;0.33399838959396083;0.17966101694915254;8
0.6424242424242423;0.17966101694915254;0.33399838959396083;0.17966101694915254;8
0.6434343434343434;0.17966101694915254;0.33399838959396083;0.17966101694915254;8
0.6444444444444444;0.18305084745762712;0.41881962996118083;0.18305084745762712;8
0.6454545454545454;0.18305084745762712;0.41881962996118083;0.18305084745762712;8
0.6464646464646464;0.18305084745762712;0.41881962996118083;0.18305084745762712;8
0.6474747474747474;0.18305084745762712;0.41881962996118083;0.18305084745762712;8
0.6484848484848484;0.18305084745762712;0.41881962996118083;0.18305084745762712;8
0.6494949494949495;0.18305084745762712;0.41881962996118083;0.18305084745762712;8
0.6505050505050505;0.18305084745762712;0.41881962996118083;0.18305084745762712;8
0.6515151515151515;0.18305084745762712;0.41881962996118083;0.18305084745762712;8
0.6525252525252525;0.20677966101694914;0.47467406693010583;0.2033898305084746;9
0.6535353535353535;0.20677966101694914;0.47467406693010583;0.2033898305084746;9
0.6545454545454545;0.22372881355932203;0.4728180715846263;0.22033898305084745;10
0.6555555555555556;0.22372881355932203;0.4728180715846263;0.22033898305084745;10
0.6565656565656566;0.22372881355932203;0.4728180715846263;0.22033898305084745;10
0.6575757575757576;0.22372881355932203;0.4728180715846263;0.22033898305084745;10
0.6585858585858586;0.15593220338983052;0.40527270568681234;0.15254237288135594;8
0.6595959595959595;0.15593220338983052;0.40527270568681234;0.15254237288135594;8
0.6606060606060605;0.1694915254237288;0.4384961669581103;0.16610169491525423;8
0.6616161616161615;0.1694915254237288;0.4384961669581103;0.16610169491525423;8
0.6626262626262626;0.1694915254237288;0.4384961669581103;0.16610169491525423;8
0.6636363636363636;0.16610169491525423;0.4386178202866703;0.16271186440677965;8
0.6646464646464646;0.16610169491525423;0.4386178202866703;0.16271186440677965;8
0.6656565656565656;0.16610169491525423;0.4386178202866703;0.16271186440677965;8
0.6666666666666666;0.16610169491525423;0.4386178202866703;0.16271186440677965;8
0.6676767676767676;0.16610169491525423;0.4386178202866703;0.16271186440677965;8
0.6686868686868687;0.16610169491525423;0.4386178202866703;0.16271186440677965;8
0.6696969696969697;0.16610169491525423;0.42025492792285185;0.16271186440677965;9
0.6707070707070707;0.16610169491525423;0.42025492792285185;0.16271186440677965;9
0.6717171717171717;0.1694915254237288;0.42729463066460155;0.16271186440677965;10
0.6727272727272727;0.1694915254237288;0.42729463066460155;0.16271186440677965;10
0.6737373737373737;0.1694915254237288;0.42729463066460155;0.16271186440677965;10
0.6747474747474747;0.1694915254237288;0.42729463066460155;0.16271186440677965;10
0.6757575757575758;0.17627118644067796;0.4184985130556207;0.1694915254237288;11
0.6767676767676767;0.17627118644067796;0.4184985130556207;0.1694915254237288;11
0.6777777777777777;0.1864406779661017;0.42446760313975246;0.17627118644067796;13
0.6787878787878787;0.19661016949152543;0.4516752934767019;0.1864406779661017;14
0.6797979797979797;0.19661016949152543;0.4516752934767019;0.1864406779661017;14
0.6808080808080808;0.19661016949152543;0.4516752934767019;0.1864406779661017;14
0.6818181818181818;0.22033898305084745;0.4686220561257989;0.20677966101694914;15
0.6828282828282828;0.22033898305084745;0.4686220561257989;0.20677966101694914;15
0.6838383838383838;0.22033898305084745;0.4686220561257989;0.20677966101694914;15
0.6848484848484848;0.22033898305084745;0.4686220561257989;0.20677966101694914;15
0.6858585858585858;0.22033898305084745;0.4686220561257989;0.20677966101694914;15
0.6868686868686869;0.22033898305084745;0.4686220561257989;0.20677966101694914;15
0.6878787878787879;0.22033898305084745;0.4686220561257989;0.20677966101694914;15
0.6888888888888889;0.22033898305084745;0.4686220561257989;0.20677966101694914;15
0.6898989898989899;0.22033898305084745;0.4686220561257989;0.20677966101694914;15
0.6909090909090909;0.22372881355932203;0.4759999605791164;0.20677966101694914;16
0.6919191919191918;0.22372881355932203;0.4759999605791164;0.20677966101694914;16
0.6929292929292928;0.25084745762711863;0.4872557479168004;0.23389830508474577;17
0.6939393939393939;0.26440677966101694;0.4740677179731876;0.23728813559322035;17
0.6949494949494949;0.26440677966101694;0.4729643320015033;0.23389830508474577;18
0.6959595959595959;0.25084745762711863;0.5018701480419467;0.22033898305084745;18
0.6969696969696969;0.25084745762711863;0.5018701480419467;0.22033898305084745;18
0.6979797979797979;0.25084745762711863;0.5018701480419467;0.22033898305084745;18
0.6989898989898989;0.2847457627118644;0.4985387649982763;0.25084745762711863;20
0.7;0.28135593220338984;0.4898052259593717;0.24745762711864408;20
