idnum|extra|title|percent|clusterid|real_author|label|filename
0|1588aa|RudinANovel|100.0|Cluster 0|Ivan Sergeevich Turgenev|Ivan Sergeevich Turgenev|corpora/baseline/corpus4/pg6900.epub
1|1588aa|ThePossessedTheDevils|0.71|Cluster 0|Fyodor Dostoyevsky|Ivan Sergeevich Turgenev|corpora/baseline/corpus4/pg8117.epub
2|1588aa|TheBrothersKaramazov|0.96|Cluster 0|Fyodor Dostoyevsky|Ivan Sergeevich Turgenev|corpora/baseline/corpus4/pg28054.epub
3|1588aa|VirginSoil|0.79|Cluster 0|Ivan Sergeevich Turgenev|Ivan Sergeevich Turgenev|corpora/baseline/corpus4/pg2466.epub
4|1588aa|AHouseofGentlefolk|0.17|Cluster 0|Ivan Sergeevich Turgenev|Ivan Sergeevich Turgenev|corpora/baseline/corpus4/pg5721.epub
5|1588aa|Smoke|0.62|Cluster 0|Ivan Sergeevich Turgenev|Ivan Sergeevich Turgenev|corpora/baseline/corpus4/pg40813.epub
6|1588aa|OntheEveANovel|0.87|Cluster 0|Ivan Sergeevich Turgenev|Ivan Sergeevich Turgenev|corpora/baseline/corpus4/pg6902.epub
7|1588aa|CrimeandPunishment|0.81|Cluster 0|Fyodor Dostoyevsky|Ivan Sergeevich Turgenev|corpora/baseline/corpus4/pg2554.epub
8|1588aa|FathersandChildren|0.02|Cluster 0|Ivan Sergeevich Turgenev|Ivan Sergeevich Turgenev|corpora/baseline/corpus4/pg30723.epub
0|1588aa|MaryBarton|100.0|Cluster 1|Elizabeth Cleghorn Gaskell|Elizabeth Cleghorn Gaskell|corpora/baseline/corpus4/pg2153.epub
1|1588aa|NorthandSouth|0.31|Cluster 1|Elizabeth Cleghorn Gaskell|Elizabeth Cleghorn Gaskell|corpora/baseline/corpus4/pg4276.epub
2|1588aa|Cranford|0.62|Cluster 1|Elizabeth Cleghorn Gaskell|Elizabeth Cleghorn Gaskell|corpora/baseline/corpus4/pg394.epub
3|1588aa|Ruth|0.58|Cluster 1|Elizabeth Cleghorn Gaskell|Elizabeth Cleghorn Gaskell|corpora/baseline/corpus4/pg4275.epub
4|1588aa|SylviasLovers—Complete|0.58|Cluster 1|Elizabeth Cleghorn Gaskell|Elizabeth Cleghorn Gaskell|corpora/baseline/corpus4/pg4537.epub
0|1588aa|HardTimes|100.0|Cluster 2|Charles Dickens|Charles Dickens|corpora/baseline/corpus4/pg786.epub
1|1588aa|MartinChuzzlewit|0.94|Cluster 2|Charles Dickens|Charles Dickens|corpora/baseline/corpus4/pg968.epub
2|1588aa|OurMutualFriend|0.27|Cluster 2|Charles Dickens|Charles Dickens|corpora/baseline/corpus4/pg883.epub
3|1588aa|BarnabyRudgeATaleoftheRiotsofEighty|0.27|Cluster 2|Charles Dickens|Charles Dickens|corpora/baseline/corpus4/pg917.epub
4|1588aa|NicholasNickleby|0.28|Cluster 2|Charles Dickens|Charles Dickens|corpora/baseline/corpus4/pg967.epub
5|1588aa|OliverTwist|0.12|Cluster 2|Charles Dickens|Charles Dickens|corpora/baseline/corpus4/pg730.epub
6|1588aa|LittleDorrit|0.72|Cluster 2|Charles Dickens|Charles Dickens|corpora/baseline/corpus4/pg963.epub
7|1588aa|ATaleofTwoCities|0.08|Cluster 2|Charles Dickens|Charles Dickens|corpora/baseline/corpus4/pg98.epub
8|1588aa|TheMysteryofEdwinDrood|0.69|Cluster 2|Charles Dickens|Charles Dickens|corpora/baseline/corpus4/pg564.epub
9|1588aa|DombeyandSon|0.74|Cluster 2|Charles Dickens|Charles Dickens|corpora/baseline/corpus4/pg821.epub
0|1588aa|NorthangerAbbey|100.0|Cluster 3|Jane Austen|Jane Austen|corpora/baseline/corpus4/pg121.epub
1|1588aa|Persuasion|0.4|Cluster 3|Jane Austen|Jane Austen|corpora/baseline/corpus4/pg105.epub
2|1588aa|MansfieldPark|0.04|Cluster 3|Jane Austen|Jane Austen|corpora/baseline/corpus4/pg141.epub
3|1588aa|PrideandPrejudice|0.46|Cluster 3|Jane Austen|Jane Austen|corpora/baseline/corpus4/pg42671.epub
4|1588aa|Emma|0.0|Cluster 3|Jane Austen|Jane Austen|corpora/baseline/corpus4/pg158.epub
5|1588aa|SenseandSensibility|0.09|Cluster 3|Jane Austen|Jane Austen|corpora/baseline/corpus4/pg161.epub
0|1588aa|HarryPotterandthePhilosophersStone|100.0|Cluster 4|J.K. Rowling|J.K. Rowling|corpora/baseline/corpus4/Harry Potter and the Philosopher's Stone - J.K. Rowling.epub
1|1588aa|HarryPotterandtheGobletofFire|0.46|Cluster 4|J.K. Rowling|J.K. Rowling|corpora/baseline/corpus4/Harry Potter and the Goblet of Fire - J.K. Rowling.epub
2|1588aa|HarryPotterandtheDeathlyHallows|0.57|Cluster 4|J.K. Rowling|J.K. Rowling|corpora/baseline/corpus4/Harry Potter and the Deathly Hallows - J.K. Rowling.epub
3|1588aa|HarryPotterandtheOrderofthePhoenix|0.76|Cluster 4|J.K. Rowling|J.K. Rowling|corpora/baseline/corpus4/Harry Potter and the Order of the Phoenix - J.K. Rowling.epub
4|1588aa|HarryPotterandtheChamberofSecrets|0.05|Cluster 4|J.K. Rowling|J.K. Rowling|corpora/baseline/corpus4/Harry Potter and the Chamber of Secrets - J.K. Rowling.epub
5|1588aa|HarryPotterandtheHalfBloodPrince|0.24|Cluster 4|J.K. Rowling|J.K. Rowling|corpora/baseline/corpus4/Harry Potter and the Half-Blood Prince - J.K. Rowling.epub
6|1588aa|HarryPotterandthePrisonerofAzkaban|0.55|Cluster 4|J.K. Rowling|J.K. Rowling|corpora/baseline/corpus4/Harry Potter and the Prisoner of Azkaban - J.K. Rowling.epub
0|1588aa|SilasMarner|100.0|Cluster 5|George Eliot|George Eliot|corpora/baseline/corpus4/pg550.epub
1|1588aa|DanielDeronda|0.27|Cluster 5|George Eliot|George Eliot|corpora/baseline/corpus4/pg7469.epub
2|1588aa|TheMillontheFloss|0.06|Cluster 5|George Eliot|George Eliot|corpora/baseline/corpus4/pg6688.epub
3|1588aa|FelixHolttheRadical|0.28|Cluster 5|George Eliot|George Eliot|corpora/baseline/corpus4/pg40882.epub
4|1588aa|Middlemarch|0.22|Cluster 5|George Eliot|George Eliot|corpora/baseline/corpus4/pg145.epub
5|1588aa|AdamBede|0.01|Cluster 5|George Eliot|George Eliot|corpora/baseline/corpus4/pg507.epub
6|1588aa|Romola|0.84|Cluster 5|George Eliot|George Eliot|corpora/baseline/corpus4/pg24020.epub
0|1588aa|TheNewcomesMemoirsofaMostRespectableFamily|100.0|Cluster 6|William Makepeace Thackeray|William Makepeace Thackeray|corpora/baseline/corpus4/pg7467.epub
1|1588aa|VanityFair|0.3|Cluster 6|William Makepeace Thackeray|William Makepeace Thackeray|corpora/baseline/corpus4/pg599.epub
2|1588aa|TheVirginians|0.96|Cluster 6|William Makepeace Thackeray|William Makepeace Thackeray|corpora/baseline/corpus4/pg8123.epub
3|1588aa|TheHistoryofHenryEsmondEsqaColonelintheServiceofHerMajestyQueenAnne|0.05|Cluster 6|William Makepeace Thackeray|William Makepeace Thackeray|corpora/baseline/corpus4/pg2511.epub
4|1588aa|CatherineAStory|0.17|Cluster 6|William Makepeace Thackeray|William Makepeace Thackeray|corpora/baseline/corpus4/pg1969.epub
5|1588aa|TheHistoryofPendennis|0.69|Cluster 6|William Makepeace Thackeray|William Makepeace Thackeray|corpora/baseline/corpus4/pg7265.epub
0|1588aa|TheIdiot|100.0|Cluster 7|Fyodor Dostoyevsky|Fyodor Dostoyevsky|corpora/baseline/corpus4/pg2638.epub
0|1588aa|ThePickwickPapers|100.0|Cluster 8|Charles Dickens|unknown_9|corpora/baseline/corpus4/pg580.epub
