idnum|extra|percent|title|clusterid|real_author|label|filename
7|||BarnabyRudgeATaleoftheRiotsofEighty|Cluster 7|Charles Dickens|unknown_1|corpora/baseline/corpus4/pg917.epub
7|||OliverTwist|Cluster 7|Charles Dickens|unknown_1|corpora/baseline/corpus4/pg730.epub
7|||ATaleofTwoCities|Cluster 7|Charles Dickens|unknown_1|corpora/baseline/corpus4/pg98.epub
7|||SylviasLovers—Complete|Cluster 7|Elizabeth Cleghorn Gaskell|unknown_1|corpora/baseline/corpus4/pg4537.epub
7|||DombeyandSon|Cluster 7|Charles Dickens|unknown_1|corpora/baseline/corpus4/pg821.epub
7|||ThePickwickPapers|Cluster 7|Charles Dickens|unknown_1|corpora/baseline/corpus4/pg580.epub
5|||HardTimes|Cluster 5|Charles Dickens|Charles Dickens|corpora/baseline/corpus4/pg786.epub
5|||MartinChuzzlewit|Cluster 5|Charles Dickens|Charles Dickens|corpora/baseline/corpus4/pg968.epub
5|||OurMutualFriend|Cluster 5|Charles Dickens|Charles Dickens|corpora/baseline/corpus4/pg883.epub
5|||NicholasNickleby|Cluster 5|Charles Dickens|Charles Dickens|corpora/baseline/corpus4/pg967.epub
5|||LittleDorrit|Cluster 5|Charles Dickens|Charles Dickens|corpora/baseline/corpus4/pg963.epub
5|||TheMysteryofEdwinDrood|Cluster 5|Charles Dickens|Charles Dickens|corpora/baseline/corpus4/pg564.epub
2|||RudinANovel|Cluster 2|Ivan Sergeevich Turgenev|Ivan Sergeevich Turgenev|corpora/baseline/corpus4/pg6900.epub
2|||ThePossessedTheDevils|Cluster 2|Fyodor Dostoyevsky|Ivan Sergeevich Turgenev|corpora/baseline/corpus4/pg8117.epub
2|||TheBrothersKaramazov|Cluster 2|Fyodor Dostoyevsky|Ivan Sergeevich Turgenev|corpora/baseline/corpus4/pg28054.epub
2|||VirginSoil|Cluster 2|Ivan Sergeevich Turgenev|Ivan Sergeevich Turgenev|corpora/baseline/corpus4/pg2466.epub
2|||AHouseofGentlefolk|Cluster 2|Ivan Sergeevich Turgenev|Ivan Sergeevich Turgenev|corpora/baseline/corpus4/pg5721.epub
2|||Smoke|Cluster 2|Ivan Sergeevich Turgenev|Ivan Sergeevich Turgenev|corpora/baseline/corpus4/pg40813.epub
2|||OntheEveANovel|Cluster 2|Ivan Sergeevich Turgenev|Ivan Sergeevich Turgenev|corpora/baseline/corpus4/pg6902.epub
2|||CrimeandPunishment|Cluster 2|Fyodor Dostoyevsky|Ivan Sergeevich Turgenev|corpora/baseline/corpus4/pg2554.epub
2|||TheIdiot|Cluster 2|Fyodor Dostoyevsky|Ivan Sergeevich Turgenev|corpora/baseline/corpus4/pg2638.epub
2|||FathersandChildren|Cluster 2|Ivan Sergeevich Turgenev|Ivan Sergeevich Turgenev|corpora/baseline/corpus4/pg30723.epub
0|||SilasMarner|Cluster 0|George Eliot|George Eliot|corpora/baseline/corpus4/pg550.epub
0|||DanielDeronda|Cluster 0|George Eliot|George Eliot|corpora/baseline/corpus4/pg7469.epub
0|||TheMillontheFloss|Cluster 0|George Eliot|George Eliot|corpora/baseline/corpus4/pg6688.epub
0|||FelixHolttheRadical|Cluster 0|George Eliot|George Eliot|corpora/baseline/corpus4/pg40882.epub
0|||Middlemarch|Cluster 0|George Eliot|George Eliot|corpora/baseline/corpus4/pg145.epub
0|||AdamBede|Cluster 0|George Eliot|George Eliot|corpora/baseline/corpus4/pg507.epub
0|||Romola|Cluster 0|George Eliot|George Eliot|corpora/baseline/corpus4/pg24020.epub
3|||TheNewcomesMemoirsofaMostRespectableFamily|Cluster 3|William Makepeace Thackeray|William Makepeace Thackeray|corpora/baseline/corpus4/pg7467.epub
3|||VanityFair|Cluster 3|William Makepeace Thackeray|William Makepeace Thackeray|corpora/baseline/corpus4/pg599.epub
3|||TheVirginians|Cluster 3|William Makepeace Thackeray|William Makepeace Thackeray|corpora/baseline/corpus4/pg8123.epub
3|||TheHistoryofHenryEsmondEsqaColonelintheServiceofHerMajestyQueenAnne|Cluster 3|William Makepeace Thackeray|William Makepeace Thackeray|corpora/baseline/corpus4/pg2511.epub
3|||CatherineAStory|Cluster 3|William Makepeace Thackeray|William Makepeace Thackeray|corpora/baseline/corpus4/pg1969.epub
3|||TheHistoryofPendennis|Cluster 3|William Makepeace Thackeray|William Makepeace Thackeray|corpora/baseline/corpus4/pg7265.epub
1|||HarryPotterandthePhilosophersStone|Cluster 1|J.K. Rowling|J.K. Rowling|corpora/baseline/corpus4/Harry Potter and the Philosopher's Stone - J.K. Rowling.epub
1|||HarryPotterandtheGobletofFire|Cluster 1|J.K. Rowling|J.K. Rowling|corpora/baseline/corpus4/Harry Potter and the Goblet of Fire - J.K. Rowling.epub
1|||HarryPotterandtheDeathlyHallows|Cluster 1|J.K. Rowling|J.K. Rowling|corpora/baseline/corpus4/Harry Potter and the Deathly Hallows - J.K. Rowling.epub
1|||HarryPotterandtheOrderofthePhoenix|Cluster 1|J.K. Rowling|J.K. Rowling|corpora/baseline/corpus4/Harry Potter and the Order of the Phoenix - J.K. Rowling.epub
1|||HarryPotterandtheChamberofSecrets|Cluster 1|J.K. Rowling|J.K. Rowling|corpora/baseline/corpus4/Harry Potter and the Chamber of Secrets - J.K. Rowling.epub
1|||HarryPotterandtheHalfBloodPrince|Cluster 1|J.K. Rowling|J.K. Rowling|corpora/baseline/corpus4/Harry Potter and the Half-Blood Prince - J.K. Rowling.epub
1|||HarryPotterandthePrisonerofAzkaban|Cluster 1|J.K. Rowling|J.K. Rowling|corpora/baseline/corpus4/Harry Potter and the Prisoner of Azkaban - J.K. Rowling.epub
4|||NorthangerAbbey|Cluster 4|Jane Austen|Jane Austen|corpora/baseline/corpus4/pg121.epub
4|||Persuasion|Cluster 4|Jane Austen|Jane Austen|corpora/baseline/corpus4/pg105.epub
4|||MansfieldPark|Cluster 4|Jane Austen|Jane Austen|corpora/baseline/corpus4/pg141.epub
4|||PrideandPrejudice|Cluster 4|Jane Austen|Jane Austen|corpora/baseline/corpus4/pg42671.epub
4|||Emma|Cluster 4|Jane Austen|Jane Austen|corpora/baseline/corpus4/pg158.epub
4|||SenseandSensibility|Cluster 4|Jane Austen|Jane Austen|corpora/baseline/corpus4/pg161.epub
6|||MaryBarton|Cluster 6|Elizabeth Cleghorn Gaskell|Elizabeth Cleghorn Gaskell|corpora/baseline/corpus4/pg2153.epub
6|||NorthandSouth|Cluster 6|Elizabeth Cleghorn Gaskell|Elizabeth Cleghorn Gaskell|corpora/baseline/corpus4/pg4276.epub
6|||Cranford|Cluster 6|Elizabeth Cleghorn Gaskell|Elizabeth Cleghorn Gaskell|corpora/baseline/corpus4/pg394.epub
6|||Ruth|Cluster 6|Elizabeth Cleghorn Gaskell|Elizabeth Cleghorn Gaskell|corpora/baseline/corpus4/pg4275.epub
