idnum|extra|percent|title|clusterid|real_author|label|filename
5|||BarnabyRudgeATaleoftheRiotsofEighty|Cluster 5|Charles Dickens|unknown_1|corpora/baseline/corpus3/pg917.epub
5|||OliverTwist|Cluster 5|Charles Dickens|unknown_1|corpora/baseline/corpus3/pg730.epub
5|||SylviasLovers—Complete|Cluster 5|Elizabeth Cleghorn Gaskell|unknown_1|corpora/baseline/corpus3/pg4537.epub
5|||ATaleofTwoCities|Cluster 5|Charles Dickens|unknown_1|corpora/baseline/corpus3/pg98.epub
5|||ThePickwickPapers|Cluster 5|Charles Dickens|unknown_1|corpora/baseline/corpus3/pg580.epub
2|||VanityFair|Cluster 2|William Makepeace Thackeray|William Makepeace Thackeray|corpora/baseline/corpus3/pg599.epub
2|||TheNewcomesMemoirsofaMostRespectableFamily|Cluster 2|William Makepeace Thackeray|William Makepeace Thackeray|corpora/baseline/corpus3/pg7467.epub
2|||TheHistoryofPendennis|Cluster 2|William Makepeace Thackeray|William Makepeace Thackeray|corpora/baseline/corpus3/pg7265.epub
2|||CatherineAStory|Cluster 2|William Makepeace Thackeray|William Makepeace Thackeray|corpora/baseline/corpus3/pg1969.epub
2|||TheHistoryofHenryEsmondEsqaColonelintheServiceofHerMajestyQueenAnne|Cluster 2|William Makepeace Thackeray|William Makepeace Thackeray|corpora/baseline/corpus3/pg2511.epub
2|||TheVirginians|Cluster 2|William Makepeace Thackeray|William Makepeace Thackeray|corpora/baseline/corpus3/pg8123.epub
0|||HarryPotterandtheOrderofthePhoenix|Cluster 0|J.K. Rowling|J.K. Rowling|corpora/baseline/corpus3/Harry Potter and the Order of the Phoenix - J.K. Rowling.epub
0|||HarryPotterandtheChamberofSecrets|Cluster 0|J.K. Rowling|J.K. Rowling|corpora/baseline/corpus3/Harry Potter and the Chamber of Secrets - J.K. Rowling.epub
0|||HarryPotterandtheDeathlyHallows|Cluster 0|J.K. Rowling|J.K. Rowling|corpora/baseline/corpus3/Harry Potter and the Deathly Hallows - J.K. Rowling.epub
0|||HarryPotterandthePhilosophersStone|Cluster 0|J.K. Rowling|J.K. Rowling|corpora/baseline/corpus3/Harry Potter and the Philosopher's Stone - J.K. Rowling.epub
0|||HarryPotterandthePrisonerofAzkaban|Cluster 0|J.K. Rowling|J.K. Rowling|corpora/baseline/corpus3/Harry Potter and the Prisoner of Azkaban - J.K. Rowling.epub
0|||HarryPotterandtheGobletofFire|Cluster 0|J.K. Rowling|J.K. Rowling|corpora/baseline/corpus3/Harry Potter and the Goblet of Fire - J.K. Rowling.epub
0|||HarryPotterandtheHalfBloodPrince|Cluster 0|J.K. Rowling|J.K. Rowling|corpora/baseline/corpus3/Harry Potter and the Half-Blood Prince - J.K. Rowling.epub
3|||Romola|Cluster 3|George Eliot|George Eliot|corpora/baseline/corpus3/pg24020.epub
3|||DanielDeronda|Cluster 3|George Eliot|George Eliot|corpora/baseline/corpus3/pg7469.epub
3|||TheMillontheFloss|Cluster 3|George Eliot|George Eliot|corpora/baseline/corpus3/pg6688.epub
3|||AdamBede|Cluster 3|George Eliot|George Eliot|corpora/baseline/corpus3/pg507.epub
3|||FelixHolttheRadical|Cluster 3|George Eliot|George Eliot|corpora/baseline/corpus3/pg40882.epub
3|||Middlemarch|Cluster 3|George Eliot|George Eliot|corpora/baseline/corpus3/pg145.epub
3|||SilasMarner|Cluster 3|George Eliot|George Eliot|corpora/baseline/corpus3/pg550.epub
1|||NorthandSouth|Cluster 1|Elizabeth Cleghorn Gaskell|Jane Austen|corpora/baseline/corpus3/pg4276.epub
1|||Emma|Cluster 1|Jane Austen|Jane Austen|corpora/baseline/corpus3/pg158.epub
1|||Cranford|Cluster 1|Elizabeth Cleghorn Gaskell|Jane Austen|corpora/baseline/corpus3/pg394.epub
1|||NorthangerAbbey|Cluster 1|Jane Austen|Jane Austen|corpora/baseline/corpus3/pg121.epub
1|||MaryBarton|Cluster 1|Elizabeth Cleghorn Gaskell|Jane Austen|corpora/baseline/corpus3/pg2153.epub
1|||Persuasion|Cluster 1|Jane Austen|Jane Austen|corpora/baseline/corpus3/pg105.epub
1|||PrideandPrejudice|Cluster 1|Jane Austen|Jane Austen|corpora/baseline/corpus3/pg42671.epub
1|||SenseandSensibility|Cluster 1|Jane Austen|Jane Austen|corpora/baseline/corpus3/pg161.epub
1|||Ruth|Cluster 1|Elizabeth Cleghorn Gaskell|Jane Austen|corpora/baseline/corpus3/pg4275.epub
1|||MansfieldPark|Cluster 1|Jane Austen|Jane Austen|corpora/baseline/corpus3/pg141.epub
4|||DombeyandSon|Cluster 4|Charles Dickens|Charles Dickens|corpora/baseline/corpus3/pg821.epub
4|||TheMysteryofEdwinDrood|Cluster 4|Charles Dickens|Charles Dickens|corpora/baseline/corpus3/pg564.epub
4|||OurMutualFriend|Cluster 4|Charles Dickens|Charles Dickens|corpora/baseline/corpus3/pg883.epub
4|||NicholasNickleby|Cluster 4|Charles Dickens|Charles Dickens|corpora/baseline/corpus3/pg967.epub
4|||HardTimes|Cluster 4|Charles Dickens|Charles Dickens|corpora/baseline/corpus3/pg786.epub
4|||MartinChuzzlewit|Cluster 4|Charles Dickens|Charles Dickens|corpora/baseline/corpus3/pg968.epub
4|||LittleDorrit|Cluster 4|Charles Dickens|Charles Dickens|corpora/baseline/corpus3/pg963.epub
