threshold;Purity;MutualInformation;Accuracy;Clusters
0.6;0.7;0.630624147337008;0.68;6
0.601010101010101;0.72;0.6483154395859463;0.7;6
0.602020202020202;0.72;0.6483154395859463;0.7;6
0.603030303030303;0.72;0.6483154395859463;0.7;6
0.604040404040404;0.72;0.6483154395859463;0.7;6
0.6050505050505051;0.72;0.6483154395859463;0.7;6
0.6060606060606061;0.72;0.6483154395859463;0.7;6
0.6070707070707071;0.76;0.71016077647306;0.74;6
0.6080808080808081;0.76;0.71016077647306;0.74;6
0.609090909090909;0.76;0.71016077647306;0.74;6
0.61010101010101;0.76;0.71016077647306;0.74;6
0.611111111111111;0.76;0.71016077647306;0.74;6
0.6121212121212121;0.76;0.71016077647306;0.74;6
0.6131313131313131;0.76;0.71016077647306;0.74;6
0.6141414141414141;0.76;0.71016077647306;0.74;6
0.6151515151515151;0.76;0.71016077647306;0.74;6
0.6161616161616161;0.76;0.71016077647306;0.74;6
0.6171717171717171;0.76;0.7023282110622003;0.74;6
0.6181818181818182;0.76;0.7023282110622003;0.74;6
0.6191919191919192;0.76;0.7023282110622003;0.74;6
0.6202020202020202;0.76;0.7023282110622003;0.74;6
0.6212121212121212;0.76;0.7023282110622003;0.74;6
0.6222222222222222;0.76;0.7023282110622003;0.74;6
0.6232323232323232;0.76;0.7023282110622003;0.74;6
0.6242424242424243;0.76;0.7023282110622003;0.74;6
0.6252525252525252;0.76;0.7023282110622003;0.74;6
0.6262626262626262;0.78;0.7672611425427949;0.76;6
0.6272727272727272;0.78;0.7672611425427949;0.76;6
0.6282828282828282;0.78;0.7672611425427949;0.76;6
0.6292929292929292;0.78;0.7672611425427949;0.76;6
0.6303030303030303;0.78;0.7672611425427949;0.76;6
0.6313131313131313;0.78;0.7672611425427949;0.76;6
0.6323232323232323;0.78;0.7672611425427949;0.76;6
0.6333333333333333;0.78;0.7672611425427949;0.76;6
0.6343434343434343;0.78;0.7672611425427949;0.76;6
0.6353535353535353;0.78;0.7672611425427949;0.76;6
0.6363636363636364;0.78;0.7672611425427949;0.76;6
0.6373737373737374;0.78;0.7672611425427949;0.76;6
0.6383838383838384;0.78;0.7672611425427949;0.76;6
0.6393939393939394;0.78;0.7672611425427949;0.76;6
0.6404040404040404;0.78;0.7672611425427949;0.76;6
0.6414141414141414;0.78;0.7672611425427949;0.76;6
0.6424242424242423;0.78;0.7672611425427949;0.76;6
0.6434343434343434;0.78;0.7672611425427949;0.76;6
0.6444444444444444;0.78;0.7672611425427949;0.76;6
0.6454545454545454;0.78;0.7672611425427949;0.76;6
0.6464646464646464;0.78;0.7672611425427949;0.76;6
0.6474747474747474;0.78;0.7672611425427949;0.76;6
0.6484848484848484;0.78;0.7672611425427949;0.76;6
0.6494949494949495;0.78;0.7672611425427949;0.76;6
0.6505050505050505;0.82;0.7915170186023582;0.76;7
0.6515151515151515;0.84;0.7996285571846843;0.76;8
0.6525252525252525;0.84;0.7996285571846843;0.76;8
0.6535353535353535;0.84;0.7996285571846843;0.76;8
0.6545454545454545;0.84;0.7996285571846843;0.76;8
0.6555555555555556;0.86;0.8128852061254866;0.78;9
0.6565656565656566;0.86;0.8128852061254866;0.78;9
0.6575757575757576;0.86;0.8128852061254866;0.78;9
0.6585858585858586;0.86;0.8128852061254866;0.78;9
0.6595959595959595;0.86;0.8128852061254866;0.78;9
0.6606060606060605;0.86;0.8128852061254866;0.78;9
0.6616161616161615;0.92;0.8252218227200857;0.84;10
0.6626262626262626;0.92;0.812155087532664;0.82;11
0.6636363636363636;0.84;0.7585459752726281;0.72;11
0.6646464646464646;0.84;0.7585459752726281;0.72;11
0.6656565656565656;0.84;0.7585459752726281;0.72;11
0.6666666666666666;0.84;0.7585459752726281;0.72;11
0.6676767676767676;0.84;0.7585459752726281;0.72;11
0.6686868686868687;0.84;0.7585459752726281;0.72;11
0.6696969696969697;0.88;0.7567954313314578;0.72;12
0.6707070707070707;0.88;0.7567954313314578;0.72;12
0.6717171717171717;0.88;0.7567954313314578;0.72;12
0.6727272727272727;0.88;0.7567954313314578;0.72;12
0.6737373737373737;0.84;0.732560285813337;0.7;11
0.6747474747474747;0.88;0.7382707443978278;0.7;12
0.6757575757575758;0.88;0.7382707443978278;0.7;12
0.6767676767676767;0.88;0.7382707443978278;0.7;12
0.6777777777777777;0.88;0.7382707443978278;0.7;12
0.6787878787878787;0.88;0.7382707443978278;0.7;12
0.6797979797979797;0.88;0.7382707443978278;0.7;12
0.6808080808080808;0.88;0.7382707443978278;0.7;12
0.6818181818181818;0.88;0.7382707443978278;0.7;12
0.6828282828282828;0.88;0.7234587091917334;0.66;13
0.6838383838383838;0.88;0.7234587091917334;0.66;13
0.6848484848484848;0.88;0.7234587091917334;0.66;13
0.6858585858585858;0.88;0.7234587091917334;0.66;13
0.6868686868686869;0.88;0.7234587091917334;0.66;13
0.6878787878787879;0.88;0.7234587091917334;0.66;13
0.6888888888888889;0.88;0.7234587091917334;0.66;13
0.6898989898989899;0.88;0.7234587091917334;0.66;13
0.6909090909090909;0.9;0.7369684362299886;0.7;13
0.6919191919191918;0.96;0.8014595723980148;0.76;13
0.6929292929292928;0.96;0.8014595723980148;0.76;13
0.6939393939393939;0.96;0.8014595723980148;0.76;13
0.6949494949494949;0.96;0.8014595723980148;0.76;13
0.6959595959595959;0.96;0.8014595723980148;0.76;13
0.6969696969696969;0.96;0.8014595723980148;0.76;13
0.6979797979797979;0.96;0.8014595723980148;0.76;13
0.6989898989898989;0.96;0.8014595723980148;0.76;13
0.7;0.96;0.8014595723980148;0.76;13
