idnum|extra|percent|title|clusterid|real_author|label|filename
5|||DaughteroftheSunATaleofAdventure|Cluster 5|Jackson Gregory|Jackson Gregory|corpora/multiauthor/corpus_25_filtered/18916.epub
5|||TheEverlastingWhisper|Cluster 5|Jackson Gregory|Jackson Gregory|corpora/multiauthor/corpus_25_filtered/10213.epub
5|||JudithofBlueLakeRanch|Cluster 5|Jackson Gregory|Jackson Gregory|corpora/multiauthor/corpus_25_filtered/18926.epub
5|||TheDesertValley|Cluster 5|Jackson Gregory|Jackson Gregory|corpora/multiauthor/corpus_25_filtered/15502.epub
5|||WolfBreed|Cluster 5|Jackson Gregory|Jackson Gregory|corpora/multiauthor/corpus_25_filtered/18964.epub
5|||SixFeetFour|Cluster 5|Jackson Gregory|Jackson Gregory|corpora/multiauthor/corpus_25_filtered/15148.epub
5|||TheBellsofSanJuan|Cluster 5|Jackson Gregory|Jackson Gregory|corpora/multiauthor/corpus_25_filtered/15438.epub
5|||TheShortCut|Cluster 5|Jackson Gregory|Jackson Gregory|corpora/multiauthor/corpus_25_filtered/18950.epub
5|||UnderHandicapANovel|Cluster 5|Jackson Gregory|Jackson Gregory|corpora/multiauthor/corpus_25_filtered/17981.epub
5|||MantoMan|Cluster 5|Jackson Gregory|Jackson Gregory|corpora/multiauthor/corpus_25_filtered/18933.epub
2|||TheLogofaCowboyANarrativeoftheOldTrailDays|Cluster 2|Andy Adams|Andy Adams|corpora/multiauthor/corpus_25_filtered/12797.epub
2|||TheirYesterdays|Cluster 2|Harold Bell Wright|Andy Adams|corpora/multiauthor/corpus_25_filtered/6105.epub
2|||TheBlackBeardedBarbarianTheLifeofGeorgeLeslieMackayofFormosa|Cluster 2|Mary Esther Miller MacGregor|Andy Adams|corpora/multiauthor/corpus_25_filtered/1759.epub
2|||TheManWhoRockedtheEarth|Cluster 2|Arthur Cheney Train|Andy Adams|corpora/multiauthor/corpus_25_filtered/19174.epub
2|||TheOutlet|Cluster 2|Andy Adams|Andy Adams|corpora/multiauthor/corpus_25_filtered/1987.epub
2|||TheThreeGodfathers|Cluster 2|Peter B. Kyne|Andy Adams|corpora/multiauthor/corpus_25_filtered/51942.epub
9|||BrazilianGoldMineMysteryABiffBrewsterMysteryAdventure|Cluster 9|Andy Adams|unknown_3|corpora/multiauthor/corpus_25_filtered/51538.epub
9|||MysteryoftheAmbushinIndiaABiffBrewsterMysteryAdventure|Cluster 9|Andy Adams|unknown_3|corpora/multiauthor/corpus_25_filtered/51830.epub
29|||TheWheatPrincess|Cluster 29|Jean Webster|Harold Bell Wright|corpora/multiauthor/corpus_25_filtered/46761.epub
29|||TheWinningofBarbaraWorth|Cluster 29|Harold Bell Wright|Harold Bell Wright|corpora/multiauthor/corpus_25_filtered/6997.epub
29|||TheShepherdoftheHills|Cluster 29|Harold Bell Wright|Harold Bell Wright|corpora/multiauthor/corpus_25_filtered/4735.epub
29|||WhenAMansAMan|Cluster 29|Harold Bell Wright|Harold Bell Wright|corpora/multiauthor/corpus_25_filtered/14367.epub
29|||Mortmain|Cluster 29|Arthur Cheney Train|Harold Bell Wright|corpora/multiauthor/corpus_25_filtered/37346.epub
29|||TheEyesoftheWorld|Cluster 29|Harold Bell Wright|Harold Bell Wright|corpora/multiauthor/corpus_25_filtered/11715.epub
29|||TheReCreationofBrianKent|Cluster 29|Harold Bell Wright|Harold Bell Wright|corpora/multiauthor/corpus_25_filtered/3265.epub
29|||ThatPrinterofUdellsAStoryoftheMiddleWest|Cluster 29|Harold Bell Wright|Harold Bell Wright|corpora/multiauthor/corpus_25_filtered/6384.epub
29|||TheCallingofDanMatthews|Cluster 29|Harold Bell Wright|Harold Bell Wright|corpora/multiauthor/corpus_25_filtered/9314.epub
29|||HelenoftheOldHouse|Cluster 29|Harold Bell Wright|Harold Bell Wright|corpora/multiauthor/corpus_25_filtered/9410.epub
27|||BuffonsNaturalHistoryVolume10of10ContainingaTheoryoftheEarthaGeneralHistoryofManoftheBruteCreationandofVegetablesMinerals&c&c|Cluster 27|comte de Georges Louis Leclerc Buffon|unknown_5|corpora/multiauthor/corpus_25_filtered/45868.epub
27|||BuffonsNaturalHistoryVolume03of10ContainingaTheoryoftheEarthaGeneralHistoryofManoftheBruteCreationandofVegetablesMinerals&c&c|Cluster 27|comte de Georges Louis Leclerc Buffon|unknown_5|corpora/multiauthor/corpus_25_filtered/45639.epub
27|||BuffonsNaturalHistoryVolume01of10ContainingaTheoryoftheEarthaGeneralHistoryofManoftheBruteCreationandofVegetablesMineral&c&c|Cluster 27|comte de Georges Louis Leclerc Buffon|unknown_5|corpora/multiauthor/corpus_25_filtered/44792.epub
27|||BuffonsNaturalHistoryVolume02of10ContainingaTheoryoftheEarthaGeneralHistoryofManoftheBruteCreationandofVegetablesMineral&c&c|Cluster 27|comte de Georges Louis Leclerc Buffon|unknown_5|corpora/multiauthor/corpus_25_filtered/45602.epub
33|||TheBlueJarStoryBook|Cluster 33|Maria Edgeworth|Ford Madox Ford|corpora/multiauthor/corpus_25_filtered/34470.epub
33|||FromaSwedishHomestead|Cluster 33|Selma Lagerlöf|Ford Madox Ford|corpora/multiauthor/corpus_25_filtered/44630.epub
33|||"The""Goldfish""BeingtheConfessionsafaSuccessfulMan"|Cluster 33|Arthur Cheney Train|Ford Madox Ford|corpora/multiauthor/corpus_25_filtered/12920.epub
33|||TheConfessionsofArtemasQuibbleBeingtheIngenuousandUnvarnishedHistoryofArtemasQuibbleEsquireOneTimePractitionerintheNewYorkCrimi|Cluster 33|Arthur Cheney Train|Ford Madox Ford|corpora/multiauthor/corpus_25_filtered/20451.epub
33|||TheGoodSoldier|Cluster 33|Ford Madox Ford|Ford Madox Ford|corpora/multiauthor/corpus_25_filtered/2775.epub
33|||TheTerrorAMystery|Cluster 33|Arthur Machen|Ford Madox Ford|corpora/multiauthor/corpus_25_filtered/35617.epub
33|||TheFeather|Cluster 33|Ford Madox Ford|Ford Madox Ford|corpora/multiauthor/corpus_25_filtered/50658.epub
33|||JacquelineoftheCarrierPigeons|Cluster 33|Augusta Huiell Seaman|Ford Madox Ford|corpora/multiauthor/corpus_25_filtered/57466.epub
33|||TheBrownOwlAFairyStory|Cluster 33|Ford Madox Ford|Ford Madox Ford|corpora/multiauthor/corpus_25_filtered/48860.epub
37|||WhenPattyWenttoCollege|Cluster 37|Jean Webster|unknown_7|corpora/multiauthor/corpus_25_filtered/21639.epub
37|||BlackForestVillageStories|Cluster 37|Berthold Auerbach|unknown_7|corpora/multiauthor/corpus_25_filtered/32517.epub
37|||Jerusalem|Cluster 37|Selma Lagerlöf|unknown_7|corpora/multiauthor/corpus_25_filtered/15837.epub
37|||Landolin|Cluster 37|Berthold Auerbach|unknown_7|corpora/multiauthor/corpus_25_filtered/33008.epub
37|||ThePrecipiceANovel|Cluster 37|Elia Wilkinson Peattie|unknown_7|corpora/multiauthor/corpus_25_filtered/12177.epub
37|||TheHouseofSouls|Cluster 37|Arthur Machen|unknown_7|corpora/multiauthor/corpus_25_filtered/25016.epub
37|||AMountainWoman|Cluster 37|Elia Wilkinson Peattie|unknown_7|corpora/multiauthor/corpus_25_filtered/1877.epub
4|||StoriesofKingArthursKnightsToldtotheChildrenbyMaryMacGregor|Cluster 4|Mary Esther Miller MacGregor|unknown_8|corpora/multiauthor/corpus_25_filtered/25654.epub
4|||"ChristianGellertsLastChristmasFrom""GermanTales""PublishedbytheAmericanPublishersCorporation"|Cluster 4|Berthold Auerbach|unknown_8|corpora/multiauthor/corpus_25_filtered/22665.epub
4|||PrivySealHisLastVenture|Cluster 4|Ford Madox Ford|unknown_8|corpora/multiauthor/corpus_25_filtered/26698.epub
4|||StoriesfromtheBalladsToldtotheChildren|Cluster 4|Mary Esther Miller MacGregor|unknown_8|corpora/multiauthor/corpus_25_filtered/22175.epub
24|||AzaleaTheStoryofaLittleGirlintheBlueRidgeMountains|Cluster 24|Elia Wilkinson Peattie|Elia Wilkinson Peattie|corpora/multiauthor/corpus_25_filtered/53727.epub
24|||AnnieLaurieandAzalea|Cluster 24|Elia Wilkinson Peattie|Elia Wilkinson Peattie|corpora/multiauthor/corpus_25_filtered/53975.epub
20|||HistoryoftheIndiansofNorthandSouthAmerica|Cluster 20|Samuel G. Goodrich|unknown_10|corpora/multiauthor/corpus_25_filtered/54266.epub
20|||FamousImpostors|Cluster 20|Bram Stoker|unknown_10|corpora/multiauthor/corpus_25_filtered/51391.epub
20|||TheMotherofParliaments|Cluster 20|Harry Graham|unknown_10|corpora/multiauthor/corpus_25_filtered/41304.epub
20|||LiteraryandPhilosophicalEssaysFrenchGermanandItalian|Cluster 20|Immanuel Kant|unknown_10|corpora/multiauthor/corpus_25_filtered/5637.epub
20|||PeterParleysVisittoLondonDuringtheCoronationofQueenVictoria|Cluster 20|Samuel G. Goodrich|unknown_10|corpora/multiauthor/corpus_25_filtered/43995.epub
20|||MiltonsComus|Cluster 20|John Milton|unknown_10|corpora/multiauthor/corpus_25_filtered/19819.epub
20|||AnIntroductiontotheProseandPoeticalWorksofJohnMiltonComprisingAlltheAutobiographicPassagesinHisWorkstheMoreExplicitPresentation|Cluster 20|John Milton|unknown_10|corpora/multiauthor/corpus_25_filtered/44733.epub
20|||FamousMenofAncientTimes|Cluster 20|Samuel G. Goodrich|unknown_10|corpora/multiauthor/corpus_25_filtered/52400.epub
20|||LegendsoftheMadonnaasRepresentedintheFineArts|Cluster 20|Mrs. Jameson|unknown_10|corpora/multiauthor/corpus_25_filtered/12047.epub
31|||JudgeElbridge|Cluster 31|Opie Percival Read|Opie Percival Read|corpora/multiauthor/corpus_25_filtered/46699.epub
31|||OldEbenezer|Cluster 31|Opie Percival Read|Opie Percival Read|corpora/multiauthor/corpus_25_filtered/23215.epub
31|||MyYoungMasterANovel|Cluster 31|Opie Percival Read|Opie Percival Read|corpora/multiauthor/corpus_25_filtered/59834.epub
31|||TheColossusANovel|Cluster 31|Opie Percival Read|Opie Percival Read|corpora/multiauthor/corpus_25_filtered/15073.epub
31|||AYankeefromtheWestANovel|Cluster 31|Opie Percival Read|Opie Percival Read|corpora/multiauthor/corpus_25_filtered/33773.epub
31|||TheJucklinsANovel|Cluster 31|Opie Percival Read|Opie Percival Read|corpora/multiauthor/corpus_25_filtered/26499.epub
31|||Bolanyo|Cluster 31|Opie Percival Read|Opie Percival Read|corpora/multiauthor/corpus_25_filtered/38826.epub
31|||AnArkansasPlanter|Cluster 31|Opie Percival Read|Opie Percival Read|corpora/multiauthor/corpus_25_filtered/19107.epub
31|||TheInheritors|Cluster 31|Joseph Conrad|Opie Percival Read|corpora/multiauthor/corpus_25_filtered/14888.epub
1|||Aloys|Cluster 1|R. A. Lafferty|unknown_12|corpora/multiauthor/corpus_25_filtered/51596.epub
1|||AMichiganMan1891|Cluster 1|Elia Wilkinson Peattie|unknown_12|corpora/multiauthor/corpus_25_filtered/23176.epub
1|||"WorksofGeorgeWPeckALinkedIndextotheProjectGutenbergEditionsofthe""BadBoy""SeriesandOthers"|Cluster 1|George W. Peck|unknown_12|corpora/multiauthor/corpus_25_filtered/28970.epub
1|||SodomandGomorrahTexas|Cluster 1|R. A. Lafferty|unknown_12|corpora/multiauthor/corpus_25_filtered/23161.epub
1|||DreamWorld|Cluster 1|R. A. Lafferty|unknown_12|corpora/multiauthor/corpus_25_filtered/51668.epub
1|||SevenDayTerror|Cluster 1|R. A. Lafferty|unknown_12|corpora/multiauthor/corpus_25_filtered/61128.epub
14|||TheQueenWhoFlewAFairyTale|Cluster 14|Ford Madox Ford|unknown_13|corpora/multiauthor/corpus_25_filtered/52636.epub
14|||HowPrivateGeorgeWPeckPutDowntheRebellionorTheFunnyExperiencesofaRawRecruit1887|Cluster 14|George W. Peck|unknown_13|corpora/multiauthor/corpus_25_filtered/25492.epub
14|||TheStoryofSonnySahib|Cluster 14|Sara Jeannette Duncan|unknown_13|corpora/multiauthor/corpus_25_filtered/4547.epub
14|||TheStarbucks|Cluster 14|Opie Percival Read|unknown_13|corpora/multiauthor/corpus_25_filtered/18984.epub
14|||TheTreasure|Cluster 14|Selma Lagerlöf|unknown_13|corpora/multiauthor/corpus_25_filtered/5161.epub
14|||UpTerrapinRiver|Cluster 14|Opie Percival Read|unknown_13|corpora/multiauthor/corpus_25_filtered/44879.epub
30|||Webster—MansMan|Cluster 30|Peter B. Kyne|unknown_14|corpora/multiauthor/corpus_25_filtered/51987.epub
30|||JerryJunior|Cluster 30|Jean Webster|unknown_14|corpora/multiauthor/corpus_25_filtered/20358.epub
30|||JustPatty|Cluster 30|Jean Webster|unknown_14|corpora/multiauthor/corpus_25_filtered/21048.epub
30|||TheLongChance|Cluster 30|Peter B. Kyne|unknown_14|corpora/multiauthor/corpus_25_filtered/6115.epub
30|||TheFourPoolsMystery|Cluster 30|Jean Webster|unknown_14|corpora/multiauthor/corpus_25_filtered/21264.epub
30|||TheGirlfromtheMarshCroft|Cluster 30|Selma Lagerlöf|unknown_14|corpora/multiauthor/corpus_25_filtered/41414.epub
30|||TheValleyoftheGiants|Cluster 30|Peter B. Kyne|unknown_14|corpora/multiauthor/corpus_25_filtered/5735.epub
30|||Jerry|Cluster 30|Jean Webster|unknown_14|corpora/multiauthor/corpus_25_filtered/20357.epub
30|||Romance|Cluster 30|Mrs. Jameson|unknown_14|corpora/multiauthor/corpus_25_filtered/35382.epub
30|||KindredoftheDust|Cluster 30|Peter B. Kyne|unknown_14|corpora/multiauthor/corpus_25_filtered/13532.epub
19|||TheCritiqueofPracticalReason|Cluster 19|Immanuel Kant|Immanuel Kant|corpora/multiauthor/corpus_25_filtered/5683.epub
19|||TheMetaphysicalElementsofEthics|Cluster 19|Immanuel Kant|Immanuel Kant|corpora/multiauthor/corpus_25_filtered/5684.epub
19|||FundamentalPrinciplesoftheMetaphysicofMorals|Cluster 19|Immanuel Kant|Immanuel Kant|corpora/multiauthor/corpus_25_filtered/5682.epub
19|||KantsProlegomenatoAnyFutureMetaphysics|Cluster 19|Immanuel Kant|Immanuel Kant|corpora/multiauthor/corpus_25_filtered/52821.epub
19|||KantsCritiqueofJudgement|Cluster 19|Immanuel Kant|Immanuel Kant|corpora/multiauthor/corpus_25_filtered/48433.epub
19|||TheCritiqueofPureReason|Cluster 19|Immanuel Kant|Immanuel Kant|corpora/multiauthor/corpus_25_filtered/4280.epub
10|||ADaughterofToDay|Cluster 10|Sara Jeannette Duncan|Sara Jeannette Duncan|corpora/multiauthor/corpus_25_filtered/14490.epub
10|||ThePoolintheDesert|Cluster 10|Sara Jeannette Duncan|Sara Jeannette Duncan|corpora/multiauthor/corpus_25_filtered/1168.epub
10|||AVoyageofConsolationbeinginthenatureofasequeltotheexperiencesofAnAmericangirlinLondon|Cluster 10|Sara Jeannette Duncan|Sara Jeannette Duncan|corpora/multiauthor/corpus_25_filtered/15966.epub
10|||TheSimpleAdventuresofaMemsahib|Cluster 10|Sara Jeannette Duncan|Sara Jeannette Duncan|corpora/multiauthor/corpus_25_filtered/56513.epub
10|||ThePathofaStar|Cluster 10|Sara Jeannette Duncan|Sara Jeannette Duncan|corpora/multiauthor/corpus_25_filtered/5102.epub
10|||HisHonourandaLady|Cluster 10|Sara Jeannette Duncan|Sara Jeannette Duncan|corpora/multiauthor/corpus_25_filtered/53036.epub
10|||TheImperialist|Cluster 10|Sara Jeannette Duncan|Sara Jeannette Duncan|corpora/multiauthor/corpus_25_filtered/5301.epub
10|||TuttandMrTutt|Cluster 10|Arthur Cheney Train|Sara Jeannette Duncan|corpora/multiauthor/corpus_25_filtered/10440.epub
10|||HildaAStoryofCalcutta|Cluster 10|Sara Jeannette Duncan|Sara Jeannette Duncan|corpora/multiauthor/corpus_25_filtered/18051.epub
10|||ByAdviceofCounsel|Cluster 10|Arthur Cheney Train|Sara Jeannette Duncan|corpora/multiauthor/corpus_25_filtered/11987.epub
15|||MysteryoftheChineseRingABiffBrewsterMysteryAdventure|Cluster 15|Andy Adams|George W. Peck|corpora/multiauthor/corpus_25_filtered/51608.epub
15|||PecksBadBoywiththeCowboys|Cluster 15|George W. Peck|George W. Peck|corpora/multiauthor/corpus_25_filtered/6141.epub
15|||PecksBadBoyandHisPa1883|Cluster 15|George W. Peck|George W. Peck|corpora/multiauthor/corpus_25_filtered/25487.epub
15|||PecksUncleIkeandTheRedHeadedBoy1899|Cluster 15|George W. Peck|George W. Peck|corpora/multiauthor/corpus_25_filtered/25490.epub
15|||PecksBadBoywiththeCircus|Cluster 15|George W. Peck|George W. Peck|corpora/multiauthor/corpus_25_filtered/10212.epub
15|||WellsBrothersTheYoungCattleKings|Cluster 15|Andy Adams|George W. Peck|corpora/multiauthor/corpus_25_filtered/12791.epub
15|||TheGroceryManAndPecksBadBoyPecksBadBoyandHisPaNo21883|Cluster 15|George W. Peck|George W. Peck|corpora/multiauthor/corpus_25_filtered/25488.epub
15|||PecksBadBoyAbroadBeingaHumorousDescriptionoftheBadBoyandHisDadinTheirJourneysThroughForeignLands1904|Cluster 15|George W. Peck|George W. Peck|corpora/multiauthor/corpus_25_filtered/25489.epub
15|||HawaiianSeaHuntMysteryABiffBrewsterMysteryAdventure|Cluster 15|Andy Adams|George W. Peck|corpora/multiauthor/corpus_25_filtered/51755.epub
26|||DearEnemy|Cluster 26|Jean Webster|unknown_18|corpora/multiauthor/corpus_25_filtered/238.epub
26|||AnAmericanGirlinLondon|Cluster 26|Sara Jeannette Duncan|unknown_18|corpora/multiauthor/corpus_25_filtered/45925.epub
26|||AzaleaatSunsetGap|Cluster 26|Elia Wilkinson Peattie|unknown_18|corpora/multiauthor/corpus_25_filtered/54813.epub
26|||AzaleasSilverWeb|Cluster 26|Elia Wilkinson Peattie|unknown_18|corpora/multiauthor/corpus_25_filtered/55304.epub
16|||PecksSunshineBeingaCollectionofArticlesWrittenforPecksSunMilwaukeeWis1882|Cluster 16|George W. Peck|unknown_19|corpora/multiauthor/corpus_25_filtered/25491.epub
16|||CattleBrandsACollectionofWesternCampFireStories|Cluster 16|Andy Adams|unknown_19|corpora/multiauthor/corpus_25_filtered/12281.epub
16|||ATexasMatchmaker|Cluster 16|Andy Adams|unknown_19|corpora/multiauthor/corpus_25_filtered/12919.epub
16|||PecksCompendiumofFunComprisingtheChoicestGemsofWitHumorSarcasmandPathosofAmericasFavoriteHumorist|Cluster 16|George W. Peck|unknown_19|corpora/multiauthor/corpus_25_filtered/14815.epub
16|||PaintedWindows|Cluster 16|Elia Wilkinson Peattie|unknown_19|corpora/multiauthor/corpus_25_filtered/1875.epub
28|||TheFifthQueenCrowned|Cluster 28|Ford Madox Ford|unknown_20|corpora/multiauthor/corpus_25_filtered/27432.epub
28|||TheYoungLovellARomance|Cluster 28|Ford Madox Ford|unknown_20|corpora/multiauthor/corpus_25_filtered/42801.epub
28|||TheFifthQueenAndHowSheCametoCourt|Cluster 28|Ford Madox Ford|unknown_20|corpora/multiauthor/corpus_25_filtered/30188.epub
28|||VerseandWorse|Cluster 28|Harry Graham|unknown_20|corpora/multiauthor/corpus_25_filtered/36702.epub
28|||TheGreatReturn|Cluster 28|Arthur Machen|unknown_20|corpora/multiauthor/corpus_25_filtered/35611.epub
28|||TheHillofDreams|Cluster 28|Arthur Machen|unknown_20|corpora/multiauthor/corpus_25_filtered/13969.epub
28|||TheAngelsofMonsTheBowmenandOtherLegendsoftheWar|Cluster 28|Arthur Machen|unknown_20|corpora/multiauthor/corpus_25_filtered/14044.epub
32|||InvisibleLinks|Cluster 32|Selma Lagerlöf|Selma Lagerlöf|corpora/multiauthor/corpus_25_filtered/14273.epub
32|||TheStoryofGöstaBerling|Cluster 32|Selma Lagerlöf|Selma Lagerlöf|corpora/multiauthor/corpus_25_filtered/56158.epub
32|||TheMiraclesofAntichristANovel|Cluster 32|Selma Lagerlöf|Selma Lagerlöf|corpora/multiauthor/corpus_25_filtered/54615.epub
21|||PoemsYouOughttoKnow|Cluster 21|Elia Wilkinson Peattie|unknown_22|corpora/multiauthor/corpus_25_filtered/53415.epub
0|||SketchesinCanadaandramblesamongtheredmen|Cluster 0|Mrs. Jameson|Charles Lamb|corpora/multiauthor/corpus_25_filtered/35224.epub
0|||TheWorksofCharlesandMaryLamb—Volume4PoemsandPlays|Cluster 0|Charles Lamb|Charles Lamb|corpora/multiauthor/corpus_25_filtered/11576.epub
0|||VisitsandSketchesatHomeandAbroadVol3of3WithTalesandMiscellaniesNowFirstCollected|Cluster 0|Mrs. Jameson|Charles Lamb|corpora/multiauthor/corpus_25_filtered/36820.epub
0|||TheWorksofCharlesandMaryLamb—Volume6Letters18211842|Cluster 0|Charles Lamb|Charles Lamb|corpora/multiauthor/corpus_25_filtered/10851.epub
0|||TheWorksofCharlesandMaryLamb—Volume2EliaandTheLastEssaysofElia|Cluster 0|Charles Lamb|Charles Lamb|corpora/multiauthor/corpus_25_filtered/10343.epub
0|||VisitsandSketchesatHomeandAbroadVol1of3WithTalesandMiscellaniesNowFirstCollected|Cluster 0|Mrs. Jameson|Charles Lamb|corpora/multiauthor/corpus_25_filtered/36818.epub
0|||TheWorksofCharlesandMaryLamb—Volume1MiscellaneousProse|Cluster 0|Charles Lamb|Charles Lamb|corpora/multiauthor/corpus_25_filtered/40988.epub
0|||TalesfromShakespeare|Cluster 0|Charles Lamb|Charles Lamb|corpora/multiauthor/corpus_25_filtered/1286.epub
0|||TheWorksofCharlesandMaryLamb—Volume3BooksforChildren|Cluster 0|Charles Lamb|Charles Lamb|corpora/multiauthor/corpus_25_filtered/10130.epub
0|||TheWorksofCharlesandMaryLamb—Volume5TheLettersofCharlesandMaryLamb17961820|Cluster 0|Charles Lamb|Charles Lamb|corpora/multiauthor/corpus_25_filtered/9365.epub
3|||IndexoftheProjectGutenbergWorksofBramStoker|Cluster 3|Bram Stoker|unknown_24|corpora/multiauthor/corpus_25_filtered/59671.epub
3|||OftheInjusticeofCounterfeitingBooksFromEssaysandTreatiesonMoralPoliticalandvariousPhilosophicalSubjects|Cluster 3|Immanuel Kant|unknown_24|corpora/multiauthor/corpus_25_filtered/46060.epub
3|||IndexoftheProjectGutenbergWorksofImmanuelKant|Cluster 3|Immanuel Kant|unknown_24|corpora/multiauthor/corpus_25_filtered/59023.epub
6|||BuffonsNaturalHistoryVolume08of10ContainingaTheoryoftheEarthaGeneralHistoryofManoftheBruteCreationandofVegetablesMinerals&c&c|Cluster 6|comte de Georges Louis Leclerc Buffon|comte de Georges Louis Leclerc Buffon|corpora/multiauthor/corpus_25_filtered/45821.epub
6|||BuffonsNaturalHistoryVolume06of10ContainingaTheoryoftheEarthaGeneralHistoryofManoftheBruteCreationandofVegetablesMinerals&c&c|Cluster 6|comte de Georges Louis Leclerc Buffon|comte de Georges Louis Leclerc Buffon|corpora/multiauthor/corpus_25_filtered/45731.epub
6|||BuffonsNaturalHistoryVolume05of10ContainingaTheoryoftheEarthaGeneralHistoryofManoftheBruteCreationandofVegetablesMinerals&c&c|Cluster 6|comte de Georges Louis Leclerc Buffon|comte de Georges Louis Leclerc Buffon|corpora/multiauthor/corpus_25_filtered/45730.epub
6|||BuffonsNaturalHistoryVolume04of10ContainingaTheoryoftheEarthaGeneralHistoryofManoftheBruteCreationandofVegetablesMinerals&c&c|Cluster 6|comte de Georges Louis Leclerc Buffon|comte de Georges Louis Leclerc Buffon|corpora/multiauthor/corpus_25_filtered/45729.epub
6|||BuffonsNaturalHistoryVolume07of10ContainingaTheoryoftheEarthaGeneralHistoryofManoftheBruteCreationandofVegetablesMinerals&c&c|Cluster 6|comte de Georges Louis Leclerc Buffon|comte de Georges Louis Leclerc Buffon|corpora/multiauthor/corpus_25_filtered/45820.epub
6|||PerpetualPeaceAPhilosophicalEssay|Cluster 6|Immanuel Kant|comte de Georges Louis Leclerc Buffon|corpora/multiauthor/corpus_25_filtered/50922.epub
6|||BuffonsNaturalHistoryVolume09of10ContainingaTheoryoftheEarthaGeneralHistoryofManoftheBruteCreationandofVegetablesMinerals&c&c|Cluster 6|comte de Georges Louis Leclerc Buffon|comte de Georges Louis Leclerc Buffon|corpora/multiauthor/corpus_25_filtered/45867.epub
11|||TheUncrownedKing|Cluster 11|Harold Bell Wright|Harry Graham|corpora/multiauthor/corpus_25_filtered/12991.epub
11|||MoreMisrepresentativeMen|Cluster 11|Harry Graham|Harry Graham|corpora/multiauthor/corpus_25_filtered/36782.epub
11|||ReedAnthonyCowmanAnAutobiography|Cluster 11|Andy Adams|Harry Graham|corpora/multiauthor/corpus_25_filtered/12884.epub
11|||FamiliarFaces|Cluster 11|Harry Graham|Harry Graham|corpora/multiauthor/corpus_25_filtered/35059.epub
11|||StoriesofSiegfriedToldtotheChildren|Cluster 11|Mary Esther Miller MacGregor|Harry Graham|corpora/multiauthor/corpus_25_filtered/26181.epub
11|||TheMotleyMuseRhymesfortheTimes|Cluster 11|Harry Graham|Harry Graham|corpora/multiauthor/corpus_25_filtered/36543.epub
11|||Poems|Cluster 11|John Milton|Harry Graham|corpora/multiauthor/corpus_25_filtered/6929.epub
11|||MisrepresentativeWomen|Cluster 11|Harry Graham|Harry Graham|corpora/multiauthor/corpus_25_filtered/42407.epub
7|||LivesofCelebratedWomen|Cluster 7|Samuel G. Goodrich|Mrs. Jameson|corpora/multiauthor/corpus_25_filtered/33273.epub
7|||ACommonplaceBookofThoughtsMemoriesandFancies2nded|Cluster 7|Mrs. Jameson|Mrs. Jameson|corpora/multiauthor/corpus_25_filtered/39680.epub
7|||MiltonMinorPoems|Cluster 7|John Milton|Mrs. Jameson|corpora/multiauthor/corpus_25_filtered/31706.epub
7|||TheRomanceofBiographyVol1of2orMemoirsofWomenLovedandCelebratedbyPoetsfromtheDaysoftheTroubadourstothePresentAge3rded2Vols|Cluster 7|Mrs. Jameson|Mrs. Jameson|corpora/multiauthor/corpus_25_filtered/35382.epub
7|||CharacteristicsofWomenMoralPoeticalandHistorical|Cluster 7|Mrs. Jameson|Mrs. Jameson|corpora/multiauthor/corpus_25_filtered/26152.epub
7|||TheLifeofBenjaminFranklinIllustratedbyTalesSketchesandAnecdotes|Cluster 7|Samuel G. Goodrich|Mrs. Jameson|corpora/multiauthor/corpus_25_filtered/38469.epub
7|||TheDiaryofanEnnuyée|Cluster 7|Mrs. Jameson|Mrs. Jameson|corpora/multiauthor/corpus_25_filtered/18049.epub
7|||TheRomanceofBiographyVol2of2orMemoirsofWomenLovedandCelebratedbyPoetsfromtheDaysoftheTroubadourstothePresentAge3rded2Vols|Cluster 7|Mrs. Jameson|Mrs. Jameson|corpora/multiauthor/corpus_25_filtered/35416.epub
7|||VisitsandSketchesatHomeandAbroadVol2of3WithTalesandMiscellaniesNowFirstCollected|Cluster 7|Mrs. Jameson|Mrs. Jameson|corpora/multiauthor/corpus_25_filtered/36819.epub
17|||TheGirlNextDoor|Cluster 17|Augusta Huiell Seaman|Augusta Huiell Seaman|corpora/multiauthor/corpus_25_filtered/39896.epub
17|||TheCrimsonPatch|Cluster 17|Augusta Huiell Seaman|Augusta Huiell Seaman|corpora/multiauthor/corpus_25_filtered/52509.epub
17|||TheSlipperPointMystery|Cluster 17|Augusta Huiell Seaman|Augusta Huiell Seaman|corpora/multiauthor/corpus_25_filtered/50961.epub
17|||TheBoardedUpHouse|Cluster 17|Augusta Huiell Seaman|Augusta Huiell Seaman|corpora/multiauthor/corpus_25_filtered/30905.epub
17|||TheSapphireSignet|Cluster 17|Augusta Huiell Seaman|Augusta Huiell Seaman|corpora/multiauthor/corpus_25_filtered/55964.epub
17|||TheDragonsSecret|Cluster 17|Augusta Huiell Seaman|Augusta Huiell Seaman|corpora/multiauthor/corpus_25_filtered/25770.epub
17|||ThreeSidesofParadiseGreen|Cluster 17|Augusta Huiell Seaman|Augusta Huiell Seaman|corpora/multiauthor/corpus_25_filtered/52946.epub
36|||TheMan|Cluster 36|Bram Stoker|Bram Stoker|corpora/multiauthor/corpus_25_filtered/2520.epub
36|||TheJewelofSevenStars|Cluster 36|Bram Stoker|Bram Stoker|corpora/multiauthor/corpus_25_filtered/3781.epub
36|||Dracula|Cluster 36|Bram Stoker|Bram Stoker|corpora/multiauthor/corpus_25_filtered/10150.epub
36|||TheLairoftheWhiteWorm|Cluster 36|Bram Stoker|Bram Stoker|corpora/multiauthor/corpus_25_filtered/1188.epub
36|||DraculasGuest|Cluster 36|Bram Stoker|Bram Stoker|corpora/multiauthor/corpus_25_filtered/10150.epub
36|||TheLadyoftheShroud|Cluster 36|Bram Stoker|Bram Stoker|corpora/multiauthor/corpus_25_filtered/3095.epub
36|||TheMysteryoftheSea|Cluster 36|Bram Stoker|Bram Stoker|corpora/multiauthor/corpus_25_filtered/42455.epub
35|||EdelweissAStory|Cluster 35|Berthold Auerbach|unknown_30|corpora/multiauthor/corpus_25_filtered/33007.epub
35|||ChristLegends|Cluster 35|Selma Lagerlöf|unknown_30|corpora/multiauthor/corpus_25_filtered/44818.epub
35|||VillaEdenTheCountryHouseontheRhine|Cluster 35|Berthold Auerbach|unknown_30|corpora/multiauthor/corpus_25_filtered/32902.epub
35|||WhenaCobblerRuledtheKing|Cluster 35|Augusta Huiell Seaman|unknown_30|corpora/multiauthor/corpus_25_filtered/38570.epub
35|||OntheHeightsANovel|Cluster 35|Berthold Auerbach|unknown_30|corpora/multiauthor/corpus_25_filtered/33294.epub
25|||JosephintheSnowandTheClockmakerInThreeVolumesVolIII|Cluster 25|Berthold Auerbach|Berthold Auerbach|corpora/multiauthor/corpus_25_filtered/33164.epub
25|||JosephintheSnowandTheClockmakerInThreeVolumesVolII|Cluster 25|Berthold Auerbach|Berthold Auerbach|corpora/multiauthor/corpus_25_filtered/33163.epub
25|||WaldfriedANovel|Cluster 25|Berthold Auerbach|Berthold Auerbach|corpora/multiauthor/corpus_25_filtered/32446.epub
25|||JosephintheSnowandTheClockmakerInThreeVolumesVolI|Cluster 25|Berthold Auerbach|Berthold Auerbach|corpora/multiauthor/corpus_25_filtered/33162.epub
12|||ParadiseRegained|Cluster 12|John Milton|John Milton|corpora/multiauthor/corpus_25_filtered/58.epub
12|||ParadiseLost|Cluster 12|John Milton|John Milton|corpora/multiauthor/corpus_25_filtered/20.epub
12|||ThePoeticalWorksofJohnMilton|Cluster 12|John Milton|John Milton|corpora/multiauthor/corpus_25_filtered/1745.epub
12|||PoemataLatinGreekandItalianPoemsbyJohnMilton|Cluster 12|John Milton|John Milton|corpora/multiauthor/corpus_25_filtered/6929.epub
12|||AreopagiticaASpeechfortheLibertyofUnlicensedPrintingtotheParliamentofEngland|Cluster 12|John Milton|John Milton|corpora/multiauthor/corpus_25_filtered/608.epub
12|||LAllegroIlPenserosoComusandLycidas|Cluster 12|John Milton|John Milton|corpora/multiauthor/corpus_25_filtered/397.epub
13|||IllustrativeAnecdotesoftheAnimalKingdom|Cluster 13|Samuel G. Goodrich|Samuel G. Goodrich|corpora/multiauthor/corpus_25_filtered/33687.epub
13|||CuriositiesofHumanNature|Cluster 13|Samuel G. Goodrich|Samuel G. Goodrich|corpora/multiauthor/corpus_25_filtered/39333.epub
13|||ThePrisonerattheBarSidelightsontheAdministrationofCriminalJustice|Cluster 13|Arthur Cheney Train|Samuel G. Goodrich|corpora/multiauthor/corpus_25_filtered/58534.epub
13|||TrueStoriesofCrimeFromtheDistrictAttorneysOffice|Cluster 13|Arthur Cheney Train|Samuel G. Goodrich|corpora/multiauthor/corpus_25_filtered/13172.epub
13|||Hieroglyphics|Cluster 13|Arthur Machen|Samuel G. Goodrich|corpora/multiauthor/corpus_25_filtered/40241.epub
13|||PeterParleysTalesAboutAmericaandAustralia|Cluster 13|Samuel G. Goodrich|Samuel G. Goodrich|corpora/multiauthor/corpus_25_filtered/16891.epub
13|||"PeterParleysOwnStoryFromthePersonalNarrativeoftheLateSamuelGGoodrich""PeterParley"""|Cluster 13|Samuel G. Goodrich|Samuel G. Goodrich|corpora/multiauthor/corpus_25_filtered/45165.epub
13|||CourtsandCriminals|Cluster 13|Arthur Cheney Train|Samuel G. Goodrich|corpora/multiauthor/corpus_25_filtered/5268.epub
23|||TreasureValley|Cluster 23|Mary Esther Miller MacGregor|Mary Esther Miller MacGregor|corpora/multiauthor/corpus_25_filtered/29023.epub
23|||LizbethoftheDale|Cluster 23|Mary Esther Miller MacGregor|Mary Esther Miller MacGregor|corpora/multiauthor/corpus_25_filtered/28234.epub
23|||InOrchardGlen|Cluster 23|Mary Esther Miller MacGregor|Mary Esther Miller MacGregor|corpora/multiauthor/corpus_25_filtered/28235.epub
23|||TheEndoftheRainbow|Cluster 23|Mary Esther Miller MacGregor|Mary Esther Miller MacGregor|corpora/multiauthor/corpus_25_filtered/28276.epub
23|||TheSilverMaple|Cluster 23|Mary Esther Miller MacGregor|Mary Esther Miller MacGregor|corpora/multiauthor/corpus_25_filtered/28688.epub
23|||DuncanPolitetheWatchmanofGlenoro|Cluster 23|Mary Esther Miller MacGregor|Mary Esther Miller MacGregor|corpora/multiauthor/corpus_25_filtered/28689.epub
8|||TheSecretGlory|Cluster 8|Arthur Machen|Arthur Machen|corpora/multiauthor/corpus_25_filtered/35637.epub
8|||TheThreeImpostorsorTheTransmutations|Cluster 8|Arthur Machen|Arthur Machen|corpora/multiauthor/corpus_25_filtered/35517.epub
8|||FarOffThings|Cluster 8|Arthur Machen|Arthur Machen|corpora/multiauthor/corpus_25_filtered/35153.epub
8|||TheGreatGodPan|Cluster 8|Arthur Machen|Arthur Machen|corpora/multiauthor/corpus_25_filtered/389.epub
22|||TheSixFingersofTime|Cluster 22|R. A. Lafferty|Peter B. Kyne|corpora/multiauthor/corpus_25_filtered/31663.epub
22|||CappyRicksRetiresButThatDoesntKeepHimfromComingBackStrongerThanEver|Cluster 22|Peter B. Kyne|Peter B. Kyne|corpora/multiauthor/corpus_25_filtered/6020.epub
22|||ThePrideofPalomar|Cluster 22|Peter B. Kyne|Peter B. Kyne|corpora/multiauthor/corpus_25_filtered/16674.epub
22|||CappyRicksOrtheSubjugationofMattPeasley|Cluster 22|Peter B. Kyne|Peter B. Kyne|corpora/multiauthor/corpus_25_filtered/5738.epub
22|||DaddyLongLegs|Cluster 22|Jean Webster|Peter B. Kyne|corpora/multiauthor/corpus_25_filtered/40426.epub
22|||TheGoGetterAStoryThatTellsYouHowtobeOne|Cluster 22|Peter B. Kyne|Peter B. Kyne|corpora/multiauthor/corpus_25_filtered/12257.epub
22|||CaptainScraggsOrTheGreenPeaPirates|Cluster 22|Peter B. Kyne|Peter B. Kyne|corpora/multiauthor/corpus_25_filtered/18469.epub
22|||DaddyLongLegsAComedyinFourActs|Cluster 22|Jean Webster|Peter B. Kyne|corpora/multiauthor/corpus_25_filtered/40426.epub
18|||FiscalBallads|Cluster 18|Harry Graham|R. A. Lafferty|corpora/multiauthor/corpus_25_filtered/36038.epub
18|||McGonigalsWorm|Cluster 18|R. A. Lafferty|R. A. Lafferty|corpora/multiauthor/corpus_25_filtered/60940.epub
18|||IntheGarden|Cluster 18|R. A. Lafferty|R. A. Lafferty|corpora/multiauthor/corpus_25_filtered/61007.epub
18|||MisrepresentativeMen|Cluster 18|Harry Graham|R. A. Lafferty|corpora/multiauthor/corpus_25_filtered/36782.epub
18|||AllthePeople|Cluster 18|R. A. Lafferty|R. A. Lafferty|corpora/multiauthor/corpus_25_filtered/51603.epub
18|||TheWeirdestWorld|Cluster 18|R. A. Lafferty|R. A. Lafferty|corpora/multiauthor/corpus_25_filtered/51774.epub
18|||ThePolitePeopleofPudibundia|Cluster 18|R. A. Lafferty|R. A. Lafferty|corpora/multiauthor/corpus_25_filtered/60955.epub
18|||PervertedProverbsAManualofImmoralsfortheMany|Cluster 18|Harry Graham|R. A. Lafferty|corpora/multiauthor/corpus_25_filtered/34790.epub
18|||RuthlessRhymesforHeartlessHomes|Cluster 18|Harry Graham|R. A. Lafferty|corpora/multiauthor/corpus_25_filtered/35051.epub
34|||McAllisterandHisDouble|Cluster 34|Arthur Cheney Train|unknown_38|corpora/multiauthor/corpus_25_filtered/34597.epub
34|||TheEmperorofPortugallia|Cluster 34|Selma Lagerlöf|unknown_38|corpora/multiauthor/corpus_25_filtered/14356.epub
34|||TheWonderfulAdventuresofNils|Cluster 34|Selma Lagerlöf|unknown_38|corpora/multiauthor/corpus_25_filtered/10935.epub
34|||MuchAdoAboutPeter|Cluster 34|Jean Webster|unknown_38|corpora/multiauthor/corpus_25_filtered/42768.epub
34|||TheShapeofFear|Cluster 34|Elia Wilkinson Peattie|unknown_38|corpora/multiauthor/corpus_25_filtered/1876.epub
