idnum|extra|title|percent|clusterid|real_author|label|filename
0|4971aa|InvisibleLinks|100.0|Cluster 0|Selma Lagerlöf|Selma Lagerlöf|corpora/multiauthor/corpus_25_filtered/14273.epub
1|4971aa|JosephintheSnowandTheClockmakerInThreeVolumesVolIII|0.81|Cluster 0|Berthold Auerbach|Selma Lagerlöf|corpora/multiauthor/corpus_25_filtered/33164.epub
2|4971aa|StoriesofKingArthursKnightsToldtotheChildrenbyMaryMacGregor|0.94|Cluster 0|Mary Esther Miller MacGregor|Selma Lagerlöf|corpora/multiauthor/corpus_25_filtered/25654.epub
3|4971aa|DaughteroftheSunATaleofAdventure|0.69|Cluster 0|Jackson Gregory|Selma Lagerlöf|corpora/multiauthor/corpus_25_filtered/18916.epub
4|4971aa|Webster—MansMan|0.25|Cluster 0|Peter B. Kyne|Selma Lagerlöf|corpora/multiauthor/corpus_25_filtered/51987.epub
5|4971aa|JudgeElbridge|0.07|Cluster 0|Opie Percival Read|Selma Lagerlöf|corpora/multiauthor/corpus_25_filtered/46699.epub
6|4971aa|TheMan|0.15|Cluster 0|Bram Stoker|Selma Lagerlöf|corpora/multiauthor/corpus_25_filtered/2520.epub
7|4971aa|ADaughterofToDay|0.36|Cluster 0|Sara Jeannette Duncan|Selma Lagerlöf|corpora/multiauthor/corpus_25_filtered/14490.epub
8|4971aa|OldEbenezer|0.72|Cluster 0|Opie Percival Read|Selma Lagerlöf|corpora/multiauthor/corpus_25_filtered/23215.epub
9|4971aa|TreasureValley|0.68|Cluster 0|Mary Esther Miller MacGregor|Selma Lagerlöf|corpora/multiauthor/corpus_25_filtered/29023.epub
10|4971aa|ThePoolintheDesert|0.84|Cluster 0|Sara Jeannette Duncan|Selma Lagerlöf|corpora/multiauthor/corpus_25_filtered/1168.epub
11|4971aa|EdelweissAStory|0.38|Cluster 0|Berthold Auerbach|Selma Lagerlöf|corpora/multiauthor/corpus_25_filtered/33007.epub
12|4971aa|TheJewelofSevenStars|0.39|Cluster 0|Bram Stoker|Selma Lagerlöf|corpora/multiauthor/corpus_25_filtered/3781.epub
13|4971aa|TheGirlNextDoor|0.79|Cluster 0|Augusta Huiell Seaman|Selma Lagerlöf|corpora/multiauthor/corpus_25_filtered/39896.epub
14|4971aa|McAllisterandHisDouble|0.11|Cluster 0|Arthur Cheney Train|Selma Lagerlöf|corpora/multiauthor/corpus_25_filtered/34597.epub
15|4971aa|IllustrativeAnecdotesoftheAnimalKingdom|0.77|Cluster 0|Samuel G. Goodrich|Selma Lagerlöf|corpora/multiauthor/corpus_25_filtered/33687.epub
16|4971aa|TheSecretGlory|0.06|Cluster 0|Arthur Machen|Selma Lagerlöf|corpora/multiauthor/corpus_25_filtered/35637.epub
17|4971aa|TheBlueJarStoryBook|0.1|Cluster 0|Maria Edgeworth|Selma Lagerlöf|corpora/multiauthor/corpus_25_filtered/34470.epub
18|4971aa|AVoyageofConsolationbeinginthenatureofasequeltotheexperiencesofAnAmericangirlinLondon|0.89|Cluster 0|Sara Jeannette Duncan|Selma Lagerlöf|corpora/multiauthor/corpus_25_filtered/15966.epub
19|4971aa|TheEmperorofPortugallia|0.22|Cluster 0|Selma Lagerlöf|Selma Lagerlöf|corpora/multiauthor/corpus_25_filtered/14356.epub
20|4971aa|TheEverlastingWhisper|0.01|Cluster 0|Jackson Gregory|Selma Lagerlöf|corpora/multiauthor/corpus_25_filtered/10213.epub
21|4971aa|SketchesinCanadaandramblesamongtheredmen|0.47|Cluster 0|Mrs. Jameson|Selma Lagerlöf|corpora/multiauthor/corpus_25_filtered/35224.epub
22|4971aa|JudithofBlueLakeRanch|0.35|Cluster 0|Jackson Gregory|Selma Lagerlöf|corpora/multiauthor/corpus_25_filtered/18926.epub
23|4971aa|WhenPattyWenttoCollege|0.7|Cluster 0|Jean Webster|Selma Lagerlöf|corpora/multiauthor/corpus_25_filtered/21639.epub
24|4971aa|TheCrimsonPatch|0.06|Cluster 0|Augusta Huiell Seaman|Selma Lagerlöf|corpora/multiauthor/corpus_25_filtered/52509.epub
25|4971aa|LivesofCelebratedWomen|0.46|Cluster 0|Samuel G. Goodrich|Selma Lagerlöf|corpora/multiauthor/corpus_25_filtered/33273.epub
26|4971aa|TheFifthQueenCrowned|0.96|Cluster 0|Ford Madox Ford|Selma Lagerlöf|corpora/multiauthor/corpus_25_filtered/27432.epub
27|4971aa|MyYoungMasterANovel|0.73|Cluster 0|Opie Percival Read|Selma Lagerlöf|corpora/multiauthor/corpus_25_filtered/59834.epub
28|4971aa|TheQueenWhoFlewAFairyTale|0.46|Cluster 0|Ford Madox Ford|Selma Lagerlöf|corpora/multiauthor/corpus_25_filtered/52636.epub
29|4971aa|JosephintheSnowandTheClockmakerInThreeVolumesVolII|0.06|Cluster 0|Berthold Auerbach|Selma Lagerlöf|corpora/multiauthor/corpus_25_filtered/33163.epub
30|4971aa|VisitsandSketchesatHomeandAbroadVol3of3WithTalesandMiscellaniesNowFirstCollected|0.74|Cluster 0|Mrs. Jameson|Selma Lagerlöf|corpora/multiauthor/corpus_25_filtered/36820.epub
31|4971aa|TheSixFingersofTime|0.24|Cluster 0|R. A. Lafferty|Selma Lagerlöf|corpora/multiauthor/corpus_25_filtered/31663.epub
32|4971aa|JerryJunior|0.7|Cluster 0|Jean Webster|Selma Lagerlöf|corpora/multiauthor/corpus_25_filtered/20358.epub
33|4971aa|LizbethoftheDale|0.79|Cluster 0|Mary Esther Miller MacGregor|Selma Lagerlöf|corpora/multiauthor/corpus_25_filtered/28234.epub
34|4971aa|BlackForestVillageStories|0.57|Cluster 0|Berthold Auerbach|Selma Lagerlöf|corpora/multiauthor/corpus_25_filtered/32517.epub
35|4971aa|TheSimpleAdventuresofaMemsahib|0.99|Cluster 0|Sara Jeannette Duncan|Selma Lagerlöf|corpora/multiauthor/corpus_25_filtered/56513.epub
36|4971aa|TheSlipperPointMystery|0.14|Cluster 0|Augusta Huiell Seaman|Selma Lagerlöf|corpora/multiauthor/corpus_25_filtered/50961.epub
37|4971aa|TheWheatPrincess|0.6|Cluster 0|Jean Webster|Selma Lagerlöf|corpora/multiauthor/corpus_25_filtered/46761.epub
38|4971aa|PecksBadBoyandHisPa1883|0.92|Cluster 0|George W. Peck|Selma Lagerlöf|corpora/multiauthor/corpus_25_filtered/25487.epub
39|4971aa|PecksSunshineBeingaCollectionofArticlesWrittenforPecksSunMilwaukeeWis1882|0.14|Cluster 0|George W. Peck|Selma Lagerlöf|corpora/multiauthor/corpus_25_filtered/25491.epub
40|4971aa|CappyRicksRetiresButThatDoesntKeepHimfromComingBackStrongerThanEver|0.55|Cluster 0|Peter B. Kyne|Selma Lagerlöf|corpora/multiauthor/corpus_25_filtered/6020.epub
41|4971aa|TheWinningofBarbaraWorth|0.23|Cluster 0|Harold Bell Wright|Selma Lagerlöf|corpora/multiauthor/corpus_25_filtered/6997.epub
42|4971aa|TheDesertValley|0.89|Cluster 0|Jackson Gregory|Selma Lagerlöf|corpora/multiauthor/corpus_25_filtered/15502.epub
43|4971aa|TheYoungLovellARomance|0.33|Cluster 0|Ford Madox Ford|Selma Lagerlöf|corpora/multiauthor/corpus_25_filtered/42801.epub
44|4971aa|TheColossusANovel|0.64|Cluster 0|Opie Percival Read|Selma Lagerlöf|corpora/multiauthor/corpus_25_filtered/15073.epub
45|4971aa|Dracula|0.52|Cluster 0|Bram Stoker|Selma Lagerlöf|corpora/multiauthor/corpus_25_filtered/345.epub
46|4971aa|TheThreeImpostorsorTheTransmutations|0.13|Cluster 0|Arthur Machen|Selma Lagerlöf|corpora/multiauthor/corpus_25_filtered/35517.epub
47|4971aa|ThePrideofPalomar|0.71|Cluster 0|Peter B. Kyne|Selma Lagerlöf|corpora/multiauthor/corpus_25_filtered/16674.epub
48|4971aa|WolfBreed|0.26|Cluster 0|Jackson Gregory|Selma Lagerlöf|corpora/multiauthor/corpus_25_filtered/18964.epub
49|4971aa|JustPatty|0.78|Cluster 0|Jean Webster|Selma Lagerlöf|corpora/multiauthor/corpus_25_filtered/21048.epub
50|4971aa|InOrchardGlen|0.02|Cluster 0|Mary Esther Miller MacGregor|Selma Lagerlöf|corpora/multiauthor/corpus_25_filtered/28235.epub
51|4971aa|Jerusalem|0.34|Cluster 0|Selma Lagerlöf|Selma Lagerlöf|corpora/multiauthor/corpus_25_filtered/15837.epub
52|4971aa|DearEnemy|0.77|Cluster 0|Jean Webster|Selma Lagerlöf|corpora/multiauthor/corpus_25_filtered/238.epub
53|4971aa|TheShepherdoftheHills|0.47|Cluster 0|Harold Bell Wright|Selma Lagerlöf|corpora/multiauthor/corpus_25_filtered/4735.epub
54|4971aa|TheEndoftheRainbow|0.26|Cluster 0|Mary Esther Miller MacGregor|Selma Lagerlöf|corpora/multiauthor/corpus_25_filtered/28276.epub
55|4971aa|AnAmericanGirlinLondon|0.08|Cluster 0|Sara Jeannette Duncan|Selma Lagerlöf|corpora/multiauthor/corpus_25_filtered/45925.epub
56|4971aa|FromaSwedishHomestead|0.56|Cluster 0|Selma Lagerlöf|Selma Lagerlöf|corpora/multiauthor/corpus_25_filtered/44630.epub
57|4971aa|WhenAMansAMan|0.66|Cluster 0|Harold Bell Wright|Selma Lagerlöf|corpora/multiauthor/corpus_25_filtered/14367.epub
58|4971aa|"ChristianGellertsLastChristmasFrom""GermanTales""PublishedbytheAmericanPublishersCorporation"|0.79|Cluster 0|Berthold Auerbach|Selma Lagerlöf|corpora/multiauthor/corpus_25_filtered/22665.epub
59|4971aa|Mortmain|0.09|Cluster 0|Arthur Cheney Train|Selma Lagerlöf|corpora/multiauthor/corpus_25_filtered/37346.epub
60|4971aa|TheEyesoftheWorld|0.81|Cluster 0|Harold Bell Wright|Selma Lagerlöf|corpora/multiauthor/corpus_25_filtered/11715.epub
61|4971aa|"The""Goldfish""BeingtheConfessionsafaSuccessfulMan"|0.96|Cluster 0|Arthur Cheney Train|Selma Lagerlöf|corpora/multiauthor/corpus_25_filtered/12920.epub
62|4971aa|ThePathofaStar|0.14|Cluster 0|Sara Jeannette Duncan|Selma Lagerlöf|corpora/multiauthor/corpus_25_filtered/5102.epub
63|4971aa|TheLairoftheWhiteWorm|0.13|Cluster 0|Bram Stoker|Selma Lagerlöf|corpora/multiauthor/corpus_25_filtered/1188.epub
64|4971aa|SixFeetFour|0.4|Cluster 0|Jackson Gregory|Selma Lagerlöf|corpora/multiauthor/corpus_25_filtered/15148.epub
65|4971aa|HisHonourandaLady|0.21|Cluster 0|Sara Jeannette Duncan|Selma Lagerlöf|corpora/multiauthor/corpus_25_filtered/53036.epub
66|4971aa|TheirYesterdays|0.77|Cluster 0|Harold Bell Wright|Selma Lagerlöf|corpora/multiauthor/corpus_25_filtered/6105.epub
67|4971aa|AYankeefromtheWestANovel|0.68|Cluster 0|Opie Percival Read|Selma Lagerlöf|corpora/multiauthor/corpus_25_filtered/33773.epub
68|4971aa|Landolin|0.85|Cluster 0|Berthold Auerbach|Selma Lagerlöf|corpora/multiauthor/corpus_25_filtered/33008.epub
69|4971aa|TheBoardedUpHouse|0.69|Cluster 0|Augusta Huiell Seaman|Selma Lagerlöf|corpora/multiauthor/corpus_25_filtered/30905.epub
70|4971aa|AzaleaTheStoryofaLittleGirlintheBlueRidgeMountains|0.24|Cluster 0|Elia Wilkinson Peattie|Selma Lagerlöf|corpora/multiauthor/corpus_25_filtered/53727.epub
71|4971aa|HowPrivateGeorgeWPeckPutDowntheRebellionorTheFunnyExperiencesofaRawRecruit1887|0.32|Cluster 0|George W. Peck|Selma Lagerlöf|corpora/multiauthor/corpus_25_filtered/25492.epub
72|4971aa|TheBellsofSanJuan|0.25|Cluster 0|Jackson Gregory|Selma Lagerlöf|corpora/multiauthor/corpus_25_filtered/15438.epub
73|4971aa|TheStoryofGöstaBerling|0.52|Cluster 0|Selma Lagerlöf|Selma Lagerlöf|corpora/multiauthor/corpus_25_filtered/56158.epub
74|4971aa|AzaleaatSunsetGap|0.45|Cluster 0|Elia Wilkinson Peattie|Selma Lagerlöf|corpora/multiauthor/corpus_25_filtered/54813.epub
75|4971aa|TheImperialist|0.92|Cluster 0|Sara Jeannette Duncan|Selma Lagerlöf|corpora/multiauthor/corpus_25_filtered/5301.epub
76|4971aa|TheWonderfulAdventuresofNils|0.14|Cluster 0|Selma Lagerlöf|Selma Lagerlöf|corpora/multiauthor/corpus_25_filtered/10935.epub
77|4971aa|ThePrecipiceANovel|0.62|Cluster 0|Elia Wilkinson Peattie|Selma Lagerlöf|corpora/multiauthor/corpus_25_filtered/12177.epub
78|4971aa|TheSapphireSignet|0.67|Cluster 0|Augusta Huiell Seaman|Selma Lagerlöf|corpora/multiauthor/corpus_25_filtered/55964.epub
79|4971aa|TheBlackBeardedBarbarianTheLifeofGeorgeLeslieMackayofFormosa|0.08|Cluster 0|Mary Esther Miller MacGregor|Selma Lagerlöf|corpora/multiauthor/corpus_25_filtered/1759.epub
80|4971aa|ChristLegends|0.28|Cluster 0|Selma Lagerlöf|Selma Lagerlöf|corpora/multiauthor/corpus_25_filtered/44818.epub
81|4971aa|TuttandMrTutt|0.71|Cluster 0|Arthur Cheney Train|Selma Lagerlöf|corpora/multiauthor/corpus_25_filtered/10440.epub
82|4971aa|TheShortCut|0.73|Cluster 0|Jackson Gregory|Selma Lagerlöf|corpora/multiauthor/corpus_25_filtered/18950.epub
83|4971aa|TheLongChance|0.12|Cluster 0|Peter B. Kyne|Selma Lagerlöf|corpora/multiauthor/corpus_25_filtered/6115.epub
84|4971aa|AnnieLaurieandAzalea|0.87|Cluster 0|Elia Wilkinson Peattie|Selma Lagerlöf|corpora/multiauthor/corpus_25_filtered/53975.epub
85|4971aa|TheJucklinsANovel|0.1|Cluster 0|Opie Percival Read|Selma Lagerlöf|corpora/multiauthor/corpus_25_filtered/26499.epub
86|4971aa|TheGreatReturn|0.21|Cluster 0|Arthur Machen|Selma Lagerlöf|corpora/multiauthor/corpus_25_filtered/35611.epub
87|4971aa|WaldfriedANovel|0.33|Cluster 0|Berthold Auerbach|Selma Lagerlöf|corpora/multiauthor/corpus_25_filtered/32446.epub
88|4971aa|TheHouseofSouls|0.74|Cluster 0|Arthur Machen|Selma Lagerlöf|corpora/multiauthor/corpus_25_filtered/25016.epub
89|4971aa|TheStoryofSonnySahib|0.52|Cluster 0|Sara Jeannette Duncan|Selma Lagerlöf|corpora/multiauthor/corpus_25_filtered/4547.epub
90|4971aa|HildaAStoryofCalcutta|0.1|Cluster 0|Sara Jeannette Duncan|Selma Lagerlöf|corpora/multiauthor/corpus_25_filtered/18051.epub
91|4971aa|TheMiraclesofAntichristANovel|0.29|Cluster 0|Selma Lagerlöf|Selma Lagerlöf|corpora/multiauthor/corpus_25_filtered/54615.epub
92|4971aa|TheGoodSoldier|0.99|Cluster 0|Ford Madox Ford|Selma Lagerlöf|corpora/multiauthor/corpus_25_filtered/2775.epub
93|4971aa|TheReCreationofBrianKent|0.42|Cluster 0|Harold Bell Wright|Selma Lagerlöf|corpora/multiauthor/corpus_25_filtered/3265.epub
94|4971aa|TheTerrorAMystery|0.28|Cluster 0|Arthur Machen|Selma Lagerlöf|corpora/multiauthor/corpus_25_filtered/35617.epub
95|4971aa|TheGirlfromtheMarshCroft|0.69|Cluster 0|Selma Lagerlöf|Selma Lagerlöf|corpora/multiauthor/corpus_25_filtered/41414.epub
96|4971aa|DraculasGuest|0.51|Cluster 0|Bram Stoker|Selma Lagerlöf|corpora/multiauthor/corpus_25_filtered/10150.epub
97|4971aa|CappyRicksOrtheSubjugationofMattPeasley|0.64|Cluster 0|Peter B. Kyne|Selma Lagerlöf|corpora/multiauthor/corpus_25_filtered/5738.epub
98|4971aa|TheGroceryManAndPecksBadBoyPecksBadBoyandHisPaNo21883|0.2|Cluster 0|George W. Peck|Selma Lagerlöf|corpora/multiauthor/corpus_25_filtered/25488.epub
99|4971aa|TheLadyoftheShroud|0.34|Cluster 0|Bram Stoker|Selma Lagerlöf|corpora/multiauthor/corpus_25_filtered/3095.epub
100|4971aa|VillaEdenTheCountryHouseontheRhine|0.08|Cluster 0|Berthold Auerbach|Selma Lagerlöf|corpora/multiauthor/corpus_25_filtered/32902.epub
101|4971aa|TheFeather|0.77|Cluster 0|Ford Madox Ford|Selma Lagerlöf|corpora/multiauthor/corpus_25_filtered/50658.epub
102|4971aa|DaddyLongLegs|0.51|Cluster 0|Jean Webster|Selma Lagerlöf|corpora/multiauthor/corpus_25_filtered/157.epub
103|4971aa|TheGoGetterAStoryThatTellsYouHowtobeOne|0.33|Cluster 0|Peter B. Kyne|Selma Lagerlöf|corpora/multiauthor/corpus_25_filtered/12257.epub
104|4971aa|MuchAdoAboutPeter|0.51|Cluster 0|Jean Webster|Selma Lagerlöf|corpora/multiauthor/corpus_25_filtered/42768.epub
105|4971aa|PecksCompendiumofFunComprisingtheChoicestGemsofWitHumorSarcasmandPathosofAmericasFavoriteHumorist|0.84|Cluster 0|George W. Peck|Selma Lagerlöf|corpora/multiauthor/corpus_25_filtered/14815.epub
106|4971aa|TheStarbucks|0.05|Cluster 0|Opie Percival Read|Selma Lagerlöf|corpora/multiauthor/corpus_25_filtered/18984.epub
107|4971aa|TheSilverMaple|0.17|Cluster 0|Mary Esther Miller MacGregor|Selma Lagerlöf|corpora/multiauthor/corpus_25_filtered/28688.epub
108|4971aa|TheValleyoftheGiants|0.33|Cluster 0|Peter B. Kyne|Selma Lagerlöf|corpora/multiauthor/corpus_25_filtered/5735.epub
109|4971aa|WhenaCobblerRuledtheKing|0.77|Cluster 0|Augusta Huiell Seaman|Selma Lagerlöf|corpora/multiauthor/corpus_25_filtered/38570.epub
110|4971aa|JacquelineoftheCarrierPigeons|0.69|Cluster 0|Augusta Huiell Seaman|Selma Lagerlöf|corpora/multiauthor/corpus_25_filtered/57466.epub
111|4971aa|OntheHeightsANovel|0.55|Cluster 0|Berthold Auerbach|Selma Lagerlöf|corpora/multiauthor/corpus_25_filtered/33294.epub
112|4971aa|ByAdviceofCounsel|0.96|Cluster 0|Arthur Cheney Train|Selma Lagerlöf|corpora/multiauthor/corpus_25_filtered/11987.epub
113|4971aa|TheGreatGodPan|0.67|Cluster 0|Arthur Machen|Selma Lagerlöf|corpora/multiauthor/corpus_25_filtered/389.epub
114|4971aa|TheBrownOwlAFairyStory|0.27|Cluster 0|Ford Madox Ford|Selma Lagerlöf|corpora/multiauthor/corpus_25_filtered/48860.epub
115|4971aa|AMountainWoman|0.61|Cluster 0|Elia Wilkinson Peattie|Selma Lagerlöf|corpora/multiauthor/corpus_25_filtered/1877.epub
116|4971aa|JosephintheSnowandTheClockmakerInThreeVolumesVolI|0.96|Cluster 0|Berthold Auerbach|Selma Lagerlöf|corpora/multiauthor/corpus_25_filtered/33162.epub
117|4971aa|UnderHandicapANovel|0.59|Cluster 0|Jackson Gregory|Selma Lagerlöf|corpora/multiauthor/corpus_25_filtered/17981.epub
118|4971aa|Bolanyo|0.04|Cluster 0|Opie Percival Read|Selma Lagerlöf|corpora/multiauthor/corpus_25_filtered/38826.epub
119|4971aa|Jerry|0.99|Cluster 0|Jean Webster|Selma Lagerlöf|corpora/multiauthor/corpus_25_filtered/20357.epub
120|4971aa|AnArkansasPlanter|0.0|Cluster 0|Opie Percival Read|Selma Lagerlöf|corpora/multiauthor/corpus_25_filtered/19107.epub
121|4971aa|TheThreeGodfathers|0.21|Cluster 0|Peter B. Kyne|Selma Lagerlöf|corpora/multiauthor/corpus_25_filtered/51942.epub
122|4971aa|TheTreasure|0.47|Cluster 0|Selma Lagerlöf|Selma Lagerlöf|corpora/multiauthor/corpus_25_filtered/5161.epub
123|4971aa|AzaleasSilverWeb|0.57|Cluster 0|Elia Wilkinson Peattie|Selma Lagerlöf|corpora/multiauthor/corpus_25_filtered/55304.epub
124|4971aa|TheWorksofCharlesandMaryLamb—Volume5TheLettersofCharlesandMaryLamb17961820|0.35|Cluster 0|Charles Lamb|Selma Lagerlöf|corpora/multiauthor/corpus_25_filtered/9365.epub
125|4971aa|ThatPrinterofUdellsAStoryoftheMiddleWest|0.11|Cluster 0|Harold Bell Wright|Selma Lagerlöf|corpora/multiauthor/corpus_25_filtered/6384.epub
126|4971aa|TheShapeofFear|0.39|Cluster 0|Elia Wilkinson Peattie|Selma Lagerlöf|corpora/multiauthor/corpus_25_filtered/1876.epub
127|4971aa|TheInheritors|0.68|Cluster 0|Joseph Conrad|Selma Lagerlöf|corpora/multiauthor/corpus_25_filtered/14888.epub
128|4971aa|DuncanPolitetheWatchmanofGlenoro|0.95|Cluster 0|Mary Esther Miller MacGregor|Selma Lagerlöf|corpora/multiauthor/corpus_25_filtered/28689.epub
129|4971aa|ThreeSidesofParadiseGreen|0.02|Cluster 0|Augusta Huiell Seaman|Selma Lagerlöf|corpora/multiauthor/corpus_25_filtered/52946.epub
130|4971aa|TheCallingofDanMatthews|0.7|Cluster 0|Harold Bell Wright|Selma Lagerlöf|corpora/multiauthor/corpus_25_filtered/9314.epub
131|4971aa|PaintedWindows|0.07|Cluster 0|Elia Wilkinson Peattie|Selma Lagerlöf|corpora/multiauthor/corpus_25_filtered/1875.epub
132|4971aa|Romance|0.93|Cluster 0|Joseph Conrad|Selma Lagerlöf|corpora/multiauthor/corpus_25_filtered/17642.epub
133|4971aa|MantoMan|0.46|Cluster 0|Jackson Gregory|Selma Lagerlöf|corpora/multiauthor/corpus_25_filtered/18933.epub
134|4971aa|TheAngelsofMonsTheBowmenandOtherLegendsoftheWar|0.3|Cluster 0|Arthur Machen|Selma Lagerlöf|corpora/multiauthor/corpus_25_filtered/14044.epub
135|4971aa|HelenoftheOldHouse|0.93|Cluster 0|Harold Bell Wright|Selma Lagerlöf|corpora/multiauthor/corpus_25_filtered/9410.epub
136|4971aa|DaddyLongLegsAComedyinFourActs|0.29|Cluster 0|Jean Webster|Selma Lagerlöf|corpora/multiauthor/corpus_25_filtered/40426.epub
137|4971aa|KindredoftheDust|0.78|Cluster 0|Peter B. Kyne|Selma Lagerlöf|corpora/multiauthor/corpus_25_filtered/13532.epub
0|4971aa|BuffonsNaturalHistoryVolume10of10ContainingaTheoryoftheEarthaGeneralHistoryofManoftheBruteCreationandofVegetablesMinerals&c&c|100.0|Cluster 1|comte de Georges Louis Leclerc Buffon|comte de Georges Louis Leclerc Buffon|corpora/multiauthor/corpus_25_filtered/45868.epub
1|4971aa|BuffonsNaturalHistoryVolume03of10ContainingaTheoryoftheEarthaGeneralHistoryofManoftheBruteCreationandofVegetablesMinerals&c&c|0.88|Cluster 1|comte de Georges Louis Leclerc Buffon|comte de Georges Louis Leclerc Buffon|corpora/multiauthor/corpus_25_filtered/45639.epub
2|4971aa|TheCritiqueofPracticalReason|0.97|Cluster 1|Immanuel Kant|comte de Georges Louis Leclerc Buffon|corpora/multiauthor/corpus_25_filtered/5683.epub
3|4971aa|BuffonsNaturalHistoryVolume08of10ContainingaTheoryoftheEarthaGeneralHistoryofManoftheBruteCreationandofVegetablesMinerals&c&c|0.16|Cluster 1|comte de Georges Louis Leclerc Buffon|comte de Georges Louis Leclerc Buffon|corpora/multiauthor/corpus_25_filtered/45821.epub
4|4971aa|TheMetaphysicalElementsofEthics|0.86|Cluster 1|Immanuel Kant|comte de Georges Louis Leclerc Buffon|corpora/multiauthor/corpus_25_filtered/5684.epub
5|4971aa|FundamentalPrinciplesoftheMetaphysicofMorals|0.77|Cluster 1|Immanuel Kant|comte de Georges Louis Leclerc Buffon|corpora/multiauthor/corpus_25_filtered/5682.epub
6|4971aa|BuffonsNaturalHistoryVolume06of10ContainingaTheoryoftheEarthaGeneralHistoryofManoftheBruteCreationandofVegetablesMinerals&c&c|0.79|Cluster 1|comte de Georges Louis Leclerc Buffon|comte de Georges Louis Leclerc Buffon|corpora/multiauthor/corpus_25_filtered/45731.epub
7|4971aa|BuffonsNaturalHistoryVolume05of10ContainingaTheoryoftheEarthaGeneralHistoryofManoftheBruteCreationandofVegetablesMinerals&c&c|0.76|Cluster 1|comte de Georges Louis Leclerc Buffon|comte de Georges Louis Leclerc Buffon|corpora/multiauthor/corpus_25_filtered/45730.epub
8|4971aa|Hieroglyphics|0.6|Cluster 1|Arthur Machen|comte de Georges Louis Leclerc Buffon|corpora/multiauthor/corpus_25_filtered/40241.epub
9|4971aa|BuffonsNaturalHistoryVolume04of10ContainingaTheoryoftheEarthaGeneralHistoryofManoftheBruteCreationandofVegetablesMinerals&c&c|0.84|Cluster 1|comte de Georges Louis Leclerc Buffon|comte de Georges Louis Leclerc Buffon|corpora/multiauthor/corpus_25_filtered/45729.epub
10|4971aa|LiteraryandPhilosophicalEssaysFrenchGermanandItalian|0.69|Cluster 1|Immanuel Kant|comte de Georges Louis Leclerc Buffon|corpora/multiauthor/corpus_25_filtered/5637.epub
11|4971aa|BuffonsNaturalHistoryVolume01of10ContainingaTheoryoftheEarthaGeneralHistoryofManoftheBruteCreationandofVegetablesMineral&c&c|0.7|Cluster 1|comte de Georges Louis Leclerc Buffon|comte de Georges Louis Leclerc Buffon|corpora/multiauthor/corpus_25_filtered/44792.epub
12|4971aa|BuffonsNaturalHistoryVolume07of10ContainingaTheoryoftheEarthaGeneralHistoryofManoftheBruteCreationandofVegetablesMinerals&c&c|0.06|Cluster 1|comte de Georges Louis Leclerc Buffon|comte de Georges Louis Leclerc Buffon|corpora/multiauthor/corpus_25_filtered/45820.epub
13|4971aa|BuffonsNaturalHistoryVolume02of10ContainingaTheoryoftheEarthaGeneralHistoryofManoftheBruteCreationandofVegetablesMineral&c&c|0.3|Cluster 1|comte de Georges Louis Leclerc Buffon|comte de Georges Louis Leclerc Buffon|corpora/multiauthor/corpus_25_filtered/45602.epub
14|4971aa|KantsProlegomenatoAnyFutureMetaphysics|0.69|Cluster 1|Immanuel Kant|comte de Georges Louis Leclerc Buffon|corpora/multiauthor/corpus_25_filtered/52821.epub
15|4971aa|PerpetualPeaceAPhilosophicalEssay|0.32|Cluster 1|Immanuel Kant|comte de Georges Louis Leclerc Buffon|corpora/multiauthor/corpus_25_filtered/50922.epub
16|4971aa|KantsCritiqueofJudgement|0.32|Cluster 1|Immanuel Kant|comte de Georges Louis Leclerc Buffon|corpora/multiauthor/corpus_25_filtered/48433.epub
17|4971aa|BuffonsNaturalHistoryVolume09of10ContainingaTheoryoftheEarthaGeneralHistoryofManoftheBruteCreationandofVegetablesMinerals&c&c|0.56|Cluster 1|comte de Georges Louis Leclerc Buffon|comte de Georges Louis Leclerc Buffon|corpora/multiauthor/corpus_25_filtered/45867.epub
18|4971aa|TheCritiqueofPureReason|0.22|Cluster 1|Immanuel Kant|comte de Georges Louis Leclerc Buffon|corpora/multiauthor/corpus_25_filtered/4280.epub
0|4971aa|ParadiseRegained|100.0|Cluster 2|John Milton|John Milton|corpora/multiauthor/corpus_25_filtered/58.epub
1|4971aa|ParadiseLost|0.81|Cluster 2|John Milton|John Milton|corpora/multiauthor/corpus_25_filtered/20.epub
2|4971aa|TheWorksofCharlesandMaryLamb—Volume4PoemsandPlays|0.12|Cluster 2|Charles Lamb|John Milton|corpora/multiauthor/corpus_25_filtered/11576.epub
3|4971aa|ThePoeticalWorksofJohnMilton|0.23|Cluster 2|John Milton|John Milton|corpora/multiauthor/corpus_25_filtered/1745.epub
4|4971aa|PoemataLatinGreekandItalianPoemsbyJohnMilton|0.57|Cluster 2|John Milton|John Milton|corpora/multiauthor/corpus_25_filtered/6929.epub
5|4971aa|AreopagiticaASpeechfortheLibertyofUnlicensedPrintingtotheParliamentofEngland|0.74|Cluster 2|John Milton|John Milton|corpora/multiauthor/corpus_25_filtered/608.epub
6|4971aa|AnIntroductiontotheProseandPoeticalWorksofJohnMiltonComprisingAlltheAutobiographicPassagesinHisWorkstheMoreExplicitPresentationsofHisIdeasofTrueLiberty|0.5|Cluster 2|John Milton|John Milton|corpora/multiauthor/corpus_25_filtered/44733.epub
7|4971aa|LAllegroIlPenserosoComusandLycidas|0.62|Cluster 2|John Milton|John Milton|corpora/multiauthor/corpus_25_filtered/397.epub
0|4971aa|MysteryoftheChineseRingABiffBrewsterMysteryAdventure|100.0|Cluster 3|Andy Adams|Andy Adams|corpora/multiauthor/corpus_25_filtered/51608.epub
1|4971aa|PecksBadBoywiththeCowboys|0.28|Cluster 3|George W. Peck|Andy Adams|corpora/multiauthor/corpus_25_filtered/6141.epub
2|4971aa|TheLogofaCowboyANarrativeoftheOldTrailDays|0.03|Cluster 3|Andy Adams|Andy Adams|corpora/multiauthor/corpus_25_filtered/12797.epub
3|4971aa|PecksUncleIkeandTheRedHeadedBoy1899|0.27|Cluster 3|George W. Peck|Andy Adams|corpora/multiauthor/corpus_25_filtered/25490.epub
4|4971aa|PecksBadBoywiththeCircus|0.12|Cluster 3|George W. Peck|Andy Adams|corpora/multiauthor/corpus_25_filtered/10212.epub
5|4971aa|CattleBrandsACollectionofWesternCampFireStories|0.65|Cluster 3|Andy Adams|Andy Adams|corpora/multiauthor/corpus_25_filtered/12281.epub
6|4971aa|BrazilianGoldMineMysteryABiffBrewsterMysteryAdventure|0.39|Cluster 3|Andy Adams|Andy Adams|corpora/multiauthor/corpus_25_filtered/51538.epub
7|4971aa|ATexasMatchmaker|0.18|Cluster 3|Andy Adams|Andy Adams|corpora/multiauthor/corpus_25_filtered/12919.epub
8|4971aa|TheFourPoolsMystery|0.92|Cluster 3|Jean Webster|Andy Adams|corpora/multiauthor/corpus_25_filtered/21264.epub
9|4971aa|WellsBrothersTheYoungCattleKings|0.29|Cluster 3|Andy Adams|Andy Adams|corpora/multiauthor/corpus_25_filtered/12791.epub
10|4971aa|MysteryoftheAmbushinIndiaABiffBrewsterMysteryAdventure|0.25|Cluster 3|Andy Adams|Andy Adams|corpora/multiauthor/corpus_25_filtered/51830.epub
11|4971aa|TheOutlet|0.56|Cluster 3|Andy Adams|Andy Adams|corpora/multiauthor/corpus_25_filtered/1987.epub
12|4971aa|PecksBadBoyAbroadBeingaHumorousDescriptionoftheBadBoyandHisDadinTheirJourneysThroughForeignLands1904|0.08|Cluster 3|George W. Peck|Andy Adams|corpora/multiauthor/corpus_25_filtered/25489.epub
13|4971aa|UpTerrapinRiver|0.43|Cluster 3|Opie Percival Read|Andy Adams|corpora/multiauthor/corpus_25_filtered/44879.epub
14|4971aa|CaptainScraggsOrTheGreenPeaPirates|0.98|Cluster 3|Peter B. Kyne|Andy Adams|corpora/multiauthor/corpus_25_filtered/18469.epub
15|4971aa|HawaiianSeaHuntMysteryABiffBrewsterMysteryAdventure|0.69|Cluster 3|Andy Adams|Andy Adams|corpora/multiauthor/corpus_25_filtered/51755.epub
16|4971aa|TheDragonsSecret|0.57|Cluster 3|Augusta Huiell Seaman|Andy Adams|corpora/multiauthor/corpus_25_filtered/25770.epub
0|4971aa|TheUncrownedKing|100.0|Cluster 4|Harold Bell Wright|Harold Bell Wright|corpora/multiauthor/corpus_25_filtered/12991.epub
0|4971aa|FiscalBallads|100.0|Cluster 5|Harry Graham|unknown_6|corpora/multiauthor/corpus_25_filtered/36038.epub
0|4971aa|McGonigalsWorm|100.0|Cluster 6|R. A. Lafferty|unknown_7|corpora/multiauthor/corpus_25_filtered/60940.epub
0|4971aa|IntheGarden|100.0|Cluster 7|R. A. Lafferty|R. A. Lafferty|corpora/multiauthor/corpus_25_filtered/61007.epub
1|4971aa|AllthePeople|0.07|Cluster 7|R. A. Lafferty|R. A. Lafferty|corpora/multiauthor/corpus_25_filtered/51603.epub
2|4971aa|TheWeirdestWorld|0.93|Cluster 7|R. A. Lafferty|R. A. Lafferty|corpora/multiauthor/corpus_25_filtered/51774.epub
3|4971aa|ThePolitePeopleofPudibundia|0.31|Cluster 7|R. A. Lafferty|R. A. Lafferty|corpora/multiauthor/corpus_25_filtered/60955.epub
0|4971aa|CuriositiesofHumanNature|100.0|Cluster 8|Samuel G. Goodrich|Mrs. Jameson|corpora/multiauthor/corpus_25_filtered/39333.epub
1|4971aa|ThePrisonerattheBarSidelightsontheAdministrationofCriminalJustice|0.05|Cluster 8|Arthur Cheney Train|Mrs. Jameson|corpora/multiauthor/corpus_25_filtered/58534.epub
2|4971aa|ReedAnthonyCowmanAnAutobiography|0.47|Cluster 8|Andy Adams|Mrs. Jameson|corpora/multiauthor/corpus_25_filtered/12884.epub
3|4971aa|PoemsYouOughttoKnow|0.18|Cluster 8|Elia Wilkinson Peattie|Mrs. Jameson|corpora/multiauthor/corpus_25_filtered/53415.epub
4|4971aa|ACommonplaceBookofThoughtsMemoriesandFancies2nded|0.47|Cluster 8|Mrs. Jameson|Mrs. Jameson|corpora/multiauthor/corpus_25_filtered/39680.epub
5|4971aa|TheWorksofCharlesandMaryLamb—Volume6Letters18211842|0.76|Cluster 8|Charles Lamb|Mrs. Jameson|corpora/multiauthor/corpus_25_filtered/10851.epub
6|4971aa|HistoryoftheIndiansofNorthandSouthAmerica|0.03|Cluster 8|Samuel G. Goodrich|Mrs. Jameson|corpora/multiauthor/corpus_25_filtered/54266.epub
7|4971aa|TrueStoriesofCrimeFromtheDistrictAttorneysOffice|0.9|Cluster 8|Arthur Cheney Train|Mrs. Jameson|corpora/multiauthor/corpus_25_filtered/13172.epub
8|4971aa|MiltonMinorPoems|0.3|Cluster 8|John Milton|Mrs. Jameson|corpora/multiauthor/corpus_25_filtered/31706.epub
9|4971aa|FamousImpostors|0.13|Cluster 8|Bram Stoker|Mrs. Jameson|corpora/multiauthor/corpus_25_filtered/51391.epub
10|4971aa|TheWorksofCharlesandMaryLamb—Volume2EliaandTheLastEssaysofElia|0.44|Cluster 8|Charles Lamb|Mrs. Jameson|corpora/multiauthor/corpus_25_filtered/10343.epub
11|4971aa|VisitsandSketchesatHomeandAbroadVol1of3WithTalesandMiscellaniesNowFirstCollected|0.17|Cluster 8|Mrs. Jameson|Mrs. Jameson|corpora/multiauthor/corpus_25_filtered/36818.epub
12|4971aa|FarOffThings|0.3|Cluster 8|Arthur Machen|Mrs. Jameson|corpora/multiauthor/corpus_25_filtered/35153.epub
13|4971aa|TheMotherofParliaments|0.6|Cluster 8|Harry Graham|Mrs. Jameson|corpora/multiauthor/corpus_25_filtered/41304.epub
14|4971aa|"TheConfessionsofArtemasQuibbleBeingtheIngenuousandUnvarnishedHistoryofArtemasQuibbleEsquireOneTimePractitionerintheNewYorkCriminalCourtsTogetherwithanAccountoftheDiversWilesTricksSophistriesTechnicalitiesandSundryArtificesofHimselfandOthersoftheFraternityCommonlyYclept""Shysters""or""ShysterLawyers"""|0.98|Cluster 8|Arthur Cheney Train|Mrs. Jameson|corpora/multiauthor/corpus_25_filtered/20451.epub
15|4971aa|TheRomanceofBiographyVol1of2orMemoirsofWomenLovedandCelebratedbyPoetsfromtheDaysoftheTroubadourstothePresentAge3rded2Vols|0.27|Cluster 8|Mrs. Jameson|Mrs. Jameson|corpora/multiauthor/corpus_25_filtered/35382.epub
16|4971aa|CharacteristicsofWomenMoralPoeticalandHistorical|0.47|Cluster 8|Mrs. Jameson|Mrs. Jameson|corpora/multiauthor/corpus_25_filtered/26152.epub
17|4971aa|TheWorksofCharlesandMaryLamb—Volume1MiscellaneousProse|0.65|Cluster 8|Charles Lamb|Mrs. Jameson|corpora/multiauthor/corpus_25_filtered/40988.epub
18|4971aa|PeterParleysTalesAboutAmericaandAustralia|0.78|Cluster 8|Samuel G. Goodrich|Mrs. Jameson|corpora/multiauthor/corpus_25_filtered/16891.epub
19|4971aa|"PeterParleysOwnStoryFromthePersonalNarrativeoftheLateSamuelGGoodrich""PeterParley"""|0.53|Cluster 8|Samuel G. Goodrich|Mrs. Jameson|corpora/multiauthor/corpus_25_filtered/45165.epub
20|4971aa|TheLifeofBenjaminFranklinIllustratedbyTalesSketchesandAnecdotes|0.51|Cluster 8|Samuel G. Goodrich|Mrs. Jameson|corpora/multiauthor/corpus_25_filtered/38469.epub
21|4971aa|TheDiaryofanEnnuyée|0.7|Cluster 8|Mrs. Jameson|Mrs. Jameson|corpora/multiauthor/corpus_25_filtered/18049.epub
22|4971aa|PeterParleysVisittoLondonDuringtheCoronationofQueenVictoria|0.51|Cluster 8|Samuel G. Goodrich|Mrs. Jameson|corpora/multiauthor/corpus_25_filtered/43995.epub
23|4971aa|TheManWhoRockedtheEarth|0.7|Cluster 8|Arthur Cheney Train|Mrs. Jameson|corpora/multiauthor/corpus_25_filtered/19174.epub
24|4971aa|MiltonsComus|0.73|Cluster 8|John Milton|Mrs. Jameson|corpora/multiauthor/corpus_25_filtered/19819.epub
25|4971aa|TalesfromShakespeare|0.65|Cluster 8|Charles Lamb|Mrs. Jameson|corpora/multiauthor/corpus_25_filtered/1286.epub
26|4971aa|TheRomanceofBiographyVol2of2orMemoirsofWomenLovedandCelebratedbyPoetsfromtheDaysoftheTroubadourstothePresentAge3rded2Vols|0.48|Cluster 8|Mrs. Jameson|Mrs. Jameson|corpora/multiauthor/corpus_25_filtered/35416.epub
27|4971aa|FamousMenofAncientTimes|0.96|Cluster 8|Samuel G. Goodrich|Mrs. Jameson|corpora/multiauthor/corpus_25_filtered/52400.epub
28|4971aa|LegendsoftheMadonnaasRepresentedintheFineArts|0.88|Cluster 8|Mrs. Jameson|Mrs. Jameson|corpora/multiauthor/corpus_25_filtered/12047.epub
29|4971aa|CourtsandCriminals|0.18|Cluster 8|Arthur Cheney Train|Mrs. Jameson|corpora/multiauthor/corpus_25_filtered/5268.epub
30|4971aa|VisitsandSketchesatHomeandAbroadVol2of3WithTalesandMiscellaniesNowFirstCollected|0.41|Cluster 8|Mrs. Jameson|Mrs. Jameson|corpora/multiauthor/corpus_25_filtered/36819.epub
0|4971aa|MoreMisrepresentativeMen|100.0|Cluster 9|Harry Graham|Harry Graham|corpora/multiauthor/corpus_25_filtered/36782.epub
1|4971aa|MisrepresentativeMen|0.51|Cluster 9|Harry Graham|Harry Graham|corpora/multiauthor/corpus_25_filtered/36321.epub
2|4971aa|FamiliarFaces|0.44|Cluster 9|Harry Graham|Harry Graham|corpora/multiauthor/corpus_25_filtered/35059.epub
3|4971aa|VerseandWorse|0.63|Cluster 9|Harry Graham|Harry Graham|corpora/multiauthor/corpus_25_filtered/36702.epub
4|4971aa|TheMotleyMuseRhymesfortheTimes|0.02|Cluster 9|Harry Graham|Harry Graham|corpora/multiauthor/corpus_25_filtered/36543.epub
5|4971aa|MisrepresentativeWomen|0.55|Cluster 9|Harry Graham|Harry Graham|corpora/multiauthor/corpus_25_filtered/42407.epub
0|4971aa|Aloys|100.0|Cluster 10|R. A. Lafferty|unknown_11|corpora/multiauthor/corpus_25_filtered/51596.epub
0|4971aa|PrivySealHisLastVenture|100.0|Cluster 11|Ford Madox Ford|Ford Madox Ford|corpora/multiauthor/corpus_25_filtered/26698.epub
1|4971aa|StoriesfromtheBalladsToldtotheChildren|0.79|Cluster 11|Mary Esther Miller MacGregor|Ford Madox Ford|corpora/multiauthor/corpus_25_filtered/22175.epub
2|4971aa|TheFifthQueenAndHowSheCametoCourt|0.29|Cluster 11|Ford Madox Ford|Ford Madox Ford|corpora/multiauthor/corpus_25_filtered/30188.epub
3|4971aa|StoriesofSiegfriedToldtotheChildren|0.1|Cluster 11|Mary Esther Miller MacGregor|Ford Madox Ford|corpora/multiauthor/corpus_25_filtered/26181.epub
4|4971aa|TheWorksofCharlesandMaryLamb—Volume3BooksforChildren|0.29|Cluster 11|Charles Lamb|Ford Madox Ford|corpora/multiauthor/corpus_25_filtered/10130.epub
5|4971aa|TheMysteryoftheSea|0.3|Cluster 11|Bram Stoker|Ford Madox Ford|corpora/multiauthor/corpus_25_filtered/42455.epub
0|4971aa|AMichiganMan1891|100.0|Cluster 12|Elia Wilkinson Peattie|Elia Wilkinson Peattie|corpora/multiauthor/corpus_25_filtered/23176.epub
1|4971aa|TheHillofDreams|0.81|Cluster 12|Arthur Machen|Elia Wilkinson Peattie|corpora/multiauthor/corpus_25_filtered/13969.epub
0|4971aa|IndexoftheProjectGutenbergWorksofBramStoker|100.0|Cluster 13|Bram Stoker|Bram Stoker|corpora/multiauthor/corpus_25_filtered/59671.epub
1|4971aa|"WorksofGeorgeWPeckALinkedIndextotheProjectGutenbergEditionsofthe""BadBoy""SeriesandOthers"|0.05|Cluster 13|George W. Peck|Bram Stoker|corpora/multiauthor/corpus_25_filtered/28970.epub
2|4971aa|IndexoftheProjectGutenbergWorksofImmanuelKant|0.32|Cluster 13|Immanuel Kant|Bram Stoker|corpora/multiauthor/corpus_25_filtered/59023.epub
0|4971aa|OftheInjusticeofCounterfeitingBooksFromEssaysandTreatiesonMoralPoliticalandvariousPhilosophicalSubjects|100.0|Cluster 14|Immanuel Kant|Immanuel Kant|corpora/multiauthor/corpus_25_filtered/46060.epub
0|4971aa|Poems|100.0|Cluster 15|Samuel G. Goodrich|Samuel G. Goodrich|corpora/multiauthor/corpus_25_filtered/11558.epub
0|4971aa|SodomandGomorrahTexas|100.0|Cluster 16|R. A. Lafferty|unknown_17|corpora/multiauthor/corpus_25_filtered/23161.epub
0|4971aa|PervertedProverbsAManualofImmoralsfortheMany|100.0|Cluster 17|Harry Graham|unknown_18|corpora/multiauthor/corpus_25_filtered/34790.epub
1|4971aa|RuthlessRhymesforHeartlessHomes|0.82|Cluster 17|Harry Graham|unknown_18|corpora/multiauthor/corpus_25_filtered/35051.epub
0|4971aa|DreamWorld|100.0|Cluster 18|R. A. Lafferty|unknown_19|corpora/multiauthor/corpus_25_filtered/51668.epub
0|4971aa|SevenDayTerror|100.0|Cluster 19|R. A. Lafferty|unknown_20|corpora/multiauthor/corpus_25_filtered/61128.epub
