threshold;Purity;MutualInformation;Accuracy;Clusters
0.6;0.08163265306122448;0.25966803643210556;0.08163265306122448;3
0.601010101010101;0.08163265306122448;0.25966803643210556;0.08163265306122448;3
0.602020202020202;0.08163265306122448;0.25966803643210556;0.08163265306122448;3
0.603030303030303;0.08163265306122448;0.25966803643210556;0.08163265306122448;3
0.604040404040404;0.08163265306122448;0.25966803643210556;0.08163265306122448;3
0.6050505050505051;0.08163265306122448;0.25966803643210556;0.08163265306122448;3
0.6060606060606061;0.08163265306122448;0.25966803643210556;0.08163265306122448;3
0.6070707070707071;0.08163265306122448;0.25966803643210556;0.08163265306122448;3
0.6080808080808081;0.08163265306122448;0.25966803643210556;0.08163265306122448;3
0.609090909090909;0.08163265306122448;0.25966803643210556;0.08163265306122448;3
0.61010101010101;0.08163265306122448;0.25966803643210556;0.08163265306122448;3
0.611111111111111;0.08163265306122448;0.25966803643210556;0.08163265306122448;3
0.6121212121212121;0.08163265306122448;0.25966803643210556;0.08163265306122448;3
0.6131313131313131;0.08163265306122448;0.25966803643210556;0.08163265306122448;3
0.6141414141414141;0.11428571428571428;0.34194634187927825;0.11428571428571428;4
0.6151515151515151;0.11428571428571428;0.34194634187927825;0.11428571428571428;4
0.6161616161616161;0.09795918367346938;0.30883156379833987;0.09795918367346938;5
0.6171717171717171;0.12244897959183673;0.38140415794232707;0.12244897959183673;5
0.6181818181818182;0.12244897959183673;0.38140415794232707;0.12244897959183673;5
0.6191919191919192;0.12244897959183673;0.38140415794232707;0.12244897959183673;5
0.6202020202020202;0.12244897959183673;0.38140415794232707;0.12244897959183673;5
0.6212121212121212;0.12244897959183673;0.38140415794232707;0.12244897959183673;5
0.6222222222222222;0.12244897959183673;0.38140415794232707;0.12244897959183673;5
0.6232323232323232;0.1346938775510204;0.3908885033323872;0.1346938775510204;6
0.6242424242424243;0.1469387755102041;0.4172326864139267;0.1469387755102041;6
0.6252525252525252;0.1469387755102041;0.4172326864139267;0.1469387755102041;6
0.6262626262626262;0.1469387755102041;0.4172326864139267;0.1469387755102041;6
0.6272727272727272;0.14285714285714285;0.4269176101481355;0.14285714285714285;6
0.6282828282828282;0.1469387755102041;0.4745618559268156;0.1469387755102041;7
0.6292929292929292;0.1469387755102041;0.4745618559268156;0.1469387755102041;7
0.6303030303030303;0.1469387755102041;0.4745618559268156;0.1469387755102041;7
0.6313131313131313;0.17142857142857143;0.5094488252452676;0.17142857142857143;7
0.6323232323232323;0.17142857142857143;0.5094488252452676;0.17142857142857143;7
0.6333333333333333;0.17142857142857143;0.5094488252452676;0.17142857142857143;7
0.6343434343434343;0.17142857142857143;0.5094488252452676;0.17142857142857143;7
0.6353535353535353;0.1836734693877551;0.5655343047439535;0.1836734693877551;7
0.6363636363636364;0.1836734693877551;0.5655343047439535;0.1836734693877551;7
0.6373737373737374;0.1836734693877551;0.5655343047439535;0.1836734693877551;7
0.6383838383838384;0.1836734693877551;0.5655343047439535;0.1836734693877551;7
0.6393939393939394;0.1836734693877551;0.5655343047439535;0.1836734693877551;7
0.6404040404040404;0.1836734693877551;0.5655343047439535;0.1836734693877551;7
0.6414141414141414;0.1836734693877551;0.5655343047439535;0.1836734693877551;7
0.6424242424242423;0.18775510204081633;0.5276846676014428;0.18775510204081633;8
0.6434343434343434;0.18775510204081633;0.5276846676014428;0.18775510204081633;8
0.6444444444444444;0.18775510204081633;0.5276846676014428;0.18775510204081633;8
0.6454545454545454;0.19591836734693877;0.5476575372289707;0.1836734693877551;9
0.6464646464646464;0.19591836734693877;0.5476575372289707;0.1836734693877551;9
0.6474747474747474;0.19591836734693877;0.5476575372289707;0.1836734693877551;9
0.6484848484848484;0.19591836734693877;0.5476575372289707;0.1836734693877551;9
0.6494949494949495;0.19591836734693877;0.5424105368758346;0.1836734693877551;9
0.6505050505050505;0.19591836734693877;0.5424105368758346;0.1836734693877551;9
0.6515151515151515;0.19591836734693877;0.5424105368758346;0.1836734693877551;9
0.6525252525252525;0.19591836734693877;0.5424105368758346;0.1836734693877551;9
0.6535353535353535;0.19591836734693877;0.5424105368758346;0.1836734693877551;9
0.6545454545454545;0.19591836734693877;0.5424105368758346;0.1836734693877551;9
0.6555555555555556;0.19591836734693877;0.5424105368758346;0.1836734693877551;9
0.6565656565656566;0.19591836734693877;0.5424105368758346;0.1836734693877551;9
0.6575757575757576;0.22040816326530613;0.5361968566344175;0.20816326530612245;10
0.6585858585858586;0.22040816326530613;0.5361968566344175;0.20816326530612245;10
0.6595959595959595;0.22448979591836735;0.5405357313938999;0.20816326530612245;11
0.6606060606060605;0.22448979591836735;0.5405357313938999;0.20816326530612245;11
0.6616161616161615;0.22448979591836735;0.5405357313938999;0.20816326530612245;11
0.6626262626262626;0.22448979591836735;0.5405357313938999;0.20816326530612245;11
0.6636363636363636;0.22857142857142856;0.5171799891649181;0.20408163265306123;12
0.6646464646464646;0.22857142857142856;0.5171799891649181;0.20408163265306123;12
0.6656565656565656;0.22857142857142856;0.5171799891649181;0.20408163265306123;12
0.6666666666666666;0.22857142857142856;0.515768387140648;0.20408163265306123;13
0.6676767676767676;0.22857142857142856;0.515768387140648;0.20408163265306123;13
0.6686868686868687;0.24081632653061225;0.533992261012443;0.20408163265306123;14
0.6696969696969697;0.24081632653061225;0.533992261012443;0.20408163265306123;14
0.6707070707070707;0.24081632653061225;0.533992261012443;0.20408163265306123;14
0.6717171717171717;0.24081632653061225;0.533992261012443;0.20408163265306123;14
0.6727272727272727;0.24081632653061225;0.533992261012443;0.20408163265306123;14
0.6737373737373737;0.2653061224489796;0.5349431281766562;0.22448979591836735;16
0.6747474747474747;0.27346938775510204;0.5401874484725601;0.24489795918367346;15
0.6757575757575758;0.27346938775510204;0.5401874484725601;0.24489795918367346;15
0.6767676767676767;0.27346938775510204;0.5401874484725601;0.24489795918367346;15
0.6777777777777777;0.27346938775510204;0.5401874484725601;0.24489795918367346;15
0.6787878787878787;0.27346938775510204;0.5401874484725601;0.24489795918367346;15
0.6797979797979797;0.27346938775510204;0.5401874484725601;0.24489795918367346;15
0.6808080808080808;0.27346938775510204;0.5401874484725601;0.24489795918367346;15
0.6818181818181818;0.2693877551020408;0.5294706825634683;0.22448979591836735;16
0.6828282828282828;0.2693877551020408;0.5305473537120539;0.22040816326530613;15
0.6838383838383838;0.2693877551020408;0.5299908766750872;0.22040816326530613;16
0.6848484848484848;0.2693877551020408;0.5301548196683639;0.22448979591836735;16
0.6858585858585858;0.2693877551020408;0.5301548196683639;0.22448979591836735;16
0.6868686868686869;0.2693877551020408;0.5301548196683639;0.22448979591836735;16
0.6878787878787879;0.2693877551020408;0.5301548196683639;0.22448979591836735;16
0.6888888888888889;0.2693877551020408;0.5301548196683639;0.22448979591836735;16
0.6898989898989899;0.2693877551020408;0.5301548196683639;0.22448979591836735;16
0.6909090909090909;0.27755102040816326;0.5181791088555934;0.23265306122448978;17
0.6919191919191918;0.27755102040816326;0.5181791088555934;0.23265306122448978;17
0.6929292929292928;0.2816326530612245;0.525176068150699;0.23673469387755103;19
0.6939393939393939;0.2816326530612245;0.525176068150699;0.23673469387755103;19
0.6949494949494949;0.2816326530612245;0.525176068150699;0.23673469387755103;19
0.6959595959595959;0.2816326530612245;0.525176068150699;0.23673469387755103;19
0.6969696969696969;0.2816326530612245;0.525176068150699;0.23673469387755103;19
0.6979797979797979;0.2816326530612245;0.5107428332043198;0.24897959183673468;20
0.6989898989898989;0.2816326530612245;0.5099574914887789;0.24897959183673468;21
0.7;0.2816326530612245;0.5099574914887789;0.24897959183673468;21
