idnum|extra|percent|title|clusterid|real_author|label|filename
5|||OliverTwist|Cluster 5|Charles Dickens|unknown_1|corpora/baseline/corpus3/pg730.epub
5|||BarnabyRudgeATaleoftheRiotsofEighty|Cluster 5|Charles Dickens|unknown_1|corpora/baseline/corpus3/pg917.epub
5|||SylviasLovers—Complete|Cluster 5|Elizabeth Cleghorn Gaskell|unknown_1|corpora/baseline/corpus3/pg4537.epub
5|||ThePickwickPapers|Cluster 5|Charles Dickens|unknown_1|corpora/baseline/corpus3/pg580.epub
5|||ATaleofTwoCities|Cluster 5|Charles Dickens|unknown_1|corpora/baseline/corpus3/pg98.epub
2|||CatherineAStory|Cluster 2|William Makepeace Thackeray|William Makepeace Thackeray|corpora/baseline/corpus3/pg1969.epub
2|||TheHistoryofHenryEsmondEsqaColonelintheServiceofHerMajestyQueenAnne|Cluster 2|William Makepeace Thackeray|William Makepeace Thackeray|corpora/baseline/corpus3/pg2511.epub
2|||TheVirginians|Cluster 2|William Makepeace Thackeray|William Makepeace Thackeray|corpora/baseline/corpus3/pg8123.epub
2|||TheNewcomesMemoirsofaMostRespectableFamily|Cluster 2|William Makepeace Thackeray|William Makepeace Thackeray|corpora/baseline/corpus3/pg7467.epub
2|||TheHistoryofPendennis|Cluster 2|William Makepeace Thackeray|William Makepeace Thackeray|corpora/baseline/corpus3/pg7265.epub
2|||VanityFair|Cluster 2|William Makepeace Thackeray|William Makepeace Thackeray|corpora/baseline/corpus3/pg599.epub
0|||SilasMarner|Cluster 0|George Eliot|George Eliot|corpora/baseline/corpus3/pg550.epub
0|||Romola|Cluster 0|George Eliot|George Eliot|corpora/baseline/corpus3/pg24020.epub
0|||AdamBede|Cluster 0|George Eliot|George Eliot|corpora/baseline/corpus3/pg507.epub
0|||FelixHolttheRadical|Cluster 0|George Eliot|George Eliot|corpora/baseline/corpus3/pg40882.epub
0|||DanielDeronda|Cluster 0|George Eliot|George Eliot|corpora/baseline/corpus3/pg7469.epub
0|||TheMillontheFloss|Cluster 0|George Eliot|George Eliot|corpora/baseline/corpus3/pg6688.epub
0|||Middlemarch|Cluster 0|George Eliot|George Eliot|corpora/baseline/corpus3/pg145.epub
3|||Persuasion|Cluster 3|Jane Austen|Jane Austen|corpora/baseline/corpus3/pg105.epub
3|||PrideandPrejudice|Cluster 3|Jane Austen|Jane Austen|corpora/baseline/corpus3/pg42671.epub
3|||Emma|Cluster 3|Jane Austen|Jane Austen|corpora/baseline/corpus3/pg158.epub
3|||MansfieldPark|Cluster 3|Jane Austen|Jane Austen|corpora/baseline/corpus3/pg141.epub
3|||Ruth|Cluster 3|Elizabeth Cleghorn Gaskell|Jane Austen|corpora/baseline/corpus3/pg4275.epub
3|||MaryBarton|Cluster 3|Elizabeth Cleghorn Gaskell|Jane Austen|corpora/baseline/corpus3/pg2153.epub
3|||NorthandSouth|Cluster 3|Elizabeth Cleghorn Gaskell|Jane Austen|corpora/baseline/corpus3/pg4276.epub
3|||SenseandSensibility|Cluster 3|Jane Austen|Jane Austen|corpora/baseline/corpus3/pg161.epub
3|||Cranford|Cluster 3|Elizabeth Cleghorn Gaskell|Jane Austen|corpora/baseline/corpus3/pg394.epub
3|||NorthangerAbbey|Cluster 3|Jane Austen|Jane Austen|corpora/baseline/corpus3/pg121.epub
1|||HarryPotterandtheDeathlyHallows|Cluster 1|J.K. Rowling|J.K. Rowling|corpora/baseline/corpus3/Harry Potter and the Deathly Hallows - J.K. Rowling.epub
1|||HarryPotterandtheHalfBloodPrince|Cluster 1|J.K. Rowling|J.K. Rowling|corpora/baseline/corpus3/Harry Potter and the Half-Blood Prince - J.K. Rowling.epub
1|||HarryPotterandtheChamberofSecrets|Cluster 1|J.K. Rowling|J.K. Rowling|corpora/baseline/corpus3/Harry Potter and the Chamber of Secrets - J.K. Rowling.epub
1|||HarryPotterandthePhilosophersStone|Cluster 1|J.K. Rowling|J.K. Rowling|corpora/baseline/corpus3/Harry Potter and the Philosopher's Stone - J.K. Rowling.epub
1|||HarryPotterandtheGobletofFire|Cluster 1|J.K. Rowling|J.K. Rowling|corpora/baseline/corpus3/Harry Potter and the Goblet of Fire - J.K. Rowling.epub
1|||HarryPotterandthePrisonerofAzkaban|Cluster 1|J.K. Rowling|J.K. Rowling|corpora/baseline/corpus3/Harry Potter and the Prisoner of Azkaban - J.K. Rowling.epub
1|||HarryPotterandtheOrderofthePhoenix|Cluster 1|J.K. Rowling|J.K. Rowling|corpora/baseline/corpus3/Harry Potter and the Order of the Phoenix - J.K. Rowling.epub
4|||HardTimes|Cluster 4|Charles Dickens|Charles Dickens|corpora/baseline/corpus3/pg786.epub
4|||DombeyandSon|Cluster 4|Charles Dickens|Charles Dickens|corpora/baseline/corpus3/pg821.epub
4|||NicholasNickleby|Cluster 4|Charles Dickens|Charles Dickens|corpora/baseline/corpus3/pg967.epub
4|||MartinChuzzlewit|Cluster 4|Charles Dickens|Charles Dickens|corpora/baseline/corpus3/pg968.epub
4|||LittleDorrit|Cluster 4|Charles Dickens|Charles Dickens|corpora/baseline/corpus3/pg963.epub
4|||TheMysteryofEdwinDrood|Cluster 4|Charles Dickens|Charles Dickens|corpora/baseline/corpus3/pg564.epub
4|||OurMutualFriend|Cluster 4|Charles Dickens|Charles Dickens|corpora/baseline/corpus3/pg883.epub
