authors,purity,mutual information,accuracy
5,0.94,0.84,0.81
10,0.69,0.65,0.61
15,0.53,0.49,0.50
20,0.40,0.43,0.37
25,0.27,0.33,0.25
30,0.26,0.34,0.25
35,0.23,0.32,0.21
40,0.18,0.25,0.17
45,0.16,0.24,0.16
50,0.14,0.19,0.13
55,0.11,0.18,0.11
60,0.10,0.20,0.10
65,0.11,0.16,0.10
70,0.07,0.17,0.07
75,0.07,0.15,0.07
80,0.07,0.13,0.06
85,0.08,0.14,0.08
