idnum|extra|title|percent|clusterid|real_author|label|filename
0|929aa|TheNewcomesMemoirsofaMostRespectableFamily|100.0|Cluster 0|William Makepeace Thackeray|William Makepeace Thackeray|corpora/baseline/corpus1/pg7467.epub
1|929aa|VanityFair|0.9|Cluster 0|William Makepeace Thackeray|William Makepeace Thackeray|corpora/baseline/corpus1/pg599.epub
2|929aa|TheHistoryofHenryEsmondEsqaColonelintheServiceofHerMajestyQueenAnne|0.15|Cluster 0|William Makepeace Thackeray|William Makepeace Thackeray|corpora/baseline/corpus1/pg2511.epub
3|929aa|TheVirginians|0.67|Cluster 0|William Makepeace Thackeray|William Makepeace Thackeray|corpora/baseline/corpus1/pg8123.epub
4|929aa|CatherineAStory|0.26|Cluster 0|William Makepeace Thackeray|William Makepeace Thackeray|corpora/baseline/corpus1/pg1969.epub
5|929aa|TheHistoryofPendennis|0.52|Cluster 0|William Makepeace Thackeray|William Makepeace Thackeray|corpora/baseline/corpus1/pg7265.epub
0|929aa|Middlemarch|100.0|Cluster 1|George Eliot|George Eliot|corpora/baseline/corpus1/pg145.epub
1|929aa|SilasMarner|0.94|Cluster 1|George Eliot|George Eliot|corpora/baseline/corpus1/pg550.epub
2|929aa|TheMillontheFloss|0.57|Cluster 1|George Eliot|George Eliot|corpora/baseline/corpus1/pg6688.epub
3|929aa|DanielDeronda|0.13|Cluster 1|George Eliot|George Eliot|corpora/baseline/corpus1/pg7469.epub
4|929aa|Romola|0.97|Cluster 1|George Eliot|George Eliot|corpora/baseline/corpus1/pg24020.epub
5|929aa|FelixHolttheRadical|0.74|Cluster 1|George Eliot|George Eliot|corpora/baseline/corpus1/pg40882.epub
6|929aa|AdamBede|0.29|Cluster 1|George Eliot|George Eliot|corpora/baseline/corpus1/pg507.epub
0|929aa|Persuasion|100.0|Cluster 2|Jane Austen|Jane Austen|corpora/baseline/corpus1/pg105.epub
1|929aa|PrideandPrejudice|0.14|Cluster 2|Jane Austen|Jane Austen|corpora/baseline/corpus1/pg42671.epub
2|929aa|Emma|0.46|Cluster 2|Jane Austen|Jane Austen|corpora/baseline/corpus1/pg158.epub
3|929aa|SenseandSensibility|0.83|Cluster 2|Jane Austen|Jane Austen|corpora/baseline/corpus1/pg161.epub
4|929aa|MansfieldPark|0.76|Cluster 2|Jane Austen|Jane Austen|corpora/baseline/corpus1/pg141.epub
5|929aa|NorthangerAbbey|0.49|Cluster 2|Jane Austen|Jane Austen|corpora/baseline/corpus1/pg121.epub
0|929aa|ThePickwickPapers|100.0|Cluster 3|Charles Dickens|unknown_4|corpora/baseline/corpus1/pg580.epub
1|929aa|NicholasNickleby|0.94|Cluster 3|Charles Dickens|unknown_4|corpora/baseline/corpus1/pg967.epub
2|929aa|ATaleofTwoCities|0.23|Cluster 3|Charles Dickens|unknown_4|corpora/baseline/corpus1/pg98.epub
3|929aa|OliverTwist|0.1|Cluster 3|Charles Dickens|unknown_4|corpora/baseline/corpus1/pg730.epub
4|929aa|BarnabyRudgeATaleoftheRiotsofEighty|0.31|Cluster 3|Charles Dickens|unknown_4|corpora/baseline/corpus1/pg917.epub
0|929aa|HardTimes|100.0|Cluster 4|Charles Dickens|Charles Dickens|corpora/baseline/corpus1/pg786.epub
1|929aa|MartinChuzzlewit|0.46|Cluster 4|Charles Dickens|Charles Dickens|corpora/baseline/corpus1/pg968.epub
2|929aa|OurMutualFriend|0.32|Cluster 4|Charles Dickens|Charles Dickens|corpora/baseline/corpus1/pg883.epub
3|929aa|LittleDorrit|0.17|Cluster 4|Charles Dickens|Charles Dickens|corpora/baseline/corpus1/pg963.epub
4|929aa|DombeyandSon|0.35|Cluster 4|Charles Dickens|Charles Dickens|corpora/baseline/corpus1/pg821.epub
5|929aa|TheMysteryofEdwinDrood|0.95|Cluster 4|Charles Dickens|Charles Dickens|corpora/baseline/corpus1/pg564.epub
0|929aa|SylviasLovers—Complete|100.0|Cluster 5|Elizabeth Cleghorn Gaskell|Elizabeth Cleghorn Gaskell|corpora/baseline/corpus1/pg4537.epub
1|929aa|NorthandSouth|0.23|Cluster 5|Elizabeth Cleghorn Gaskell|Elizabeth Cleghorn Gaskell|corpora/baseline/corpus1/pg4276.epub
2|929aa|Cranford|0.93|Cluster 5|Elizabeth Cleghorn Gaskell|Elizabeth Cleghorn Gaskell|corpora/baseline/corpus1/pg394.epub
3|929aa|MaryBarton|0.41|Cluster 5|Elizabeth Cleghorn Gaskell|Elizabeth Cleghorn Gaskell|corpora/baseline/corpus1/pg2153.epub
4|929aa|Ruth|0.57|Cluster 5|Elizabeth Cleghorn Gaskell|Elizabeth Cleghorn Gaskell|corpora/baseline/corpus1/pg4275.epub
