filename|title|author
41338.epub|The Memoirs of an American Citizen|Robert Herrick
55731.epub|The Philosophy of Fine Art, volume 4 (of 4) / Hegel's Aesthetik|Georg Wilhelm Friedrich Hegel
46330.epub|The Introduction to Hegel's Philosophy of Fine Arts / Translated from the German with Notes and Prefatory Essay|Georg Wilhelm Friedrich Hegel
4797.epub|The Complete Poetical Works of Percy Bysshe Shelley — Volume 1|Percy Bysshe Shelley
6987.epub|Five Little Peppers Abroad|Margaret Sidney
51636.epub|Hegel's Lectures on the History of Philosophy: Volume 2 (of 3)|Georg Wilhelm Friedrich Hegel
7498.epub|Five Little Peppers Grown Up|Margaret Sidney
33753.epub|In Paths of Peril: A Boy's Adventures in Nova Scotia|J. Macdonald Oxley
55445.epub|The Philosophy of Fine Art, volume 2 (of 4) / Hegel's Aesthetik|Georg Wilhelm Friedrich Hegel
49471.epub|The Stories Polly Pepper Told to the Five Little Peppers in the Little Brown House|Margaret Sidney
52790.epub|History of a Six Weeks' Tour Through a Part of France, Switzerland, Germany, and Holland: / With Letters Descriptive of a Sail Round the Lake of Geneva, and of the Glaciers of Chamouni.|Mary Wollstonecraft Shelley
33714.epub|The Wreckers of Sable Island|J. Macdonald Oxley
33722.epub|Donalblane of Darien|J. Macdonald Oxley
4800.epub|The Complete Poetical Works of Percy Bysshe Shelley — Complete|Percy Bysshe Shelley
25358.epub|Bert Lloyd's Boyhood: A Story from Nova Scotia|J. Macdonald Oxley
39064.epub|Hegel's Philosophy of Mind|Georg Wilhelm Friedrich Hegel
9968.epub|The Young Woodsman; Or, Life in the Forests of Canada|J. Macdonald Oxley
38727.epub|A Vindication of Natural Diet.|Percy Bysshe Shelley
4654.epub|The Daemon of the World|Percy Bysshe Shelley
8134.epub|Together|Robert Herrick
29808.epub|The Man Who Wins|Robert Herrick
6418.epub|Five Little Peppers and their Friends|Margaret Sidney
30736.epub|Clark's Field|Robert Herrick
5632.epub|Five Little Peppers Midway|Margaret Sidney
59463.epub|His Great Adventure|Robert Herrick
4799.epub|The Complete Poetical Works of Percy Bysshe Shelley — Volume 3|Percy Bysshe Shelley
