digraph "DNA tree plot" {
	start
	Rowling [label="" shape=box]
	Tolkien [label="" shape=box]
	"0T"
	start -> "0T" [color=red]
	"0C"
	start -> "0C" [color=green]
	"0G"
	start -> "0G" [color=blue]
	"1A"
	"0T" -> "1A"
	"1T"
	"0T" -> "1T" [color=red]
	"1C"
	"0C" -> "1C" [color=green]
	"2G"
	"1A" -> "2G" [color=blue]
	"2C"
	"1T" -> "2C" [color=green]
	"2A"
	"1C" -> "2A"
	"3G"
	"2G" -> "3G" [color=blue]
	"3T"
	"2A" -> "3T" [color=red]
	"3C"
	"2C" -> "3C" [color=green]
	"4C"
	"3G" -> "4C" [color=green]
	"4T"
	"3T" -> "4T" [color=red]
	"4A"
	"3T" -> "4A"
	"5C"
	"4C" -> "5C" [color=green]
	"5A"
	"4T" -> "5A"
	"5T"
	"4C" -> "5T" [color=red]
	"6C"
	"5C" -> "6C" [color=green]
	"6A"
	"5A" -> "6A"
	"6G"
	"5A" -> "6G" [color=blue]
	"7G"
	"6C" -> "7G" [color=blue]
	"7C"
	"6C" -> "7C" [color=green]
	"7A"
	"6G" -> "7A"
	"8A"
	"7G" -> "8A"
	"8T"
	"7G" -> "8T" [color=red]
	"8G"
	"7A" -> "8G" [color=blue]
	"9G"
	"8A" -> "9G" [color=blue]
	"9C"
	"8T" -> "9C" [color=green]
	"9T"
	"8T" -> "9T" [color=red]
	"10T"
	"9G" -> "10T" [color=red]
	"10A"
	"9C" -> "10A"
	"10C"
	"9G" -> "10C" [color=green]
	"11A"
	"10T" -> "11A"
	"11T"
	"10A" -> "11T" [color=red]
	"11C"
	"10C" -> "11C" [color=green]
	"12C"
	"11A" -> "12C" [color=green]
	"12G"
	"11T" -> "12G" [color=blue]
	"12A"
	"11T" -> "12A"
	"13T"
	"12C" -> "13T" [color=red]
	"13A"
	"12G" -> "13A"
	"13G"
	"12G" -> "13G" [color=blue]
	"14G"
	"13T" -> "14G" [color=blue]
	"14T"
	"13A" -> "14T" [color=red]
	"14C"
	"13G" -> "14C" [color=green]
	"15C"
	"14G" -> "15C" [color=green]
	"15G"
	"14G" -> "15G" [color=blue]
	"15A"
	"14T" -> "15A"
	"16C"
	"15C" -> "16C" [color=green]
	"16G"
	"15G" -> "16G" [color=blue]
	"16A"
	"15A" -> "16A"
	"17C"
	"16C" -> "17C" [color=green]
	"17T"
	"16A" -> "17T" [color=red]
	"17A"
	"16A" -> "17A"
	"18A"
	"17C" -> "18A"
	"18G"
	"17C" -> "18G" [color=blue]
	"18T"
	"17T" -> "18T" [color=red]
	"19A"
	"18A" -> "19A"
	"19G"
	"18G" -> "19G" [color=blue]
	"19T"
	"18T" -> "19T" [color=red]
	"20G"
	"19A" -> "20G" [color=blue]
	"20T"
	"19T" -> "20T" [color=red]
	"20C"
	"19T" -> "20C" [color=green]
	"21A"
	"20G" -> "21A"
	"21C"
	"20T" -> "21C" [color=green]
	"21G"
	"20T" -> "21G" [color=blue]
	"22A"
	"21A" -> "22A"
	"22G"
	"21A" -> "22G" [color=blue]
	"22C"
	"21C" -> "22C" [color=green]
	"23T"
	"22A" -> "23T" [color=red]
	"23A"
	"22C" -> "23A"
	"23G"
	"22C" -> "23G" [color=blue]
	"24T"
	"23T" -> "24T" [color=red]
	"24C"
	"23T" -> "24C" [color=green]
	"24G"
	"23A" -> "24G" [color=blue]
	"25T"
	"24T" -> "25T" [color=red]
	"25G"
	"24G" -> "25G" [color=blue]
	"25A"
	"24G" -> "25A"
	"26T"
	"25T" -> "26T" [color=red]
	"26C"
	"25T" -> "26C" [color=green]
	"26G"
	"25G" -> "26G" [color=blue]
	"27C"
	"26T" -> "27C" [color=green]
	"27G"
	"26G" -> "27G" [color=blue]
	"27T"
	"26C" -> "27T" [color=red]
	"28T"
	"27C" -> "28T" [color=red]
	"28C"
	"27C" -> "28C" [color=green]
	"28G"
	"27G" -> "28G" [color=blue]
	"28A"
	"27G" -> "28A"
	"29C"
	"28T" -> "29C" [color=green]
	"29T"
	"28C" -> "29T" [color=red]
	"29G"
	"28G" -> "29G" [color=blue]
	"29A"
	"28T" -> "29A"
	"30G"
	"29C" -> "30G" [color=blue]
	"30T"
	"29T" -> "30T" [color=red]
	"30C"
	"29G" -> "30C" [color=green]
	"31A"
	"30G" -> "31A"
	"31G"
	"30T" -> "31G" [color=blue]
	"31C"
	"30C" -> "31C" [color=green]
	"32G"
	"31A" -> "32G" [color=blue]
	"32C"
	"31G" -> "32C" [color=green]
	"32T"
	"31C" -> "32T" [color=red]
	"33A"
	"32G" -> "33A"
	"33C"
	"32C" -> "33C" [color=green]
	"33T"
	"32T" -> "33T" [color=red]
	"33G"
	"32C" -> "33G" [color=blue]
	"34A"
	"33A" -> "34A"
	"34G"
	"33C" -> "34G" [color=blue]
	"34T"
	"33T" -> "34T" [color=red]
	"35T"
	"34A" -> "35T" [color=red]
	"35C"
	"34G" -> "35C" [color=green]
	"35A"
	"34T" -> "35A"
	"36A"
	"35T" -> "36A"
	"36T"
	"35A" -> "36T" [color=red]
	"36G"
	"35T" -> "36G" [color=blue]
	"37T"
	"36A" -> "37T" [color=red]
	"37C"
	"36A" -> "37C" [color=green]
	"37A"
	"36T" -> "37A"
	"38A"
	"37T" -> "38A"
	"38C"
	"37A" -> "38C" [color=green]
	"38G"
	"37T" -> "38G" [color=blue]
	"39A"
	"38A" -> "39A"
	"39C"
	"38C" -> "39C" [color=green]
	"39G"
	"38G" -> "39G" [color=blue]
	"40A"
	"39A" -> "40A"
	"40C"
	"39C" -> "40C" [color=green]
	"40G"
	"39G" -> "40G" [color=blue]
	"41A"
	"40A" -> "41A"
	"41C"
	"40C" -> "41C" [color=green]
	"41G"
	"40G" -> "41G" [color=blue]
	"42A"
	"41A" -> "42A"
	"42G"
	"41C" -> "42G" [color=blue]
	"42C"
	"41C" -> "42C" [color=green]
	"43A"
	"42A" -> "43A"
	"43T"
	"42G" -> "43T" [color=red]
	"43C"
	"42A" -> "43C" [color=green]
	"44G"
	"43A" -> "44G" [color=blue]
	"44A"
	"43T" -> "44A"
	"44C"
	"43C" -> "44C" [color=green]
	"45G"
	"44G" -> "45G" [color=blue]
	"45T"
	"44A" -> "45T" [color=red]
	"45C"
	"44G" -> "45C" [color=green]
	"46T"
	"45G" -> "46T" [color=red]
	"46C"
	"45T" -> "46C" [color=green]
	"46A"
	"45T" -> "46A"
	"47C"
	"46T" -> "47C" [color=green]
	"47T"
	"46T" -> "47T" [color=red]
	"47A"
	"46A" -> "47A"
	"48C"
	"47C" -> "48C" [color=green]
	"48T"
	"47C" -> "48T" [color=red]
	"48A"
	"47A" -> "48A"
	"49C"
	"48C" -> "49C" [color=green]
	"49T"
	"48T" -> "49T" [color=red]
	"49A"
	"48A" -> "49A"
	"50G"
	"49C" -> "50G" [color=blue]
	"50A"
	"49T" -> "50A"
	"50C"
	"49C" -> "50C" [color=green]
	"51C"
	"50G" -> "51C" [color=green]
	"51G"
	"50A" -> "51G" [color=blue]
	"51A"
	"50A" -> "51A"
	"52A"
	"51C" -> "52A"
	"52T"
	"51C" -> "52T" [color=red]
	"52G"
	"51G" -> "52G" [color=blue]
	"53T"
	"52A" -> "53T" [color=red]
	"53C"
	"52G" -> "53C" [color=green]
	"53G"
	"52G" -> "53G" [color=blue]
	"54C"
	"53T" -> "54C" [color=green]
	"54T"
	"53C" -> "54T" [color=red]
	"54A"
	"53G" -> "54A"
	"54C" -> Rowling
	"54C" -> Rowling
	"54T" -> Tolkien
	"54C" -> Rowling
	"54T" -> Tolkien
	"54A" -> Tolkien
	"0G" -> "1C" [color=green]
}
