%!PS-Adobe-3.0 EPSF-3.0
%%Title: persons.eps
%%Creator: matplotlib version 3.1.1, http://matplotlib.org/
%%CreationDate: Wed Sep  4 15:54:54 2019
%%Orientation: portrait
%%BoundingBox: 75.6 223.20000000000002 536.4 568.8
%%EndComments
%%BeginProlog
/mpldict 8 dict def
mpldict begin
/m { moveto } bind def
/l { lineto } bind def
/r { rlineto } bind def
/c { curveto } bind def
/cl { closepath } bind def
/box {
m
1 index 0 r
0 exch r
neg 0 r
cl
} bind def
/clipbox {
box
clip
newpath
} bind def
%!PS-Adobe-3.0 Resource-Font
%%Title: DejaVu Sans
%%Copyright: Copyright (c) 2003 by Bitstream, Inc. All Rights Reserved. Copyright (c) 2006 by Tavmjong Bah. All Rights Reserved. DejaVu changes are in public domain 
%%Creator: Converted from TrueType to type 3 by PPR
25 dict begin
/_d{bind def}bind def
/_m{moveto}_d
/_l{lineto}_d
/_cl{closepath eofill}_d
/_c{curveto}_d
/_sc{7 -1 roll{setcachedevice}{pop pop pop pop pop pop}ifelse}_d
/_e{exec}_d
/FontName /DejaVuSans def
/PaintType 0 def
/FontMatrix[.001 0 0 .001 0 0]def
/FontBBox[-1021 -463 1793 1232]def
/FontType 3 def
/Encoding [ /space /period /zero /one /two /four /five /six /seven /eight /A /B /E /G /H /I /J /K /L /M /P /S /T /a /b /c /d /e /f /g /h /i /j /k /l /m /n /o /r /s /t /u /v /x ] def
/FontInfo 10 dict dup begin
/FamilyName (DejaVu Sans) def
/FullName (DejaVu Sans) def
/Notice (Copyright (c) 2003 by Bitstream, Inc. All Rights Reserved. Copyright (c) 2006 by Tavmjong Bah. All Rights Reserved. DejaVu changes are in public domain ) def
/Weight (Book) def
/Version (Version 2.35) def
/ItalicAngle 0.0 def
/isFixedPitch false def
/UnderlinePosition -130 def
/UnderlineThickness 90 def
end readonly def
/CharStrings 45 dict dup begin
/.notdef 0 def
/space{318 0 0 0 0 0 _sc
}_d
/period{318 0 107 0 210 124 _sc
107 124 _m
210 124 _l
210 0 _l
107 0 _l
107 124 _l
_cl}_d
/zero{636 0 66 -13 570 742 _sc
318 664 _m
267 664 229 639 203 589 _c
177 539 165 464 165 364 _c
165 264 177 189 203 139 _c
229 89 267 64 318 64 _c
369 64 407 89 433 139 _c
458 189 471 264 471 364 _c
471 464 458 539 433 589 _c
407 639 369 664 318 664 _c
318 742 _m
399 742 461 709 505 645 _c
548 580 570 486 570 364 _c
570 241 548 147 505 83 _c
461 19 399 -13 318 -13 _c
236 -13 173 19 130 83 _c
87 147 66 241 66 364 _c
66 486 87 580 130 645 _c
173 709 236 742 318 742 _c
_cl}_d
/one{636 0 110 0 544 729 _sc
124 83 _m
285 83 _l
285 639 _l
110 604 _l
110 694 _l
284 729 _l
383 729 _l
383 83 _l
544 83 _l
544 0 _l
124 0 _l
124 83 _l
_cl}_d
/two{{636 0 73 0 536 742 _sc
192 83 _m
536 83 _l
536 0 _l
73 0 _l
73 83 _l
110 121 161 173 226 239 _c
290 304 331 346 348 365 _c
380 400 402 430 414 455 _c
426 479 433 504 433 528 _c
433 566 419 598 392 622 _c
365 646 330 659 286 659 _c
255 659 222 653 188 643 _c
154 632 117 616 78 594 _c
78 694 _l
118 710 155 722 189 730 _c
223 738 255 742 284 742 _c
}_e{359 742 419 723 464 685 _c
509 647 532 597 532 534 _c
532 504 526 475 515 449 _c
504 422 484 390 454 354 _c
446 344 420 317 376 272 _c
332 227 271 164 192 83 _c
_cl}_e}_d
/four{636 0 49 0 580 729 _sc
378 643 _m
129 254 _l
378 254 _l
378 643 _l
352 729 _m
476 729 _l
476 254 _l
580 254 _l
580 172 _l
476 172 _l
476 0 _l
378 0 _l
378 172 _l
49 172 _l
49 267 _l
352 729 _l
_cl}_d
/five{{636 0 77 -13 549 729 _sc
108 729 _m
495 729 _l
495 646 _l
198 646 _l
198 467 _l
212 472 227 476 241 478 _c
255 480 270 482 284 482 _c
365 482 429 459 477 415 _c
525 370 549 310 549 234 _c
549 155 524 94 475 51 _c
426 8 357 -13 269 -13 _c
238 -13 207 -10 175 -6 _c
143 -1 111 6 77 17 _c
77 116 _l
106 100 136 88 168 80 _c
199 72 232 69 267 69 _c
}_e{323 69 368 83 401 113 _c
433 143 450 183 450 234 _c
450 284 433 324 401 354 _c
368 384 323 399 267 399 _c
241 399 214 396 188 390 _c
162 384 135 375 108 363 _c
108 729 _l
_cl}_e}_d
/six{{636 0 70 -13 573 742 _sc
330 404 _m
286 404 251 388 225 358 _c
199 328 186 286 186 234 _c
186 181 199 139 225 109 _c
251 79 286 64 330 64 _c
374 64 409 79 435 109 _c
461 139 474 181 474 234 _c
474 286 461 328 435 358 _c
409 388 374 404 330 404 _c
526 713 _m
526 623 _l
501 635 476 644 451 650 _c
425 656 400 659 376 659 _c
310 659 260 637 226 593 _c
}_e{192 549 172 482 168 394 _c
187 422 211 444 240 459 _c
269 474 301 482 336 482 _c
409 482 467 459 509 415 _c
551 371 573 310 573 234 _c
573 159 550 99 506 54 _c
462 9 403 -13 330 -13 _c
246 -13 181 19 137 83 _c
92 147 70 241 70 364 _c
70 479 97 571 152 639 _c
206 707 280 742 372 742 _c
396 742 421 739 447 735 _c
472 730 498 723 526 713 _c
_cl}_e}_d
/seven{636 0 82 0 551 729 _sc
82 729 _m
551 729 _l
551 687 _l
286 0 _l
183 0 _l
432 646 _l
82 646 _l
82 729 _l
_cl}_d
/eight{{636 0 68 -13 568 742 _sc
318 346 _m
271 346 234 333 207 308 _c
180 283 167 249 167 205 _c
167 161 180 126 207 101 _c
234 76 271 64 318 64 _c
364 64 401 76 428 102 _c
455 127 469 161 469 205 _c
469 249 455 283 429 308 _c
402 333 365 346 318 346 _c
219 388 _m
177 398 144 418 120 447 _c
96 476 85 511 85 553 _c
85 611 105 657 147 691 _c
188 725 245 742 318 742 _c
}_e{390 742 447 725 489 691 _c
530 657 551 611 551 553 _c
551 511 539 476 515 447 _c
491 418 459 398 417 388 _c
464 377 501 355 528 323 _c
554 291 568 251 568 205 _c
568 134 546 80 503 43 _c
459 5 398 -13 318 -13 _c
237 -13 175 5 132 43 _c
89 80 68 134 68 205 _c
68 251 81 291 108 323 _c
134 355 171 377 219 388 _c
183 544 _m
183 506 194 476 218 455 _c
}_e{242 434 275 424 318 424 _c
360 424 393 434 417 455 _c
441 476 453 506 453 544 _c
453 582 441 611 417 632 _c
393 653 360 664 318 664 _c
275 664 242 653 218 632 _c
194 611 183 582 183 544 _c
_cl}_e}_d
/A{684 0 8 0 676 729 _sc
342 632 _m
208 269 _l
476 269 _l
342 632 _l
286 729 _m
398 729 _l
676 0 _l
573 0 _l
507 187 _l
178 187 _l
112 0 _l
8 0 _l
286 729 _l
_cl}_d
/B{{686 0 98 0 615 729 _sc
197 348 _m
197 81 _l
355 81 _l
408 81 447 92 473 114 _c
498 136 511 169 511 215 _c
511 260 498 293 473 315 _c
447 337 408 348 355 348 _c
197 348 _l
197 648 _m
197 428 _l
343 428 _l
391 428 426 437 450 455 _c
474 473 486 500 486 538 _c
486 574 474 602 450 620 _c
426 638 391 648 343 648 _c
197 648 _l
98 729 _m
350 729 _l
}_e{425 729 483 713 524 682 _c
564 650 585 606 585 549 _c
585 504 574 468 553 442 _c
532 416 502 399 462 393 _c
510 382 548 360 575 327 _c
601 294 615 253 615 204 _c
615 138 592 88 548 53 _c
504 17 441 0 360 0 _c
98 0 _l
98 729 _l
_cl}_e}_d
/E{632 0 98 0 568 729 _sc
98 729 _m
559 729 _l
559 646 _l
197 646 _l
197 430 _l
544 430 _l
544 347 _l
197 347 _l
197 83 _l
568 83 _l
568 0 _l
98 0 _l
98 729 _l
_cl}_d
/G{{775 0 56 -13 693 742 _sc
595 104 _m
595 300 _l
434 300 _l
434 381 _l
693 381 _l
693 68 _l
655 40 613 20 567 7 _c
521 -6 472 -13 420 -13 _c
306 -13 216 20 152 86 _c
88 152 56 245 56 364 _c
56 482 88 575 152 642 _c
216 708 306 742 420 742 _c
467 742 512 736 555 724 _c
598 712 638 695 674 673 _c
674 568 _l
637 598 598 621 557 637 _c
516 653 473 661 428 661 _c
}_e{338 661 271 636 227 586 _c
182 536 160 462 160 364 _c
160 265 182 191 227 141 _c
271 91 338 67 428 67 _c
462 67 493 70 521 76 _c
549 82 573 91 595 104 _c
_cl}_e}_d
/H{752 0 98 0 654 729 _sc
98 729 _m
197 729 _l
197 430 _l
555 430 _l
555 729 _l
654 729 _l
654 0 _l
555 0 _l
555 347 _l
197 347 _l
197 0 _l
98 0 _l
98 729 _l
_cl}_d
/I{295 0 98 0 197 729 _sc
98 729 _m
197 729 _l
197 0 _l
98 0 _l
98 729 _l
_cl}_d
/J{295 0 -51 -199 197 729 _sc
98 729 _m
197 729 _l
197 51 _l
197 -36 180 -99 147 -139 _c
113 -179 60 -199 -13 -199 _c
-51 -199 _l
-51 -116 _l
-20 -116 _l
22 -116 53 -103 71 -79 _c
89 -55 98 -11 98 51 _c
98 729 _l
_cl}_d
/K{656 0 98 0 677 729 _sc
98 729 _m
197 729 _l
197 421 _l
524 729 _l
651 729 _l
289 389 _l
677 0 _l
547 0 _l
197 351 _l
197 0 _l
98 0 _l
98 729 _l
_cl}_d
/L{557 0 98 0 552 729 _sc
98 729 _m
197 729 _l
197 83 _l
552 83 _l
552 0 _l
98 0 _l
98 729 _l
_cl}_d
/M{863 0 98 0 765 729 _sc
98 729 _m
245 729 _l
431 233 _l
618 729 _l
765 729 _l
765 0 _l
669 0 _l
669 640 _l
481 140 _l
382 140 _l
194 640 _l
194 0 _l
98 0 _l
98 729 _l
_cl}_d
/P{603 0 98 0 569 729 _sc
197 648 _m
197 374 _l
321 374 _l
367 374 402 385 427 409 _c
452 433 465 467 465 511 _c
465 555 452 588 427 612 _c
402 636 367 648 321 648 _c
197 648 _l
98 729 _m
321 729 _l
402 729 464 710 506 673 _c
548 636 569 582 569 511 _c
569 439 548 384 506 348 _c
464 311 402 293 321 293 _c
197 293 _l
197 0 _l
98 0 _l
98 729 _l
_cl}_d
/S{{635 0 66 -13 579 742 _sc
535 705 _m
535 609 _l
497 627 462 640 429 649 _c
395 657 363 662 333 662 _c
279 662 237 651 208 631 _c
179 610 165 580 165 542 _c
165 510 174 485 194 469 _c
213 452 250 439 304 429 _c
364 417 _l
437 403 491 378 526 343 _c
561 307 579 260 579 201 _c
579 130 555 77 508 41 _c
460 5 391 -13 300 -13 _c
265 -13 228 -9 189 -2 _c
}_e{150 5 110 16 69 32 _c
69 134 _l
109 111 148 94 186 83 _c
224 71 262 66 300 66 _c
356 66 399 77 430 99 _c
460 121 476 152 476 194 _c
476 230 465 258 443 278 _c
421 298 385 313 335 323 _c
275 335 _l
201 349 148 372 115 404 _c
82 435 66 478 66 534 _c
66 598 88 649 134 686 _c
179 723 242 742 322 742 _c
356 742 390 739 426 733 _c
461 727 497 717 535 705 _c
}_e{_cl}_e}_d
/T{611 0 -2 0 614 729 _sc
-2 729 _m
614 729 _l
614 646 _l
355 646 _l
355 0 _l
256 0 _l
256 646 _l
-2 646 _l
-2 729 _l
_cl}_d
/a{{613 0 60 -13 522 560 _sc
343 275 _m
270 275 220 266 192 250 _c
164 233 150 205 150 165 _c
150 133 160 107 181 89 _c
202 70 231 61 267 61 _c
317 61 357 78 387 114 _c
417 149 432 196 432 255 _c
432 275 _l
343 275 _l
522 312 _m
522 0 _l
432 0 _l
432 83 _l
411 49 385 25 355 10 _c
325 -5 287 -13 243 -13 _c
187 -13 142 2 109 33 _c
76 64 60 106 60 159 _c
}_e{60 220 80 266 122 298 _c
163 329 224 345 306 345 _c
432 345 _l
432 354 _l
432 395 418 427 391 450 _c
364 472 326 484 277 484 _c
245 484 215 480 185 472 _c
155 464 127 453 100 439 _c
100 522 _l
132 534 164 544 195 550 _c
226 556 256 560 286 560 _c
365 560 424 539 463 498 _c
502 457 522 395 522 312 _c
_cl}_e}_d
/b{{635 0 91 -13 580 760 _sc
487 273 _m
487 339 473 390 446 428 _c
418 466 381 485 334 485 _c
286 485 249 466 222 428 _c
194 390 181 339 181 273 _c
181 207 194 155 222 117 _c
249 79 286 61 334 61 _c
381 61 418 79 446 117 _c
473 155 487 207 487 273 _c
181 464 _m
199 496 223 520 252 536 _c
281 552 316 560 356 560 _c
422 560 476 533 518 481 _c
559 428 580 359 580 273 _c
}_e{580 187 559 117 518 65 _c
476 13 422 -13 356 -13 _c
316 -13 281 -5 252 10 _c
223 25 199 49 181 82 _c
181 0 _l
91 0 _l
91 760 _l
181 760 _l
181 464 _l
_cl}_e}_d
/c{{550 0 55 -13 488 560 _sc
488 526 _m
488 442 _l
462 456 437 466 411 473 _c
385 480 360 484 334 484 _c
276 484 230 465 198 428 _c
166 391 150 339 150 273 _c
150 206 166 154 198 117 _c
230 80 276 62 334 62 _c
360 62 385 65 411 72 _c
437 79 462 90 488 104 _c
488 21 _l
462 9 436 0 410 -5 _c
383 -10 354 -13 324 -13 _c
242 -13 176 12 128 64 _c
}_e{79 115 55 185 55 273 _c
55 362 79 432 128 483 _c
177 534 244 560 330 560 _c
358 560 385 557 411 551 _c
437 545 463 537 488 526 _c
_cl}_e}_d
/d{{635 0 55 -13 544 760 _sc
454 464 _m
454 760 _l
544 760 _l
544 0 _l
454 0 _l
454 82 _l
435 49 411 25 382 10 _c
353 -5 319 -13 279 -13 _c
213 -13 159 13 117 65 _c
75 117 55 187 55 273 _c
55 359 75 428 117 481 _c
159 533 213 560 279 560 _c
319 560 353 552 382 536 _c
411 520 435 496 454 464 _c
148 273 _m
148 207 161 155 188 117 _c
215 79 253 61 301 61 _c
}_e{348 61 385 79 413 117 _c
440 155 454 207 454 273 _c
454 339 440 390 413 428 _c
385 466 348 485 301 485 _c
253 485 215 466 188 428 _c
161 390 148 339 148 273 _c
_cl}_e}_d
/e{{615 0 55 -13 562 560 _sc
562 296 _m
562 252 _l
149 252 _l
153 190 171 142 205 110 _c
238 78 284 62 344 62 _c
378 62 412 66 444 74 _c
476 82 509 95 541 113 _c
541 28 _l
509 14 476 3 442 -3 _c
408 -9 373 -13 339 -13 _c
251 -13 182 12 131 62 _c
80 112 55 181 55 268 _c
55 357 79 428 127 481 _c
175 533 241 560 323 560 _c
397 560 455 536 498 489 _c
}_e{540 441 562 377 562 296 _c
472 322 _m
471 371 457 410 431 440 _c
404 469 368 484 324 484 _c
274 484 234 469 204 441 _c
174 413 156 373 152 322 _c
472 322 _l
_cl}_e}_d
/f{352 0 23 0 371 760 _sc
371 760 _m
371 685 _l
285 685 _l
253 685 230 678 218 665 _c
205 652 199 629 199 595 _c
199 547 _l
347 547 _l
347 477 _l
199 477 _l
199 0 _l
109 0 _l
109 477 _l
23 477 _l
23 547 _l
109 547 _l
109 585 _l
109 645 123 690 151 718 _c
179 746 224 760 286 760 _c
371 760 _l
_cl}_d
/g{{635 0 55 -207 544 560 _sc
454 280 _m
454 344 440 395 414 431 _c
387 467 349 485 301 485 _c
253 485 215 467 188 431 _c
161 395 148 344 148 280 _c
148 215 161 165 188 129 _c
215 93 253 75 301 75 _c
349 75 387 93 414 129 _c
440 165 454 215 454 280 _c
544 68 _m
544 -24 523 -93 482 -139 _c
440 -184 377 -207 292 -207 _c
260 -207 231 -204 203 -200 _c
175 -195 147 -188 121 -178 _c
}_e{121 -91 _l
147 -105 173 -115 199 -122 _c
225 -129 251 -133 278 -133 _c
336 -133 380 -117 410 -87 _c
439 -56 454 -10 454 52 _c
454 96 _l
435 64 411 40 382 24 _c
353 8 319 0 279 0 _c
211 0 157 25 116 76 _c
75 127 55 195 55 280 _c
55 364 75 432 116 483 _c
157 534 211 560 279 560 _c
319 560 353 552 382 536 _c
411 520 435 496 454 464 _c
454 547 _l
544 547 _l
}_e{544 68 _l
_cl}_e}_d
/h{634 0 91 0 549 760 _sc
549 330 _m
549 0 _l
459 0 _l
459 327 _l
459 379 448 417 428 443 _c
408 469 378 482 338 482 _c
289 482 251 466 223 435 _c
195 404 181 362 181 309 _c
181 0 _l
91 0 _l
91 760 _l
181 760 _l
181 462 _l
202 494 227 519 257 535 _c
286 551 320 560 358 560 _c
420 560 468 540 500 501 _c
532 462 549 405 549 330 _c
_cl}_d
/i{278 0 94 0 184 760 _sc
94 547 _m
184 547 _l
184 0 _l
94 0 _l
94 547 _l
94 760 _m
184 760 _l
184 646 _l
94 646 _l
94 760 _l
_cl}_d
/j{278 0 -17 -207 184 760 _sc
94 547 _m
184 547 _l
184 -9 _l
184 -78 170 -128 144 -160 _c
117 -191 74 -207 16 -207 _c
-17 -207 _l
-17 -131 _l
6 -131 _l
40 -131 63 -123 75 -107 _c
87 -91 94 -58 94 -9 _c
94 547 _l
94 760 _m
184 760 _l
184 646 _l
94 646 _l
94 760 _l
_cl}_d
/k{579 0 91 0 576 760 _sc
91 760 _m
181 760 _l
181 311 _l
449 547 _l
564 547 _l
274 291 _l
576 0 _l
459 0 _l
181 267 _l
181 0 _l
91 0 _l
91 760 _l
_cl}_d
/l{278 0 94 0 184 760 _sc
94 760 _m
184 760 _l
184 0 _l
94 0 _l
94 760 _l
_cl}_d
/m{{974 0 91 0 889 560 _sc
520 442 _m
542 482 569 511 600 531 _c
631 550 668 560 711 560 _c
767 560 811 540 842 500 _c
873 460 889 403 889 330 _c
889 0 _l
799 0 _l
799 327 _l
799 379 789 418 771 444 _c
752 469 724 482 686 482 _c
639 482 602 466 575 435 _c
548 404 535 362 535 309 _c
535 0 _l
445 0 _l
445 327 _l
445 379 435 418 417 444 _c
398 469 369 482 331 482 _c
}_e{285 482 248 466 221 435 _c
194 404 181 362 181 309 _c
181 0 _l
91 0 _l
91 547 _l
181 547 _l
181 462 _l
201 495 226 520 255 536 _c
283 552 317 560 357 560 _c
397 560 430 550 458 530 _c
486 510 506 480 520 442 _c
_cl}_e}_d
/n{634 0 91 0 549 560 _sc
549 330 _m
549 0 _l
459 0 _l
459 327 _l
459 379 448 417 428 443 _c
408 469 378 482 338 482 _c
289 482 251 466 223 435 _c
195 404 181 362 181 309 _c
181 0 _l
91 0 _l
91 547 _l
181 547 _l
181 462 _l
202 494 227 519 257 535 _c
286 551 320 560 358 560 _c
420 560 468 540 500 501 _c
532 462 549 405 549 330 _c
_cl}_d
/o{612 0 55 -13 557 560 _sc
306 484 _m
258 484 220 465 192 427 _c
164 389 150 338 150 273 _c
150 207 163 156 191 118 _c
219 80 257 62 306 62 _c
354 62 392 80 420 118 _c
448 156 462 207 462 273 _c
462 337 448 389 420 427 _c
392 465 354 484 306 484 _c
306 560 _m
384 560 445 534 490 484 _c
534 433 557 363 557 273 _c
557 183 534 113 490 63 _c
445 12 384 -13 306 -13 _c
227 -13 165 12 121 63 _c
77 113 55 183 55 273 _c
55 363 77 433 121 484 _c
165 534 227 560 306 560 _c
_cl}_d
/r{411 0 91 0 411 560 _sc
411 463 _m
401 469 390 473 378 476 _c
366 478 353 480 339 480 _c
288 480 249 463 222 430 _c
194 397 181 350 181 288 _c
181 0 _l
91 0 _l
91 547 _l
181 547 _l
181 462 _l
199 495 224 520 254 536 _c
284 552 321 560 365 560 _c
371 560 378 559 386 559 _c
393 558 401 557 411 555 _c
411 463 _l
_cl}_d
/s{{521 0 54 -13 472 560 _sc
443 531 _m
443 446 _l
417 458 391 468 364 475 _c
336 481 308 485 279 485 _c
234 485 200 478 178 464 _c
156 450 145 430 145 403 _c
145 382 153 366 169 354 _c
185 342 217 330 265 320 _c
296 313 _l
360 299 405 279 432 255 _c
458 230 472 195 472 151 _c
472 100 452 60 412 31 _c
372 1 316 -13 246 -13 _c
216 -13 186 -10 154 -5 _c
}_e{122 0 89 8 54 20 _c
54 113 _l
87 95 120 82 152 74 _c
184 65 216 61 248 61 _c
290 61 323 68 346 82 _c
368 96 380 117 380 144 _c
380 168 371 187 355 200 _c
339 213 303 226 247 238 _c
216 245 _l
160 257 119 275 95 299 _c
70 323 58 356 58 399 _c
58 450 76 490 112 518 _c
148 546 200 560 268 560 _c
301 560 332 557 362 552 _c
391 547 418 540 443 531 _c
}_e{_cl}_e}_d
/t{392 0 27 0 368 702 _sc
183 702 _m
183 547 _l
368 547 _l
368 477 _l
183 477 _l
183 180 _l
183 135 189 106 201 94 _c
213 81 238 75 276 75 _c
368 75 _l
368 0 _l
276 0 _l
206 0 158 13 132 39 _c
106 65 93 112 93 180 _c
93 477 _l
27 477 _l
27 547 _l
93 547 _l
93 702 _l
183 702 _l
_cl}_d
/u{634 0 85 -13 543 560 _sc
85 216 _m
85 547 _l
175 547 _l
175 219 _l
175 167 185 129 205 103 _c
225 77 255 64 296 64 _c
344 64 383 79 411 110 _c
439 141 453 183 453 237 _c
453 547 _l
543 547 _l
543 0 _l
453 0 _l
453 84 _l
431 50 405 26 377 10 _c
348 -5 315 -13 277 -13 _c
214 -13 166 6 134 45 _c
101 83 85 140 85 216 _c
311 560 _m
311 560 _l
_cl}_d
/v{592 0 30 0 562 547 _sc
30 547 _m
125 547 _l
296 88 _l
467 547 _l
562 547 _l
357 0 _l
235 0 _l
30 547 _l
_cl}_d
/x{592 0 29 0 559 547 _sc
549 547 _m
351 281 _l
559 0 _l
453 0 _l
294 215 _l
135 0 _l
29 0 _l
241 286 _l
47 547 _l
153 547 _l
298 352 _l
443 547 _l
549 547 _l
_cl}_d
end readonly def

/BuildGlyph
 {exch begin
 CharStrings exch
 2 copy known not{pop /.notdef}if
 true 3 1 roll get exec
 end}_d

/BuildChar {
 1 index /Encoding get exch get
 1 index /BuildGlyph get exec
}_d

FontName currentdict end definefont pop
end
%%EndProlog
mpldict begin
75.6 223.2 translate
460.8 345.6 0 0 clipbox
gsave
0 0 m
460.8 0 l
460.8 345.6 l
0 345.6 l
cl
1.000 setgray
fill
grestore
gsave
57.6 38.016 m
414.72 38.016 l
414.72 304.128 l
57.6 304.128 l
cl
1.000 setgray
fill
grestore
0.800 setlinewidth
1 setlinejoin
0 setlinecap
[] 0 setdash
0.000 setgray
gsave
/o {
gsave
newpath
translate
0.8 setlinewidth
1 setlinejoin
0 setlinecap
0 0 m
0 -3.5 l

gsave
0.000 setgray
fill
grestore
stroke
grestore
} bind def
71.3354 38.016 o
grestore
/DejaVuSans findfont
10.000 scalefont
setfont
gsave
68.155697 23.422250 translate
0.000000 rotate
0.000000 0.000000 m /zero glyphshow
grestore
gsave
/o {
gsave
newpath
translate
0.8 setlinewidth
1 setlinejoin
0 setlinecap
0 0 m
0 -3.5 l

gsave
0.000 setgray
fill
grestore
stroke
grestore
} bind def
114.734 38.016 o
grestore
gsave
108.374943 23.422250 translate
0.000000 rotate
0.000000 0.000000 m /two glyphshow
6.362305 0.000000 m /zero glyphshow
grestore
gsave
/o {
gsave
newpath
translate
0.8 setlinewidth
1 setlinejoin
0 setlinecap
0 0 m
0 -3.5 l

gsave
0.000 setgray
fill
grestore
stroke
grestore
} bind def
158.133 38.016 o
grestore
gsave
151.773876 23.422250 translate
0.000000 rotate
0.000000 0.000000 m /four glyphshow
6.362305 0.000000 m /zero glyphshow
grestore
gsave
/o {
gsave
newpath
translate
0.8 setlinewidth
1 setlinejoin
0 setlinecap
0 0 m
0 -3.5 l

gsave
0.000 setgray
fill
grestore
stroke
grestore
} bind def
201.532 38.016 o
grestore
gsave
195.172809 23.422250 translate
0.000000 rotate
0.000000 0.000000 m /six glyphshow
6.362305 0.000000 m /zero glyphshow
grestore
gsave
/o {
gsave
newpath
translate
0.8 setlinewidth
1 setlinejoin
0 setlinecap
0 0 m
0 -3.5 l

gsave
0.000 setgray
fill
grestore
stroke
grestore
} bind def
244.931 38.016 o
grestore
gsave
238.571742 23.422250 translate
0.000000 rotate
0.000000 0.000000 m /eight glyphshow
6.362305 0.000000 m /zero glyphshow
grestore
gsave
/o {
gsave
newpath
translate
0.8 setlinewidth
1 setlinejoin
0 setlinecap
0 0 m
0 -3.5 l

gsave
0.000 setgray
fill
grestore
stroke
grestore
} bind def
288.33 38.016 o
grestore
gsave
278.790987 23.422250 translate
0.000000 rotate
0.000000 0.000000 m /one glyphshow
6.362305 0.000000 m /zero glyphshow
12.724609 0.000000 m /zero glyphshow
grestore
gsave
/o {
gsave
newpath
translate
0.8 setlinewidth
1 setlinejoin
0 setlinecap
0 0 m
0 -3.5 l

gsave
0.000 setgray
fill
grestore
stroke
grestore
} bind def
331.729 38.016 o
grestore
gsave
322.189920 23.422250 translate
0.000000 rotate
0.000000 0.000000 m /one glyphshow
6.362305 0.000000 m /two glyphshow
12.724609 0.000000 m /zero glyphshow
grestore
gsave
/o {
gsave
newpath
translate
0.8 setlinewidth
1 setlinejoin
0 setlinecap
0 0 m
0 -3.5 l

gsave
0.000 setgray
fill
grestore
stroke
grestore
} bind def
375.128 38.016 o
grestore
gsave
365.588853 23.422250 translate
0.000000 rotate
0.000000 0.000000 m /one glyphshow
6.362305 0.000000 m /four glyphshow
12.724609 0.000000 m /zero glyphshow
grestore
gsave
201.238125 9.750375 translate
0.000000 rotate
0.000000 0.000000 m /b glyphshow
6.347656 0.000000 m /r glyphshow
10.458984 0.000000 m /a glyphshow
16.586914 0.000000 m /n glyphshow
22.924805 0.000000 m /c glyphshow
28.422852 0.000000 m /h glyphshow
34.760742 0.000000 m /space glyphshow
37.939453 0.000000 m /l glyphshow
40.717773 0.000000 m /e glyphshow
46.870117 0.000000 m /n glyphshow
53.208008 0.000000 m /g glyphshow
59.555664 0.000000 m /t glyphshow
63.476562 0.000000 m /h glyphshow
grestore
gsave
/o {
gsave
newpath
translate
0.8 setlinewidth
1 setlinejoin
0 setlinecap
0 0 m
-3.5 0 l

gsave
0.000 setgray
fill
grestore
stroke
grestore
} bind def
57.6 272.901 o
grestore
gsave
34.693750 269.103696 translate
0.000000 rotate
0.000000 0.000000 m /two glyphshow
6.362305 0.000000 m /period glyphshow
9.541016 0.000000 m /five glyphshow
grestore
gsave
/o {
gsave
newpath
translate
0.8 setlinewidth
1 setlinejoin
0 setlinecap
0 0 m
-3.5 0 l

gsave
0.000 setgray
fill
grestore
stroke
grestore
} bind def
57.6 238.958 o
grestore
gsave
34.693750 235.160839 translate
0.000000 rotate
0.000000 0.000000 m /five glyphshow
6.362305 0.000000 m /period glyphshow
9.541016 0.000000 m /zero glyphshow
grestore
gsave
/o {
gsave
newpath
translate
0.8 setlinewidth
1 setlinejoin
0 setlinecap
0 0 m
-3.5 0 l

gsave
0.000 setgray
fill
grestore
stroke
grestore
} bind def
57.6 205.015 o
grestore
gsave
34.693750 201.217982 translate
0.000000 rotate
0.000000 0.000000 m /seven glyphshow
6.362305 0.000000 m /period glyphshow
9.541016 0.000000 m /five glyphshow
grestore
gsave
/o {
gsave
newpath
translate
0.8 setlinewidth
1 setlinejoin
0 setlinecap
0 0 m
-3.5 0 l

gsave
0.000 setgray
fill
grestore
stroke
grestore
} bind def
57.6 171.072 o
grestore
gsave
28.334375 167.275125 translate
0.000000 rotate
0.000000 0.000000 m /one glyphshow
6.362305 0.000000 m /zero glyphshow
12.724609 0.000000 m /period glyphshow
15.903320 0.000000 m /zero glyphshow
grestore
gsave
/o {
gsave
newpath
translate
0.8 setlinewidth
1 setlinejoin
0 setlinecap
0 0 m
-3.5 0 l

gsave
0.000 setgray
fill
grestore
stroke
grestore
} bind def
57.6 137.129 o
grestore
gsave
28.334375 133.332268 translate
0.000000 rotate
0.000000 0.000000 m /one glyphshow
6.362305 0.000000 m /two glyphshow
12.724609 0.000000 m /period glyphshow
15.903320 0.000000 m /five glyphshow
grestore
gsave
/o {
gsave
newpath
translate
0.8 setlinewidth
1 setlinejoin
0 setlinecap
0 0 m
-3.5 0 l

gsave
0.000 setgray
fill
grestore
stroke
grestore
} bind def
57.6 103.186 o
grestore
gsave
28.334375 99.389411 translate
0.000000 rotate
0.000000 0.000000 m /one glyphshow
6.362305 0.000000 m /five glyphshow
12.724609 0.000000 m /period glyphshow
15.903320 0.000000 m /zero glyphshow
grestore
gsave
/o {
gsave
newpath
translate
0.8 setlinewidth
1 setlinejoin
0 setlinecap
0 0 m
-3.5 0 l

gsave
0.000 setgray
fill
grestore
stroke
grestore
} bind def
57.6 69.2434 o
grestore
gsave
28.334375 65.446554 translate
0.000000 rotate
0.000000 0.000000 m /one glyphshow
6.362305 0.000000 m /seven glyphshow
12.724609 0.000000 m /period glyphshow
15.903320 0.000000 m /five glyphshow
grestore
gsave
22.256250 160.025125 translate
90.000000 rotate
0.000000 0.000000 m /t glyphshow
3.920898 0.000000 m /a glyphshow
10.048828 0.000000 m /x glyphshow
15.966797 0.000000 m /a glyphshow
grestore
1.500 setlinewidth
gsave
357.1 266.1 57.6 38.02 clipbox
71.335385 184.768473 m
71.335385 184.768473 l
stroke
grestore
gsave
357.1 266.1 57.6 38.02 clipbox
71.335385 293.266286 m
71.335385 293.266286 l
stroke
grestore
gsave
357.1 266.1 57.6 38.02 clipbox
71.335385 76.270661 m
80.781034 76.270661 l
stroke
grestore
gsave
357.1 266.1 57.6 38.02 clipbox
80.781034 103.663607 m
109.351999 103.663607 l
stroke
grestore
gsave
357.1 266.1 57.6 38.02 clipbox
109.351999 138.083786 m
149.68095 138.083786 l
stroke
grestore
gsave
357.1 266.1 57.6 38.02 clipbox
149.68095 166.192714 m
149.111339 166.192714 l
stroke
grestore
gsave
357.1 266.1 57.6 38.02 clipbox
149.111339 188.467714 m
158.456844 188.467714 l
stroke
grestore
gsave
357.1 266.1 57.6 38.02 clipbox
158.456844 219.440571 m
199.776512 219.440571 l
stroke
grestore
gsave
357.1 266.1 57.6 38.02 clipbox
199.776512 250.837714 m
231.912216 250.837714 l
stroke
grestore
gsave
357.1 266.1 57.6 38.02 clipbox
231.912216 262.717714 m
263.206162 262.717714 l
stroke
grestore
gsave
357.1 266.1 57.6 38.02 clipbox
263.206162 272.900571 m
307.622258 272.900571 l
stroke
grestore
gsave
357.1 266.1 57.6 38.02 clipbox
307.622258 279.689143 m
310.430425 279.689143 l
stroke
grestore
gsave
357.1 266.1 57.6 38.02 clipbox
307.622258 266.112 m
346.043077 266.112 l
stroke
grestore
gsave
357.1 266.1 57.6 38.02 clipbox
263.206162 252.534857 m
299.078093 252.534857 l
stroke
grestore
gsave
357.1 266.1 57.6 38.02 clipbox
231.912216 238.957714 m
247.294727 238.957714 l
stroke
grestore
gsave
357.1 266.1 57.6 38.02 clipbox
199.776512 188.043429 m
213.313879 188.043429 l
stroke
grestore
gsave
357.1 266.1 57.6 38.02 clipbox
213.313879 205.014857 m
238.074519 205.014857 l
stroke
grestore
gsave
357.1 266.1 57.6 38.02 clipbox
238.074519 218.592 m
244.692856 218.592 l
stroke
grestore
gsave
357.1 266.1 57.6 38.02 clipbox
244.692856 225.380571 m
253.627931 225.380571 l
stroke
grestore
gsave
357.1 266.1 57.6 38.02 clipbox
244.692856 211.803429 m
250.947409 211.803429 l
stroke
grestore
gsave
357.1 266.1 57.6 38.02 clipbox
238.074519 191.437714 m
252.070675 191.437714 l
stroke
grestore
gsave
357.1 266.1 57.6 38.02 clipbox
252.070675 198.226286 m
323.934202 198.226286 l
stroke
grestore
gsave
357.1 266.1 57.6 38.02 clipbox
252.070675 184.649143 m
262.665121 184.649143 l
stroke
grestore
gsave
357.1 266.1 57.6 38.02 clipbox
213.313879 171.072 m
273.723644 171.072 l
stroke
grestore
gsave
357.1 266.1 57.6 38.02 clipbox
158.456844 157.494857 m
180.852837 157.494857 l
stroke
grestore
gsave
357.1 266.1 57.6 38.02 clipbox
149.111339 143.917714 m
172.872255 143.917714 l
stroke
grestore
gsave
357.1 266.1 57.6 38.02 clipbox
149.68095 109.974857 m
172.551695 109.974857 l
stroke
grestore
gsave
357.1 266.1 57.6 38.02 clipbox
172.551695 123.552 m
193.527847 123.552 l
stroke
grestore
gsave
357.1 266.1 57.6 38.02 clipbox
193.527847 130.340571 m
202.845854 130.340571 l
stroke
grestore
gsave
357.1 266.1 57.6 38.02 clipbox
193.527847 116.763429 m
236.28856 116.763429 l
stroke
grestore
gsave
357.1 266.1 57.6 38.02 clipbox
172.551695 96.397714 m
188.464637 96.397714 l
stroke
grestore
gsave
357.1 266.1 57.6 38.02 clipbox
188.464637 103.186286 m
249.606076 103.186286 l
stroke
grestore
gsave
357.1 266.1 57.6 38.02 clipbox
188.464637 89.609143 m
207.611224 89.609143 l
stroke
grestore
gsave
357.1 266.1 57.6 38.02 clipbox
109.351999 69.243429 m
137.199647 69.243429 l
stroke
grestore
gsave
357.1 266.1 57.6 38.02 clipbox
137.199647 76.032 m
165.408954 76.032 l
stroke
grestore
gsave
357.1 266.1 57.6 38.02 clipbox
137.199647 62.454857 m
152.389274 62.454857 l
stroke
grestore
gsave
357.1 266.1 57.6 38.02 clipbox
80.781034 48.877714 m
101.714638 48.877714 l
stroke
grestore
gsave
357.1 266.1 57.6 38.02 clipbox
71.335385 76.270661 m
71.335385 293.266286 l
stroke
grestore
gsave
357.1 266.1 57.6 38.02 clipbox
80.781034 48.877714 m
80.781034 103.663607 l
stroke
grestore
gsave
357.1 266.1 57.6 38.02 clipbox
109.351999 69.243429 m
109.351999 138.083786 l
stroke
grestore
gsave
357.1 266.1 57.6 38.02 clipbox
149.68095 109.974857 m
149.68095 166.192714 l
stroke
grestore
gsave
357.1 266.1 57.6 38.02 clipbox
149.111339 143.917714 m
149.111339 188.467714 l
stroke
grestore
gsave
357.1 266.1 57.6 38.02 clipbox
158.456844 157.494857 m
158.456844 219.440571 l
stroke
grestore
gsave
357.1 266.1 57.6 38.02 clipbox
199.776512 188.043429 m
199.776512 250.837714 l
stroke
grestore
gsave
357.1 266.1 57.6 38.02 clipbox
231.912216 238.957714 m
231.912216 262.717714 l
stroke
grestore
gsave
357.1 266.1 57.6 38.02 clipbox
263.206162 252.534857 m
263.206162 272.900571 l
stroke
grestore
gsave
357.1 266.1 57.6 38.02 clipbox
307.622258 266.112 m
307.622258 279.689143 l
stroke
grestore
gsave
357.1 266.1 57.6 38.02 clipbox
213.313879 171.072 m
213.313879 205.014857 l
stroke
grestore
gsave
357.1 266.1 57.6 38.02 clipbox
238.074519 191.437714 m
238.074519 218.592 l
stroke
grestore
gsave
357.1 266.1 57.6 38.02 clipbox
244.692856 211.803429 m
244.692856 225.380571 l
stroke
grestore
gsave
357.1 266.1 57.6 38.02 clipbox
252.070675 184.649143 m
252.070675 198.226286 l
stroke
grestore
gsave
357.1 266.1 57.6 38.02 clipbox
172.551695 96.397714 m
172.551695 123.552 l
stroke
grestore
gsave
357.1 266.1 57.6 38.02 clipbox
193.527847 116.763429 m
193.527847 130.340571 l
stroke
grestore
gsave
357.1 266.1 57.6 38.02 clipbox
188.464637 89.609143 m
188.464637 103.186286 l
stroke
grestore
gsave
357.1 266.1 57.6 38.02 clipbox
137.199647 62.454857 m
137.199647 76.032 l
stroke
grestore
0.800 setlinewidth
0 setlinejoin
2 setlinecap
[] 0 setdash
gsave
57.6 38.016 m
57.6 304.128 l
stroke
grestore
gsave
414.72 38.016 m
414.72 304.128 l
stroke
grestore
gsave
57.6 38.016 m
414.72 38.016 l
stroke
grestore
gsave
57.6 304.128 m
414.72 304.128 l
stroke
grestore
gsave
71.335385 290.508473 translate
0.000000 rotate
0.000000 0.000000 m /space glyphshow
3.178711 0.000000 m /J glyphshow
6.127930 0.000000 m /a glyphshow
12.255859 0.000000 m /n glyphshow
grestore
gsave
310.430425 276.931330 translate
0.000000 rotate
0.000000 0.000000 m /space glyphshow
3.178711 0.000000 m /J glyphshow
6.127930 0.000000 m /o glyphshow
12.246094 0.000000 m /h glyphshow
18.583984 0.000000 m /a glyphshow
24.711914 0.000000 m /n glyphshow
grestore
gsave
346.043077 263.354187 translate
0.000000 rotate
0.000000 0.000000 m /space glyphshow
3.178711 0.000000 m /E glyphshow
9.497070 0.000000 m /l glyphshow
12.275391 0.000000 m /s glyphshow
grestore
gsave
299.078093 249.777045 translate
0.000000 rotate
0.000000 0.000000 m /space glyphshow
3.178711 0.000000 m /S glyphshow
9.526367 0.000000 m /t glyphshow
13.447266 0.000000 m /e glyphshow
19.599609 0.000000 m /v glyphshow
25.517578 0.000000 m /e glyphshow
31.669922 0.000000 m /n glyphshow
grestore
gsave
247.294727 236.199902 translate
0.000000 rotate
0.000000 0.000000 m /space glyphshow
3.178711 0.000000 m /S glyphshow
9.526367 0.000000 m /o glyphshow
15.644531 0.000000 m /f glyphshow
19.165039 0.000000 m /i glyphshow
21.943359 0.000000 m /e glyphshow
grestore
gsave
253.627931 222.622759 translate
0.000000 rotate
0.000000 0.000000 m /space glyphshow
3.178711 0.000000 m /P glyphshow
9.208984 0.000000 m /i glyphshow
11.987305 0.000000 m /e glyphshow
18.139648 0.000000 m /t glyphshow
22.060547 0.000000 m /e glyphshow
28.212891 0.000000 m /r glyphshow
grestore
gsave
250.947409 209.045616 translate
0.000000 rotate
0.000000 0.000000 m /space glyphshow
3.178711 0.000000 m /M glyphshow
11.806641 0.000000 m /a glyphshow
17.934570 0.000000 m /r glyphshow
22.045898 0.000000 m /i glyphshow
24.824219 0.000000 m /e glyphshow
grestore
gsave
323.934202 195.468473 translate
0.000000 rotate
0.000000 0.000000 m /space glyphshow
3.178711 0.000000 m /H glyphshow
10.698242 0.000000 m /u glyphshow
17.036133 0.000000 m /g glyphshow
23.383789 0.000000 m /o glyphshow
grestore
gsave
262.665121 181.891330 translate
0.000000 rotate
0.000000 0.000000 m /space glyphshow
3.178711 0.000000 m /B glyphshow
10.039062 0.000000 m /a glyphshow
16.166992 0.000000 m /r glyphshow
20.278320 0.000000 m /t glyphshow
grestore
gsave
273.723644 168.314187 translate
0.000000 rotate
0.000000 0.000000 m /space glyphshow
3.178711 0.000000 m /I glyphshow
6.127930 0.000000 m /n glyphshow
12.465820 0.000000 m /g glyphshow
18.813477 0.000000 m /r glyphshow
22.924805 0.000000 m /i glyphshow
25.703125 0.000000 m /d glyphshow
grestore
gsave
180.852837 154.737045 translate
0.000000 rotate
0.000000 0.000000 m /space glyphshow
3.178711 0.000000 m /G glyphshow
10.927734 0.000000 m /e glyphshow
17.080078 0.000000 m /r glyphshow
21.191406 0.000000 m /t glyphshow
grestore
gsave
172.872255 141.159902 translate
0.000000 rotate
0.000000 0.000000 m /space glyphshow
3.178711 0.000000 m /E glyphshow
9.497070 0.000000 m /l glyphshow
12.275391 0.000000 m /i glyphshow
15.053711 0.000000 m /s glyphshow
20.263672 0.000000 m /e glyphshow
grestore
gsave
202.845854 127.582759 translate
0.000000 rotate
0.000000 0.000000 m /space glyphshow
3.178711 0.000000 m /K glyphshow
9.736328 0.000000 m /a glyphshow
15.864258 0.000000 m /t glyphshow
19.785156 0.000000 m /r glyphshow
23.896484 0.000000 m /i glyphshow
26.674805 0.000000 m /j glyphshow
29.453125 0.000000 m /n glyphshow
grestore
gsave
236.288560 114.005616 translate
0.000000 rotate
0.000000 0.000000 m /space glyphshow
3.178711 0.000000 m /L glyphshow
8.750000 0.000000 m /e glyphshow
14.902344 0.000000 m /s glyphshow
20.112305 0.000000 m /l glyphshow
22.890625 0.000000 m /i glyphshow
25.668945 0.000000 m /e glyphshow
grestore
gsave
249.606076 100.428473 translate
0.000000 rotate
0.000000 0.000000 m /space glyphshow
3.178711 0.000000 m /T glyphshow
9.287109 0.000000 m /h glyphshow
15.625000 0.000000 m /o glyphshow
21.743164 0.000000 m /m glyphshow
31.484375 0.000000 m /a glyphshow
37.612305 0.000000 m /s glyphshow
grestore
gsave
207.611224 86.851330 translate
0.000000 rotate
0.000000 0.000000 m /space glyphshow
3.178711 0.000000 m /I glyphshow
6.127930 0.000000 m /l glyphshow
8.906250 0.000000 m /k glyphshow
14.697266 0.000000 m /e glyphshow
grestore
gsave
165.408954 73.274187 translate
0.000000 rotate
0.000000 0.000000 m /space glyphshow
3.178711 0.000000 m /B glyphshow
10.039062 0.000000 m /o glyphshow
16.157227 0.000000 m /b glyphshow
grestore
gsave
152.389274 59.697045 translate
0.000000 rotate
0.000000 0.000000 m /space glyphshow
3.178711 0.000000 m /A glyphshow
10.019531 0.000000 m /n glyphshow
16.357422 0.000000 m /n glyphshow
22.695312 0.000000 m /e glyphshow
grestore
gsave
101.714638 46.119902 translate
0.000000 rotate
0.000000 0.000000 m /space glyphshow
3.178711 0.000000 m /B glyphshow
10.039062 0.000000 m /i glyphshow
12.817383 0.000000 m /r glyphshow
16.928711 0.000000 m /g glyphshow
23.276367 0.000000 m /i glyphshow
26.054688 0.000000 m /t glyphshow
grestore
/DejaVuSans findfont
12.000 scalefont
setfont
gsave
208.277187 310.128000 translate
0.000000 rotate
0.000000 0.000000 m /P glyphshow
7.236328 0.000000 m /e glyphshow
14.619141 0.000000 m /r glyphshow
19.552734 0.000000 m /s glyphshow
25.804688 0.000000 m /o glyphshow
33.146484 0.000000 m /n glyphshow
40.751953 0.000000 m /e glyphshow
48.134766 0.000000 m /n glyphshow
grestore

end
showpage
