%!PS-Adobe-3.0 EPSF-3.0
%%Title: wal_lem.eps
%%Creator: matplotlib version 3.1.1, http://matplotlib.org/
%%CreationDate: Mon Aug 26 09:35:55 2019
%%Orientation: portrait
%%BoundingBox: 75.6 223.20000000000002 536.4 568.8
%%EndComments
%%BeginProlog
/mpldict 8 dict def
mpldict begin
/m { moveto } bind def
/l { lineto } bind def
/r { rlineto } bind def
/c { curveto } bind def
/cl { closepath } bind def
/box {
m
1 index 0 r
0 exch r
neg 0 r
cl
} bind def
/clipbox {
box
clip
newpath
} bind def
%!PS-Adobe-3.0 Resource-Font
%%Title: DejaVu Sans
%%Copyright: Copyright (c) 2003 by Bitstream, Inc. All Rights Reserved. Copyright (c) 2006 by Tavmjong Bah. All Rights Reserved. DejaVu changes are in public domain 
%%Creator: Converted from TrueType to type 3 by PPR
25 dict begin
/_d{bind def}bind def
/_m{moveto}_d
/_l{lineto}_d
/_cl{closepath eofill}_d
/_c{curveto}_d
/_sc{7 -1 roll{setcachedevice}{pop pop pop pop pop pop}ifelse}_d
/_e{exec}_d
/FontName /DejaVuSans def
/PaintType 0 def
/FontMatrix[.001 0 0 .001 0 0]def
/FontBBox[-1021 -463 1793 1232]def
/FontType 3 def
/Encoding [ /space /zero /one /two /three /four /five /six /seven /eight /nine /A /E /L /M /underscore /a /b /c /e /g /h /i /l /n /p /r /t /w /x ] def
/FontInfo 10 dict dup begin
/FamilyName (DejaVu Sans) def
/FullName (DejaVu Sans) def
/Notice (Copyright (c) 2003 by Bitstream, Inc. All Rights Reserved. Copyright (c) 2006 by Tavmjong Bah. All Rights Reserved. DejaVu changes are in public domain ) def
/Weight (Book) def
/Version (Version 2.35) def
/ItalicAngle 0.0 def
/isFixedPitch false def
/UnderlinePosition -130 def
/UnderlineThickness 90 def
end readonly def
/CharStrings 31 dict dup begin
/.notdef 0 def
/space{318 0 0 0 0 0 _sc
}_d
/zero{636 0 66 -13 570 742 _sc
318 664 _m
267 664 229 639 203 589 _c
177 539 165 464 165 364 _c
165 264 177 189 203 139 _c
229 89 267 64 318 64 _c
369 64 407 89 433 139 _c
458 189 471 264 471 364 _c
471 464 458 539 433 589 _c
407 639 369 664 318 664 _c
318 742 _m
399 742 461 709 505 645 _c
548 580 570 486 570 364 _c
570 241 548 147 505 83 _c
461 19 399 -13 318 -13 _c
236 -13 173 19 130 83 _c
87 147 66 241 66 364 _c
66 486 87 580 130 645 _c
173 709 236 742 318 742 _c
_cl}_d
/one{636 0 110 0 544 729 _sc
124 83 _m
285 83 _l
285 639 _l
110 604 _l
110 694 _l
284 729 _l
383 729 _l
383 83 _l
544 83 _l
544 0 _l
124 0 _l
124 83 _l
_cl}_d
/two{{636 0 73 0 536 742 _sc
192 83 _m
536 83 _l
536 0 _l
73 0 _l
73 83 _l
110 121 161 173 226 239 _c
290 304 331 346 348 365 _c
380 400 402 430 414 455 _c
426 479 433 504 433 528 _c
433 566 419 598 392 622 _c
365 646 330 659 286 659 _c
255 659 222 653 188 643 _c
154 632 117 616 78 594 _c
78 694 _l
118 710 155 722 189 730 _c
223 738 255 742 284 742 _c
}_e{359 742 419 723 464 685 _c
509 647 532 597 532 534 _c
532 504 526 475 515 449 _c
504 422 484 390 454 354 _c
446 344 420 317 376 272 _c
332 227 271 164 192 83 _c
_cl}_e}_d
/three{{636 0 76 -13 556 742 _sc
406 393 _m
453 383 490 362 516 330 _c
542 298 556 258 556 212 _c
556 140 531 84 482 45 _c
432 6 362 -13 271 -13 _c
240 -13 208 -10 176 -4 _c
144 1 110 10 76 22 _c
76 117 _l
103 101 133 89 166 81 _c
198 73 232 69 268 69 _c
330 69 377 81 409 105 _c
441 129 458 165 458 212 _c
458 254 443 288 413 312 _c
383 336 341 349 287 349 _c
}_e{202 349 _l
202 430 _l
291 430 _l
339 430 376 439 402 459 _c
428 478 441 506 441 543 _c
441 580 427 609 401 629 _c
374 649 336 659 287 659 _c
260 659 231 656 200 650 _c
169 644 135 635 98 623 _c
98 711 _l
135 721 170 729 203 734 _c
235 739 266 742 296 742 _c
370 742 429 725 473 691 _c
517 657 539 611 539 553 _c
539 513 527 479 504 451 _c
481 423 448 403 406 393 _c
_cl}_e}_d
/four{636 0 49 0 580 729 _sc
378 643 _m
129 254 _l
378 254 _l
378 643 _l
352 729 _m
476 729 _l
476 254 _l
580 254 _l
580 172 _l
476 172 _l
476 0 _l
378 0 _l
378 172 _l
49 172 _l
49 267 _l
352 729 _l
_cl}_d
/five{{636 0 77 -13 549 729 _sc
108 729 _m
495 729 _l
495 646 _l
198 646 _l
198 467 _l
212 472 227 476 241 478 _c
255 480 270 482 284 482 _c
365 482 429 459 477 415 _c
525 370 549 310 549 234 _c
549 155 524 94 475 51 _c
426 8 357 -13 269 -13 _c
238 -13 207 -10 175 -6 _c
143 -1 111 6 77 17 _c
77 116 _l
106 100 136 88 168 80 _c
199 72 232 69 267 69 _c
}_e{323 69 368 83 401 113 _c
433 143 450 183 450 234 _c
450 284 433 324 401 354 _c
368 384 323 399 267 399 _c
241 399 214 396 188 390 _c
162 384 135 375 108 363 _c
108 729 _l
_cl}_e}_d
/six{{636 0 70 -13 573 742 _sc
330 404 _m
286 404 251 388 225 358 _c
199 328 186 286 186 234 _c
186 181 199 139 225 109 _c
251 79 286 64 330 64 _c
374 64 409 79 435 109 _c
461 139 474 181 474 234 _c
474 286 461 328 435 358 _c
409 388 374 404 330 404 _c
526 713 _m
526 623 _l
501 635 476 644 451 650 _c
425 656 400 659 376 659 _c
310 659 260 637 226 593 _c
}_e{192 549 172 482 168 394 _c
187 422 211 444 240 459 _c
269 474 301 482 336 482 _c
409 482 467 459 509 415 _c
551 371 573 310 573 234 _c
573 159 550 99 506 54 _c
462 9 403 -13 330 -13 _c
246 -13 181 19 137 83 _c
92 147 70 241 70 364 _c
70 479 97 571 152 639 _c
206 707 280 742 372 742 _c
396 742 421 739 447 735 _c
472 730 498 723 526 713 _c
_cl}_e}_d
/seven{636 0 82 0 551 729 _sc
82 729 _m
551 729 _l
551 687 _l
286 0 _l
183 0 _l
432 646 _l
82 646 _l
82 729 _l
_cl}_d
/eight{{636 0 68 -13 568 742 _sc
318 346 _m
271 346 234 333 207 308 _c
180 283 167 249 167 205 _c
167 161 180 126 207 101 _c
234 76 271 64 318 64 _c
364 64 401 76 428 102 _c
455 127 469 161 469 205 _c
469 249 455 283 429 308 _c
402 333 365 346 318 346 _c
219 388 _m
177 398 144 418 120 447 _c
96 476 85 511 85 553 _c
85 611 105 657 147 691 _c
188 725 245 742 318 742 _c
}_e{390 742 447 725 489 691 _c
530 657 551 611 551 553 _c
551 511 539 476 515 447 _c
491 418 459 398 417 388 _c
464 377 501 355 528 323 _c
554 291 568 251 568 205 _c
568 134 546 80 503 43 _c
459 5 398 -13 318 -13 _c
237 -13 175 5 132 43 _c
89 80 68 134 68 205 _c
68 251 81 291 108 323 _c
134 355 171 377 219 388 _c
183 544 _m
183 506 194 476 218 455 _c
}_e{242 434 275 424 318 424 _c
360 424 393 434 417 455 _c
441 476 453 506 453 544 _c
453 582 441 611 417 632 _c
393 653 360 664 318 664 _c
275 664 242 653 218 632 _c
194 611 183 582 183 544 _c
_cl}_e}_d
/nine{{636 0 63 -13 566 742 _sc
110 15 _m
110 105 _l
134 93 159 84 185 78 _c
210 72 235 69 260 69 _c
324 69 374 90 408 134 _c
442 178 462 244 468 334 _c
448 306 424 284 396 269 _c
367 254 335 247 300 247 _c
226 247 168 269 126 313 _c
84 357 63 417 63 494 _c
63 568 85 628 129 674 _c
173 719 232 742 306 742 _c
390 742 455 709 499 645 _c
543 580 566 486 566 364 _c
}_e{566 248 538 157 484 89 _c
429 21 356 -13 264 -13 _c
239 -13 214 -10 189 -6 _c
163 -2 137 5 110 15 _c
306 324 _m
350 324 385 339 411 369 _c
437 399 450 441 450 494 _c
450 546 437 588 411 618 _c
385 648 350 664 306 664 _c
262 664 227 648 201 618 _c
175 588 162 546 162 494 _c
162 441 175 399 201 369 _c
227 339 262 324 306 324 _c
_cl}_e}_d
/A{684 0 8 0 676 729 _sc
342 632 _m
208 269 _l
476 269 _l
342 632 _l
286 729 _m
398 729 _l
676 0 _l
573 0 _l
507 187 _l
178 187 _l
112 0 _l
8 0 _l
286 729 _l
_cl}_d
/E{632 0 98 0 568 729 _sc
98 729 _m
559 729 _l
559 646 _l
197 646 _l
197 430 _l
544 430 _l
544 347 _l
197 347 _l
197 83 _l
568 83 _l
568 0 _l
98 0 _l
98 729 _l
_cl}_d
/L{557 0 98 0 552 729 _sc
98 729 _m
197 729 _l
197 83 _l
552 83 _l
552 0 _l
98 0 _l
98 729 _l
_cl}_d
/M{863 0 98 0 765 729 _sc
98 729 _m
245 729 _l
431 233 _l
618 729 _l
765 729 _l
765 0 _l
669 0 _l
669 640 _l
481 140 _l
382 140 _l
194 640 _l
194 0 _l
98 0 _l
98 729 _l
_cl}_d
/underscore{500 0 -9 -235 510 -165 _sc
510 -165 _m
510 -235 _l
-9 -235 _l
-9 -165 _l
510 -165 _l
_cl}_d
/a{{613 0 60 -13 522 560 _sc
343 275 _m
270 275 220 266 192 250 _c
164 233 150 205 150 165 _c
150 133 160 107 181 89 _c
202 70 231 61 267 61 _c
317 61 357 78 387 114 _c
417 149 432 196 432 255 _c
432 275 _l
343 275 _l
522 312 _m
522 0 _l
432 0 _l
432 83 _l
411 49 385 25 355 10 _c
325 -5 287 -13 243 -13 _c
187 -13 142 2 109 33 _c
76 64 60 106 60 159 _c
}_e{60 220 80 266 122 298 _c
163 329 224 345 306 345 _c
432 345 _l
432 354 _l
432 395 418 427 391 450 _c
364 472 326 484 277 484 _c
245 484 215 480 185 472 _c
155 464 127 453 100 439 _c
100 522 _l
132 534 164 544 195 550 _c
226 556 256 560 286 560 _c
365 560 424 539 463 498 _c
502 457 522 395 522 312 _c
_cl}_e}_d
/b{{635 0 91 -13 580 760 _sc
487 273 _m
487 339 473 390 446 428 _c
418 466 381 485 334 485 _c
286 485 249 466 222 428 _c
194 390 181 339 181 273 _c
181 207 194 155 222 117 _c
249 79 286 61 334 61 _c
381 61 418 79 446 117 _c
473 155 487 207 487 273 _c
181 464 _m
199 496 223 520 252 536 _c
281 552 316 560 356 560 _c
422 560 476 533 518 481 _c
559 428 580 359 580 273 _c
}_e{580 187 559 117 518 65 _c
476 13 422 -13 356 -13 _c
316 -13 281 -5 252 10 _c
223 25 199 49 181 82 _c
181 0 _l
91 0 _l
91 760 _l
181 760 _l
181 464 _l
_cl}_e}_d
/c{{550 0 55 -13 488 560 _sc
488 526 _m
488 442 _l
462 456 437 466 411 473 _c
385 480 360 484 334 484 _c
276 484 230 465 198 428 _c
166 391 150 339 150 273 _c
150 206 166 154 198 117 _c
230 80 276 62 334 62 _c
360 62 385 65 411 72 _c
437 79 462 90 488 104 _c
488 21 _l
462 9 436 0 410 -5 _c
383 -10 354 -13 324 -13 _c
242 -13 176 12 128 64 _c
}_e{79 115 55 185 55 273 _c
55 362 79 432 128 483 _c
177 534 244 560 330 560 _c
358 560 385 557 411 551 _c
437 545 463 537 488 526 _c
_cl}_e}_d
/e{{615 0 55 -13 562 560 _sc
562 296 _m
562 252 _l
149 252 _l
153 190 171 142 205 110 _c
238 78 284 62 344 62 _c
378 62 412 66 444 74 _c
476 82 509 95 541 113 _c
541 28 _l
509 14 476 3 442 -3 _c
408 -9 373 -13 339 -13 _c
251 -13 182 12 131 62 _c
80 112 55 181 55 268 _c
55 357 79 428 127 481 _c
175 533 241 560 323 560 _c
397 560 455 536 498 489 _c
}_e{540 441 562 377 562 296 _c
472 322 _m
471 371 457 410 431 440 _c
404 469 368 484 324 484 _c
274 484 234 469 204 441 _c
174 413 156 373 152 322 _c
472 322 _l
_cl}_e}_d
/g{{635 0 55 -207 544 560 _sc
454 280 _m
454 344 440 395 414 431 _c
387 467 349 485 301 485 _c
253 485 215 467 188 431 _c
161 395 148 344 148 280 _c
148 215 161 165 188 129 _c
215 93 253 75 301 75 _c
349 75 387 93 414 129 _c
440 165 454 215 454 280 _c
544 68 _m
544 -24 523 -93 482 -139 _c
440 -184 377 -207 292 -207 _c
260 -207 231 -204 203 -200 _c
175 -195 147 -188 121 -178 _c
}_e{121 -91 _l
147 -105 173 -115 199 -122 _c
225 -129 251 -133 278 -133 _c
336 -133 380 -117 410 -87 _c
439 -56 454 -10 454 52 _c
454 96 _l
435 64 411 40 382 24 _c
353 8 319 0 279 0 _c
211 0 157 25 116 76 _c
75 127 55 195 55 280 _c
55 364 75 432 116 483 _c
157 534 211 560 279 560 _c
319 560 353 552 382 536 _c
411 520 435 496 454 464 _c
454 547 _l
544 547 _l
}_e{544 68 _l
_cl}_e}_d
/h{634 0 91 0 549 760 _sc
549 330 _m
549 0 _l
459 0 _l
459 327 _l
459 379 448 417 428 443 _c
408 469 378 482 338 482 _c
289 482 251 466 223 435 _c
195 404 181 362 181 309 _c
181 0 _l
91 0 _l
91 760 _l
181 760 _l
181 462 _l
202 494 227 519 257 535 _c
286 551 320 560 358 560 _c
420 560 468 540 500 501 _c
532 462 549 405 549 330 _c
_cl}_d
/i{278 0 94 0 184 760 _sc
94 547 _m
184 547 _l
184 0 _l
94 0 _l
94 547 _l
94 760 _m
184 760 _l
184 646 _l
94 646 _l
94 760 _l
_cl}_d
/l{278 0 94 0 184 760 _sc
94 760 _m
184 760 _l
184 0 _l
94 0 _l
94 760 _l
_cl}_d
/n{634 0 91 0 549 560 _sc
549 330 _m
549 0 _l
459 0 _l
459 327 _l
459 379 448 417 428 443 _c
408 469 378 482 338 482 _c
289 482 251 466 223 435 _c
195 404 181 362 181 309 _c
181 0 _l
91 0 _l
91 547 _l
181 547 _l
181 462 _l
202 494 227 519 257 535 _c
286 551 320 560 358 560 _c
420 560 468 540 500 501 _c
532 462 549 405 549 330 _c
_cl}_d
/p{{635 0 91 -207 580 560 _sc
181 82 _m
181 -207 _l
91 -207 _l
91 547 _l
181 547 _l
181 464 _l
199 496 223 520 252 536 _c
281 552 316 560 356 560 _c
422 560 476 533 518 481 _c
559 428 580 359 580 273 _c
580 187 559 117 518 65 _c
476 13 422 -13 356 -13 _c
316 -13 281 -5 252 10 _c
223 25 199 49 181 82 _c
487 273 _m
487 339 473 390 446 428 _c
418 466 381 485 334 485 _c
}_e{286 485 249 466 222 428 _c
194 390 181 339 181 273 _c
181 207 194 155 222 117 _c
249 79 286 61 334 61 _c
381 61 418 79 446 117 _c
473 155 487 207 487 273 _c
_cl}_e}_d
/r{411 0 91 0 411 560 _sc
411 463 _m
401 469 390 473 378 476 _c
366 478 353 480 339 480 _c
288 480 249 463 222 430 _c
194 397 181 350 181 288 _c
181 0 _l
91 0 _l
91 547 _l
181 547 _l
181 462 _l
199 495 224 520 254 536 _c
284 552 321 560 365 560 _c
371 560 378 559 386 559 _c
393 558 401 557 411 555 _c
411 463 _l
_cl}_d
/t{392 0 27 0 368 702 _sc
183 702 _m
183 547 _l
368 547 _l
368 477 _l
183 477 _l
183 180 _l
183 135 189 106 201 94 _c
213 81 238 75 276 75 _c
368 75 _l
368 0 _l
276 0 _l
206 0 158 13 132 39 _c
106 65 93 112 93 180 _c
93 477 _l
27 477 _l
27 547 _l
93 547 _l
93 702 _l
183 702 _l
_cl}_d
/w{818 0 42 0 776 547 _sc
42 547 _m
132 547 _l
244 120 _l
356 547 _l
462 547 _l
574 120 _l
686 547 _l
776 547 _l
633 0 _l
527 0 _l
409 448 _l
291 0 _l
185 0 _l
42 547 _l
_cl}_d
/x{592 0 29 0 559 547 _sc
549 547 _m
351 281 _l
559 0 _l
453 0 _l
294 215 _l
135 0 _l
29 0 _l
241 286 _l
47 547 _l
153 547 _l
298 352 _l
443 547 _l
549 547 _l
_cl}_d
end readonly def

/BuildGlyph
 {exch begin
 CharStrings exch
 2 copy known not{pop /.notdef}if
 true 3 1 roll get exec
 end}_d

/BuildChar {
 1 index /Encoding get exch get
 1 index /BuildGlyph get exec
}_d

FontName currentdict end definefont pop
end
%%EndProlog
mpldict begin
75.6 223.2 translate
460.8 345.6 0 0 clipbox
gsave
0 0 m
460.8 0 l
460.8 345.6 l
0 345.6 l
cl
1.000 setgray
fill
grestore
gsave
57.6 38.016 m
414.72 38.016 l
414.72 304.128 l
57.6 304.128 l
cl
1.000 setgray
fill
grestore
0.800 setlinewidth
1 setlinejoin
0 setlinecap
[] 0 setdash
0.000 setgray
gsave
/o {
gsave
newpath
translate
0.8 setlinewidth
1 setlinejoin
0 setlinecap
0 0 m
0 -3.5 l

gsave
0.000 setgray
fill
grestore
stroke
grestore
} bind def
71.3354 38.016 o
grestore
/DejaVuSans findfont
10.000 scalefont
setfont
gsave
68.155697 23.422250 translate
0.000000 rotate
0.000000 0.000000 m /zero glyphshow
grestore
gsave
/o {
gsave
newpath
translate
0.8 setlinewidth
1 setlinejoin
0 setlinecap
0 0 m
0 -3.5 l

gsave
0.000 setgray
fill
grestore
stroke
grestore
} bind def
114.16 38.016 o
grestore
gsave
107.800547 23.422250 translate
0.000000 rotate
0.000000 0.000000 m /two glyphshow
6.362305 0.000000 m /five glyphshow
grestore
gsave
/o {
gsave
newpath
translate
0.8 setlinewidth
1 setlinejoin
0 setlinecap
0 0 m
0 -3.5 l

gsave
0.000 setgray
fill
grestore
stroke
grestore
} bind def
156.984 38.016 o
grestore
gsave
150.625084 23.422250 translate
0.000000 rotate
0.000000 0.000000 m /five glyphshow
6.362305 0.000000 m /zero glyphshow
grestore
gsave
/o {
gsave
newpath
translate
0.8 setlinewidth
1 setlinejoin
0 setlinecap
0 0 m
0 -3.5 l

gsave
0.000 setgray
fill
grestore
stroke
grestore
} bind def
199.809 38.016 o
grestore
gsave
193.449622 23.422250 translate
0.000000 rotate
0.000000 0.000000 m /seven glyphshow
6.362305 0.000000 m /five glyphshow
grestore
gsave
/o {
gsave
newpath
translate
0.8 setlinewidth
1 setlinejoin
0 setlinecap
0 0 m
0 -3.5 l

gsave
0.000 setgray
fill
grestore
stroke
grestore
} bind def
242.634 38.016 o
grestore
gsave
233.094471 23.422250 translate
0.000000 rotate
0.000000 0.000000 m /one glyphshow
6.362305 0.000000 m /zero glyphshow
12.724609 0.000000 m /zero glyphshow
grestore
gsave
/o {
gsave
newpath
translate
0.8 setlinewidth
1 setlinejoin
0 setlinecap
0 0 m
0 -3.5 l

gsave
0.000 setgray
fill
grestore
stroke
grestore
} bind def
285.458 38.016 o
grestore
gsave
275.919009 23.422250 translate
0.000000 rotate
0.000000 0.000000 m /one glyphshow
6.362305 0.000000 m /two glyphshow
12.724609 0.000000 m /five glyphshow
grestore
gsave
/o {
gsave
newpath
translate
0.8 setlinewidth
1 setlinejoin
0 setlinecap
0 0 m
0 -3.5 l

gsave
0.000 setgray
fill
grestore
stroke
grestore
} bind def
328.283 38.016 o
grestore
gsave
318.743546 23.422250 translate
0.000000 rotate
0.000000 0.000000 m /one glyphshow
6.362305 0.000000 m /five glyphshow
12.724609 0.000000 m /zero glyphshow
grestore
gsave
/o {
gsave
newpath
translate
0.8 setlinewidth
1 setlinejoin
0 setlinecap
0 0 m
0 -3.5 l

gsave
0.000 setgray
fill
grestore
stroke
grestore
} bind def
371.107 38.016 o
grestore
gsave
361.568083 23.422250 translate
0.000000 rotate
0.000000 0.000000 m /one glyphshow
6.362305 0.000000 m /seven glyphshow
12.724609 0.000000 m /five glyphshow
grestore
gsave
/o {
gsave
newpath
translate
0.8 setlinewidth
1 setlinejoin
0 setlinecap
0 0 m
0 -3.5 l

gsave
0.000 setgray
fill
grestore
stroke
grestore
} bind def
413.932 38.016 o
grestore
gsave
404.392621 23.422250 translate
0.000000 rotate
0.000000 0.000000 m /two glyphshow
6.362305 0.000000 m /zero glyphshow
12.724609 0.000000 m /zero glyphshow
grestore
gsave
201.238125 9.750375 translate
0.000000 rotate
0.000000 0.000000 m /b glyphshow
6.347656 0.000000 m /r glyphshow
10.458984 0.000000 m /a glyphshow
16.586914 0.000000 m /n glyphshow
22.924805 0.000000 m /c glyphshow
28.422852 0.000000 m /h glyphshow
34.760742 0.000000 m /space glyphshow
37.939453 0.000000 m /l glyphshow
40.717773 0.000000 m /e glyphshow
46.870117 0.000000 m /n glyphshow
53.208008 0.000000 m /g glyphshow
59.555664 0.000000 m /t glyphshow
63.476562 0.000000 m /h glyphshow
grestore
gsave
/o {
gsave
newpath
translate
0.8 setlinewidth
1 setlinejoin
0 setlinecap
0 0 m
-3.5 0 l

gsave
0.000 setgray
fill
grestore
stroke
grestore
} bind def
57.6 252.204 o
grestore
gsave
44.240625 248.406832 translate
0.000000 rotate
0.000000 0.000000 m /five glyphshow
grestore
gsave
/o {
gsave
newpath
translate
0.8 setlinewidth
1 setlinejoin
0 setlinecap
0 0 m
-3.5 0 l

gsave
0.000 setgray
fill
grestore
stroke
grestore
} bind def
57.6 198.116 o
grestore
gsave
37.881250 194.319027 translate
0.000000 rotate
0.000000 0.000000 m /one glyphshow
6.362305 0.000000 m /zero glyphshow
grestore
gsave
/o {
gsave
newpath
translate
0.8 setlinewidth
1 setlinejoin
0 setlinecap
0 0 m
-3.5 0 l

gsave
0.000 setgray
fill
grestore
stroke
grestore
} bind def
57.6 144.028 o
grestore
gsave
37.881250 140.231223 translate
0.000000 rotate
0.000000 0.000000 m /one glyphshow
6.362305 0.000000 m /five glyphshow
grestore
gsave
/o {
gsave
newpath
translate
0.8 setlinewidth
1 setlinejoin
0 setlinecap
0 0 m
-3.5 0 l

gsave
0.000 setgray
fill
grestore
stroke
grestore
} bind def
57.6 89.9403 o
grestore
gsave
37.881250 86.143418 translate
0.000000 rotate
0.000000 0.000000 m /two glyphshow
6.362305 0.000000 m /zero glyphshow
grestore
gsave
31.803125 160.025125 translate
90.000000 rotate
0.000000 0.000000 m /t glyphshow
3.920898 0.000000 m /a glyphshow
10.048828 0.000000 m /x glyphshow
15.966797 0.000000 m /a glyphshow
grestore
1.500 setlinewidth
gsave
357.1 266.1 57.6 38.02 clipbox
71.335385 193.708063 m
71.335385 193.708063 l
stroke
grestore
gsave
357.1 266.1 57.6 38.02 clipbox
71.335385 295.473951 m
76.755365 295.473951 l
stroke
grestore
gsave
357.1 266.1 57.6 38.02 clipbox
71.335385 91.942175 m
72.69038 91.942175 l
stroke
grestore
gsave
357.1 266.1 57.6 38.02 clipbox
72.69038 137.214302 m
88.830505 137.214302 l
stroke
grestore
gsave
357.1 266.1 57.6 38.02 clipbox
88.830505 200.376604 m
99.740097 200.376604 l
stroke
grestore
gsave
357.1 266.1 57.6 38.02 clipbox
99.740097 240.498768 m
121.470762 240.498768 l
stroke
grestore
gsave
357.1 266.1 57.6 38.02 clipbox
121.470762 284.65639 m
259.895726 284.65639 l
stroke
grestore
gsave
357.1 266.1 57.6 38.02 clipbox
121.470762 196.341146 m
134.805252 196.341146 l
stroke
grestore
gsave
357.1 266.1 57.6 38.02 clipbox
134.805252 210.792732 m
148.597047 210.792732 l
stroke
grestore
gsave
357.1 266.1 57.6 38.02 clipbox
148.597047 223.469561 m
165.227243 223.469561 l
stroke
grestore
gsave
357.1 266.1 57.6 38.02 clipbox
165.227243 238.005659 m
212.534974 238.005659 l
stroke
grestore
gsave
357.1 266.1 57.6 38.02 clipbox
212.534974 256.260293 m
219.550641 256.260293 l
stroke
grestore
gsave
357.1 266.1 57.6 38.02 clipbox
219.550641 268.430049 m
226.378775 268.430049 l
stroke
grestore
gsave
357.1 266.1 57.6 38.02 clipbox
226.378775 273.838829 m
240.939118 273.838829 l
stroke
grestore
gsave
357.1 266.1 57.6 38.02 clipbox
226.378775 263.021268 m
270.059803 263.021268 l
stroke
grestore
gsave
357.1 266.1 57.6 38.02 clipbox
219.550641 244.090537 m
258.116516 244.090537 l
stroke
grestore
gsave
357.1 266.1 57.6 38.02 clipbox
258.116516 252.203707 m
281.455888 252.203707 l
stroke
grestore
gsave
357.1 266.1 57.6 38.02 clipbox
258.116516 235.977366 m
286.166588 235.977366 l
stroke
grestore
gsave
357.1 266.1 57.6 38.02 clipbox
286.166588 241.386146 m
329.068988 241.386146 l
stroke
grestore
gsave
357.1 266.1 57.6 38.02 clipbox
286.166588 230.568585 m
346.043077 230.568585 l
stroke
grestore
gsave
357.1 266.1 57.6 38.02 clipbox
212.534974 219.751024 m
246.202617 219.751024 l
stroke
grestore
gsave
357.1 266.1 57.6 38.02 clipbox
165.227243 208.933463 m
224.338487 208.933463 l
stroke
grestore
gsave
357.1 266.1 57.6 38.02 clipbox
148.597047 198.115902 m
161.622844 198.115902 l
stroke
grestore
gsave
357.1 266.1 57.6 38.02 clipbox
134.805252 181.889561 m
243.491634 181.889561 l
stroke
grestore
gsave
357.1 266.1 57.6 38.02 clipbox
243.491634 187.298341 m
297.572906 187.298341 l
stroke
grestore
gsave
357.1 266.1 57.6 38.02 clipbox
243.491634 176.48078 m
271.633472 176.48078 l
stroke
grestore
gsave
357.1 266.1 57.6 38.02 clipbox
99.740097 160.254439 m
110.388798 160.254439 l
stroke
grestore
gsave
357.1 266.1 57.6 38.02 clipbox
110.388798 165.66322 m
148.687125 165.66322 l
stroke
grestore
gsave
357.1 266.1 57.6 38.02 clipbox
110.388798 154.845659 m
120.053952 154.845659 l
stroke
grestore
gsave
357.1 266.1 57.6 38.02 clipbox
88.830505 74.052 m
90.409032 74.052 l
stroke
grestore
gsave
357.1 266.1 57.6 38.02 clipbox
90.409032 90.61639 m
95.80162 90.61639 l
stroke
grestore
gsave
357.1 266.1 57.6 38.02 clipbox
95.80162 112.92761 m
104.722562 112.92761 l
stroke
grestore
gsave
357.1 266.1 57.6 38.02 clipbox
104.722562 130.506146 m
109.799194 130.506146 l
stroke
grestore
gsave
357.1 266.1 57.6 38.02 clipbox
109.799194 138.619317 m
132.492183 138.619317 l
stroke
grestore
gsave
357.1 266.1 57.6 38.02 clipbox
132.492183 144.028098 m
139.173785 144.028098 l
stroke
grestore
gsave
357.1 266.1 57.6 38.02 clipbox
132.492183 133.210537 m
139.514434 133.210537 l
stroke
grestore
gsave
357.1 266.1 57.6 38.02 clipbox
109.799194 122.392976 m
145.347574 122.392976 l
stroke
grestore
gsave
357.1 266.1 57.6 38.02 clipbox
104.722562 95.349073 m
121.058199 95.349073 l
stroke
grestore
gsave
357.1 266.1 57.6 38.02 clipbox
121.058199 106.166634 m
138.930009 106.166634 l
stroke
grestore
gsave
357.1 266.1 57.6 38.02 clipbox
138.930009 111.575415 m
145.754054 111.575415 l
stroke
grestore
gsave
357.1 266.1 57.6 38.02 clipbox
138.930009 100.757854 m
152.661741 100.757854 l
stroke
grestore
gsave
357.1 266.1 57.6 38.02 clipbox
121.058199 84.531512 m
144.297946 84.531512 l
stroke
grestore
gsave
357.1 266.1 57.6 38.02 clipbox
144.297946 89.940293 m
180.290116 89.940293 l
stroke
grestore
gsave
357.1 266.1 57.6 38.02 clipbox
144.297946 79.122732 m
161.408201 79.122732 l
stroke
grestore
gsave
357.1 266.1 57.6 38.02 clipbox
95.80162 68.305171 m
107.00821 68.305171 l
stroke
grestore
gsave
357.1 266.1 57.6 38.02 clipbox
90.409032 57.48761 m
114.565375 57.48761 l
stroke
grestore
gsave
357.1 266.1 57.6 38.02 clipbox
72.69038 46.670049 m
86.471182 46.670049 l
stroke
grestore
gsave
357.1 266.1 57.6 38.02 clipbox
71.335385 91.942175 m
71.335385 295.473951 l
stroke
grestore
gsave
357.1 266.1 57.6 38.02 clipbox
72.69038 46.670049 m
72.69038 137.214302 l
stroke
grestore
gsave
357.1 266.1 57.6 38.02 clipbox
88.830505 74.052 m
88.830505 200.376604 l
stroke
grestore
gsave
357.1 266.1 57.6 38.02 clipbox
99.740097 160.254439 m
99.740097 240.498768 l
stroke
grestore
gsave
357.1 266.1 57.6 38.02 clipbox
121.470762 196.341146 m
121.470762 284.65639 l
stroke
grestore
gsave
357.1 266.1 57.6 38.02 clipbox
134.805252 181.889561 m
134.805252 210.792732 l
stroke
grestore
gsave
357.1 266.1 57.6 38.02 clipbox
148.597047 198.115902 m
148.597047 223.469561 l
stroke
grestore
gsave
357.1 266.1 57.6 38.02 clipbox
165.227243 208.933463 m
165.227243 238.005659 l
stroke
grestore
gsave
357.1 266.1 57.6 38.02 clipbox
212.534974 219.751024 m
212.534974 256.260293 l
stroke
grestore
gsave
357.1 266.1 57.6 38.02 clipbox
219.550641 244.090537 m
219.550641 268.430049 l
stroke
grestore
gsave
357.1 266.1 57.6 38.02 clipbox
226.378775 263.021268 m
226.378775 273.838829 l
stroke
grestore
gsave
357.1 266.1 57.6 38.02 clipbox
258.116516 235.977366 m
258.116516 252.203707 l
stroke
grestore
gsave
357.1 266.1 57.6 38.02 clipbox
286.166588 230.568585 m
286.166588 241.386146 l
stroke
grestore
gsave
357.1 266.1 57.6 38.02 clipbox
243.491634 176.48078 m
243.491634 187.298341 l
stroke
grestore
gsave
357.1 266.1 57.6 38.02 clipbox
110.388798 154.845659 m
110.388798 165.66322 l
stroke
grestore
gsave
357.1 266.1 57.6 38.02 clipbox
90.409032 57.48761 m
90.409032 90.61639 l
stroke
grestore
gsave
357.1 266.1 57.6 38.02 clipbox
95.80162 68.305171 m
95.80162 112.92761 l
stroke
grestore
gsave
357.1 266.1 57.6 38.02 clipbox
104.722562 95.349073 m
104.722562 130.506146 l
stroke
grestore
gsave
357.1 266.1 57.6 38.02 clipbox
109.799194 122.392976 m
109.799194 138.619317 l
stroke
grestore
gsave
357.1 266.1 57.6 38.02 clipbox
132.492183 133.210537 m
132.492183 144.028098 l
stroke
grestore
gsave
357.1 266.1 57.6 38.02 clipbox
121.058199 84.531512 m
121.058199 106.166634 l
stroke
grestore
gsave
357.1 266.1 57.6 38.02 clipbox
138.930009 100.757854 m
138.930009 111.575415 l
stroke
grestore
gsave
357.1 266.1 57.6 38.02 clipbox
144.297946 79.122732 m
144.297946 89.940293 l
stroke
grestore
0.800 setlinewidth
0 setlinejoin
2 setlinecap
[] 0 setdash
gsave
57.6 38.016 m
57.6 304.128 l
stroke
grestore
gsave
414.72 38.016 m
414.72 304.128 l
stroke
grestore
gsave
57.6 38.016 m
414.72 38.016 l
stroke
grestore
gsave
57.6 304.128 m
414.72 304.128 l
stroke
grestore
gsave
76.755365 292.856764 translate
0.000000 rotate
0.000000 0.000000 m /space glyphshow
3.178711 0.000000 m /w glyphshow
11.357422 0.000000 m /a glyphshow
17.485352 0.000000 m /l glyphshow
20.263672 0.000000 m /underscore glyphshow
25.263672 0.000000 m /p glyphshow
31.611328 0.000000 m /a glyphshow
37.739258 0.000000 m /r glyphshow
41.850586 0.000000 m /t glyphshow
45.771484 0.000000 m /underscore glyphshow
50.771484 0.000000 m /seven glyphshow
grestore
gsave
259.895726 282.039203 translate
0.000000 rotate
0.000000 0.000000 m /space glyphshow
3.178711 0.000000 m /w glyphshow
11.357422 0.000000 m /a glyphshow
17.485352 0.000000 m /l glyphshow
20.263672 0.000000 m /underscore glyphshow
25.263672 0.000000 m /p glyphshow
31.611328 0.000000 m /a glyphshow
37.739258 0.000000 m /r glyphshow
41.850586 0.000000 m /t glyphshow
45.771484 0.000000 m /underscore glyphshow
50.771484 0.000000 m /one glyphshow
57.133789 0.000000 m /six glyphshow
grestore
gsave
240.939118 271.221642 translate
0.000000 rotate
0.000000 0.000000 m /space glyphshow
3.178711 0.000000 m /w glyphshow
11.357422 0.000000 m /a glyphshow
17.485352 0.000000 m /l glyphshow
20.263672 0.000000 m /underscore glyphshow
25.263672 0.000000 m /p glyphshow
31.611328 0.000000 m /a glyphshow
37.739258 0.000000 m /r glyphshow
41.850586 0.000000 m /t glyphshow
45.771484 0.000000 m /underscore glyphshow
50.771484 0.000000 m /one glyphshow
57.133789 0.000000 m /seven glyphshow
grestore
gsave
270.059803 260.404081 translate
0.000000 rotate
0.000000 0.000000 m /space glyphshow
3.178711 0.000000 m /w glyphshow
11.357422 0.000000 m /a glyphshow
17.485352 0.000000 m /l glyphshow
20.263672 0.000000 m /underscore glyphshow
25.263672 0.000000 m /p glyphshow
31.611328 0.000000 m /a glyphshow
37.739258 0.000000 m /r glyphshow
41.850586 0.000000 m /t glyphshow
45.771484 0.000000 m /underscore glyphshow
50.771484 0.000000 m /eight glyphshow
grestore
gsave
281.455888 249.586520 translate
0.000000 rotate
0.000000 0.000000 m /space glyphshow
3.178711 0.000000 m /w glyphshow
11.357422 0.000000 m /a glyphshow
17.485352 0.000000 m /l glyphshow
20.263672 0.000000 m /underscore glyphshow
25.263672 0.000000 m /p glyphshow
31.611328 0.000000 m /a glyphshow
37.739258 0.000000 m /r glyphshow
41.850586 0.000000 m /t glyphshow
45.771484 0.000000 m /underscore glyphshow
50.771484 0.000000 m /two glyphshow
57.133789 0.000000 m /two glyphshow
grestore
gsave
329.068988 238.768959 translate
0.000000 rotate
0.000000 0.000000 m /space glyphshow
3.178711 0.000000 m /w glyphshow
11.357422 0.000000 m /a glyphshow
17.485352 0.000000 m /l glyphshow
20.263672 0.000000 m /underscore glyphshow
25.263672 0.000000 m /p glyphshow
31.611328 0.000000 m /a glyphshow
37.739258 0.000000 m /r glyphshow
41.850586 0.000000 m /t glyphshow
45.771484 0.000000 m /underscore glyphshow
50.771484 0.000000 m /two glyphshow
57.133789 0.000000 m /one glyphshow
grestore
gsave
346.043077 227.951398 translate
0.000000 rotate
0.000000 0.000000 m /space glyphshow
3.178711 0.000000 m /w glyphshow
11.357422 0.000000 m /a glyphshow
17.485352 0.000000 m /l glyphshow
20.263672 0.000000 m /underscore glyphshow
25.263672 0.000000 m /p glyphshow
31.611328 0.000000 m /a glyphshow
37.739258 0.000000 m /r glyphshow
41.850586 0.000000 m /t glyphshow
45.771484 0.000000 m /underscore glyphshow
50.771484 0.000000 m /two glyphshow
57.133789 0.000000 m /four glyphshow
grestore
gsave
246.202617 217.133837 translate
0.000000 rotate
0.000000 0.000000 m /space glyphshow
3.178711 0.000000 m /w glyphshow
11.357422 0.000000 m /a glyphshow
17.485352 0.000000 m /l glyphshow
20.263672 0.000000 m /underscore glyphshow
25.263672 0.000000 m /p glyphshow
31.611328 0.000000 m /a glyphshow
37.739258 0.000000 m /r glyphshow
41.850586 0.000000 m /t glyphshow
45.771484 0.000000 m /underscore glyphshow
50.771484 0.000000 m /one glyphshow
57.133789 0.000000 m /nine glyphshow
grestore
gsave
224.338487 206.316276 translate
0.000000 rotate
0.000000 0.000000 m /space glyphshow
3.178711 0.000000 m /w glyphshow
11.357422 0.000000 m /a glyphshow
17.485352 0.000000 m /l glyphshow
20.263672 0.000000 m /underscore glyphshow
25.263672 0.000000 m /p glyphshow
31.611328 0.000000 m /a glyphshow
37.739258 0.000000 m /r glyphshow
41.850586 0.000000 m /t glyphshow
45.771484 0.000000 m /underscore glyphshow
50.771484 0.000000 m /one glyphshow
57.133789 0.000000 m /zero glyphshow
grestore
gsave
161.622844 195.498715 translate
0.000000 rotate
0.000000 0.000000 m /space glyphshow
3.178711 0.000000 m /w glyphshow
11.357422 0.000000 m /a glyphshow
17.485352 0.000000 m /l glyphshow
20.263672 0.000000 m /underscore glyphshow
25.263672 0.000000 m /p glyphshow
31.611328 0.000000 m /a glyphshow
37.739258 0.000000 m /r glyphshow
41.850586 0.000000 m /t glyphshow
45.771484 0.000000 m /underscore glyphshow
50.771484 0.000000 m /one glyphshow
57.133789 0.000000 m /eight glyphshow
grestore
gsave
297.572906 184.681154 translate
0.000000 rotate
0.000000 0.000000 m /space glyphshow
3.178711 0.000000 m /w glyphshow
11.357422 0.000000 m /a glyphshow
17.485352 0.000000 m /l glyphshow
20.263672 0.000000 m /underscore glyphshow
25.263672 0.000000 m /p glyphshow
31.611328 0.000000 m /a glyphshow
37.739258 0.000000 m /r glyphshow
41.850586 0.000000 m /t glyphshow
45.771484 0.000000 m /underscore glyphshow
50.771484 0.000000 m /two glyphshow
grestore
gsave
271.633472 173.863593 translate
0.000000 rotate
0.000000 0.000000 m /space glyphshow
3.178711 0.000000 m /w glyphshow
11.357422 0.000000 m /a glyphshow
17.485352 0.000000 m /l glyphshow
20.263672 0.000000 m /underscore glyphshow
25.263672 0.000000 m /p glyphshow
31.611328 0.000000 m /a glyphshow
37.739258 0.000000 m /r glyphshow
41.850586 0.000000 m /t glyphshow
45.771484 0.000000 m /underscore glyphshow
50.771484 0.000000 m /two glyphshow
57.133789 0.000000 m /three glyphshow
grestore
gsave
148.687125 163.046032 translate
0.000000 rotate
0.000000 0.000000 m /space glyphshow
3.178711 0.000000 m /w glyphshow
11.357422 0.000000 m /a glyphshow
17.485352 0.000000 m /l glyphshow
20.263672 0.000000 m /underscore glyphshow
25.263672 0.000000 m /p glyphshow
31.611328 0.000000 m /a glyphshow
37.739258 0.000000 m /r glyphshow
41.850586 0.000000 m /t glyphshow
45.771484 0.000000 m /underscore glyphshow
50.771484 0.000000 m /one glyphshow
57.133789 0.000000 m /one glyphshow
grestore
gsave
120.053952 152.228471 translate
0.000000 rotate
0.000000 0.000000 m /space glyphshow
3.178711 0.000000 m /w glyphshow
11.357422 0.000000 m /a glyphshow
17.485352 0.000000 m /l glyphshow
20.263672 0.000000 m /underscore glyphshow
25.263672 0.000000 m /p glyphshow
31.611328 0.000000 m /a glyphshow
37.739258 0.000000 m /r glyphshow
41.850586 0.000000 m /t glyphshow
45.771484 0.000000 m /underscore glyphshow
50.771484 0.000000 m /three glyphshow
grestore
gsave
139.173785 141.410910 translate
0.000000 rotate
0.000000 0.000000 m /space glyphshow
3.178711 0.000000 m /w glyphshow
11.357422 0.000000 m /a glyphshow
17.485352 0.000000 m /l glyphshow
20.263672 0.000000 m /underscore glyphshow
25.263672 0.000000 m /p glyphshow
31.611328 0.000000 m /a glyphshow
37.739258 0.000000 m /r glyphshow
41.850586 0.000000 m /t glyphshow
45.771484 0.000000 m /underscore glyphshow
50.771484 0.000000 m /six glyphshow
grestore
gsave
139.514434 130.593349 translate
0.000000 rotate
0.000000 0.000000 m /space glyphshow
3.178711 0.000000 m /w glyphshow
11.357422 0.000000 m /a glyphshow
17.485352 0.000000 m /l glyphshow
20.263672 0.000000 m /underscore glyphshow
25.263672 0.000000 m /p glyphshow
31.611328 0.000000 m /a glyphshow
37.739258 0.000000 m /r glyphshow
41.850586 0.000000 m /t glyphshow
45.771484 0.000000 m /underscore glyphshow
50.771484 0.000000 m /one glyphshow
57.133789 0.000000 m /four glyphshow
grestore
gsave
145.347574 119.775788 translate
0.000000 rotate
0.000000 0.000000 m /space glyphshow
3.178711 0.000000 m /w glyphshow
11.357422 0.000000 m /a glyphshow
17.485352 0.000000 m /l glyphshow
20.263672 0.000000 m /underscore glyphshow
25.263672 0.000000 m /p glyphshow
31.611328 0.000000 m /a glyphshow
37.739258 0.000000 m /r glyphshow
41.850586 0.000000 m /t glyphshow
45.771484 0.000000 m /underscore glyphshow
50.771484 0.000000 m /five glyphshow
grestore
gsave
145.754054 108.958227 translate
0.000000 rotate
0.000000 0.000000 m /space glyphshow
3.178711 0.000000 m /w glyphshow
11.357422 0.000000 m /a glyphshow
17.485352 0.000000 m /l glyphshow
20.263672 0.000000 m /underscore glyphshow
25.263672 0.000000 m /p glyphshow
31.611328 0.000000 m /a glyphshow
37.739258 0.000000 m /r glyphshow
41.850586 0.000000 m /t glyphshow
45.771484 0.000000 m /underscore glyphshow
50.771484 0.000000 m /four glyphshow
grestore
gsave
152.661741 98.140666 translate
0.000000 rotate
0.000000 0.000000 m /space glyphshow
3.178711 0.000000 m /w glyphshow
11.357422 0.000000 m /a glyphshow
17.485352 0.000000 m /l glyphshow
20.263672 0.000000 m /underscore glyphshow
25.263672 0.000000 m /p glyphshow
31.611328 0.000000 m /a glyphshow
37.739258 0.000000 m /r glyphshow
41.850586 0.000000 m /t glyphshow
45.771484 0.000000 m /underscore glyphshow
50.771484 0.000000 m /one glyphshow
57.133789 0.000000 m /two glyphshow
grestore
gsave
180.290116 87.323105 translate
0.000000 rotate
0.000000 0.000000 m /space glyphshow
3.178711 0.000000 m /w glyphshow
11.357422 0.000000 m /a glyphshow
17.485352 0.000000 m /l glyphshow
20.263672 0.000000 m /underscore glyphshow
25.263672 0.000000 m /p glyphshow
31.611328 0.000000 m /a glyphshow
37.739258 0.000000 m /r glyphshow
41.850586 0.000000 m /t glyphshow
45.771484 0.000000 m /underscore glyphshow
50.771484 0.000000 m /one glyphshow
57.133789 0.000000 m /five glyphshow
grestore
gsave
161.408201 76.505544 translate
0.000000 rotate
0.000000 0.000000 m /space glyphshow
3.178711 0.000000 m /w glyphshow
11.357422 0.000000 m /a glyphshow
17.485352 0.000000 m /l glyphshow
20.263672 0.000000 m /underscore glyphshow
25.263672 0.000000 m /p glyphshow
31.611328 0.000000 m /a glyphshow
37.739258 0.000000 m /r glyphshow
41.850586 0.000000 m /t glyphshow
45.771484 0.000000 m /underscore glyphshow
50.771484 0.000000 m /one glyphshow
57.133789 0.000000 m /three glyphshow
grestore
gsave
107.008210 65.687983 translate
0.000000 rotate
0.000000 0.000000 m /space glyphshow
3.178711 0.000000 m /w glyphshow
11.357422 0.000000 m /a glyphshow
17.485352 0.000000 m /l glyphshow
20.263672 0.000000 m /underscore glyphshow
25.263672 0.000000 m /p glyphshow
31.611328 0.000000 m /a glyphshow
37.739258 0.000000 m /r glyphshow
41.850586 0.000000 m /t glyphshow
45.771484 0.000000 m /underscore glyphshow
50.771484 0.000000 m /one glyphshow
grestore
gsave
114.565375 54.870422 translate
0.000000 rotate
0.000000 0.000000 m /space glyphshow
3.178711 0.000000 m /w glyphshow
11.357422 0.000000 m /a glyphshow
17.485352 0.000000 m /l glyphshow
20.263672 0.000000 m /underscore glyphshow
25.263672 0.000000 m /p glyphshow
31.611328 0.000000 m /a glyphshow
37.739258 0.000000 m /r glyphshow
41.850586 0.000000 m /t glyphshow
45.771484 0.000000 m /underscore glyphshow
50.771484 0.000000 m /nine glyphshow
grestore
gsave
86.471182 44.052861 translate
0.000000 rotate
0.000000 0.000000 m /space glyphshow
3.178711 0.000000 m /w glyphshow
11.357422 0.000000 m /a glyphshow
17.485352 0.000000 m /l glyphshow
20.263672 0.000000 m /underscore glyphshow
25.263672 0.000000 m /p glyphshow
31.611328 0.000000 m /a glyphshow
37.739258 0.000000 m /r glyphshow
41.850586 0.000000 m /t glyphshow
45.771484 0.000000 m /underscore glyphshow
50.771484 0.000000 m /two glyphshow
57.133789 0.000000 m /zero glyphshow
grestore
/DejaVuSans findfont
12.000 scalefont
setfont
gsave
184.644375 310.128000 translate
0.000000 rotate
0.000000 0.000000 m /w glyphshow
9.814453 0.000000 m /a glyphshow
17.167969 0.000000 m /l glyphshow
20.501953 0.000000 m /e glyphshow
27.884766 0.000000 m /w glyphshow
37.699219 0.000000 m /e glyphshow
45.082031 0.000000 m /i glyphshow
48.416016 0.000000 m /n glyphshow
56.021484 0.000000 m /space glyphshow
59.835938 0.000000 m /L glyphshow
66.521484 0.000000 m /E glyphshow
74.103516 0.000000 m /M glyphshow
84.457031 0.000000 m /M glyphshow
94.810547 0.000000 m /A glyphshow
grestore

end
showpage
