idnum|extra|title|percent|clusterid|real_author|label|filename
0|5560aa|TheBlueJarStoryBook|100.0|Cluster 0|Maria Edgeworth|Sara Jeannette Duncan|corpora/multiauthor/corpus_35_filtered/34470.epub
1|5560aa|ThePrisonerattheBarSidelightsontheAdministrationofCriminalJustice|0.13|Cluster 0|Arthur Cheney Train|Sara Jeannette Duncan|corpora/multiauthor/corpus_35_filtered/58534.epub
2|5560aa|AzaleaTheStoryofaLittleGirlintheBlueRidgeMountains|0.05|Cluster 0|Elia Wilkinson Peattie|Sara Jeannette Duncan|corpora/multiauthor/corpus_35_filtered/53727.epub
3|5560aa|TheTigress|0.04|Cluster 0|Anne Warner|Sara Jeannette Duncan|corpora/multiauthor/corpus_35_filtered/37236.epub
4|5560aa|UnderHandicapANovel|0.28|Cluster 0|Jackson Gregory|Sara Jeannette Duncan|corpora/multiauthor/corpus_35_filtered/17981.epub
5|5560aa|TheMiraclesofAntichristANovel|0.13|Cluster 0|Selma Lagerlöf|Sara Jeannette Duncan|corpora/multiauthor/corpus_35_filtered/54615.epub
6|5560aa|TalesfromShakespeare|0.16|Cluster 0|Charles Lamb|Sara Jeannette Duncan|corpora/multiauthor/corpus_35_filtered/1286.epub
7|5560aa|TheAngelsofMonsTheBowmenandOtherLegendsoftheWar|0.87|Cluster 0|Arthur Machen|Sara Jeannette Duncan|corpora/multiauthor/corpus_35_filtered/14044.epub
8|5560aa|MemoirsoftheCourtsofLouisXVandXVI—Volume1BeingsecretmemoirsofMadameDuHaussetladysmaidtoMadamedePompadourandofthePrincessLamballe|0.63|Cluster 0|Mme. Du Hausset|Sara Jeannette Duncan|corpora/multiauthor/corpus_35_filtered/3876.epub
9|5560aa|TheRomanceofBiographyVol2of2orMemoirsofWomenLovedandCelebratedbyPoetsfromtheDaysoftheTroubadourstothePresentAge3rded2Vols|0.0|Cluster 0|Mrs. Jameson|Sara Jeannette Duncan|corpora/multiauthor/corpus_35_filtered/35416.epub
10|5560aa|SketchesinCanadaandramblesamongtheredmen|0.99|Cluster 0|Mrs. Jameson|Sara Jeannette Duncan|corpora/multiauthor/corpus_35_filtered/35224.epub
11|5560aa|HelenoftheOldHouse|0.46|Cluster 0|Harold Bell Wright|Sara Jeannette Duncan|corpora/multiauthor/corpus_35_filtered/9410.epub
12|5560aa|AzaleaatSunsetGap|0.42|Cluster 0|Elia Wilkinson Peattie|Sara Jeannette Duncan|corpora/multiauthor/corpus_35_filtered/54813.epub
13|5560aa|ADaughterofToDay|0.67|Cluster 0|Sara Jeannette Duncan|Sara Jeannette Duncan|corpora/multiauthor/corpus_35_filtered/14490.epub
14|5560aa|TheSlipperPointMystery|0.55|Cluster 0|Augusta Huiell Seaman|Sara Jeannette Duncan|corpora/multiauthor/corpus_35_filtered/50961.epub
15|5560aa|AnnieLaurieandAzalea|0.58|Cluster 0|Elia Wilkinson Peattie|Sara Jeannette Duncan|corpora/multiauthor/corpus_35_filtered/53975.epub
16|5560aa|DaddyLongLegsAComedyinFourActs|0.45|Cluster 0|Jean Webster|Sara Jeannette Duncan|corpora/multiauthor/corpus_35_filtered/40426.epub
17|5560aa|SusanCleggandHerLoveAffairs|0.59|Cluster 0|Anne Warner|Sara Jeannette Duncan|corpora/multiauthor/corpus_35_filtered/37289.epub
18|5560aa|AdrienLeroy|0.77|Cluster 0|Charles Garvice|Sara Jeannette Duncan|corpora/multiauthor/corpus_35_filtered/16682.epub
19|5560aa|MemoirsoftheCourtsofLouisXVandXVI—Volume4BeingsecretmemoirsofMadameDuHaussetladysmaidtoMadamedePompadourandofthePrincessLamballe|0.14|Cluster 0|Mme. Du Hausset|Sara Jeannette Duncan|corpora/multiauthor/corpus_35_filtered/3879.epub
20|5560aa|TuttandMrTutt|0.46|Cluster 0|Arthur Cheney Train|Sara Jeannette Duncan|corpora/multiauthor/corpus_35_filtered/10440.epub
21|5560aa|"TheConfessionsofArtemasQuibbleBeingtheIngenuousandUnvarnishedHistoryofArtemasQuibbleEsquireOneTimePractitionerintheNewYorkCriminalCourtsTogetherwithanAccountoftheDiversWilesTricksSophistriesTechnicalitiesandSundryArtificesofHimselfandOthersoftheFraternityCommonlyYclept""Shysters""or""ShysterLawyers"""|0.99|Cluster 0|Arthur Cheney Train|Sara Jeannette Duncan|corpora/multiauthor/corpus_35_filtered/20451.epub
22|5560aa|TheGirlNextDoor|0.82|Cluster 0|Augusta Huiell Seaman|Sara Jeannette Duncan|corpora/multiauthor/corpus_35_filtered/39896.epub
23|5560aa|ThreeSidesofParadiseGreen|0.91|Cluster 0|Augusta Huiell Seaman|Sara Jeannette Duncan|corpora/multiauthor/corpus_35_filtered/52946.epub
24|5560aa|WhenaCobblerRuledtheKing|0.45|Cluster 0|Augusta Huiell Seaman|Sara Jeannette Duncan|corpora/multiauthor/corpus_35_filtered/38570.epub
25|5560aa|JosephintheSnowandTheClockmakerInThreeVolumesVolII|0.18|Cluster 0|Berthold Auerbach|Sara Jeannette Duncan|corpora/multiauthor/corpus_35_filtered/33163.epub
26|5560aa|MemoirsoftheCourtsofLouisXVandXVI—CompleteBeingsecretmemoirsofMadameDuHaussetladysmaidtoMadamedePompadourandofthePrincessLamballe|0.86|Cluster 0|Mme. Du Hausset|Sara Jeannette Duncan|corpora/multiauthor/corpus_35_filtered/3883.epub
27|5560aa|MemoirsoftheCourtsofLouisXVandXVI—Volume2BeingsecretmemoirsofMadameDuHaussetladysmaidtoMadamedePompadourandofthePrincessLamballe|0.64|Cluster 0|Mme. Du Hausset|Sara Jeannette Duncan|corpora/multiauthor/corpus_35_filtered/3877.epub
28|5560aa|TheJewelofSevenStars|0.07|Cluster 0|Bram Stoker|Sara Jeannette Duncan|corpora/multiauthor/corpus_35_filtered/3781.epub
29|5560aa|TheGoodSoldier|0.81|Cluster 0|Ford Madox Ford|Sara Jeannette Duncan|corpora/multiauthor/corpus_35_filtered/2775.epub
30|5560aa|ThePrideofPalomar|0.92|Cluster 0|Peter B. Kyne|Sara Jeannette Duncan|corpora/multiauthor/corpus_35_filtered/16674.epub
31|5560aa|TheWomansWay|0.69|Cluster 0|Charles Garvice|Sara Jeannette Duncan|corpora/multiauthor/corpus_35_filtered/19411.epub
32|5560aa|TheMysteryoftheSea|0.81|Cluster 0|Bram Stoker|Sara Jeannette Duncan|corpora/multiauthor/corpus_35_filtered/42455.epub
33|5560aa|EdelweissAStory|0.78|Cluster 0|Berthold Auerbach|Sara Jeannette Duncan|corpora/multiauthor/corpus_35_filtered/33007.epub
34|5560aa|TheGreatReturn|0.43|Cluster 0|Arthur Machen|Sara Jeannette Duncan|corpora/multiauthor/corpus_35_filtered/35611.epub
35|5560aa|TheStoryofGöstaBerling|0.01|Cluster 0|Selma Lagerlöf|Sara Jeannette Duncan|corpora/multiauthor/corpus_35_filtered/56158.epub
36|5560aa|TheHouseofSouls|0.56|Cluster 0|Arthur Machen|Sara Jeannette Duncan|corpora/multiauthor/corpus_35_filtered/25016.epub
37|5560aa|TheSpiderandtheFlyorAnUndesiredLove|0.36|Cluster 0|Charles Garvice|Sara Jeannette Duncan|corpora/multiauthor/corpus_35_filtered/49537.epub
38|5560aa|LivesofCelebratedWomen|0.12|Cluster 0|Samuel G. Goodrich|Sara Jeannette Duncan|corpora/multiauthor/corpus_35_filtered/33273.epub
39|5560aa|SusanCleggandHerFriendMrsLathrop|0.85|Cluster 0|Anne Warner|Sara Jeannette Duncan|corpora/multiauthor/corpus_35_filtered/15899.epub
40|5560aa|TheSimpleAdventuresofaMemsahib|0.79|Cluster 0|Sara Jeannette Duncan|Sara Jeannette Duncan|corpora/multiauthor/corpus_35_filtered/56513.epub
41|5560aa|OnlyOneLoveorWhoWastheHeir|0.66|Cluster 0|Charles Garvice|Sara Jeannette Duncan|corpora/multiauthor/corpus_35_filtered/35523.epub
42|5560aa|TheFeather|0.33|Cluster 0|Ford Madox Ford|Sara Jeannette Duncan|corpora/multiauthor/corpus_35_filtered/50658.epub
43|5560aa|TheLairoftheWhiteWorm|0.82|Cluster 0|Bram Stoker|Sara Jeannette Duncan|corpora/multiauthor/corpus_35_filtered/1188.epub
44|5560aa|TheCallingofDanMatthews|0.92|Cluster 0|Harold Bell Wright|Sara Jeannette Duncan|corpora/multiauthor/corpus_35_filtered/9314.epub
45|5560aa|MemoirsoftheCourtsofLouisXVandXVI—Volume6BeingsecretmemoirsofMadameDuHaussetladysmaidtoMadamedePompadourandofthePrincessLamballe|0.98|Cluster 0|Mme. Du Hausset|Sara Jeannette Duncan|corpora/multiauthor/corpus_35_filtered/3881.epub
46|5560aa|Jerry|0.82|Cluster 0|Jean Webster|Sara Jeannette Duncan|corpora/multiauthor/corpus_35_filtered/20357.epub
47|5560aa|CappyRicksOrtheSubjugationofMattPeasley|0.39|Cluster 0|Peter B. Kyne|Sara Jeannette Duncan|corpora/multiauthor/corpus_35_filtered/5738.epub
48|5560aa|TheJucklinsANovel|0.27|Cluster 0|Opie Percival Read|Sara Jeannette Duncan|corpora/multiauthor/corpus_35_filtered/26499.epub
49|5560aa|SusanCleggandHerNeighborsAffairs|0.91|Cluster 0|Anne Warner|Sara Jeannette Duncan|corpora/multiauthor/corpus_35_filtered/18987.epub
50|5560aa|FarOffThings|0.15|Cluster 0|Arthur Machen|Sara Jeannette Duncan|corpora/multiauthor/corpus_35_filtered/35153.epub
51|5560aa|TheMan|0.06|Cluster 0|Bram Stoker|Sara Jeannette Duncan|corpora/multiauthor/corpus_35_filtered/2520.epub
52|5560aa|"The""Goldfish""BeingtheConfessionsafaSuccessfulMan"|0.93|Cluster 0|Arthur Cheney Train|Sara Jeannette Duncan|corpora/multiauthor/corpus_35_filtered/12920.epub
53|5560aa|TheWorksofCharlesandMaryLamb—Volume3BooksforChildren|0.93|Cluster 0|Charles Lamb|Sara Jeannette Duncan|corpora/multiauthor/corpus_35_filtered/10130.epub
54|5560aa|TheDragonsSecret|0.4|Cluster 0|Augusta Huiell Seaman|Sara Jeannette Duncan|corpora/multiauthor/corpus_35_filtered/25770.epub
55|5560aa|ChipsfromaGermanWorkshopVolume3EssaysonLiteratureBiographyandAntiquities|0.89|Cluster 0|F. Max Müller|Sara Jeannette Duncan|corpora/multiauthor/corpus_35_filtered/26572.epub
56|5560aa|TheFifthQueenCrowned|0.95|Cluster 0|Ford Madox Ford|Sara Jeannette Duncan|corpora/multiauthor/corpus_35_filtered/27432.epub
57|5560aa|TheBoardedUpHouse|0.74|Cluster 0|Augusta Huiell Seaman|Sara Jeannette Duncan|corpora/multiauthor/corpus_35_filtered/30905.epub
58|5560aa|MemoirsandHistoricalChroniclesoftheCourtsofEuropeMemoirsofMargueritedeValoisQueenofFranceWifeofHenriIVofMadamedePompadouroftheCourtofLouisXVandofCatherinedeMediciQueenofFranceWifeofHenriII|0.26|Cluster 0|Pierre de Bourdeille Brantôme|Sara Jeannette Duncan|corpora/multiauthor/corpus_35_filtered/12967.epub
59|5560aa|TheCrimsonPatch|0.36|Cluster 0|Augusta Huiell Seaman|Sara Jeannette Duncan|corpora/multiauthor/corpus_35_filtered/52509.epub
60|5560aa|WildMargaret|0.54|Cluster 0|Charles Garvice|Sara Jeannette Duncan|corpora/multiauthor/corpus_35_filtered/44828.epub
61|5560aa|LesliesLoyalty|0.19|Cluster 0|Charles Garvice|Sara Jeannette Duncan|corpora/multiauthor/corpus_35_filtered/50440.epub
62|5560aa|UpTerrapinRiver|0.18|Cluster 0|Opie Percival Read|Sara Jeannette Duncan|corpora/multiauthor/corpus_35_filtered/44879.epub
63|5560aa|Romance|0.77|Cluster 0|Joseph Conrad|Sara Jeannette Duncan|corpora/multiauthor/corpus_35_filtered/17642.epub
64|5560aa|AnAmericanGirlinLondon|0.93|Cluster 0|Sara Jeannette Duncan|Sara Jeannette Duncan|corpora/multiauthor/corpus_35_filtered/45925.epub
65|5560aa|AzaleasSilverWeb|0.7|Cluster 0|Elia Wilkinson Peattie|Sara Jeannette Duncan|corpora/multiauthor/corpus_35_filtered/55304.epub
66|5560aa|OnlyaGirlsLove|0.79|Cluster 0|Charles Garvice|Sara Jeannette Duncan|corpora/multiauthor/corpus_35_filtered/53416.epub
67|5560aa|AnArkansasPlanter|0.83|Cluster 0|Opie Percival Read|Sara Jeannette Duncan|corpora/multiauthor/corpus_35_filtered/19107.epub
68|5560aa|ThePathofaStar|0.64|Cluster 0|Sara Jeannette Duncan|Sara Jeannette Duncan|corpora/multiauthor/corpus_35_filtered/5102.epub
69|5560aa|DaddyLongLegs|0.49|Cluster 0|Jean Webster|Sara Jeannette Duncan|corpora/multiauthor/corpus_35_filtered/157.epub
70|5560aa|AtLovesCost|0.22|Cluster 0|Charles Garvice|Sara Jeannette Duncan|corpora/multiauthor/corpus_35_filtered/10379.epub
71|5560aa|ThePoolintheDesert|0.79|Cluster 0|Sara Jeannette Duncan|Sara Jeannette Duncan|corpora/multiauthor/corpus_35_filtered/1168.epub
72|5560aa|VillaEdenTheCountryHouseontheRhine|0.05|Cluster 0|Berthold Auerbach|Sara Jeannette Duncan|corpora/multiauthor/corpus_35_filtered/32902.epub
73|5560aa|OldEbenezer|0.56|Cluster 0|Opie Percival Read|Sara Jeannette Duncan|corpora/multiauthor/corpus_35_filtered/23215.epub
74|5560aa|MalboneAnOldportRomance|0.93|Cluster 0|Thomas Wentworth Higginson|Sara Jeannette Duncan|corpora/multiauthor/corpus_35_filtered/993.epub
75|5560aa|TheQueenWhoFlewAFairyTale|0.15|Cluster 0|Ford Madox Ford|Sara Jeannette Duncan|corpora/multiauthor/corpus_35_filtered/52636.epub
76|5560aa|DraculasGuest|0.52|Cluster 0|Bram Stoker|Sara Jeannette Duncan|corpora/multiauthor/corpus_35_filtered/10150.epub
77|5560aa|"ChristianGellertsLastChristmasFrom""GermanTales""PublishedbytheAmericanPublishersCorporation"|0.18|Cluster 0|Berthold Auerbach|Sara Jeannette Duncan|corpora/multiauthor/corpus_35_filtered/22665.epub
78|5560aa|WaldfriedANovel|0.58|Cluster 0|Berthold Auerbach|Sara Jeannette Duncan|corpora/multiauthor/corpus_35_filtered/32446.epub
79|5560aa|JosephintheSnowandTheClockmakerInThreeVolumesVolIII|0.4|Cluster 0|Berthold Auerbach|Sara Jeannette Duncan|corpora/multiauthor/corpus_35_filtered/33164.epub
80|5560aa|ArmyLifeinaBlackRegiment|0.19|Cluster 0|Thomas Wentworth Higginson|Sara Jeannette Duncan|corpora/multiauthor/corpus_35_filtered/6764.epub
81|5560aa|KindredoftheDust|0.43|Cluster 0|Peter B. Kyne|Sara Jeannette Duncan|corpora/multiauthor/corpus_35_filtered/13532.epub
82|5560aa|CappyRicksRetiresButThatDoesntKeepHimfromComingBackStrongerThanEver|0.69|Cluster 0|Peter B. Kyne|Sara Jeannette Duncan|corpora/multiauthor/corpus_35_filtered/6020.epub
83|5560aa|Bolanyo|0.27|Cluster 0|Opie Percival Read|Sara Jeannette Duncan|corpora/multiauthor/corpus_35_filtered/38826.epub
84|5560aa|Webster—MansMan|0.11|Cluster 0|Peter B. Kyne|Sara Jeannette Duncan|corpora/multiauthor/corpus_35_filtered/51987.epub
85|5560aa|Dracula|0.5|Cluster 0|Bram Stoker|Sara Jeannette Duncan|corpora/multiauthor/corpus_35_filtered/345.epub
86|5560aa|HisHonourandaLady|0.26|Cluster 0|Sara Jeannette Duncan|Sara Jeannette Duncan|corpora/multiauthor/corpus_35_filtered/53036.epub
87|5560aa|FromaSwedishHomestead|0.19|Cluster 0|Selma Lagerlöf|Sara Jeannette Duncan|corpora/multiauthor/corpus_35_filtered/44630.epub
88|5560aa|SusanCleggandaManintheHouse|0.01|Cluster 0|Anne Warner|Sara Jeannette Duncan|corpora/multiauthor/corpus_35_filtered/22872.epub
89|5560aa|HenryWadsworthLongfellow|0.32|Cluster 0|Thomas Wentworth Higginson|Sara Jeannette Duncan|corpora/multiauthor/corpus_35_filtered/33402.epub
90|5560aa|TheGirlfromtheMarshCroft|0.58|Cluster 0|Selma Lagerlöf|Sara Jeannette Duncan|corpora/multiauthor/corpus_35_filtered/41414.epub
91|5560aa|TheWorksofCharlesandMaryLamb—Volume2EliaandTheLastEssaysofElia|0.4|Cluster 0|Charles Lamb|Sara Jeannette Duncan|corpora/multiauthor/corpus_35_filtered/10343.epub
92|5560aa|VisitsandSketchesatHomeandAbroadVol3of3WithTalesandMiscellaniesNowFirstCollected|0.72|Cluster 0|Mrs. Jameson|Sara Jeannette Duncan|corpora/multiauthor/corpus_35_filtered/36820.epub
93|5560aa|BlackForestVillageStories|0.53|Cluster 0|Berthold Auerbach|Sara Jeannette Duncan|corpora/multiauthor/corpus_35_filtered/32517.epub
94|5560aa|TheSixFingersofTime|0.57|Cluster 0|R. A. Lafferty|Sara Jeannette Duncan|corpora/multiauthor/corpus_35_filtered/31663.epub
95|5560aa|ByAdviceofCounsel|0.62|Cluster 0|Arthur Cheney Train|Sara Jeannette Duncan|corpora/multiauthor/corpus_35_filtered/11987.epub
96|5560aa|InvisibleLinks|0.45|Cluster 0|Selma Lagerlöf|Sara Jeannette Duncan|corpora/multiauthor/corpus_35_filtered/14273.epub
97|5560aa|MemoirsoftheCourtsofLouisXVandXVI—Volume7BeingsecretmemoirsofMadameDuHaussetladysmaidtoMadamedePompadourandofthePrincessLamballe|0.91|Cluster 0|Mme. Du Hausset|Sara Jeannette Duncan|corpora/multiauthor/corpus_35_filtered/3882.epub
98|5560aa|HildaAStoryofCalcutta|0.5|Cluster 0|Sara Jeannette Duncan|Sara Jeannette Duncan|corpora/multiauthor/corpus_35_filtered/18051.epub
99|5560aa|AWomansWill|0.58|Cluster 0|Anne Warner|Sara Jeannette Duncan|corpora/multiauthor/corpus_35_filtered/27225.epub
100|5560aa|InaMysteriousWay|0.51|Cluster 0|Anne Warner|Sara Jeannette Duncan|corpora/multiauthor/corpus_35_filtered/37515.epub
101|5560aa|JosephintheSnowandTheClockmakerInThreeVolumesVolI|0.15|Cluster 0|Berthold Auerbach|Sara Jeannette Duncan|corpora/multiauthor/corpus_35_filtered/33162.epub
102|5560aa|TheWorksofCharlesandMaryLamb—Volume4PoemsandPlays|0.7|Cluster 0|Charles Lamb|Sara Jeannette Duncan|corpora/multiauthor/corpus_35_filtered/11576.epub
103|5560aa|ThePrecipiceANovel|0.5|Cluster 0|Elia Wilkinson Peattie|Sara Jeannette Duncan|corpora/multiauthor/corpus_35_filtered/12177.epub
104|5560aa|OntheHeightsANovel|0.13|Cluster 0|Berthold Auerbach|Sara Jeannette Duncan|corpora/multiauthor/corpus_35_filtered/33294.epub
105|5560aa|TheBrownOwlAFairyStory|0.33|Cluster 0|Ford Madox Ford|Sara Jeannette Duncan|corpora/multiauthor/corpus_35_filtered/48860.epub
106|5560aa|JacquelineoftheCarrierPigeons|0.79|Cluster 0|Augusta Huiell Seaman|Sara Jeannette Duncan|corpora/multiauthor/corpus_35_filtered/57466.epub
107|5560aa|TheInheritors|0.26|Cluster 0|Joseph Conrad|Sara Jeannette Duncan|corpora/multiauthor/corpus_35_filtered/14888.epub
108|5560aa|TheSecretGlory|0.67|Cluster 0|Arthur Machen|Sara Jeannette Duncan|corpora/multiauthor/corpus_35_filtered/35637.epub
109|5560aa|TheWorksofCharlesandMaryLamb—Volume1MiscellaneousProse|0.1|Cluster 0|Charles Lamb|Sara Jeannette Duncan|corpora/multiauthor/corpus_35_filtered/40988.epub
110|5560aa|AYankeefromtheWestANovel|0.29|Cluster 0|Opie Percival Read|Sara Jeannette Duncan|corpora/multiauthor/corpus_35_filtered/33773.epub
111|5560aa|TheLadyoftheShroud|0.32|Cluster 0|Bram Stoker|Sara Jeannette Duncan|corpora/multiauthor/corpus_35_filtered/3095.epub
112|5560aa|WhenPattyWenttoCollege|0.53|Cluster 0|Jean Webster|Sara Jeannette Duncan|corpora/multiauthor/corpus_35_filtered/21639.epub
113|5560aa|AMountainWoman|0.01|Cluster 0|Elia Wilkinson Peattie|Sara Jeannette Duncan|corpora/multiauthor/corpus_35_filtered/1877.epub
114|5560aa|TheStoryofSonnySahib|0.78|Cluster 0|Sara Jeannette Duncan|Sara Jeannette Duncan|corpora/multiauthor/corpus_35_filtered/4547.epub
115|5560aa|TheValleyoftheGiants|0.53|Cluster 0|Peter B. Kyne|Sara Jeannette Duncan|corpora/multiauthor/corpus_35_filtered/5735.epub
116|5560aa|TheImperialist|0.95|Cluster 0|Sara Jeannette Duncan|Sara Jeannette Duncan|corpora/multiauthor/corpus_35_filtered/5301.epub
117|5560aa|AVoyageofConsolationbeinginthenatureofasequeltotheexperiencesofAnAmericangirlinLondon|0.62|Cluster 0|Sara Jeannette Duncan|Sara Jeannette Duncan|corpora/multiauthor/corpus_35_filtered/15966.epub
118|5560aa|TheFifthQueenAndHowSheCametoCourt|0.25|Cluster 0|Ford Madox Ford|Sara Jeannette Duncan|corpora/multiauthor/corpus_35_filtered/30188.epub
119|5560aa|MyYoungMasterANovel|0.74|Cluster 0|Opie Percival Read|Sara Jeannette Duncan|corpora/multiauthor/corpus_35_filtered/59834.epub
120|5560aa|OldportDays|0.3|Cluster 0|Thomas Wentworth Higginson|Sara Jeannette Duncan|corpora/multiauthor/corpus_35_filtered/2418.epub
121|5560aa|TheWorksofCharlesandMaryLamb—Volume6Letters18211842|0.62|Cluster 0|Charles Lamb|Sara Jeannette Duncan|corpora/multiauthor/corpus_35_filtered/10851.epub
122|5560aa|TheSapphireSignet|0.52|Cluster 0|Augusta Huiell Seaman|Sara Jeannette Duncan|corpora/multiauthor/corpus_35_filtered/55964.epub
123|5560aa|JustaGirl|0.05|Cluster 0|Charles Garvice|Sara Jeannette Duncan|corpora/multiauthor/corpus_35_filtered/57166.epub
124|5560aa|JerryJunior|0.32|Cluster 0|Jean Webster|Sara Jeannette Duncan|corpora/multiauthor/corpus_35_filtered/20358.epub
125|5560aa|TheRejuvenationofAuntMary|0.82|Cluster 0|Anne Warner|Sara Jeannette Duncan|corpora/multiauthor/corpus_35_filtered/15775.epub
126|5560aa|TheBellsofSanJuan|0.92|Cluster 0|Jackson Gregory|Sara Jeannette Duncan|corpora/multiauthor/corpus_35_filtered/15438.epub
127|5560aa|TheColossusANovel|0.91|Cluster 0|Opie Percival Read|Sara Jeannette Duncan|corpora/multiauthor/corpus_35_filtered/15073.epub
128|5560aa|TheWorksofCharlesandMaryLamb—Volume5TheLettersofCharlesandMaryLamb17961820|0.63|Cluster 0|Charles Lamb|Sara Jeannette Duncan|corpora/multiauthor/corpus_35_filtered/9365.epub
129|5560aa|ChristLegends|0.74|Cluster 0|Selma Lagerlöf|Sara Jeannette Duncan|corpora/multiauthor/corpus_35_filtered/44818.epub
130|5560aa|NellofShorneMillsorOneHeartsBurden|0.71|Cluster 0|Charles Garvice|Sara Jeannette Duncan|corpora/multiauthor/corpus_35_filtered/22961.epub
131|5560aa|Landolin|0.57|Cluster 0|Berthold Auerbach|Sara Jeannette Duncan|corpora/multiauthor/corpus_35_filtered/33008.epub
132|5560aa|JudgeElbridge|0.21|Cluster 0|Opie Percival Read|Sara Jeannette Duncan|corpora/multiauthor/corpus_35_filtered/46699.epub
133|5560aa|TheLongChance|0.81|Cluster 0|Peter B. Kyne|Sara Jeannette Duncan|corpora/multiauthor/corpus_35_filtered/6115.epub
134|5560aa|SunshineJane|0.33|Cluster 0|Anne Warner|Sara Jeannette Duncan|corpora/multiauthor/corpus_35_filtered/37972.epub
135|5560aa|MemoirsoftheCourtsofLouisXVandXVI—Volume3BeingsecretmemoirsofMadameDuHaussetladysmaidtoMadamedePompadourandofthePrincessLamballe|0.26|Cluster 0|Mme. Du Hausset|Sara Jeannette Duncan|corpora/multiauthor/corpus_35_filtered/3878.epub
136|5560aa|DearEnemy|0.82|Cluster 0|Jean Webster|Sara Jeannette Duncan|corpora/multiauthor/corpus_35_filtered/238.epub
137|5560aa|TheGreatGodPan|0.59|Cluster 0|Arthur Machen|Sara Jeannette Duncan|corpora/multiauthor/corpus_35_filtered/389.epub
138|5560aa|Jerusalem|0.79|Cluster 0|Selma Lagerlöf|Sara Jeannette Duncan|corpora/multiauthor/corpus_35_filtered/15837.epub
139|5560aa|TheLifeofBenjaminFranklinIllustratedbyTalesSketchesandAnecdotes|0.88|Cluster 0|Samuel G. Goodrich|Sara Jeannette Duncan|corpora/multiauthor/corpus_35_filtered/38469.epub
140|5560aa|TheThreeImpostorsorTheTransmutations|0.18|Cluster 0|Arthur Machen|Sara Jeannette Duncan|corpora/multiauthor/corpus_35_filtered/35517.epub
141|5560aa|TheTreasure|0.97|Cluster 0|Selma Lagerlöf|Sara Jeannette Duncan|corpora/multiauthor/corpus_35_filtered/5161.epub
142|5560aa|MyAutobiographyAFragment|0.62|Cluster 0|F. Max Müller|Sara Jeannette Duncan|corpora/multiauthor/corpus_35_filtered/30269.epub
143|5560aa|MemoriesAStoryofGermanLove|0.85|Cluster 0|F. Max Müller|Sara Jeannette Duncan|corpora/multiauthor/corpus_35_filtered/14521.epub
0|5560aa|BuffonsNaturalHistoryVolume02of10ContainingaTheoryoftheEarthaGeneralHistoryofManoftheBruteCreationandofVegetablesMineral&c&c|100.0|Cluster 1|comte de Georges Louis Leclerc Buffon|comte de Georges Louis Leclerc Buffon|corpora/multiauthor/corpus_35_filtered/45602.epub
1|5560aa|BuffonsNaturalHistoryVolume01of10ContainingaTheoryoftheEarthaGeneralHistoryofManoftheBruteCreationandofVegetablesMineral&c&c|0.29|Cluster 1|comte de Georges Louis Leclerc Buffon|comte de Georges Louis Leclerc Buffon|corpora/multiauthor/corpus_35_filtered/44792.epub
2|5560aa|Ethics|0.34|Cluster 1|Benedictus de Spinoza|comte de Georges Louis Leclerc Buffon|corpora/multiauthor/corpus_35_filtered/3800.epub
3|5560aa|BuffonsNaturalHistoryVolume10of10ContainingaTheoryoftheEarthaGeneralHistoryofManoftheBruteCreationandofVegetablesMinerals&c&c|0.82|Cluster 1|comte de Georges Louis Leclerc Buffon|comte de Georges Louis Leclerc Buffon|corpora/multiauthor/corpus_35_filtered/45868.epub
4|5560aa|LecturesontheScienceofLanguage|0.29|Cluster 1|F. Max Müller|comte de Georges Louis Leclerc Buffon|corpora/multiauthor/corpus_35_filtered/32856.epub
5|5560aa|BuffonsNaturalHistoryVolume04of10ContainingaTheoryoftheEarthaGeneralHistoryofManoftheBruteCreationandofVegetablesMinerals&c&c|0.23|Cluster 1|comte de Georges Louis Leclerc Buffon|comte de Georges Louis Leclerc Buffon|corpora/multiauthor/corpus_35_filtered/45729.epub
6|5560aa|BuffonsNaturalHistoryVolume05of10ContainingaTheoryoftheEarthaGeneralHistoryofManoftheBruteCreationandofVegetablesMinerals&c&c|0.22|Cluster 1|comte de Georges Louis Leclerc Buffon|comte de Georges Louis Leclerc Buffon|corpora/multiauthor/corpus_35_filtered/45730.epub
7|5560aa|Ethics—Part3|0.32|Cluster 1|Benedictus de Spinoza|comte de Georges Louis Leclerc Buffon|corpora/multiauthor/corpus_35_filtered/948.epub
8|5560aa|PerpetualPeaceAPhilosophicalEssay|0.65|Cluster 1|Immanuel Kant|comte de Georges Louis Leclerc Buffon|corpora/multiauthor/corpus_35_filtered/50922.epub
9|5560aa|BuffonsNaturalHistoryVolume06of10ContainingaTheoryoftheEarthaGeneralHistoryofManoftheBruteCreationandofVegetablesMinerals&c&c|0.58|Cluster 1|comte de Georges Louis Leclerc Buffon|comte de Georges Louis Leclerc Buffon|corpora/multiauthor/corpus_35_filtered/45731.epub
10|5560aa|ChipsfromaGermanWorkshopVolume1EssaysontheScienceofReligion|0.75|Cluster 1|F. Max Müller|comte de Georges Louis Leclerc Buffon|corpora/multiauthor/corpus_35_filtered/24686.epub
11|5560aa|BuffonsNaturalHistoryVolume03of10ContainingaTheoryoftheEarthaGeneralHistoryofManoftheBruteCreationandofVegetablesMinerals&c&c|0.58|Cluster 1|comte de Georges Louis Leclerc Buffon|comte de Georges Louis Leclerc Buffon|corpora/multiauthor/corpus_35_filtered/45639.epub
12|5560aa|BuffonsNaturalHistoryVolume07of10ContainingaTheoryoftheEarthaGeneralHistoryofManoftheBruteCreationandofVegetablesMinerals&c&c|0.67|Cluster 1|comte de Georges Louis Leclerc Buffon|comte de Georges Louis Leclerc Buffon|corpora/multiauthor/corpus_35_filtered/45820.epub
13|5560aa|BuffonsNaturalHistoryVolume08of10ContainingaTheoryoftheEarthaGeneralHistoryofManoftheBruteCreationandofVegetablesMinerals&c&c|0.79|Cluster 1|comte de Georges Louis Leclerc Buffon|comte de Georges Louis Leclerc Buffon|corpora/multiauthor/corpus_35_filtered/45821.epub
14|5560aa|BuffonsNaturalHistoryVolume09of10ContainingaTheoryoftheEarthaGeneralHistoryofManoftheBruteCreationandofVegetablesMinerals&c&c|0.6|Cluster 1|comte de Georges Louis Leclerc Buffon|comte de Georges Louis Leclerc Buffon|corpora/multiauthor/corpus_35_filtered/45867.epub
15|5560aa|TheMotherofParliaments|0.48|Cluster 1|Harry Graham|comte de Georges Louis Leclerc Buffon|corpora/multiauthor/corpus_35_filtered/41304.epub
16|5560aa|MiltonsComus|0.28|Cluster 1|John Milton|comte de Georges Louis Leclerc Buffon|corpora/multiauthor/corpus_35_filtered/19819.epub
17|5560aa|BriefHistoryofEnglishandAmericanLiterature|0.75|Cluster 1|Henry A. Beers|comte de Georges Louis Leclerc Buffon|corpora/multiauthor/corpus_35_filtered/21090.epub
18|5560aa|LegendsoftheMadonnaasRepresentedintheFineArts|0.91|Cluster 1|Mrs. Jameson|comte de Georges Louis Leclerc Buffon|corpora/multiauthor/corpus_35_filtered/12047.epub
19|5560aa|AHistoryofEnglishRomanticismintheNineteenthCentury|0.87|Cluster 1|Henry A. Beers|comte de Georges Louis Leclerc Buffon|corpora/multiauthor/corpus_35_filtered/15931.epub
20|5560aa|ChipsfromaGermanWorkshopVolume5MiscellaneousLaterEssays|0.79|Cluster 1|F. Max Müller|comte de Georges Louis Leclerc Buffon|corpora/multiauthor/corpus_35_filtered/27810.epub
0|5560aa|TheBlackBeardedBarbarianTheLifeofGeorgeLeslieMackayofFormosa|100.0|Cluster 2|Mary Esther Miller MacGregor|Andy Adams|corpora/multiauthor/corpus_35_filtered/1759.epub
1|5560aa|PecksBadBoywiththeCowboys|0.17|Cluster 2|George W. Peck|Andy Adams|corpora/multiauthor/corpus_35_filtered/6141.epub
2|5560aa|InitialStudiesinAmericanLetters|0.78|Cluster 2|Henry A. Beers|Andy Adams|corpora/multiauthor/corpus_35_filtered/15854.epub
3|5560aa|PecksSunshineBeingaCollectionofArticlesWrittenforPecksSunMilwaukeeWis1882|0.32|Cluster 2|George W. Peck|Andy Adams|corpora/multiauthor/corpus_35_filtered/25491.epub
4|5560aa|PecksUncleIkeandTheRedHeadedBoy1899|0.81|Cluster 2|George W. Peck|Andy Adams|corpora/multiauthor/corpus_35_filtered/25490.epub
5|5560aa|TheSilverMaple|0.31|Cluster 2|Mary Esther Miller MacGregor|Andy Adams|corpora/multiauthor/corpus_35_filtered/28688.epub
6|5560aa|LizbethoftheDale|0.18|Cluster 2|Mary Esther Miller MacGregor|Andy Adams|corpora/multiauthor/corpus_35_filtered/28234.epub
7|5560aa|HowPrivateGeorgeWPeckPutDowntheRebellionorTheFunnyExperiencesofaRawRecruit1887|0.59|Cluster 2|George W. Peck|Andy Adams|corpora/multiauthor/corpus_35_filtered/25492.epub
8|5560aa|AHistoryofEnglishRomanticismintheEighteenthCentury|0.22|Cluster 2|Henry A. Beers|Andy Adams|corpora/multiauthor/corpus_35_filtered/15447.epub
9|5560aa|TalesoftheEnchantedIslandsoftheAtlantic|0.5|Cluster 2|Thomas Wentworth Higginson|Andy Adams|corpora/multiauthor/corpus_35_filtered/7098.epub
10|5560aa|TheConnecticutWitsandOtherEssays|0.86|Cluster 2|Henry A. Beers|Andy Adams|corpora/multiauthor/corpus_35_filtered/50915.epub
11|5560aa|TheDesertValley|0.27|Cluster 2|Jackson Gregory|Andy Adams|corpora/multiauthor/corpus_35_filtered/15502.epub
12|5560aa|TheWonderfulAdventuresofNils|0.13|Cluster 2|Selma Lagerlöf|Andy Adams|corpora/multiauthor/corpus_35_filtered/10935.epub
13|5560aa|CuriositiesofHumanNature|0.13|Cluster 2|Samuel G. Goodrich|Andy Adams|corpora/multiauthor/corpus_35_filtered/39333.epub
14|5560aa|Mortmain|0.04|Cluster 2|Arthur Cheney Train|Andy Adams|corpora/multiauthor/corpus_35_filtered/37346.epub
15|5560aa|PeterParleysTalesAboutAmericaandAustralia|0.53|Cluster 2|Samuel G. Goodrich|Andy Adams|corpora/multiauthor/corpus_35_filtered/16891.epub
16|5560aa|CaptainScraggsOrTheGreenPeaPirates|0.34|Cluster 2|Peter B. Kyne|Andy Adams|corpora/multiauthor/corpus_35_filtered/18469.epub
17|5560aa|TheHillofDreams|0.06|Cluster 2|Arthur Machen|Andy Adams|corpora/multiauthor/corpus_35_filtered/13969.epub
18|5560aa|TheirYesterdays|0.63|Cluster 2|Harold Bell Wright|Andy Adams|corpora/multiauthor/corpus_35_filtered/6105.epub
19|5560aa|StoriesofKingArthursKnightsToldtotheChildrenbyMaryMacGregor|0.11|Cluster 2|Mary Esther Miller MacGregor|Andy Adams|corpora/multiauthor/corpus_35_filtered/25654.epub
20|5560aa|WolfBreed|0.51|Cluster 2|Jackson Gregory|Andy Adams|corpora/multiauthor/corpus_35_filtered/18964.epub
21|5560aa|FamousMenofAncientTimes|0.22|Cluster 2|Samuel G. Goodrich|Andy Adams|corpora/multiauthor/corpus_35_filtered/52400.epub
22|5560aa|BrazilianGoldMineMysteryABiffBrewsterMysteryAdventure|0.85|Cluster 2|Andy Adams|Andy Adams|corpora/multiauthor/corpus_35_filtered/51538.epub
23|5560aa|MysteryoftheAmbushinIndiaABiffBrewsterMysteryAdventure|0.27|Cluster 2|Andy Adams|Andy Adams|corpora/multiauthor/corpus_35_filtered/51830.epub
24|5560aa|BlackRebellionFiveSlaveRevolts|0.29|Cluster 2|Thomas Wentworth Higginson|Andy Adams|corpora/multiauthor/corpus_35_filtered/8432.epub
25|5560aa|TheEmperorofPortugallia|0.53|Cluster 2|Selma Lagerlöf|Andy Adams|corpora/multiauthor/corpus_35_filtered/14356.epub
26|5560aa|CourtsandCriminals|0.43|Cluster 2|Arthur Cheney Train|Andy Adams|corpora/multiauthor/corpus_35_filtered/5268.epub
27|5560aa|TheShepherdoftheHills|0.49|Cluster 2|Harold Bell Wright|Andy Adams|corpora/multiauthor/corpus_35_filtered/4735.epub
28|5560aa|TheShortCut|0.7|Cluster 2|Jackson Gregory|Andy Adams|corpora/multiauthor/corpus_35_filtered/18950.epub
29|5560aa|TheFourPoolsMystery|0.95|Cluster 2|Jean Webster|Andy Adams|corpora/multiauthor/corpus_35_filtered/21264.epub
30|5560aa|ThatPrinterofUdellsAStoryoftheMiddleWest|0.1|Cluster 2|Harold Bell Wright|Andy Adams|corpora/multiauthor/corpus_35_filtered/6384.epub
31|5560aa|WellsBrothersTheYoungCattleKings|0.28|Cluster 2|Andy Adams|Andy Adams|corpora/multiauthor/corpus_35_filtered/12791.epub
32|5560aa|TheShapeofFear|0.46|Cluster 2|Elia Wilkinson Peattie|Andy Adams|corpora/multiauthor/corpus_35_filtered/1876.epub
33|5560aa|TheOutlet|0.7|Cluster 2|Andy Adams|Andy Adams|corpora/multiauthor/corpus_35_filtered/1987.epub
34|5560aa|TheWinningofBarbaraWorth|0.92|Cluster 2|Harold Bell Wright|Andy Adams|corpora/multiauthor/corpus_35_filtered/6997.epub
35|5560aa|TheCampFireGirlsintheMaineWoodsOrTheWinnebagosGoCamping|0.42|Cluster 2|Hildegard G. Frey|Andy Adams|corpora/multiauthor/corpus_35_filtered/18606.epub
36|5560aa|DuncanPolitetheWatchmanofGlenoro|0.54|Cluster 2|Mary Esther Miller MacGregor|Andy Adams|corpora/multiauthor/corpus_35_filtered/28689.epub
37|5560aa|TheLogofaCowboyANarrativeoftheOldTrailDays|0.92|Cluster 2|Andy Adams|Andy Adams|corpora/multiauthor/corpus_35_filtered/12797.epub
38|5560aa|FromChaucertoTennysonWithTwentyNinePortraitsandSelectionsfromThirtyAuthors|0.56|Cluster 2|Henry A. Beers|Andy Adams|corpora/multiauthor/corpus_35_filtered/11618.epub
39|5560aa|TheCampFireGirlsonEllensIsleOrTheTrailoftheSevenCedars|0.03|Cluster 2|Hildegard G. Frey|Andy Adams|corpora/multiauthor/corpus_35_filtered/30825.epub
40|5560aa|CattleBrandsACollectionofWesternCampFireStories|0.79|Cluster 2|Andy Adams|Andy Adams|corpora/multiauthor/corpus_35_filtered/12281.epub
41|5560aa|JustPatty|0.0|Cluster 2|Jean Webster|Andy Adams|corpora/multiauthor/corpus_35_filtered/21048.epub
42|5560aa|InOrchardGlen|0.78|Cluster 2|Mary Esther Miller MacGregor|Andy Adams|corpora/multiauthor/corpus_35_filtered/28235.epub
43|5560aa|TheCampFireGirlsatSchoolOrTheWoheloWeavers|0.17|Cluster 2|Hildegard G. Frey|Andy Adams|corpora/multiauthor/corpus_35_filtered/11718.epub
44|5560aa|TheEndoftheRainbow|0.83|Cluster 2|Mary Esther Miller MacGregor|Andy Adams|corpora/multiauthor/corpus_35_filtered/28276.epub
45|5560aa|TheCampFireGirlsatOnowayHouseOrTheMagicGarden|0.61|Cluster 2|Hildegard G. Frey|Andy Adams|corpora/multiauthor/corpus_35_filtered/36833.epub
46|5560aa|TheEyesoftheWorld|0.56|Cluster 2|Harold Bell Wright|Andy Adams|corpora/multiauthor/corpus_35_filtered/11715.epub
47|5560aa|WhenAMansAMan|0.47|Cluster 2|Harold Bell Wright|Andy Adams|corpora/multiauthor/corpus_35_filtered/14367.epub
48|5560aa|IllustrativeAnecdotesoftheAnimalKingdom|0.67|Cluster 2|Samuel G. Goodrich|Andy Adams|corpora/multiauthor/corpus_35_filtered/33687.epub
49|5560aa|HawaiianSeaHuntMysteryABiffBrewsterMysteryAdventure|0.08|Cluster 2|Andy Adams|Andy Adams|corpora/multiauthor/corpus_35_filtered/51755.epub
50|5560aa|AMichiganMan1891|0.48|Cluster 2|Elia Wilkinson Peattie|Andy Adams|corpora/multiauthor/corpus_35_filtered/23176.epub
51|5560aa|NathanielParkerWillis|0.79|Cluster 2|Henry A. Beers|Andy Adams|corpora/multiauthor/corpus_35_filtered/53876.epub
52|5560aa|TheStarbucks|0.5|Cluster 2|Opie Percival Read|Andy Adams|corpora/multiauthor/corpus_35_filtered/18984.epub
53|5560aa|MuchAdoAboutPeter|0.52|Cluster 2|Jean Webster|Andy Adams|corpora/multiauthor/corpus_35_filtered/42768.epub
54|5560aa|"PeterParleysOwnStoryFromthePersonalNarrativeoftheLateSamuelGGoodrich""PeterParley"""|0.95|Cluster 2|Samuel G. Goodrich|Andy Adams|corpora/multiauthor/corpus_35_filtered/45165.epub
55|5560aa|TheCampFireGirlsDoTheirBitOrOvertheTopwiththeWinnebagos|0.72|Cluster 2|Hildegard G. Frey|Andy Adams|corpora/multiauthor/corpus_35_filtered/11664.epub
56|5560aa|PecksCompendiumofFunComprisingtheChoicestGemsofWitHumorSarcasmandPathosofAmericasFavoriteHumorist|0.07|Cluster 2|George W. Peck|Andy Adams|corpora/multiauthor/corpus_35_filtered/14815.epub
57|5560aa|McAllisterandHisDouble|0.73|Cluster 2|Arthur Cheney Train|Andy Adams|corpora/multiauthor/corpus_35_filtered/34597.epub
58|5560aa|SixFeetFour|0.31|Cluster 2|Jackson Gregory|Andy Adams|corpora/multiauthor/corpus_35_filtered/15148.epub
59|5560aa|TheCampFireGirlsLarksandPranksOrTheHouseoftheOpenDoor|0.0|Cluster 2|Hildegard G. Frey|Andy Adams|corpora/multiauthor/corpus_35_filtered/38934.epub
60|5560aa|TheCampFireGirlsatCampKeewaydinOrPaddlesDown|0.68|Cluster 2|Hildegard G. Frey|Andy Adams|corpora/multiauthor/corpus_35_filtered/10688.epub
61|5560aa|TheCampFireGirlsGoMotoringOrAlongtheRoadThatLeadstheWay|0.26|Cluster 2|Hildegard G. Frey|Andy Adams|corpora/multiauthor/corpus_35_filtered/6895.epub
62|5560aa|TheEverlastingWhisper|0.58|Cluster 2|Jackson Gregory|Andy Adams|corpora/multiauthor/corpus_35_filtered/10213.epub
63|5560aa|DaughteroftheSunATaleofAdventure|0.95|Cluster 2|Jackson Gregory|Andy Adams|corpora/multiauthor/corpus_35_filtered/18916.epub
64|5560aa|TheTerrorAMystery|0.72|Cluster 2|Arthur Machen|Andy Adams|corpora/multiauthor/corpus_35_filtered/35617.epub
65|5560aa|ATexasMatchmaker|0.24|Cluster 2|Andy Adams|Andy Adams|corpora/multiauthor/corpus_35_filtered/12919.epub
66|5560aa|PaintedWindows|0.41|Cluster 2|Elia Wilkinson Peattie|Andy Adams|corpora/multiauthor/corpus_35_filtered/1875.epub
67|5560aa|TheThreeGodfathers|0.81|Cluster 2|Peter B. Kyne|Andy Adams|corpora/multiauthor/corpus_35_filtered/51942.epub
68|5560aa|ReedAnthonyCowmanAnAutobiography|0.34|Cluster 2|Andy Adams|Andy Adams|corpora/multiauthor/corpus_35_filtered/12884.epub
69|5560aa|GamePreserve|0.72|Cluster 2|Rog Phillips|Andy Adams|corpora/multiauthor/corpus_35_filtered/60393.epub
70|5560aa|TrueStoriesofCrimeFromtheDistrictAttorneysOffice|0.37|Cluster 2|Arthur Cheney Train|Andy Adams|corpora/multiauthor/corpus_35_filtered/13172.epub
71|5560aa|MantoMan|0.99|Cluster 2|Jackson Gregory|Andy Adams|corpora/multiauthor/corpus_35_filtered/18933.epub
72|5560aa|TreasureValley|0.05|Cluster 2|Mary Esther Miller MacGregor|Andy Adams|corpora/multiauthor/corpus_35_filtered/29023.epub
73|5560aa|TheManWhoRockedtheEarth|0.0|Cluster 2|Arthur Cheney Train|Andy Adams|corpora/multiauthor/corpus_35_filtered/19174.epub
74|5560aa|TheCampFireGirlsSolveaMysteryOrTheChristmasAdventureatCarverHouse|0.25|Cluster 2|Hildegard G. Frey|Andy Adams|corpora/multiauthor/corpus_35_filtered/38983.epub
75|5560aa|TheWheatPrincess|0.84|Cluster 2|Jean Webster|Andy Adams|corpora/multiauthor/corpus_35_filtered/46761.epub
76|5560aa|PecksBadBoywiththeCircus|0.54|Cluster 2|George W. Peck|Andy Adams|corpora/multiauthor/corpus_35_filtered/10212.epub
77|5560aa|JudithofBlueLakeRanch|0.52|Cluster 2|Jackson Gregory|Andy Adams|corpora/multiauthor/corpus_35_filtered/18926.epub
78|5560aa|MysteryoftheChineseRingABiffBrewsterMysteryAdventure|0.41|Cluster 2|Andy Adams|Andy Adams|corpora/multiauthor/corpus_35_filtered/51608.epub
79|5560aa|TheReCreationofBrianKent|0.67|Cluster 2|Harold Bell Wright|Andy Adams|corpora/multiauthor/corpus_35_filtered/3265.epub
80|5560aa|HistoryoftheIndiansofNorthandSouthAmerica|0.04|Cluster 2|Samuel G. Goodrich|Andy Adams|corpora/multiauthor/corpus_35_filtered/54266.epub
81|5560aa|FourAmericansRooseveltHawthorneEmersonWhitman|0.27|Cluster 2|Henry A. Beers|Andy Adams|corpora/multiauthor/corpus_35_filtered/24435.epub
0|5560aa|RobinsRambles|100.0|Cluster 3|May Byron|unknown_4|corpora/multiauthor/corpus_35_filtered/38504.epub
0|5560aa|ChipsfromaGermanWorkshopVolume4EssaysChieflyontheScienceofLanguage|100.0|Cluster 4|F. Max Müller|F. Max Müller|corpora/multiauthor/corpus_35_filtered/30192.epub
1|5560aa|IndexoftheProjectGutenbergWorksofBramStoker|0.64|Cluster 4|Bram Stoker|F. Max Müller|corpora/multiauthor/corpus_35_filtered/59671.epub
2|5560aa|"WorksofGeorgeWPeckALinkedIndextotheProjectGutenbergEditionsofthe""BadBoy""SeriesandOthers"|0.65|Cluster 4|George W. Peck|F. Max Müller|corpora/multiauthor/corpus_35_filtered/28970.epub
3|5560aa|IndexoftheProjectGutenbergWorksofThomasWentworthHigginson|0.97|Cluster 4|Thomas Wentworth Higginson|F. Max Müller|corpora/multiauthor/corpus_35_filtered/59301.epub
4|5560aa|IndexoftheProjectGutenbergWorksofImmanuelKant|0.79|Cluster 4|Immanuel Kant|F. Max Müller|corpora/multiauthor/corpus_35_filtered/59023.epub
0|5560aa|ADaywithJohnMilton|100.0|Cluster 5|May Byron|May Byron|corpora/multiauthor/corpus_35_filtered/40130.epub
1|5560aa|PoemataLatinGreekandItalianPoemsbyJohnMilton|0.84|Cluster 5|John Milton|May Byron|corpora/multiauthor/corpus_35_filtered/6929.epub
2|5560aa|ADaywithRobertLouisStevenson|0.42|Cluster 5|May Byron|May Byron|corpora/multiauthor/corpus_35_filtered/53165.epub
3|5560aa|CharacteristicsofWomenMoralPoeticalandHistorical|0.11|Cluster 5|Mrs. Jameson|May Byron|corpora/multiauthor/corpus_35_filtered/26152.epub
4|5560aa|ADaywithSamuelTaylorColeridge|0.23|Cluster 5|May Byron|May Byron|corpora/multiauthor/corpus_35_filtered/36337.epub
5|5560aa|PrivySealHisLastVenture|0.92|Cluster 5|Ford Madox Ford|May Byron|corpora/multiauthor/corpus_35_filtered/26698.epub
6|5560aa|ADaywithWilliamShakespeare|0.36|Cluster 5|May Byron|May Byron|corpora/multiauthor/corpus_35_filtered/40441.epub
7|5560aa|ADaywithKeats|0.18|Cluster 5|May Byron|May Byron|corpora/multiauthor/corpus_35_filtered/30451.epub
8|5560aa|ADaywithRobertSchumann|0.11|Cluster 5|May Byron|May Byron|corpora/multiauthor/corpus_35_filtered/36472.epub
9|5560aa|StoriesofSiegfriedToldtotheChildren|0.63|Cluster 5|Mary Esther Miller MacGregor|May Byron|corpora/multiauthor/corpus_35_filtered/26181.epub
10|5560aa|TheYoungLovellARomance|0.43|Cluster 5|Ford Madox Ford|May Byron|corpora/multiauthor/corpus_35_filtered/42801.epub
11|5560aa|VisitsandSketchesatHomeandAbroadVol2of3WithTalesandMiscellaniesNowFirstCollected|0.81|Cluster 5|Mrs. Jameson|May Byron|corpora/multiauthor/corpus_35_filtered/36819.epub
12|5560aa|MemoirsoftheCourtsofLouisXVandXVI—Volume5BeingsecretmemoirsofMadameDuHaussetladysmaidtoMadamedePompadourandofthePrincessLamballe|0.35|Cluster 5|Mme. Du Hausset|May Byron|corpora/multiauthor/corpus_35_filtered/3880.epub
13|5560aa|ADaywithWaltWhitman|0.14|Cluster 5|May Byron|May Byron|corpora/multiauthor/corpus_35_filtered/36305.epub
14|5560aa|MiltonsTercentenaryAnaddressdeliveredbeforetheModernLanguageClubofYaleUniversityonMiltonsThreeHundredthBirthday|0.34|Cluster 5|Henry A. Beers|May Byron|corpora/multiauthor/corpus_35_filtered/33248.epub
15|5560aa|StoriesfromtheBalladsToldtotheChildren|0.92|Cluster 5|Mary Esther Miller MacGregor|May Byron|corpora/multiauthor/corpus_35_filtered/22175.epub
16|5560aa|TheRomanceofBiographyVol1of2orMemoirsofWomenLovedandCelebratedbyPoetsfromtheDaysoftheTroubadourstothePresentAge3rded2Vols|0.85|Cluster 5|Mrs. Jameson|May Byron|corpora/multiauthor/corpus_35_filtered/35382.epub
17|5560aa|TheDiaryofanEnnuyée|0.64|Cluster 5|Mrs. Jameson|May Byron|corpora/multiauthor/corpus_35_filtered/18049.epub
18|5560aa|VisitsandSketchesatHomeandAbroadVol1of3WithTalesandMiscellaniesNowFirstCollected|0.3|Cluster 5|Mrs. Jameson|May Byron|corpora/multiauthor/corpus_35_filtered/36818.epub
19|5560aa|FamousImpostors|0.86|Cluster 5|Bram Stoker|May Byron|corpora/multiauthor/corpus_35_filtered/51391.epub
20|5560aa|ADaywithLudwigBeethoven|0.95|Cluster 5|May Byron|May Byron|corpora/multiauthor/corpus_35_filtered/59672.epub
21|5560aa|PeterParleysVisittoLondonDuringtheCoronationofQueenVictoria|0.48|Cluster 5|Samuel G. Goodrich|May Byron|corpora/multiauthor/corpus_35_filtered/43995.epub
22|5560aa|MiltonMinorPoems|0.87|Cluster 5|John Milton|May Byron|corpora/multiauthor/corpus_35_filtered/31706.epub
23|5560aa|RuthlessRhymesforHeartlessHomes|0.61|Cluster 5|Harry Graham|May Byron|corpora/multiauthor/corpus_35_filtered/35051.epub
24|5560aa|ADaywithLordByron|0.37|Cluster 5|May Byron|May Byron|corpora/multiauthor/corpus_35_filtered/32990.epub
0|5560aa|AreopagiticaASpeechfortheLibertyofUnlicensedPrintingtotheParliamentofEngland|100.0|Cluster 6|John Milton|John Milton|corpora/multiauthor/corpus_35_filtered/608.epub
1|5560aa|ThePoeticalWorksofJohnMilton|0.96|Cluster 6|John Milton|John Milton|corpora/multiauthor/corpus_35_filtered/1745.epub
2|5560aa|IndiaWhatcanitteachus?ACourseofLecturesDeliveredbeforetheUniversityOfCambridge|0.02|Cluster 6|F. Max Müller|John Milton|corpora/multiauthor/corpus_35_filtered/20847.epub
3|5560aa|TheSympathyofReligions|0.47|Cluster 6|Thomas Wentworth Higginson|John Milton|corpora/multiauthor/corpus_35_filtered/25792.epub
4|5560aa|ACommonplaceBookofThoughtsMemoriesandFancies2nded|0.76|Cluster 6|Mrs. Jameson|John Milton|corpora/multiauthor/corpus_35_filtered/39680.epub
5|5560aa|AnIntroductiontotheProseandPoeticalWorksofJohnMiltonComprisingAlltheAutobiographicPassagesinHisWorkstheMoreExplicitPresentationsofHisIdeasofTrueLiberty|0.53|Cluster 6|John Milton|John Milton|corpora/multiauthor/corpus_35_filtered/44733.epub
6|5560aa|ParadiseLost|0.97|Cluster 6|John Milton|John Milton|corpora/multiauthor/corpus_35_filtered/20.epub
7|5560aa|ABookofAmericanExplorers|0.2|Cluster 6|Thomas Wentworth Higginson|John Milton|corpora/multiauthor/corpus_35_filtered/56346.epub
8|5560aa|TheSilesianHorseherdQuestionsoftheHour|0.91|Cluster 6|F. Max Müller|John Milton|corpora/multiauthor/corpus_35_filtered/24315.epub
9|5560aa|ThoughtsonLifeandReligionAnAftermathfromtheWritingsofTheRightHonourableProfessorMaxMüller|0.71|Cluster 6|F. Max Müller|John Milton|corpora/multiauthor/corpus_35_filtered/45122.epub
10|5560aa|ParadiseRegained|0.0|Cluster 6|John Milton|John Milton|corpora/multiauthor/corpus_35_filtered/58.epub
11|5560aa|WomenandtheAlphabetASeriesofEssays|0.41|Cluster 6|Thomas Wentworth Higginson|John Milton|corpora/multiauthor/corpus_35_filtered/13474.epub
12|5560aa|LiteraryandPhilosophicalEssaysFrenchGermanandItalian|0.87|Cluster 6|Immanuel Kant|John Milton|corpora/multiauthor/corpus_35_filtered/5637.epub
0|5560aa|CaptainPeabody|100.0|Cluster 7|Rog Phillips|George W. Peck|corpora/multiauthor/corpus_35_filtered/60442.epub
1|5560aa|PecksBadBoyAbroadBeingaHumorousDescriptionoftheBadBoyandHisDadinTheirJourneysThroughForeignLands1904|0.97|Cluster 7|George W. Peck|George W. Peck|corpora/multiauthor/corpus_35_filtered/25489.epub
2|5560aa|TheCampFireGirlsontheOpenRoadOrGlorifyWork|0.73|Cluster 7|Hildegard G. Frey|George W. Peck|corpora/multiauthor/corpus_35_filtered/36485.epub
3|5560aa|PecksBadBoyandHisPa1883|0.46|Cluster 7|George W. Peck|George W. Peck|corpora/multiauthor/corpus_35_filtered/25487.epub
4|5560aa|SeeingFrancewithUncleJohn|0.3|Cluster 7|Anne Warner|George W. Peck|corpora/multiauthor/corpus_35_filtered/35574.epub
5|5560aa|RatintheSkull|0.84|Cluster 7|Rog Phillips|George W. Peck|corpora/multiauthor/corpus_35_filtered/60614.epub
6|5560aa|TheGoGetterAStoryThatTellsYouHowtobeOne|0.51|Cluster 7|Peter B. Kyne|George W. Peck|corpora/multiauthor/corpus_35_filtered/12257.epub
7|5560aa|TheGroceryManAndPecksBadBoyPecksBadBoyandHisPaNo21883|0.98|Cluster 7|George W. Peck|George W. Peck|corpora/multiauthor/corpus_35_filtered/25488.epub
0|5560aa|Poems|100.0|Cluster 8|Samuel G. Goodrich|Samuel G. Goodrich|corpora/multiauthor/corpus_35_filtered/11558.epub
1|5560aa|TheUncrownedKing|0.47|Cluster 8|Harold Bell Wright|Samuel G. Goodrich|corpora/multiauthor/corpus_35_filtered/12991.epub
2|5560aa|TheMotleyMuseRhymesfortheTimes|0.96|Cluster 8|Harry Graham|Samuel G. Goodrich|corpora/multiauthor/corpus_35_filtered/36543.epub
3|5560aa|LAllegroIlPenserosoComusandLycidas|0.42|Cluster 8|John Milton|Samuel G. Goodrich|corpora/multiauthor/corpus_35_filtered/397.epub
4|5560aa|PoemsYouOughttoKnow|0.01|Cluster 8|Elia Wilkinson Peattie|Samuel G. Goodrich|corpora/multiauthor/corpus_35_filtered/53415.epub
5|5560aa|TheTwoTwilights|0.37|Cluster 8|Henry A. Beers|Samuel G. Goodrich|corpora/multiauthor/corpus_35_filtered/34741.epub
0|5560aa|TheMetaphysicalElementsofEthics|100.0|Cluster 9|Immanuel Kant|Benedictus de Spinoza|corpora/multiauthor/corpus_35_filtered/5684.epub
1|5560aa|TheologicoPoliticalTreatise—Part1|0.51|Cluster 9|Benedictus de Spinoza|Benedictus de Spinoza|corpora/multiauthor/corpus_35_filtered/989.epub
2|5560aa|Ethics—Part4|0.89|Cluster 9|Benedictus de Spinoza|Benedictus de Spinoza|corpora/multiauthor/corpus_35_filtered/971.epub
3|5560aa|TheCritiqueofPracticalReason|0.73|Cluster 9|Immanuel Kant|Benedictus de Spinoza|corpora/multiauthor/corpus_35_filtered/5683.epub
4|5560aa|TheologicoPoliticalTreatise—Part2|0.37|Cluster 9|Benedictus de Spinoza|Benedictus de Spinoza|corpora/multiauthor/corpus_35_filtered/990.epub
5|5560aa|KantsCritiqueofJudgement|0.9|Cluster 9|Immanuel Kant|Benedictus de Spinoza|corpora/multiauthor/corpus_35_filtered/48433.epub
6|5560aa|Hieroglyphics|0.34|Cluster 9|Arthur Machen|Benedictus de Spinoza|corpora/multiauthor/corpus_35_filtered/40241.epub
7|5560aa|FundamentalPrinciplesoftheMetaphysicofMorals|0.98|Cluster 9|Immanuel Kant|Benedictus de Spinoza|corpora/multiauthor/corpus_35_filtered/5682.epub
8|5560aa|KantsProlegomenatoAnyFutureMetaphysics|0.88|Cluster 9|Immanuel Kant|Benedictus de Spinoza|corpora/multiauthor/corpus_35_filtered/52821.epub
9|5560aa|ThePhilosophyofSpinoza|0.2|Cluster 9|Benedictus de Spinoza|Benedictus de Spinoza|corpora/multiauthor/corpus_35_filtered/31205.epub
10|5560aa|OntheImprovementoftheUnderstanding|0.01|Cluster 9|Benedictus de Spinoza|Benedictus de Spinoza|corpora/multiauthor/corpus_35_filtered/1016.epub
11|5560aa|Ethics—Part1|0.65|Cluster 9|Benedictus de Spinoza|Benedictus de Spinoza|corpora/multiauthor/corpus_35_filtered/919.epub
12|5560aa|Ethics—Part5|0.21|Cluster 9|Benedictus de Spinoza|Benedictus de Spinoza|corpora/multiauthor/corpus_35_filtered/975.epub
13|5560aa|TheCritiqueofPureReason|0.36|Cluster 9|Immanuel Kant|Benedictus de Spinoza|corpora/multiauthor/corpus_35_filtered/4280.epub
14|5560aa|Ethics—Part2|0.53|Cluster 9|Benedictus de Spinoza|Benedictus de Spinoza|corpora/multiauthor/corpus_35_filtered/920.epub
0|5560aa|TheUnthinkingDestroyer|100.0|Cluster 10|Rog Phillips|unknown_11|corpora/multiauthor/corpus_35_filtered/30683.epub
1|5560aa|CubeRootofConquest|0.73|Cluster 10|Rog Phillips|unknown_11|corpora/multiauthor/corpus_35_filtered/32712.epub
0|5560aa|Aloys|100.0|Cluster 11|R. A. Lafferty|R. A. Lafferty|corpora/multiauthor/corpus_35_filtered/51596.epub
1|5560aa|ThePolitePeopleofPudibundia|0.06|Cluster 11|R. A. Lafferty|R. A. Lafferty|corpora/multiauthor/corpus_35_filtered/60955.epub
2|5560aa|IntheGarden|0.22|Cluster 11|R. A. Lafferty|R. A. Lafferty|corpora/multiauthor/corpus_35_filtered/61007.epub
3|5560aa|AllthePeople|0.13|Cluster 11|R. A. Lafferty|R. A. Lafferty|corpora/multiauthor/corpus_35_filtered/51603.epub
0|5560aa|FamiliarFaces|100.0|Cluster 12|Harry Graham|Harry Graham|corpora/multiauthor/corpus_35_filtered/35059.epub
1|5560aa|VerseandWorse|0.35|Cluster 12|Harry Graham|Harry Graham|corpora/multiauthor/corpus_35_filtered/36702.epub
2|5560aa|PervertedProverbsAManualofImmoralsfortheMany|0.55|Cluster 12|Harry Graham|Harry Graham|corpora/multiauthor/corpus_35_filtered/34790.epub
3|5560aa|MisrepresentativeWomen|0.17|Cluster 12|Harry Graham|Harry Graham|corpora/multiauthor/corpus_35_filtered/42407.epub
4|5560aa|MoreMisrepresentativeMen|0.64|Cluster 12|Harry Graham|Harry Graham|corpora/multiauthor/corpus_35_filtered/36782.epub
5|5560aa|FiscalBallads|0.26|Cluster 12|Harry Graham|Harry Graham|corpora/multiauthor/corpus_35_filtered/36038.epub
6|5560aa|MisrepresentativeMen|0.77|Cluster 12|Harry Graham|Harry Graham|corpora/multiauthor/corpus_35_filtered/36321.epub
0|5560aa|McGonigalsWorm|100.0|Cluster 13|R. A. Lafferty|unknown_14|corpora/multiauthor/corpus_35_filtered/60940.epub
1|5560aa|SevenDayTerror|0.52|Cluster 13|R. A. Lafferty|unknown_14|corpora/multiauthor/corpus_35_filtered/61128.epub
2|5560aa|SodomandGomorrahTexas|0.6|Cluster 13|R. A. Lafferty|unknown_14|corpora/multiauthor/corpus_35_filtered/23161.epub
0|5560aa|Tillie|100.0|Cluster 14|Rog Phillips|Rog Phillips|corpora/multiauthor/corpus_35_filtered/32802.epub
1|5560aa|TheOldMartians|0.19|Cluster 14|Rog Phillips|Rog Phillips|corpora/multiauthor/corpus_35_filtered/32590.epub
2|5560aa|Unthinkable|0.69|Cluster 14|Rog Phillips|Rog Phillips|corpora/multiauthor/corpus_35_filtered/27491.epub
3|5560aa|TheGallery|0.31|Cluster 14|Rog Phillips|Rog Phillips|corpora/multiauthor/corpus_35_filtered/26936.epub
4|5560aa|YeofLittleFaith|0.78|Cluster 14|Rog Phillips|Rog Phillips|corpora/multiauthor/corpus_35_filtered/32663.epub
0|5560aa|OftheInjusticeofCounterfeitingBooksFromEssaysandTreatiesonMoralPoliticalandvariousPhilosophicalSubjects|100.0|Cluster 15|Immanuel Kant|Immanuel Kant|corpora/multiauthor/corpus_35_filtered/46060.epub
0|5560aa|DreamWorld|100.0|Cluster 16|R. A. Lafferty|unknown_17|corpora/multiauthor/corpus_35_filtered/51668.epub
1|5560aa|QuotesandImagesFromMemoirsofLouisXVandXVI|0.7|Cluster 16|Mme. Du Hausset|unknown_17|corpora/multiauthor/corpus_35_filtered/7561.epub
0|5560aa|TheWeirdestWorld|100.0|Cluster 17|R. A. Lafferty|unknown_18|corpora/multiauthor/corpus_35_filtered/51774.epub
