idnum|extra|percent|title|clusterid|real_author|label|filename
5|||DombeyandSon|Cluster 5|Charles Dickens|Charles Dickens|corpora/baseline/corpus1/pg821.epub
5|||HardTimes|Cluster 5|Charles Dickens|Charles Dickens|corpora/baseline/corpus1/pg786.epub
5|||MartinChuzzlewit|Cluster 5|Charles Dickens|Charles Dickens|corpora/baseline/corpus1/pg968.epub
5|||OurMutualFriend|Cluster 5|Charles Dickens|Charles Dickens|corpora/baseline/corpus1/pg883.epub
5|||TheMysteryofEdwinDrood|Cluster 5|Charles Dickens|Charles Dickens|corpora/baseline/corpus1/pg564.epub
5|||NicholasNickleby|Cluster 5|Charles Dickens|Charles Dickens|corpora/baseline/corpus1/pg967.epub
5|||LittleDorrit|Cluster 5|Charles Dickens|Charles Dickens|corpora/baseline/corpus1/pg963.epub
2|||Ruth|Cluster 2|Elizabeth Cleghorn Gaskell|Elizabeth Cleghorn Gaskell|corpora/baseline/corpus1/pg4275.epub
2|||MaryBarton|Cluster 2|Elizabeth Cleghorn Gaskell|Elizabeth Cleghorn Gaskell|corpora/baseline/corpus1/pg2153.epub
2|||NorthandSouth|Cluster 2|Elizabeth Cleghorn Gaskell|Elizabeth Cleghorn Gaskell|corpora/baseline/corpus1/pg4276.epub
2|||Cranford|Cluster 2|Elizabeth Cleghorn Gaskell|Elizabeth Cleghorn Gaskell|corpora/baseline/corpus1/pg394.epub
0|||Emma|Cluster 0|Jane Austen|Jane Austen|corpora/baseline/corpus1/pg158.epub
0|||SenseandSensibility|Cluster 0|Jane Austen|Jane Austen|corpora/baseline/corpus1/pg161.epub
0|||NorthangerAbbey|Cluster 0|Jane Austen|Jane Austen|corpora/baseline/corpus1/pg121.epub
0|||Persuasion|Cluster 0|Jane Austen|Jane Austen|corpora/baseline/corpus1/pg105.epub
0|||PrideandPrejudice|Cluster 0|Jane Austen|Jane Austen|corpora/baseline/corpus1/pg42671.epub
0|||MansfieldPark|Cluster 0|Jane Austen|Jane Austen|corpora/baseline/corpus1/pg141.epub
3|||TheHistoryofHenryEsmondEsqaColonelintheServiceofHerMajestyQueenAnne|Cluster 3|William Makepeace Thackeray|William Makepeace Thackeray|corpora/baseline/corpus1/pg2511.epub
3|||TheVirginians|Cluster 3|William Makepeace Thackeray|William Makepeace Thackeray|corpora/baseline/corpus1/pg8123.epub
3|||TheNewcomesMemoirsofaMostRespectableFamily|Cluster 3|William Makepeace Thackeray|William Makepeace Thackeray|corpora/baseline/corpus1/pg7467.epub
3|||TheHistoryofPendennis|Cluster 3|William Makepeace Thackeray|William Makepeace Thackeray|corpora/baseline/corpus1/pg7265.epub
3|||CatherineAStory|Cluster 3|William Makepeace Thackeray|William Makepeace Thackeray|corpora/baseline/corpus1/pg1969.epub
3|||VanityFair|Cluster 3|William Makepeace Thackeray|William Makepeace Thackeray|corpora/baseline/corpus1/pg599.epub
1|||BarnabyRudgeATaleoftheRiotsofEighty|Cluster 1|Charles Dickens|unknown_5|corpora/baseline/corpus1/pg917.epub
1|||OliverTwist|Cluster 1|Charles Dickens|unknown_5|corpora/baseline/corpus1/pg730.epub
1|||ATaleofTwoCities|Cluster 1|Charles Dickens|unknown_5|corpora/baseline/corpus1/pg98.epub
1|||SylviasLovers—Complete|Cluster 1|Elizabeth Cleghorn Gaskell|unknown_5|corpora/baseline/corpus1/pg4537.epub
1|||ThePickwickPapers|Cluster 1|Charles Dickens|unknown_5|corpora/baseline/corpus1/pg580.epub
4|||Romola|Cluster 4|George Eliot|George Eliot|corpora/baseline/corpus1/pg24020.epub
4|||DanielDeronda|Cluster 4|George Eliot|George Eliot|corpora/baseline/corpus1/pg7469.epub
4|||SilasMarner|Cluster 4|George Eliot|George Eliot|corpora/baseline/corpus1/pg550.epub
4|||AdamBede|Cluster 4|George Eliot|George Eliot|corpora/baseline/corpus1/pg507.epub
4|||TheMillontheFloss|Cluster 4|George Eliot|George Eliot|corpora/baseline/corpus1/pg6688.epub
4|||FelixHolttheRadical|Cluster 4|George Eliot|George Eliot|corpora/baseline/corpus1/pg40882.epub
4|||Middlemarch|Cluster 4|George Eliot|George Eliot|corpora/baseline/corpus1/pg145.epub
