idnum|extra|percent|title|clusterid|real_author|label|filename
1|||MyStrangeRescueandOtherStoriesofSportandAdventureinCanada|Cluster 1|J. Macdonald Oxley|unknown_1|corpora/first_corpus_filtered/51308.epub
1|||TerrysTrialsandTriumphs|Cluster 1|J. Macdonald Oxley|unknown_1|corpora/first_corpus_filtered/33754.epub
1|||TheWreckersofSableIsland|Cluster 1|J. Macdonald Oxley|unknown_1|corpora/first_corpus_filtered/33714.epub
1|||TheYoungWoodsmanOrLifeintheForestsofCanada|Cluster 1|J. Macdonald Oxley|unknown_1|corpora/first_corpus_filtered/9968.epub
1|||DonalblaneofDarien|Cluster 1|J. Macdonald Oxley|unknown_1|corpora/first_corpus_filtered/33722.epub
1|||TiTiPuABoyofRedRiver|Cluster 1|J. Macdonald Oxley|unknown_1|corpora/first_corpus_filtered/33740.epub
1|||TheFamilyonWheels|Cluster 1|J. Macdonald Oxley|unknown_1|corpora/first_corpus_filtered/55891.epub
1|||BertLloydsBoyhoodAStoryfromNovaScotia|Cluster 1|J. Macdonald Oxley|unknown_1|corpora/first_corpus_filtered/25358.epub
1|||WithRogersontheFrontierAStoryof1756|Cluster 1|J. Macdonald Oxley|unknown_1|corpora/first_corpus_filtered/53560.epub
1|||InPathsofPerilABoysAdventuresinNovaScotia|Cluster 1|J. Macdonald Oxley|unknown_1|corpora/first_corpus_filtered/33753.epub
7|||BalladoftheLostHare|Cluster 7|Margaret Sidney|unknown_2|corpora/first_corpus_filtered/49624.epub
7|||PeterBelltheThird|Cluster 7|Percy Bysshe Shelley|unknown_2|corpora/first_corpus_filtered/4697.epub
7|||TheMasteroftheInn|Cluster 7|Robert Herrick|unknown_2|corpora/first_corpus_filtered/35388.epub
6|||FiveLittlePeppersandtheirFriends|Cluster 6|Margaret Sidney|unknown_3|corpora/first_corpus_filtered/6418.epub
6|||FiveLittlePeppersMidway|Cluster 6|Margaret Sidney|unknown_3|corpora/first_corpus_filtered/5632.epub
6|||TheStoriesPollyPepperToldtotheFiveLittlePeppersintheLittleBrownHouse|Cluster 6|Margaret Sidney|unknown_3|corpora/first_corpus_filtered/49471.epub
6|||TheAdventuresofJoelPepper|Cluster 6|Margaret Sidney|unknown_3|corpora/first_corpus_filtered/7434.epub
6|||BenPepper|Cluster 6|Margaret Sidney|unknown_3|corpora/first_corpus_filtered/35178.epub
6|||FiveLittlePeppersAbroad|Cluster 6|Margaret Sidney|unknown_3|corpora/first_corpus_filtered/6987.epub
6|||FiveLittlePeppersGrownUp|Cluster 6|Margaret Sidney|unknown_3|corpora/first_corpus_filtered/7498.epub
6|||FiveLittlePeppersatSchool|Cluster 6|Margaret Sidney|unknown_3|corpora/first_corpus_filtered/26122.epub
6|||FiveLittlePeppersandHowTheyGrew|Cluster 6|Margaret Sidney|unknown_3|corpora/first_corpus_filtered/2770.epub
0|||TheLogicofHegel|Cluster 0|Georg Wilhelm Friedrich Hegel|J. Macdonald Oxley|corpora/first_corpus_filtered/55108.epub
0|||HegelsPhilosophyofMind|Cluster 0|Georg Wilhelm Friedrich Hegel|J. Macdonald Oxley|corpora/first_corpus_filtered/39064.epub
0|||HegelsLecturesontheHistoryofPhilosophyVolume1of3|Cluster 0|Georg Wilhelm Friedrich Hegel|J. Macdonald Oxley|corpora/first_corpus_filtered/51635.epub
0|||TheIntroductiontoHegelsPhilosophyofFineArtsTranslatedfromtheGermanwithNotesandPrefatoryEssay|Cluster 0|Georg Wilhelm Friedrich Hegel|J. Macdonald Oxley|corpora/first_corpus_filtered/46330.epub
0|||TheHistoryofPhilosophyVolumeThreeof3|Cluster 0|Georg Wilhelm Friedrich Hegel|J. Macdonald Oxley|corpora/first_corpus_filtered/58169.epub
0|||HegelsLecturesontheHistoryofPhilosophyVolume2of3|Cluster 0|Georg Wilhelm Friedrich Hegel|J. Macdonald Oxley|corpora/first_corpus_filtered/51636.epub
0|||ADefenceofPoetryandOtherEssays|Cluster 0|Percy Bysshe Shelley|J. Macdonald Oxley|corpora/first_corpus_filtered/5428.epub
2|||TheCompletePoeticalWorksofPercyByssheShelley—Volume2|Cluster 2|Percy Bysshe Shelley|Margaret Sidney|corpora/first_corpus_filtered/4798.epub
2|||HistoryofaSixWeeksTourThroughaPartofFranceSwitzerlandGermanyandHollandWithLettersDescriptiveofaSailRoundtheLakeofGenevaandofthe|Cluster 2|Mary Wollstonecraft Shelley|Margaret Sidney|corpora/first_corpus_filtered/52790.epub
2|||TheCompletePoeticalWorksofPercyByssheShelley—Complete|Cluster 2|Percy Bysshe Shelley|Margaret Sidney|corpora/first_corpus_filtered/4800.epub
2|||TheCompletePoeticalWorksofPercyByssheShelley—Volume1|Cluster 2|Percy Bysshe Shelley|Margaret Sidney|corpora/first_corpus_filtered/4797.epub
2|||TheCompletePoeticalWorksofPercyByssheShelley—Volume3|Cluster 2|Percy Bysshe Shelley|Margaret Sidney|corpora/first_corpus_filtered/4799.epub
2|||AVindicationofNaturalDiet|Cluster 2|Percy Bysshe Shelley|Margaret Sidney|corpora/first_corpus_filtered/38727.epub
2|||TheWitchofAtlas|Cluster 2|Percy Bysshe Shelley|Margaret Sidney|corpora/first_corpus_filtered/4696.epub
2|||TheDaemonoftheWorld|Cluster 2|Percy Bysshe Shelley|Margaret Sidney|corpora/first_corpus_filtered/4654.epub
2|||TheWorldDecision|Cluster 2|Robert Herrick|Margaret Sidney|corpora/first_corpus_filtered/8529.epub
5|||TheManWhoWins|Cluster 5|Robert Herrick|Robert Herrick|corpora/first_corpus_filtered/29808.epub
5|||HisGreatAdventure|Cluster 5|Robert Herrick|Robert Herrick|corpora/first_corpus_filtered/59463.epub
5|||ClarksField|Cluster 5|Robert Herrick|Robert Herrick|corpora/first_corpus_filtered/30736.epub
5|||TheCommonLot|Cluster 5|Robert Herrick|Robert Herrick|corpora/first_corpus_filtered/57830.epub
5|||Together|Cluster 5|Robert Herrick|Robert Herrick|corpora/first_corpus_filtered/8134.epub
5|||TheWebofLife|Cluster 5|Robert Herrick|Robert Herrick|corpora/first_corpus_filtered/7828.epub
4|||ThePhilosophyofFineArtvolume3of4HegelsAesthetik|Cluster 4|Georg Wilhelm Friedrich Hegel|Percy Bysshe Shelley|corpora/first_corpus_filtered/55623.epub
4|||ThePhilosophyofFineArtvolume2of4HegelsAesthetik|Cluster 4|Georg Wilhelm Friedrich Hegel|Percy Bysshe Shelley|corpora/first_corpus_filtered/55445.epub
4|||ThePhilosophyofFineArtvolume4of4HegelsAesthetik|Cluster 4|Georg Wilhelm Friedrich Hegel|Percy Bysshe Shelley|corpora/first_corpus_filtered/55731.epub
4|||ThePhilosophyofFineArtvolume1of4HegelsAesthetik|Cluster 4|Georg Wilhelm Friedrich Hegel|Percy Bysshe Shelley|corpora/first_corpus_filtered/55334.epub
3|||LiteraryLoveLettersandOtherStories|Cluster 3|Robert Herrick|Georg Wilhelm Friedrich Hegel|corpora/first_corpus_filtered/8113.epub
3|||TheMemoirsofanAmericanCitizen|Cluster 3|Robert Herrick|Georg Wilhelm Friedrich Hegel|corpora/first_corpus_filtered/41338.epub
