<?xml version="1.0" encoding="UTF-8" standalone="no"?>
<svg
   xmlns:dc="http://purl.org/dc/elements/1.1/"
   xmlns:cc="http://creativecommons.org/ns#"
   xmlns:rdf="http://www.w3.org/1999/02/22-rdf-syntax-ns#"
   xmlns:svg="http://www.w3.org/2000/svg"
   xmlns="http://www.w3.org/2000/svg"
   xmlns:sodipodi="http://sodipodi.sourceforge.net/DTD/sodipodi-0.dtd"
   xmlns:inkscape="http://www.inkscape.org/namespaces/inkscape"
   width="297mm"
   height="210mm"
   style="overflow:hidden"
   id="svg2"
   version="1.1"
   inkscape:version="0.91 r13725"
   sodipodi:docname="circle_tree.svg"
   inkscape:export-filename="/Users/pieter/Documents/Projects/nidhogg/paper/afbeeldingen/circle_tree.png"
   inkscape:export-xdpi="37.450001"
   inkscape:export-ydpi="37.450001">
  <metadata
     id="metadata173">
    <rdf:RDF>
      <cc:Work
         rdf:about="">
        <dc:format>image/svg+xml</dc:format>
        <dc:type
           rdf:resource="http://purl.org/dc/dcmitype/StillImage" />
        <dc:title></dc:title>
      </cc:Work>
    </rdf:RDF>
  </metadata>
  <sodipodi:namedview
     pagecolor="#ffffff"
     bordercolor="#666666"
     borderopacity="1"
     objecttolerance="10"
     gridtolerance="10"
     guidetolerance="10"
     inkscape:pageopacity="0"
     inkscape:pageshadow="2"
     inkscape:window-width="1217"
     inkscape:window-height="728"
     id="namedview171"
     showgrid="false"
     units="mm"
     inkscape:zoom="0.57985258"
     inkscape:cx="546.24017"
     inkscape:cy="362.72172"
     inkscape:window-x="0"
     inkscape:window-y="0"
     inkscape:window-maximized="0"
     inkscape:current-layer="svg2" />
  <defs
     id="defs4" />
  <g
     id="container"
     transform="matrix(1.2420565,0,0,0.97262486,-268.42944,-32.711219)">
    <g
       id="container_1"
       transform="matrix(-0.1919,-0.1108,0.1108,-0.1919,639,406)">
      <g
         id="container_2" />
      <g
         id="container_3" />
      <g
         id="container_4">
        <g
           id="I11">
          <path
             d="m -345.77858,-741.52455 38.41984,82.39161 m 151.24229,-144.01657 m 0,0 A 818.18182,818.18182 0 0 0 -514.8985,-635.8467"
             style="fill:none;stroke:#000000;stroke-linecap:round;stroke-miterlimit:10"
             id="shape"
             inkscape:connector-curvature="0" />
        </g>
        <g
           id="I29">
          <path
             d="m -966.068,-277.01554 4.8063,1.37818"
             style="fill:none;stroke:#aaaaaa;stroke-width:0.30000001;stroke-linecap:round;stroke-miterlimit:10;stroke-dasharray:5, 10"
             id="shape_1"
             inkscape:connector-curvature="0" />
          <text
             id="text"
             transform="matrix(-0.9613,-0.2756,0.2756,-0.9613,-961.5218,-292.87)"
             style="font-size:50px;font-family:Arial;fill:#000000">'ThroughtheLookingGlass'</text>
          <path
             d="m -961.2617,-275.63736 87.38743,25.05795"
             style="fill:none;stroke:#000000;stroke-linecap:round;stroke-miterlimit:10"
             id="shape_2"
             inkscape:connector-curvature="0" />
        </g>
        <g
           id="I37">
          <path
             d="M 537.44832,340.74621 230.33499,146.03409 m 141.46025,370.42208 m 0,0 A 636.36364,636.36364 0 0 0 625.70767,115.96806"
             style="fill:none;stroke:#000000;stroke-linecap:round;stroke-miterlimit:10"
             id="shape_3"
             inkscape:connector-curvature="0" />
        </g>
        <g
           id="I40">
          <path
             d="m 848.70948,325.78905 -84.87095,-32.57891 m 38.8411,133.58219 m 0,0 A 909.09091,909.09091 0 0 0 882.08702,219.929"
             style="fill:none;stroke:#000000;stroke-linecap:round;stroke-miterlimit:10"
             id="shape_4"
             inkscape:connector-curvature="0" />
        </g>
        <g
           id="I12">
          <path
             d="m -572.10945,-706.49633 57.21095,70.64963 m 33.15371,-135.10611 m 0,0 a 909.09091,909.09091 0 0 0 -172.20048,139.4452"
             style="fill:none;stroke:#000000;stroke-linecap:round;stroke-miterlimit:10"
             id="shape_5"
             inkscape:connector-curvature="0" />
        </g>
        <g
           id="I31">
          <path
             d="m -235.29004,878.11439 23.529,-87.81144 m -128.79041,52.59146 m 0,0 A 909.09091,909.09091 0 0 0 -126.521,900.2437"
             style="fill:none;stroke:#000000;stroke-linecap:round;stroke-miterlimit:10"
             id="shape_6"
             inkscape:connector-curvature="0" />
        </g>
        <g
           id="I36">
          <path
             d="m -769.87467,646.00155 3.83023,-3.21394"
             style="fill:none;stroke:#aaaaaa;stroke-width:0.30000001;stroke-linecap:round;stroke-miterlimit:10;stroke-dasharray:5, 10"
             id="shape_7"
             inkscape:connector-curvature="0" />
          <text
             id="text_1"
             transform="matrix(-0.766,0.6428,-0.6428,-0.766,-780.4765,633.37)"
             style="font-size:50px;font-family:Arial;fill:#000000">'GrimmsFairyTales'</text>
          <path
             d="m -766.04444,642.78761 69.6404,-58.43524"
             style="fill:none;stroke:#000000;stroke-linecap:round;stroke-miterlimit:10"
             id="shape_8"
             inkscape:connector-curvature="0" />
        </g>
        <g
           id="I17">
          <path
             d="m -70.105256,-1002.5519 0.348782,4.98785"
             style="fill:none;stroke:#aaaaaa;stroke-width:0.30000001;stroke-linecap:round;stroke-miterlimit:10;stroke-dasharray:5, 10"
             id="shape_9"
             inkscape:connector-curvature="0" />
          <text
             id="text_2"
             transform="matrix(0.0698,0.9976,-0.9976,0.0698,-86.5586,-1001.4)"
             style="font-size:50px;font-family:Arial;text-anchor:end;fill:#000000">'TheStoryoftheVolsungsVolsungaSagawithExcerptsfromthePoeticEdda'</text>
          <path
             d="m -69.756474,-997.56405 6.341498,90.68764"
             style="fill:none;stroke:#000000;stroke-linecap:round;stroke-miterlimit:10"
             id="shape_10"
             inkscape:connector-curvature="0" />
        </g>
        <g
           id="I22">
          <path
             d="m 612.78195,-542.14368 -68.08688,60.23819 m 156.62363,60.5107 m 0,0 A 818.18182,818.18182 0 0 0 503.72303,-644.73607"
             style="fill:none;stroke:#000000;stroke-linecap:round;stroke-miterlimit:10"
             id="shape_11"
             inkscape:connector-curvature="0" />
        </g>
        <g
           id="I5">
          <path
             d="m -903.28802,440.563 4.49397,-2.19185"
             style="fill:none;stroke:#aaaaaa;stroke-width:0.30000001;stroke-linecap:round;stroke-miterlimit:10;stroke-dasharray:5, 10"
             id="shape_12"
             inkscape:connector-curvature="0" />
          <text
             id="text_3"
             transform="matrix(-0.8988,0.4384,-0.4384,-0.8988,-910.5183,425.74)"
             style="font-size:50px;font-family:Arial;fill:#000000">'TheInvisibleManAGrotesqueRomance'</text>
          <path
             d="m -898.79405,438.37115 81.70855,-39.85193"
             style="fill:none;stroke:#000000;stroke-linecap:round;stroke-miterlimit:10"
             id="shape_13"
             inkscape:connector-curvature="0" />
        </g>
        <g
           id="I47">
          <path
             d="m 204.50096,885.79097 -20.4501,-88.5791 M 95.025876,904.11081 m 0,0 A 909.09091,909.09091 0 0 0 310.9274,854.26602"
             style="fill:none;stroke:#000000;stroke-linecap:round;stroke-miterlimit:10"
             id="shape_14"
             inkscape:connector-curvature="0" />
        </g>
        <g
           id="I46">
          <path
             d="m 561.98887,833.18276 -2.79597,-4.14519"
             style="fill:none;stroke:#aaaaaa;stroke-width:0.30000001;stroke-linecap:round;stroke-miterlimit:10;stroke-dasharray:5, 10"
             id="shape_15"
             inkscape:connector-curvature="0" />
          <text
             id="text_4"
             transform="matrix(-0.5592,-0.829,0.829,-0.5592,575.6626,823.96)"
             style="font-size:50px;font-family:Arial;text-anchor:end;fill:#000000">'AroundtheWorldinEightyDays'</text>
          <path
             d="M 559.1929,829.03757 457.52147,678.30347"
             style="fill:none;stroke:#000000;stroke-linecap:round;stroke-miterlimit:10"
             id="shape_16"
             inkscape:connector-curvature="0" />
        </g>
        <g
           id="I43">
          <path
             d="m 424.90885,590.23562 -53.11361,-73.77945 m -81.79592,150.49661 m 0,0 A 727.27273,727.27273 0 0 0 540.46896,486.64044"
             style="fill:none;stroke:#000000;stroke-linecap:round;stroke-miterlimit:10"
             id="shape_17"
             inkscape:connector-curvature="0" />
        </g>
        <g
           id="I6">
          <path
             d="m -983.03834,208.95125 4.89074,-1.03956"
             style="fill:none;stroke:#aaaaaa;stroke-width:0.30000001;stroke-linecap:round;stroke-miterlimit:10;stroke-dasharray:5, 10"
             id="shape_18"
             inkscape:connector-curvature="0" />
          <text
             id="text_5"
             transform="matrix(-0.9781,0.2079,-0.2079,-0.9781,-986.4675,192.82)"
             style="font-size:50px;font-family:Arial;fill:#000000">'APrincessofMars'</text>
          <path
             d="m -978.1476,207.91169 88.92251,-18.90106"
             style="fill:none;stroke:#000000;stroke-linecap:round;stroke-miterlimit:10"
             id="shape_19"
             inkscape:connector-curvature="0" />
        </g>
        <g
           id="I16">
          <path
             d="m -310.56208,-955.8118 1.54509,4.75528"
             style="fill:none;stroke:#aaaaaa;stroke-width:0.30000001;stroke-linecap:round;stroke-miterlimit:10;stroke-dasharray:5, 10"
             id="shape_20"
             inkscape:connector-curvature="0" />
          <text
             id="text_6"
             transform="matrix(0.309,0.9511,-0.9511,0.309,-326.2484,-950.72)"
             style="font-size:50px;font-family:Arial;text-anchor:end;fill:#000000">'TheValkyries'</text>
          <path
             d="m -309.01699,-951.05652 28.09245,86.45969"
             style="fill:none;stroke:#000000;stroke-linecap:round;stroke-miterlimit:10"
             id="shape_21"
             inkscape:connector-curvature="0" />
        </g>
        <g
           id="I49">
          <path
             d="m 105.05111,999.4945 -0.52265,-4.9726"
             style="fill:none;stroke:#aaaaaa;stroke-width:0.30000001;stroke-linecap:round;stroke-miterlimit:10;stroke-dasharray:5, 10"
             id="shape_22"
             inkscape:connector-curvature="0" />
          <text
             id="text_7"
             transform="matrix(0.1045,0.9945,-0.9945,0.1045,88.6479,1001.22)"
             style="font-size:50px;font-family:Arial;fill:#000000">'AJourneyintotheInterioroftheEarth'</text>
          <path
             d="M 104.52846,994.5219 95.025876,904.11081"
             style="fill:none;stroke:#000000;stroke-linecap:round;stroke-miterlimit:10"
             id="shape_23"
             inkscape:connector-curvature="0" />
        </g>
        <g
           id="I0">
          <g
             id="shape_24">
            <path
               d="M -14.092277,181.27123 -7.0461387,90.635615"
               style="fill:none;stroke:#000000;stroke-linecap:round;stroke-miterlimit:10"
               id="path61"
               inkscape:connector-curvature="0" />
            <circle
               cx="-14.092278"
               cy="181.27122"
               r="2"
               style="fill:#000000;stroke:#000000;stroke-linecap:round;stroke-miterlimit:10"
               id="circle63" />
          </g>
        </g>
        <g
           id="I20">
          <path
             d="m 174.51642,-989.73179 -0.86824,4.92404"
             style="fill:none;stroke:#aaaaaa;stroke-width:0.30000001;stroke-linecap:round;stroke-miterlimit:10;stroke-dasharray:5, 10"
             id="shape_25"
             inkscape:connector-curvature="0" />
          <text
             id="text_8"
             transform="matrix(-0.1736,0.9848,-0.9848,-0.1736,158.2734,-992.6)"
             style="font-size:50px;font-family:Arial;text-anchor:end;fill:#000000">'TheYoungerEddaAlsocalledSnorresEddaorTheProseEdda'</text>
          <path
             d="m 173.64818,-984.80775 -15.7862,89.52797"
             style="fill:none;stroke:#000000;stroke-linecap:round;stroke-miterlimit:10"
             id="shape_26"
             inkscape:connector-curvature="0" />
        </g>
        <g
           id="I26">
          <path
             d="m 918.11318,-408.77033 -4.56772,2.03369"
             style="fill:none;stroke:#aaaaaa;stroke-width:0.30000001;stroke-linecap:round;stroke-miterlimit:10;stroke-dasharray:5, 10"
             id="shape_27"
             inkscape:connector-curvature="0" />
          <text
             id="text_9"
             transform="matrix(-0.9135,0.4067,-0.4067,-0.9135,911.4047,-423.84)"
             style="font-size:50px;font-family:Arial;text-anchor:end;fill:#000000">'TheStrangeCaseofDrJekyllandMrHyde'</text>
          <path
             d="m 913.54546,-406.73664 -83.04959,36.97606"
             style="fill:none;stroke:#000000;stroke-linecap:round;stroke-miterlimit:10"
             id="shape_28"
             inkscape:connector-curvature="0" />
        </g>
        <g
           id="I33">
          <path
             d="m -376.47963,931.81977 1.87304,-4.63592"
             style="fill:none;stroke:#aaaaaa;stroke-width:0.30000001;stroke-linecap:round;stroke-miterlimit:10;stroke-dasharray:5, 10"
             id="shape_29"
             inkscape:connector-curvature="0" />
          <text
             id="text_10"
             transform="matrix(-0.3746,0.9272,-0.9272,-0.3746,-391.7722,925.64)"
             style="font-size:50px;font-family:Arial;fill:#000000">'Dracula'</text>
          <path
             d="m -374.60659,927.18385 34.05514,-84.28944"
             style="fill:none;stroke:#000000;stroke-linecap:round;stroke-miterlimit:10"
             id="shape_30"
             inkscape:connector-curvature="0" />
        </g>
        <g
           id="I8">
          <path
             d="m -54.079567,-634.06157 7.725652,90.58022 m 390.610395,8.27471 m 0,0 a 636.36364,636.36364 0 0 0 -774.17752,66.03015"
             style="fill:none;stroke:#000000;stroke-linecap:round;stroke-miterlimit:10"
             id="shape_31"
             inkscape:connector-curvature="0" />
        </g>
        <g
           id="I32">
          <path
             d="m -139.86897,995.21941 0.69587,-4.95134"
             style="fill:none;stroke:#aaaaaa;stroke-width:0.30000001;stroke-linecap:round;stroke-miterlimit:10;stroke-dasharray:5, 10"
             id="shape_32"
             inkscape:connector-curvature="0" />
          <text
             id="text_11"
             transform="matrix(-0.1392,0.9903,-0.9903,-0.1392,-156.202,992.92)"
             style="font-size:50px;font-family:Arial;fill:#000000">'FrankensteinOrTheModernPrometheus'</text>
          <path
             d="M -139.1731,990.26807 -126.521,900.2437"
             style="fill:none;stroke:#000000;stroke-linecap:round;stroke-miterlimit:10"
             id="shape_33"
             inkscape:connector-curvature="0" />
        </g>
        <g
           id="I44">
          <path
             d="m 746.86055,672.47626 -3.71572,-3.34565"
             style="fill:none;stroke:#aaaaaa;stroke-width:0.30000001;stroke-linecap:round;stroke-miterlimit:10;stroke-dasharray:5, 10"
             id="shape_34"
             inkscape:connector-curvature="0" />
          <text
             id="text_12"
             transform="matrix(-0.7431,-0.6691,0.6691,-0.7431,757.8969,660.22)"
             style="font-size:50px;font-family:Arial;text-anchor:end;fill:#000000">'AndersensFairyTales'</text>
          <path
             d="M 743.14483,669.13061 540.46896,486.64044"
             style="fill:none;stroke:#000000;stroke-linecap:round;stroke-miterlimit:10"
             id="shape_35"
             inkscape:connector-curvature="0" />
        </g>
        <g
           id="I2">
          <path
             d="m -333.51592,144.90871 83.37898,-36.22717 M -352.78678,-88.164027 m 0,0 a 363.63636,363.63636 0 0 0 176.49237,406.207557"
             style="fill:none;stroke:#000000;stroke-linecap:round;stroke-miterlimit:10"
             id="shape_36"
             inkscape:connector-curvature="0" />
        </g>
        <g
           id="I39">
          <path
             d="m 1005,0 -5,0"
             style="fill:none;stroke:#aaaaaa;stroke-width:0.30000001;stroke-linecap:round;stroke-miterlimit:10;stroke-dasharray:5, 10"
             id="shape_37"
             inkscape:connector-curvature="0" />
          <text
             id="text_13"
             transform="matrix(-1,0,0,-1,1005,-16.49)"
             style="font-size:50px;font-family:Arial;text-anchor:end;fill:#000000">'MobyDickOrTheWhale'</text>
          <path
             d="M 1000,0 818.18182,0"
             style="fill:none;stroke:#000000;stroke-linecap:round;stroke-miterlimit:10"
             id="shape_38"
             inkscape:connector-curvature="0" />
        </g>
        <g
           id="I42">
          <path
             d="m 887.36233,471.81892 -4.41474,-2.34736"
             style="fill:none;stroke:#aaaaaa;stroke-width:0.30000001;stroke-linecap:round;stroke-miterlimit:10;stroke-dasharray:5, 10"
             id="shape_39"
             inkscape:connector-curvature="0" />
          <text
             id="text_14"
             transform="matrix(-0.8829,-0.4695,0.4695,-0.8829,895.1056,457.26)"
             style="font-size:50px;font-family:Arial;text-anchor:end;fill:#000000">'Pygmalion'</text>
          <path
             d="M 882.94759,469.47156 802.67963,426.79233"
             style="fill:none;stroke:#000000;stroke-linecap:round;stroke-miterlimit:10"
             id="shape_40"
             inkscape:connector-curvature="0" />
        </g>
        <g
           id="I18">
          <path
             d="m 393.43598,-611.66474 -49.1795,76.4581 m 200.43859,53.30115 m 0,0 a 727.27273,727.27273 0 0 0 -332.0611,-213.58888"
             style="fill:none;stroke:#000000;stroke-linecap:round;stroke-miterlimit:10"
             id="shape_41"
             inkscape:connector-curvature="0" />
        </g>
        <g
           id="I35">
          <path
             d="m -590.72418,813.06208 2.93893,-4.04509"
             style="fill:none;stroke:#aaaaaa;stroke-width:0.30000001;stroke-linecap:round;stroke-miterlimit:10;stroke-dasharray:5, 10"
             id="shape_42"
             inkscape:connector-curvature="0" />
          <text
             id="text_15"
             transform="matrix(-0.5878,0.809,-0.809,-0.5878,-604.0677,803.37)"
             style="font-size:50px;font-family:Arial;fill:#000000">'AlicesAdventuresinWonderland'</text>
          <path
             d="m -587.78525,809.01699 53.43502,-73.547"
             style="fill:none;stroke:#000000;stroke-linecap:round;stroke-miterlimit:10"
             id="shape_43"
             inkscape:connector-curvature="0" />
        </g>
        <g
           id="I28">
          <path
             d="m -1004.3878,-35.073994 4.99697,0.174497"
             style="fill:none;stroke:#aaaaaa;stroke-width:0.30000001;stroke-linecap:round;stroke-miterlimit:10;stroke-dasharray:5, 10"
             id="shape_44"
             inkscape:connector-curvature="0" />
          <text
             id="text_16"
             transform="matrix(-0.9994,-0.0349,0.0349,-0.9994,-1003.8122,-51.56)"
             style="font-size:50px;font-family:Arial;fill:#000000">'Metamorphosis'</text>
          <path
             d="m -999.39083,-34.899497 90.85371,3.172682"
             style="fill:none;stroke:#000000;stroke-linecap:round;stroke-miterlimit:10"
             id="shape_45"
             inkscape:connector-curvature="0" />
        </g>
        <g
           id="I10">
          <path
             d="m -870.35553,-502.5 4.33013,2.5"
             style="fill:none;stroke:#aaaaaa;stroke-width:0.30000001;stroke-linecap:round;stroke-miterlimit:10;stroke-dasharray:5, 10"
             id="shape_46"
             inkscape:connector-curvature="0" />
          <text
             id="text_17"
             transform="matrix(-0.866,-0.5,0.5,-0.866,-862.1088,-516.78)"
             style="font-size:50px;font-family:Arial;fill:#000000">'ThePictureofDorianGray'</text>
          <path
             d="m -866.0254,-500 236.18874,136.36364"
             style="fill:none;stroke:#000000;stroke-linecap:round;stroke-miterlimit:10"
             id="shape_47"
             inkscape:connector-curvature="0" />
        </g>
        <g
           id="I30">
          <path
             d="M -396.66242,715.59794 -176.29441,318.04353 M -557.99866,598.3803 m 0,0 a 818.18182,818.18182 0 0 0 346.23762,191.92265"
             style="fill:none;stroke:#000000;stroke-linecap:round;stroke-miterlimit:10"
             id="shape_48"
             inkscape:connector-curvature="0" />
        </g>
        <g
           id="I7">
          <path
             d="m -371.56373,-399.32575 61.92729,66.55429 m 263.282525,-210.70989 m 0,0 A 545.45455,545.45455 0 0 0 -538.73909,-85.32789"
             style="fill:none;stroke:#000000;stroke-linecap:round;stroke-miterlimit:10"
             id="shape_49"
             inkscape:connector-curvature="0" />
        </g>
        <g
           id="I4">
          <path
             d="m -859.56234,295.97105 429.78117,-147.98553 m -459.44392,41.02511 m 0,0 a 909.09091,909.09091 0 0 0 72.13959,209.50859"
             style="fill:none;stroke:#000000;stroke-linecap:round;stroke-miterlimit:10"
             id="shape_50"
             inkscape:connector-curvature="0" />
        </g>
        <g
           id="I41">
          <path
             d="m 975.1472,243.13151 -4.85147,-1.20961"
             style="fill:none;stroke:#aaaaaa;stroke-width:0.30000001;stroke-linecap:round;stroke-miterlimit:10;stroke-dasharray:5, 10"
             id="shape_51"
             inkscape:connector-curvature="0" />
          <text
             id="text_18"
             transform="matrix(-0.9703,-0.2419,0.2419,-0.9703,979.1374,227.13)"
             style="font-size:50px;font-family:Arial;text-anchor:end;fill:#000000">'BeowulfAnAngloSaxonEpicPoem'</text>
          <path
             d="M 970.29573,241.9219 882.08702,219.929"
             style="fill:none;stroke:#000000;stroke-linecap:round;stroke-miterlimit:10"
             id="shape_52"
             inkscape:connector-curvature="0" />
        </g>
        <g
           id="I13">
          <path
             d="m -722.9365,-698.13166 3.5967,3.47329"
             style="fill:none;stroke:#aaaaaa;stroke-width:0.30000001;stroke-linecap:round;stroke-miterlimit:10;stroke-dasharray:5, 10"
             id="shape_53"
             inkscape:connector-curvature="0" />
          <text
             id="text_19"
             transform="matrix(-0.7193,-0.6947,0.6947,-0.7193,-711.4791,-710)"
             style="font-size:50px;font-family:Arial;fill:#000000">'TheWonderfulAdventuresofNils'</text>
          <path
             d="m -719.3398,-694.65837 65.39453,63.15076"
             style="fill:none;stroke:#000000;stroke-linecap:round;stroke-miterlimit:10"
             id="shape_54"
             inkscape:connector-curvature="0" />
        </g>
        <g
           id="I27">
          <path
             d="m -897.89849,-142.21315 359.1594,56.88526 m -335.13518,-165.25152 m 0,0 a 909.09091,909.09091 0 0 0 -34.66285,218.852595"
             style="fill:none;stroke:#000000;stroke-linecap:round;stroke-miterlimit:10"
             id="shape_55"
             inkscape:connector-curvature="0" />
        </g>
        <g
           id="I34">
          <path
             d="m -619.99851,664.867 61.99985,-66.4867 m -138.40538,-14.02793 m 0,0 a 909.09091,909.09091 0 0 0 162.05381,151.11762"
             style="fill:none;stroke:#000000;stroke-linecap:round;stroke-miterlimit:10"
             id="shape_56"
             inkscape:connector-curvature="0" />
        </g>
        <g
           id="I24">
          <path
             d="m 779.243,-468.21643 -77.9243,46.82164 m 129.17717,51.63421 m 0,0 A 909.09091,909.09091 0 0 0 716.37341,-559.69225"
             style="fill:none;stroke:#000000;stroke-linecap:round;stroke-miterlimit:10"
             id="shape_57"
             inkscape:connector-curvature="0" />
        </g>
        <g
           id="I19">
          <path
             d="m 265.79246,-869.36796 -53.15849,173.87359 m 157.12661,-135.0015 m 0,0 a 909.09091,909.09091 0 0 0 -211.8986,-64.78391"
             style="fill:none;stroke:#000000;stroke-linecap:round;stroke-miterlimit:10"
             id="shape_58"
             inkscape:connector-curvature="0" />
        </g>
        <g
           id="I45">
          <path
             d="m 326.24924,750.32188 -36.24992,-83.3691 M 184.05086,797.21187 m 0,0 a 818.18182,818.18182 0 0 0 273.47061,-118.9084"
             style="fill:none;stroke:#000000;stroke-linecap:round;stroke-miterlimit:10"
             id="shape_59"
             inkscape:connector-curvature="0" />
        </g>
        <g
           id="I15">
          <path
             d="m -173.46272,-892.38835 17.34627,89.23884 m 92.701474,-103.7269 m 0,0 a 909.09091,909.09091 0 0 0 -217.509564,42.27958"
             style="fill:none;stroke:#000000;stroke-linecap:round;stroke-miterlimit:10"
             id="shape_60"
             inkscape:connector-curvature="0" />
        </g>
        <g
           id="I9">
          <path
             d="m -491.33833,-536.2017 61.41729,67.02521 m 122.5623,-189.95645 m 0,0 a 727.27273,727.27273 0 0 0 -322.47792,295.49658"
             style="fill:none;stroke:#000000;stroke-linecap:round;stroke-miterlimit:10"
             id="shape_61"
             inkscape:connector-curvature="0" />
        </g>
        <g
           id="I21">
          <path
             d="m 408.77033,-918.11318 -2.03369,4.56772"
             style="fill:none;stroke:#aaaaaa;stroke-width:0.30000001;stroke-linecap:round;stroke-miterlimit:10;stroke-dasharray:5, 10"
             id="shape_62"
             inkscape:connector-curvature="0" />
          <text
             id="text_20"
             transform="matrix(-0.4067,0.9135,-0.9135,-0.4067,393.7027,-924.82)"
             style="font-size:50px;font-family:Arial;text-anchor:end;fill:#000000">'TreasureIsland'</text>
          <path
             d="m 406.73664,-913.54546 -36.97606,83.04959"
             style="fill:none;stroke:#000000;stroke-linecap:round;stroke-miterlimit:10"
             id="shape_63"
             inkscape:connector-curvature="0" />
        </g>
        <g
           id="I3">
          <path
             d="m -440.98347,-110.20503 88.19669,22.041003 m 43.15034,-244.607433 m 0,0 a 454.54545,454.54545 0 0 0 -120.14473,480.75698"
             style="fill:none;stroke:#000000;stroke-linecap:round;stroke-miterlimit:10"
             id="shape_64"
             inkscape:connector-curvature="0" />
        </g>
        <g
           id="I14">
          <path
             d="m -532.56886,-852.28834 2.6496,4.24024"
             style="fill:none;stroke:#aaaaaa;stroke-width:0.30000001;stroke-linecap:round;stroke-miterlimit:10;stroke-dasharray:5, 10"
             id="shape_65"
             inkscape:connector-curvature="0" />
          <text
             id="text_21"
             transform="matrix(-0.5299,-0.848,0.848,-0.5299,-518.5815,-861.03)"
             style="font-size:50px;font-family:Arial;fill:#000000">'TheWonderfulWizardofOz'</text>
          <path
             d="m -529.91926,-848.0481 48.17447,77.09529"
             style="fill:none;stroke:#000000;stroke-linecap:round;stroke-miterlimit:10"
             id="shape_66"
             inkscape:connector-curvature="0" />
        </g>
        <g
           id="I25">
          <path
             d="m 791.95081,-618.73978 -3.94006,3.0783"
             style="fill:none;stroke:#aaaaaa;stroke-width:0.30000001;stroke-linecap:round;stroke-miterlimit:10;stroke-dasharray:5, 10"
             id="shape_67"
             inkscape:connector-curvature="0" />
          <text
             id="text_22"
             transform="matrix(-0.788,0.6157,-0.6157,-0.788,781.7964,-631.74)"
             style="font-size:50px;font-family:Arial;text-anchor:end;fill:#000000">'TheTimeMachine'</text>
          <path
             d="m 788.01075,-615.66148 -71.63734,55.96923"
             style="fill:none;stroke:#000000;stroke-linecap:round;stroke-miterlimit:10"
             id="shape_68"
             inkscape:connector-curvature="0" />
        </g>
        <g
           id="I23">
          <path
             d="m 618.73978,-791.95081 -3.0783,3.94006"
             style="fill:none;stroke:#aaaaaa;stroke-width:0.30000001;stroke-linecap:round;stroke-miterlimit:10;stroke-dasharray:5, 10"
             id="shape_69"
             inkscape:connector-curvature="0" />
          <text
             id="text_23"
             transform="matrix(-0.6157,0.788,-0.788,-0.6157,605.7427,-802.11)"
             style="font-size:50px;font-family:Arial;text-anchor:end;fill:#000000">'TheLegendofSleepyHollow'</text>
          <path
             d="M 615.66148,-788.01075 503.72303,-644.73607"
             style="fill:none;stroke:#000000;stroke-linecap:round;stroke-miterlimit:10"
             id="shape_70"
             inkscape:connector-curvature="0" />
        </g>
        <g
           id="I38">
          <path
             d="M 804.48129,149.10179 625.70767,115.96806 m 138.13086,177.24208 m 0,0 A 818.18182,818.18182 0 0 0 818.18182,0"
             style="fill:none;stroke:#000000;stroke-linecap:round;stroke-miterlimit:10"
             id="shape_71"
             inkscape:connector-curvature="0" />
        </g>
        <g
           id="I1">
          <path
             d="m -21.138416,271.90685 7.046139,-90.63562 M -250.13694,108.68154 m 0,0 a 272.72727,272.72727 0 0 0 480.47193,37.35255"
             style="fill:none;stroke:#000000;stroke-linecap:round;stroke-miterlimit:10"
             id="shape_72"
             inkscape:connector-curvature="0" />
        </g>
        <g
           id="I48">
          <path
             d="m 343.73024,944.39108 -1.7101,-4.69846"
             style="fill:none;stroke:#aaaaaa;stroke-width:0.30000001;stroke-linecap:round;stroke-miterlimit:10;stroke-dasharray:5, 10"
             id="shape_73"
             inkscape:connector-curvature="0" />
          <text
             id="text_24"
             transform="matrix(0.342,0.9397,-0.9397,0.342,328.2314,950.03)"
             style="font-size:50px;font-family:Arial;fill:#000000">'BrotherVan'</text>
          <path
             d="M 342.02014,939.69262 310.9274,854.26602"
             style="fill:none;stroke:#000000;stroke-linecap:round;stroke-miterlimit:10"
             id="shape_74"
             inkscape:connector-curvature="0" />
        </g>
      </g>
      <g
         id="container_5" />
      <g
         id="container_6" />
      <g
         id="container_7" />
      <g
         id="container_8" />
      <g
         id="container_9" />
    </g>
    <g
       id="container_10"
       transform="translate(100,100)" />
  </g>
</svg>
