%!PS-Adobe-3.0 EPSF-3.0
%%Creator: cairo 1.14.8 (http://cairographics.org)
%%CreationDate: Tue Jun 11 20:49:51 2019
%%Pages: 1
%%DocumentData: Clean7Bit
%%LanguageLevel: 2
%%BoundingBox: 0 -1 555 706
%%EndComments
%%BeginProlog
save
50 dict begin
/q { gsave } bind def
/Q { grestore } bind def
/cm { 6 array astore concat } bind def
/w { setlinewidth } bind def
/J { setlinecap } bind def
/j { setlinejoin } bind def
/M { setmiterlimit } bind def
/d { setdash } bind def
/m { moveto } bind def
/l { lineto } bind def
/c { curveto } bind def
/h { closepath } bind def
/re { exch dup neg 3 1 roll 5 3 roll moveto 0 rlineto
      0 exch rlineto 0 rlineto closepath } bind def
/S { stroke } bind def
/f { fill } bind def
/f* { eofill } bind def
/n { newpath } bind def
/W { clip } bind def
/W* { eoclip } bind def
/BT { } bind def
/ET { } bind def
/pdfmark where { pop globaldict /?pdfmark /exec load put }
    { globaldict begin /?pdfmark /pop load def /pdfmark
    /cleartomark load def end } ifelse
/BDC { mark 3 1 roll /BDC pdfmark } bind def
/EMC { mark /EMC pdfmark } bind def
/cairo_store_point { /cairo_point_y exch def /cairo_point_x exch def } def
/Tj { show currentpoint cairo_store_point } bind def
/TJ {
  {
    dup
    type /stringtype eq
    { show } { -0.001 mul 0 cairo_font_matrix dtransform rmoveto } ifelse
  } forall
  currentpoint cairo_store_point
} bind def
/cairo_selectfont { cairo_font_matrix aload pop pop pop 0 0 6 array astore
    cairo_font exch selectfont cairo_point_x cairo_point_y moveto } bind def
/Tf { pop /cairo_font exch def /cairo_font_matrix where
      { pop cairo_selectfont } if } bind def
/Td { matrix translate cairo_font_matrix matrix concatmatrix dup
      /cairo_font_matrix exch def dup 4 get exch 5 get cairo_store_point
      /cairo_font where { pop cairo_selectfont } if } bind def
/Tm { 2 copy 8 2 roll 6 array astore /cairo_font_matrix exch def
      cairo_store_point /cairo_font where { pop cairo_selectfont } if } bind def
/g { setgray } bind def
/rg { setrgbcolor } bind def
/d1 { setcachedevice } bind def
%%EndProlog
%%BeginSetup
%%EndSetup
%%Page: 1 1
%%BeginPageSetup
%%PageBoundingBox: 0 -1 555 706
%%EndPageSetup
q 0 -1 555 707 rectclip q
Q q
0 705.75 555 -705.75 re W n
q
0 705.75 555 -706 re W n
[ 1 0 0 1 0 -0.25 ] concat
  q
0 g
1.5 w
1 J
1 j
[ 4.5 6] 0 d
10 M q 1 0 0 -1 0 706 cm
161.773 209.711 m 144.246 150.184 l S Q
[ 4.5 6] 0 d
q 1 0 0 -1 0 706 cm
101.773 203.711 m 144.246 150.184 l S Q
[ 4.5 6] 0 d
q 1 0 0 -1 0 706 cm
77.773 77.711 m 144.246 150.184 l S Q
[ 4.5 6] 0 d
q 1 0 0 -1 0 706 cm
167.773 65.711 m 144.246 150.184 l S Q
[ 4.5 6] 0 d
q 1 0 0 -1 0 706 cm
59.773 155.711 m 144.246 150.184 l S Q
[ 4.5 6] 0 d
q 1 0 0 -1 0 706 cm
215.773 101.711 m 144.246 150.184 l S Q
[ 4.5 6] 0 d
q 1 0 0 -1 0 706 cm
221.773 167.711 m 144.246 150.184 l S Q
2.25 w
0 J
[] 0.0 d
q 1 0 0 -1 0 706 cm
335.469 218.574 m 384.32 191.574 l S Q
q 1 0 0 -1 0 706 cm
404.094 228.18 m 384.133 191.285 l S Q
1.5 w
1 J
[ 4.5 6] 0 d
q 1 0 0 -1 0 706 cm
335.758 71.18 m 402.23 143.652 l S Q
[ 4.5 6] 0 d
q 1 0 0 -1 0 706 cm
425.758 59.18 m 402.23 143.652 l S Q
[ 4.5 6] 0 d
q 1 0 0 -1 0 706 cm
317.758 149.18 m 402.23 143.652 l S Q
[ 4.5 6] 0 d
q 1 0 0 -1 0 706 cm
473.758 95.18 m 402.23 143.652 l S Q
[ 4.5 6] 0 d
q 1 0 0 -1 0 706 cm
479.758 161.18 m 402.23 143.652 l S Q
0 J
[ 6 4.5] 0 d
q 1 0 0 -1 0 706 cm
384.328 191.562 m 402.234 143.633 l S Q
85.078 498.699 m 86.168 498.699 l 86.168 499.25 l 86.168 499.875 86.234
 500.34 86.367 500.645 c 86.5 500.949 86.742 501.195 87.094 501.383 c 87.453
 501.578 87.902 501.676 88.441 501.676 c 88.996 501.676 89.543 501.594 90.082
 501.43 c 89.812 500.07 l 89.5 500.141 89.199 500.176 88.91 500.176 c 88.629
 500.176 88.426 500.109 88.301 499.977 c 88.184 499.844 88.125 499.59 88.125
 499.215 c 88.125 498.699 l 89.578 498.699 l 89.578 497.152 l 88.125 497.152
 l 88.125 491.305 l 86.168 491.305 l 86.168 497.152 l 85.078 497.152 l h
85.078 498.699 m f
158.344 475.609 m 160.57 475.34 l 160.609 475.082 160.695 474.906 160.828
 474.812 c 161.016 474.672 161.309 474.602 161.707 474.602 c 162.223 474.602
 162.605 474.676 162.855 474.824 c 163.027 474.926 163.156 475.09 163.242
 475.316 c 163.305 475.48 163.336 475.781 163.336 476.219 c 163.336 477.297
 l 162.75 476.5 162.012 476.102 161.121 476.102 c 160.129 476.102 159.344
 476.52 158.766 477.355 c 158.312 478.02 158.086 478.848 158.086 479.84 
c 158.086 481.074 158.383 482.02 158.977 482.676 c 159.57 483.332 160.312
 483.66 161.203 483.66 c 162.117 483.66 162.871 483.258 163.465 482.453 
c 163.465 483.496 l 165.293 483.496 l 165.293 476.863 l 165.293 475.988 
165.219 475.336 165.07 474.906 c 164.93 474.477 164.73 474.141 164.473 473.898
 c 164.215 473.648 163.867 473.453 163.43 473.312 c 163 473.172 162.453 
473.102 161.789 473.102 c 160.531 473.102 159.641 473.316 159.117 473.746
 c 158.594 474.176 158.332 474.719 158.332 475.375 c 158.332 475.445 158.336
 475.523 158.344 475.609 c h
160.09 479.945 m 160.09 479.164 160.242 478.59 160.547 478.223 c 160.852
 477.863 161.227 477.684 161.672 477.684 c 162.148 477.684 162.551 477.867
 162.879 478.234 c 163.207 478.609 163.371 479.164 163.371 479.898 c 163.371
 480.664 163.211 481.23 162.891 481.598 c 162.578 481.973 162.184 482.16
 161.707 482.16 c 161.238 482.16 160.852 481.977 160.547 481.609 c 160.242
 481.25 160.09 480.695 160.09 479.945 c h
160.09 479.945 m f
235.371 535.691 m 233.602 536.02 l 233.797 536.73 234.137 537.258 234.621
 537.602 c 235.113 537.945 235.84 538.117 236.801 538.117 c 237.668 538.117
 238.316 538.012 238.746 537.801 c 239.176 537.598 239.477 537.336 239.648
 537.016 c 239.82 536.703 239.906 536.121 239.906 535.27 c 239.883 532.984
 l 239.883 532.336 239.914 531.855 239.977 531.543 c 240.039 531.238 240.156
 530.91 240.328 530.559 c 238.395 530.559 l 238.348 530.691 238.285 530.883
 238.207 531.133 c 238.176 531.25 238.152 531.328 238.137 531.367 c 237.809
 531.039 237.453 530.793 237.07 530.629 c 236.688 530.473 236.281 530.395
 235.852 530.395 c 235.094 530.395 234.492 530.598 234.047 531.004 c 233.609
 531.418 233.391 531.941 233.391 532.574 c 233.391 532.996 233.488 533.367
 233.684 533.688 c 233.887 534.016 234.168 534.266 234.527 534.438 c 234.887
 534.617 235.406 534.773 236.086 534.906 c 237 535.07 237.633 535.227 237.984
 535.375 c 237.984 535.574 l 237.984 535.949 237.891 536.215 237.703 536.371
 c 237.523 536.535 237.176 536.617 236.66 536.617 c 236.309 536.617 236.035
 536.547 235.84 536.406 c 235.645 536.273 235.488 536.035 235.371 535.691
 c h
237.984 534.109 m 237.734 534.023 237.336 533.922 236.789 533.805 c 236.25
 533.688 235.898 533.574 235.734 533.465 c 235.477 533.285 235.348 533.055
 235.348 532.773 c 235.348 532.5 235.449 532.262 235.652 532.059 c 235.855
 531.863 236.117 531.766 236.438 531.766 c 236.789 531.766 237.125 531.883
 237.445 532.117 c 237.68 532.297 237.836 532.512 237.914 532.762 c 237.961
 532.934 237.984 533.254 237.984 533.723 c h
237.984 534.109 m f
233.438 602.102 m 233.438 612.297 l 235.395 612.297 l 235.395 608.629 l
 235.996 609.316 236.711 609.66 237.539 609.66 c 238.438 609.66 239.18 609.332
 239.766 608.676 c 240.359 608.027 240.656 607.094 240.656 605.875 c 240.656
 604.609 240.355 603.637 239.754 602.957 c 239.152 602.277 238.422 601.938
 237.562 601.938 c 237.141 601.938 236.723 602.043 236.309 602.254 c 235.902
 602.465 235.551 602.777 235.254 603.191 c 235.254 602.102 l h
235.383 605.957 m 235.383 605.191 235.504 604.625 235.746 604.258 c 236.082
 603.742 236.531 603.484 237.094 603.484 c 237.523 603.484 237.891 603.668
 238.195 604.035 c 238.5 604.402 238.652 604.984 238.652 605.781 c 238.652
 606.625 238.5 607.23 238.195 607.598 c 237.891 607.973 237.496 608.16 237.012
 608.16 c 236.543 608.16 236.152 607.977 235.84 607.609 c 235.535 607.25
 235.383 606.699 235.383 605.957 c h
235.383 605.957 m f
170.891 654.84 m 168.969 654.488 l 168.898 654.879 168.75 655.172 168.523
 655.367 c 168.297 655.562 168 655.66 167.633 655.66 c 167.141 655.66 166.75
 655.492 166.461 655.156 c 166.172 654.82 166.027 654.258 166.027 653.469
 c 166.027 652.586 166.172 651.965 166.461 651.605 c 166.758 651.246 167.156
 651.066 167.656 651.066 c 168.031 651.066 168.336 651.172 168.57 651.383
 c 168.805 651.594 168.973 651.957 169.074 652.473 c 170.984 652.145 l 170.789
 651.262 170.406 650.594 169.836 650.141 c 169.273 649.695 168.516 649.473
 167.562 649.473 c 166.484 649.473 165.621 649.812 164.973 650.492 c 164.332
 651.172 164.012 652.117 164.012 653.328 c 164.012 654.547 164.336 655.496
 164.984 656.176 c 165.633 656.855 166.504 657.195 167.598 657.195 c 168.496
 657.195 169.211 657 169.742 656.609 c 170.273 656.227 170.656 655.637 170.891
 654.84 c h
170.891 654.84 m f
66.543 632.324 m 64.727 632.324 l 64.727 633.414 l 64.422 632.992 64.062
 632.676 63.648 632.465 c 63.242 632.262 62.832 632.16 62.418 632.16 c 61.566
 632.16 60.836 632.5 60.227 633.18 c 59.625 633.867 59.324 634.824 59.324
 636.051 c 59.324 637.301 59.617 638.25 60.203 638.898 c 60.797 639.555 
61.543 639.883 62.441 639.883 c 63.27 639.883 63.984 639.539 64.586 638.852
 c 64.586 642.52 l 66.543 642.52 l h
61.316 636.18 m 61.316 635.391 61.426 634.82 61.645 634.469 c 61.965 633.961
 62.406 633.707 62.969 633.707 c 63.422 633.707 63.805 633.898 64.117 634.281
 c 64.43 634.664 64.586 635.234 64.586 635.992 c 64.586 636.844 64.434 637.453
 64.129 637.82 c 63.824 638.195 63.434 638.383 62.957 638.383 c 62.488 638.383
 62.098 638.199 61.785 637.832 c 61.473 637.465 61.316 636.914 61.316 636.18
 c h
61.316 636.18 m f
46.648 552.98 m 48.605 552.652 l 48.355 551.934 47.957 551.387 47.41 551.012
 c 46.871 550.645 46.195 550.461 45.383 550.461 c 44.102 550.461 43.152 
550.879 42.535 551.715 c 42.051 552.387 41.809 553.238 41.809 554.27 c 41.809
 555.488 42.125 556.445 42.758 557.141 c 43.398 557.836 44.211 558.184 45.195
 558.184 c 46.289 558.184 47.152 557.82 47.785 557.094 c 48.426 556.367 
48.734 555.254 48.711 553.754 c 43.812 553.754 l 43.82 553.176 43.977 552.723
 44.281 552.395 c 44.586 552.074 44.961 551.914 45.406 551.914 c 45.711 
551.914 45.969 551.996 46.18 552.16 c 46.391 552.332 46.547 552.605 46.648
 552.98 c h
46.766 554.949 m 46.75 555.52 46.602 555.949 46.32 556.238 c 46.047 556.535
 45.711 556.684 45.312 556.684 c 44.883 556.684 44.531 556.527 44.258 556.215
 c 43.977 555.91 43.84 555.488 43.848 554.949 c h
46.766 554.949 m f
493.355 542.219 m 491.586 542.547 l 491.781 543.258 492.121 543.785 492.605
 544.129 c 493.098 544.473 493.824 544.645 494.785 544.645 c 495.652 544.645
 496.301 544.539 496.73 544.328 c 497.16 544.125 497.461 543.863 497.633
 543.543 c 497.805 543.23 497.891 542.648 497.891 541.797 c 497.867 539.512
 l 497.867 538.863 497.898 538.383 497.961 538.07 c 498.023 537.766 498.141
 537.438 498.312 537.086 c 496.379 537.086 l 496.332 537.219 496.27 537.41
 496.191 537.66 c 496.16 537.777 496.137 537.855 496.121 537.895 c 495.793
 537.566 495.438 537.32 495.055 537.156 c 494.672 537 494.266 536.922 493.836
 536.922 c 493.078 536.922 492.477 537.125 492.031 537.531 c 491.594 537.945
 491.375 538.469 491.375 539.102 c 491.375 539.523 491.473 539.895 491.668
 540.215 c 491.871 540.543 492.152 540.793 492.512 540.965 c 492.871 541.145
 493.391 541.301 494.07 541.434 c 494.984 541.598 495.617 541.754 495.969
 541.902 c 495.969 542.102 l 495.969 542.477 495.875 542.742 495.688 542.898
 c 495.508 543.062 495.16 543.145 494.645 543.145 c 494.293 543.145 494.02
 543.074 493.824 542.934 c 493.629 542.801 493.473 542.562 493.355 542.219
 c h
495.969 540.637 m 495.719 540.551 495.32 540.449 494.773 540.332 c 494.234
 540.215 493.883 540.102 493.719 539.992 c 493.461 539.812 493.332 539.582
 493.332 539.301 c 493.332 539.027 493.434 538.789 493.637 538.586 c 493.84
 538.391 494.102 538.293 494.422 538.293 c 494.773 538.293 495.109 538.41
 495.43 538.645 c 495.664 538.824 495.82 539.039 495.898 539.289 c 495.945
 539.461 495.969 539.781 495.969 540.25 c h
495.969 540.637 m f
491.422 608.629 m 491.422 618.824 l 493.379 618.824 l 493.379 615.156 l
 493.98 615.844 494.695 616.188 495.523 616.188 c 496.422 616.188 497.164
 615.859 497.75 615.203 c 498.344 614.555 498.641 613.621 498.641 612.402
 c 498.641 611.137 498.34 610.164 497.738 609.484 c 497.137 608.805 496.406
 608.465 495.547 608.465 c 495.125 608.465 494.707 608.57 494.293 608.781
 c 493.887 608.992 493.535 609.305 493.238 609.719 c 493.238 608.629 l h
493.367 612.484 m 493.367 611.719 493.488 611.152 493.73 610.785 c 494.066
 610.27 494.516 610.012 495.078 610.012 c 495.508 610.012 495.875 610.195
 496.18 610.562 c 496.484 610.93 496.637 611.512 496.637 612.309 c 496.637
 613.152 496.484 613.758 496.18 614.125 c 495.875 614.5 495.48 614.688 494.996
 614.688 c 494.527 614.688 494.137 614.504 493.824 614.137 c 493.52 613.777
 493.367 613.227 493.367 612.484 c h
493.367 612.484 m f
428.875 661.367 m 426.953 661.016 l 426.883 661.406 426.734 661.699 426.508
 661.895 c 426.281 662.09 425.984 662.188 425.617 662.188 c 425.125 662.188
 424.734 662.02 424.445 661.684 c 424.156 661.348 424.012 660.785 424.012
 659.996 c 424.012 659.113 424.156 658.492 424.445 658.133 c 424.742 657.773
 425.141 657.594 425.641 657.594 c 426.016 657.594 426.32 657.699 426.555
 657.91 c 426.789 658.121 426.957 658.484 427.059 659 c 428.969 658.672 
l 428.773 657.789 428.391 657.121 427.82 656.668 c 427.258 656.223 426.5
 656 425.547 656 c 424.469 656 423.605 656.34 422.957 657.02 c 422.316 657.699
 421.996 658.645 421.996 659.855 c 421.996 661.074 422.32 662.023 422.969
 662.703 c 423.617 663.383 424.488 663.723 425.582 663.723 c 426.48 663.723
 427.195 663.527 427.727 663.137 c 428.258 662.754 428.641 662.164 428.875
 661.367 c h
428.875 661.367 m f
324.527 638.855 m 322.711 638.855 l 322.711 639.945 l 322.406 639.523 322.047
 639.207 321.633 638.996 c 321.227 638.793 320.816 638.691 320.402 638.691
 c 319.551 638.691 318.82 639.031 318.211 639.711 c 317.609 640.398 317.309
 641.355 317.309 642.582 c 317.309 643.832 317.602 644.781 318.188 645.43
 c 318.781 646.086 319.527 646.414 320.426 646.414 c 321.254 646.414 321.969
 646.07 322.57 645.383 c 322.57 649.051 l 324.527 649.051 l h
319.301 642.711 m 319.301 641.922 319.41 641.352 319.629 641 c 319.949 
640.492 320.391 640.238 320.953 640.238 c 321.406 640.238 321.789 640.43
 322.102 640.812 c 322.414 641.195 322.57 641.766 322.57 642.523 c 322.57
 643.375 322.418 643.984 322.113 644.352 c 321.809 644.727 321.418 644.914
 320.941 644.914 c 320.473 644.914 320.082 644.73 319.77 644.363 c 319.457
 643.996 319.301 643.445 319.301 642.711 c h
319.301 642.711 m f
304.633 559.508 m 306.59 559.18 l 306.34 558.461 305.941 557.914 305.395
 557.539 c 304.855 557.172 304.18 556.988 303.367 556.988 c 302.086 556.988
 301.137 557.406 300.52 558.242 c 300.035 558.914 299.793 559.766 299.793
 560.797 c 299.793 562.016 300.109 562.973 300.742 563.668 c 301.383 564.363
 302.195 564.711 303.18 564.711 c 304.273 564.711 305.137 564.348 305.77
 563.621 c 306.41 562.895 306.719 561.781 306.695 560.281 c 301.797 560.281
 l 301.805 559.703 301.961 559.25 302.266 558.922 c 302.57 558.602 302.945
 558.441 303.391 558.441 c 303.695 558.441 303.953 558.523 304.164 558.688
 c 304.375 558.859 304.531 559.133 304.633 559.508 c h
304.75 561.477 m 304.734 562.047 304.586 562.477 304.305 562.766 c 304.031
 563.062 303.695 563.211 303.297 563.211 c 302.867 563.211 302.516 563.055
 302.242 562.742 c 301.961 562.438 301.824 562.016 301.832 561.477 c h
304.75 561.477 m f
320.832 492.848 m 321.922 492.848 l 321.922 493.398 l 321.922 494.023 321.988
 494.488 322.121 494.793 c 322.254 495.098 322.496 495.344 322.848 495.531
 c 323.207 495.727 323.656 495.824 324.195 495.824 c 324.75 495.824 325.297
 495.742 325.836 495.578 c 325.566 494.219 l 325.254 494.289 324.953 494.324
 324.664 494.324 c 324.383 494.324 324.18 494.258 324.055 494.125 c 323.938
 493.992 323.879 493.738 323.879 493.363 c 323.879 492.848 l 325.332 492.848
 l 325.332 491.301 l 323.879 491.301 l 323.879 485.453 l 321.922 485.453
 l 321.922 491.301 l 320.832 491.301 l h
320.832 492.848 m f
411.484 472.609 m 413.711 472.34 l 413.75 472.082 413.836 471.906 413.969
 471.812 c 414.156 471.672 414.449 471.602 414.848 471.602 c 415.363 471.602
 415.746 471.676 415.996 471.824 c 416.168 471.926 416.297 472.09 416.383
 472.316 c 416.445 472.48 416.477 472.781 416.477 473.219 c 416.477 474.297
 l 415.891 473.5 415.152 473.102 414.262 473.102 c 413.27 473.102 412.484
 473.52 411.906 474.355 c 411.453 475.02 411.227 475.848 411.227 476.84 
c 411.227 478.074 411.523 479.02 412.117 479.676 c 412.711 480.332 413.453
 480.66 414.344 480.66 c 415.258 480.66 416.012 480.258 416.605 479.453 
c 416.605 480.496 l 418.434 480.496 l 418.434 473.863 l 418.434 472.988 
418.359 472.336 418.211 471.906 c 418.07 471.477 417.871 471.141 417.613
 470.898 c 417.355 470.648 417.008 470.453 416.57 470.312 c 416.141 470.172
 415.594 470.102 414.93 470.102 c 413.672 470.102 412.781 470.316 412.258
 470.746 c 411.734 471.176 411.473 471.719 411.473 472.375 c 411.473 472.445
 411.477 472.523 411.484 472.609 c h
413.23 476.945 m 413.23 476.164 413.383 475.59 413.688 475.223 c 413.992
 474.863 414.367 474.684 414.812 474.684 c 415.289 474.684 415.691 474.867
 416.02 475.234 c 416.348 475.609 416.512 476.164 416.512 476.898 c 416.512
 477.664 416.352 478.23 416.031 478.598 c 415.719 478.973 415.324 479.16
 414.848 479.16 c 414.379 479.16 413.992 478.977 413.688 478.609 c 413.383
 478.25 413.23 477.695 413.23 476.945 c h
413.23 476.945 m f
401.496 512.02 m 401.496 513.121 l 401.23 512.73 400.879 512.422 400.441
 512.195 c 400.004 511.969 399.539 511.855 399.047 511.855 c 398.555 511.855
 398.109 511.965 397.711 512.184 c 397.32 512.402 397.035 512.707 396.855
 513.098 c 396.684 513.496 396.598 514.043 396.598 514.738 c 396.598 519.414
 l 398.555 519.414 l 398.555 516.016 l 398.555 514.977 398.59 514.34 398.66
 514.105 c 398.73 513.871 398.859 513.684 399.047 513.543 c 399.242 513.41
 399.484 513.344 399.773 513.344 c 400.109 513.344 400.41 513.434 400.676
 513.613 c 400.941 513.801 401.121 514.027 401.215 514.293 c 401.309 514.566
 401.355 515.234 401.355 516.297 c 401.355 519.414 l 403.312 519.414 l 403.312
 512.02 l h
401.496 512.02 m f
2.25 w
1 J
[] 0.0 d
q 1 0 0 -1 0 706 cm
64.988 390.922 m 125.227 398.129 l S Q
0 J
q 1 0 0 -1 0 706 cm
92.223 453.254 m 129.383 423.629 l S Q
q 1 0 0 -1 0 706 cm
157.473 451.754 m 129.176 423.359 l S Q
1.5 w
1 J
[ 4.5 6] 0 d
q 1 0 0 -1 0 706 cm
86.062 309.246 m 152.531 381.719 l S Q
[ 4.5 6] 0 d
q 1 0 0 -1 0 706 cm
176.062 297.246 m 152.531 381.719 l S Q
[ 4.5 6] 0 d
q 1 0 0 -1 0 706 cm
228.344 339.754 m 152.516 381.73 l S Q
[ 4.5 6] 0 d
q 1 0 0 -1 0 706 cm
227.285 406.688 m 152.523 381.719 l S Q
0 J
[ 6 4.5] 0 d
q 1 0 0 -1 0 706 cm
124.465 398.629 m 152.953 381.148 l S Q
2.25 w
[] 0.0 d
q 1 0 0 -1 0 706 cm
125.223 398.129 m 130.09 424.371 l S Q
238.211 296.887 m 236.441 297.215 l 236.637 297.926 236.977 298.453 237.461
 298.797 c 237.953 299.141 238.68 299.312 239.641 299.312 c 240.508 299.312
 241.156 299.207 241.586 298.996 c 242.016 298.793 242.316 298.531 242.488
 298.211 c 242.66 297.898 242.746 297.316 242.746 296.465 c 242.723 294.18
 l 242.723 293.531 242.754 293.051 242.816 292.738 c 242.879 292.434 242.996
 292.105 243.168 291.754 c 241.234 291.754 l 241.188 291.887 241.125 292.078
 241.047 292.328 c 241.016 292.445 240.992 292.523 240.977 292.562 c 240.648
 292.234 240.293 291.988 239.91 291.824 c 239.527 291.668 239.121 291.59
 238.691 291.59 c 237.934 291.59 237.332 291.793 236.887 292.199 c 236.449
 292.613 236.23 293.137 236.23 293.77 c 236.23 294.191 236.328 294.562 236.523
 294.883 c 236.727 295.211 237.008 295.461 237.367 295.633 c 237.727 295.812
 238.246 295.969 238.926 296.102 c 239.84 296.266 240.473 296.422 240.824
 296.57 c 240.824 296.77 l 240.824 297.145 240.73 297.41 240.543 297.566
 c 240.363 297.73 240.016 297.812 239.5 297.812 c 239.148 297.812 238.875
 297.742 238.68 297.602 c 238.484 297.469 238.328 297.23 238.211 296.887
 c h
240.824 295.305 m 240.574 295.219 240.176 295.117 239.629 295 c 239.09 
294.883 238.738 294.77 238.574 294.66 c 238.316 294.48 238.188 294.25 238.188
 293.969 c 238.188 293.695 238.289 293.457 238.492 293.254 c 238.695 293.059
 238.957 292.961 239.277 292.961 c 239.629 292.961 239.965 293.078 240.285
 293.312 c 240.52 293.492 240.676 293.707 240.754 293.957 c 240.801 294.129
 240.824 294.449 240.824 294.918 c h
240.824 295.305 m f
238.352 367.562 m 238.352 377.758 l 240.309 377.758 l 240.309 374.09 l 
240.91 374.777 241.625 375.121 242.453 375.121 c 243.352 375.121 244.094
 374.793 244.68 374.137 c 245.273 373.488 245.57 372.555 245.57 371.336 
c 245.57 370.07 245.27 369.098 244.668 368.418 c 244.066 367.738 243.336
 367.398 242.477 367.398 c 242.055 367.398 241.637 367.504 241.223 367.715
 c 240.816 367.926 240.465 368.238 240.168 368.652 c 240.168 367.562 l h
240.297 371.418 m 240.297 370.652 240.418 370.086 240.66 369.719 c 240.996
 369.203 241.445 368.945 242.008 368.945 c 242.438 368.945 242.805 369.129
 243.109 369.496 c 243.414 369.863 243.566 370.445 243.566 371.242 c 243.566
 372.086 243.414 372.691 243.109 373.059 c 242.805 373.434 242.41 373.621
 241.926 373.621 c 241.457 373.621 241.066 373.438 240.754 373.07 c 240.449
 372.711 240.297 372.16 240.297 371.418 c h
240.297 371.418 m f
180.68 422.551 m 178.758 422.199 l 178.688 422.59 178.539 422.883 178.312
 423.078 c 178.086 423.273 177.789 423.371 177.422 423.371 c 176.93 423.371
 176.539 423.203 176.25 422.867 c 175.961 422.531 175.816 421.969 175.816
 421.18 c 175.816 420.297 175.961 419.676 176.25 419.316 c 176.547 418.957
 176.945 418.777 177.445 418.777 c 177.82 418.777 178.125 418.883 178.359
 419.094 c 178.594 419.305 178.762 419.668 178.863 420.184 c 180.773 419.855
 l 180.578 418.973 180.195 418.305 179.625 417.852 c 179.062 417.406 178.305
 417.184 177.352 417.184 c 176.273 417.184 175.41 417.523 174.762 418.203
 c 174.121 418.883 173.801 419.828 173.801 421.039 c 173.801 422.258 174.125
 423.207 174.773 423.887 c 175.422 424.566 176.293 424.906 177.387 424.906
 c 178.285 424.906 179 424.711 179.531 424.32 c 180.062 423.938 180.445 
423.348 180.68 422.551 c h
180.68 422.551 m f
78.953 400.414 m 77.137 400.414 l 77.137 401.504 l 76.832 401.082 76.473
 400.766 76.059 400.555 c 75.652 400.352 75.242 400.25 74.828 400.25 c 73.977
 400.25 73.246 400.59 72.637 401.27 c 72.035 401.957 71.734 402.914 71.734
 404.141 c 71.734 405.391 72.027 406.34 72.613 406.988 c 73.207 407.645 
73.953 407.973 74.852 407.973 c 75.68 407.973 76.395 407.629 76.996 406.941
 c 76.996 410.609 l 78.953 410.609 l h
73.727 404.27 m 73.727 403.48 73.836 402.91 74.055 402.559 c 74.375 402.051
 74.816 401.797 75.379 401.797 c 75.832 401.797 76.215 401.988 76.527 402.371
 c 76.84 402.754 76.996 403.324 76.996 404.082 c 76.996 404.934 76.844 405.543
 76.539 405.91 c 76.234 406.285 75.844 406.473 75.367 406.473 c 74.898 406.473
 74.508 406.289 74.195 405.922 c 73.883 405.555 73.727 405.004 73.727 404.27
 c h
73.727 404.27 m f
140.547 280.504 m 140.547 281.605 l 140.281 281.215 139.93 280.906 139.492
 280.68 c 139.055 280.453 138.59 280.34 138.098 280.34 c 137.605 280.34 
137.16 280.449 136.762 280.668 c 136.371 280.887 136.086 281.191 135.906
 281.582 c 135.734 281.98 135.648 282.527 135.648 283.223 c 135.648 287.898
 l 137.605 287.898 l 137.605 284.5 l 137.605 283.461 137.641 282.824 137.711
 282.59 c 137.781 282.355 137.91 282.168 138.098 282.027 c 138.293 281.895
 138.535 281.828 138.824 281.828 c 139.16 281.828 139.461 281.918 139.727
 282.098 c 139.992 282.285 140.172 282.512 140.266 282.777 c 140.359 283.051
 140.406 283.719 140.406 284.781 c 140.406 287.898 l 142.363 287.898 l 142.363
 280.504 l h
140.547 280.504 m f
59.438 315.82 m 61.395 315.492 l 61.145 314.773 60.746 314.227 60.199 313.852
 c 59.66 313.484 58.984 313.301 58.172 313.301 c 56.891 313.301 55.941 313.719
 55.324 314.555 c 54.84 315.227 54.598 316.078 54.598 317.109 c 54.598 318.328
 54.914 319.285 55.547 319.98 c 56.188 320.676 57 321.023 57.984 321.023
 c 59.078 321.023 59.941 320.66 60.574 319.934 c 61.215 319.207 61.523 318.094
 61.5 316.594 c 56.602 316.594 l 56.609 316.016 56.766 315.562 57.07 315.234
 c 57.375 314.914 57.75 314.754 58.195 314.754 c 58.5 314.754 58.758 314.836
 58.969 315 c 59.18 315.172 59.336 315.445 59.438 315.82 c h
59.555 317.789 m 59.539 318.359 59.391 318.789 59.109 319.078 c 58.836 
319.375 58.5 319.523 58.102 319.523 c 57.672 319.523 57.32 319.367 57.047
 319.055 c 56.766 318.75 56.629 318.328 56.637 317.789 c h
59.555 317.789 m f
80.949 256.875 m 82.039 256.875 l 82.039 257.426 l 82.039 258.051 82.105
 258.516 82.238 258.82 c 82.371 259.125 82.613 259.371 82.965 259.559 c 
83.324 259.754 83.773 259.852 84.312 259.852 c 84.867 259.852 85.414 259.77
 85.953 259.605 c 85.684 258.246 l 85.371 258.316 85.07 258.352 84.781 258.352
 c 84.5 258.352 84.297 258.285 84.172 258.152 c 84.055 258.02 83.996 257.766
 83.996 257.391 c 83.996 256.875 l 85.449 256.875 l 85.449 255.328 l 83.996
 255.328 l 83.996 249.48 l 82.039 249.48 l 82.039 255.328 l 80.949 255.328
 l h
80.949 256.875 m f
164.414 254.043 m 166.641 253.773 l 166.68 253.516 166.766 253.34 166.898
 253.246 c 167.086 253.105 167.379 253.035 167.777 253.035 c 168.293 253.035
 168.676 253.109 168.926 253.258 c 169.098 253.359 169.227 253.523 169.312
 253.75 c 169.375 253.914 169.406 254.215 169.406 254.652 c 169.406 255.73
 l 168.82 254.934 168.082 254.535 167.191 254.535 c 166.199 254.535 165.414
 254.953 164.836 255.789 c 164.383 256.453 164.156 257.281 164.156 258.273
 c 164.156 259.508 164.453 260.453 165.047 261.109 c 165.641 261.766 166.383
 262.094 167.273 262.094 c 168.188 262.094 168.941 261.691 169.535 260.887
 c 169.535 261.93 l 171.363 261.93 l 171.363 255.297 l 171.363 254.422 171.289
 253.77 171.141 253.34 c 171 252.91 170.801 252.574 170.543 252.332 c 170.285
 252.082 169.938 251.887 169.5 251.746 c 169.07 251.605 168.523 251.535 
167.859 251.535 c 166.602 251.535 165.711 251.75 165.188 252.18 c 164.664
 252.609 164.402 253.152 164.402 253.809 c 164.402 253.879 164.406 253.957
 164.414 254.043 c h
166.16 258.379 m 166.16 257.598 166.312 257.023 166.617 256.656 c 166.922
 256.297 167.297 256.117 167.742 256.117 c 168.219 256.117 168.621 256.301
 168.949 256.668 c 169.277 257.043 169.441 257.598 169.441 258.332 c 169.441
 259.098 169.281 259.664 168.961 260.031 c 168.648 260.406 168.254 260.594
 167.777 260.594 c 167.309 260.594 166.922 260.41 166.617 260.043 c 166.312
 259.684 166.16 259.129 166.16 258.379 c h
166.16 258.379 m f
136.98 300.445 m 134.004 307.84 l 136.055 307.84 l 137.438 304.066 l 137.848
 302.801 l 137.957 303.121 138.023 303.332 138.047 303.434 c 138.109 303.645
 138.18 303.855 138.258 304.066 c 139.664 307.84 l 141.668 307.84 l 138.738
 300.445 l h
136.98 300.445 m f
1 J
q 1 0 0 -1 0 706 cm
432.832 301.887 m 434.176 348.117 l S Q
q 1 0 0 -1 0 706 cm
484.055 345.332 m 434.164 348.117 l S Q
q 1 0 0 -1 0 706 cm
321.758 395.961 m 381.996 403.164 l S Q
0 J
q 1 0 0 -1 0 706 cm
348.992 457.895 m 386.152 428.273 l S Q
q 1 0 0 -1 0 706 cm
414.242 456.395 m 385.945 428 l S Q
q 1 0 0 -1 0 706 cm
381.992 402.77 m 386.316 428.941 l S Q
1.5 w
1 J
[ 4.5 6] 0 d
q 1 0 0 -1 0 706 cm
342.832 313.887 m 409.305 386.359 l S Q
[ 4.5 6] 0 d
q 1 0 0 -1 0 706 cm
484.055 411.332 m 409.293 386.363 l S Q
0 J
[ 6 4.5] 0 d
q 1 0 0 -1 0 706 cm
381.242 403.52 m 409.73 385.781 l S Q
[ 6 4.5] 0 d
q 1 0 0 -1 0 706 cm
434.176 348.117 m 408.926 385.984 l S Q
495.18 294.637 m 493.41 294.965 l 493.605 295.676 493.945 296.203 494.43
 296.547 c 494.922 296.891 495.648 297.062 496.609 297.062 c 497.477 297.062
 498.125 296.957 498.555 296.746 c 498.984 296.543 499.285 296.281 499.457
 295.961 c 499.629 295.648 499.715 295.066 499.715 294.215 c 499.691 291.93
 l 499.691 291.281 499.723 290.801 499.785 290.488 c 499.848 290.184 499.965
 289.855 500.137 289.504 c 498.203 289.504 l 498.156 289.637 498.094 289.828
 498.016 290.078 c 497.984 290.195 497.961 290.273 497.945 290.312 c 497.617
 289.984 497.262 289.738 496.879 289.574 c 496.496 289.418 496.09 289.34
 495.66 289.34 c 494.902 289.34 494.301 289.543 493.855 289.949 c 493.418
 290.363 493.199 290.887 493.199 291.52 c 493.199 291.941 493.297 292.312
 493.492 292.633 c 493.695 292.961 493.977 293.211 494.336 293.383 c 494.695
 293.562 495.215 293.719 495.895 293.852 c 496.809 294.016 497.441 294.172
 497.793 294.32 c 497.793 294.52 l 497.793 294.895 497.699 295.16 497.512
 295.316 c 497.332 295.48 496.984 295.562 496.469 295.562 c 496.117 295.562
 495.844 295.492 495.648 295.352 c 495.453 295.219 495.297 294.98 495.18
 294.637 c h
497.793 293.055 m 497.543 292.969 497.145 292.867 496.598 292.75 c 496.059
 292.633 495.707 292.52 495.543 292.41 c 495.285 292.23 495.156 292 495.156
 291.719 c 495.156 291.445 495.258 291.207 495.461 291.004 c 495.664 290.809
 495.926 290.711 496.246 290.711 c 496.598 290.711 496.934 290.828 497.254
 291.062 c 497.488 291.242 497.645 291.457 497.723 291.707 c 497.77 291.879
 497.793 292.199 497.793 292.668 c h
497.793 293.055 m f
492.551 359.762 m 492.551 369.957 l 494.508 369.957 l 494.508 366.289 l
 495.109 366.977 495.824 367.32 496.652 367.32 c 497.551 367.32 498.293 
366.992 498.879 366.336 c 499.473 365.688 499.77 364.754 499.77 363.535 
c 499.77 362.27 499.469 361.297 498.867 360.617 c 498.266 359.938 497.535
 359.598 496.676 359.598 c 496.254 359.598 495.836 359.703 495.422 359.914
 c 495.016 360.125 494.664 360.438 494.367 360.852 c 494.367 359.762 l h
494.496 363.617 m 494.496 362.852 494.617 362.285 494.859 361.918 c 495.195
 361.402 495.645 361.145 496.207 361.145 c 496.637 361.145 497.004 361.328
 497.309 361.695 c 497.613 362.062 497.766 362.645 497.766 363.441 c 497.766
 364.285 497.613 364.891 497.309 365.258 c 497.004 365.633 496.609 365.82
 496.125 365.82 c 495.656 365.82 495.266 365.637 494.953 365.27 c 494.648
 364.91 494.496 364.359 494.496 363.617 c h
494.496 363.617 m f
435.82 416.812 m 433.898 416.461 l 433.828 416.852 433.68 417.145 433.453
 417.34 c 433.227 417.535 432.93 417.633 432.562 417.633 c 432.07 417.633
 431.68 417.465 431.391 417.129 c 431.102 416.793 430.957 416.23 430.957
 415.441 c 430.957 414.559 431.102 413.938 431.391 413.578 c 431.688 413.219
 432.086 413.039 432.586 413.039 c 432.961 413.039 433.266 413.145 433.5
 413.355 c 433.734 413.566 433.902 413.93 434.004 414.445 c 435.914 414.117
 l 435.719 413.234 435.336 412.566 434.766 412.113 c 434.203 411.668 433.445
 411.445 432.492 411.445 c 431.414 411.445 430.551 411.785 429.902 412.465
 c 429.262 413.145 428.941 414.09 428.941 415.301 c 428.941 416.52 429.266
 417.469 429.914 418.148 c 430.562 418.828 431.434 419.168 432.527 419.168
 c 433.426 419.168 434.141 418.973 434.672 418.582 c 435.203 418.199 435.586
 417.609 435.82 416.812 c h
435.82 416.812 m f
331.223 397.27 m 329.406 397.27 l 329.406 398.359 l 329.102 397.938 328.742
 397.621 328.328 397.41 c 327.922 397.207 327.512 397.105 327.098 397.105
 c 326.246 397.105 325.516 397.445 324.906 398.125 c 324.305 398.812 324.004
 399.77 324.004 400.996 c 324.004 402.246 324.297 403.195 324.883 403.844
 c 325.477 404.5 326.223 404.828 327.121 404.828 c 327.949 404.828 328.664
 404.484 329.266 403.797 c 329.266 407.465 l 331.223 407.465 l h
325.996 401.125 m 325.996 400.336 326.105 399.766 326.324 399.414 c 326.645
 398.906 327.086 398.652 327.648 398.652 c 328.102 398.652 328.484 398.844
 328.797 399.227 c 329.109 399.609 329.266 400.18 329.266 400.938 c 329.266
 401.789 329.113 402.398 328.809 402.766 c 328.504 403.141 328.113 403.328
 327.637 403.328 c 327.168 403.328 326.777 403.145 326.465 402.777 c 326.152
 402.41 325.996 401.859 325.996 401.125 c h
325.996 401.125 m f
395.723 277.48 m 395.723 278.582 l 395.457 278.191 395.105 277.883 394.668
 277.656 c 394.23 277.43 393.766 277.316 393.273 277.316 c 392.781 277.316
 392.336 277.426 391.938 277.645 c 391.547 277.863 391.262 278.168 391.082
 278.559 c 390.91 278.957 390.824 279.504 390.824 280.199 c 390.824 284.875
 l 392.781 284.875 l 392.781 281.477 l 392.781 280.438 392.816 279.801 392.887
 279.566 c 392.957 279.332 393.086 279.145 393.273 279.004 c 393.469 278.871
 393.711 278.805 394 278.805 c 394.336 278.805 394.637 278.895 394.902 279.074
 c 395.168 279.262 395.348 279.488 395.441 279.754 c 395.535 280.027 395.582
 280.695 395.582 281.758 c 395.582 284.875 l 397.539 284.875 l 397.539 277.48
 l h
395.723 277.48 m f
310.957 311.176 m 312.914 310.848 l 312.664 310.129 312.266 309.582 311.719
 309.207 c 311.18 308.84 310.504 308.656 309.691 308.656 c 308.41 308.656
 307.461 309.074 306.844 309.91 c 306.359 310.582 306.117 311.434 306.117
 312.465 c 306.117 313.684 306.434 314.641 307.066 315.336 c 307.707 316.031
 308.52 316.379 309.504 316.379 c 310.598 316.379 311.461 316.016 312.094
 315.289 c 312.734 314.562 313.043 313.449 313.02 311.949 c 308.121 311.949
 l 308.129 311.371 308.285 310.918 308.59 310.59 c 308.895 310.27 309.27
 310.109 309.715 310.109 c 310.02 310.109 310.277 310.191 310.488 310.355
 c 310.699 310.527 310.855 310.801 310.957 311.176 c h
311.074 313.145 m 311.059 313.715 310.91 314.145 310.629 314.434 c 310.355
 314.73 310.02 314.879 309.621 314.879 c 309.191 314.879 308.84 314.723 
308.566 314.41 c 308.285 314.105 308.148 313.684 308.156 313.145 c h
311.074 313.145 m f
338.406 256.141 m 339.496 256.141 l 339.496 256.691 l 339.496 257.316 339.562
 257.781 339.695 258.086 c 339.828 258.391 340.07 258.637 340.422 258.824
 c 340.781 259.02 341.23 259.117 341.77 259.117 c 342.324 259.117 342.871
 259.035 343.41 258.871 c 343.141 257.512 l 342.828 257.582 342.527 257.617
 342.238 257.617 c 341.957 257.617 341.754 257.551 341.629 257.418 c 341.512
 257.285 341.453 257.031 341.453 256.656 c 341.453 256.141 l 342.906 256.141
 l 342.906 254.594 l 341.453 254.594 l 341.453 248.746 l 339.496 248.746
 l 339.496 254.594 l 338.406 254.594 l h
338.406 256.141 m f
421.184 249.402 m 423.41 249.133 l 423.449 248.875 423.535 248.699 423.668
 248.605 c 423.855 248.465 424.148 248.395 424.547 248.395 c 425.062 248.395
 425.445 248.469 425.695 248.617 c 425.867 248.719 425.996 248.883 426.082
 249.109 c 426.145 249.273 426.176 249.574 426.176 250.012 c 426.176 251.09
 l 425.59 250.293 424.852 249.895 423.961 249.895 c 422.969 249.895 422.184
 250.312 421.605 251.148 c 421.152 251.812 420.926 252.641 420.926 253.633
 c 420.926 254.867 421.223 255.812 421.816 256.469 c 422.41 257.125 423.152
 257.453 424.043 257.453 c 424.957 257.453 425.711 257.051 426.305 256.246
 c 426.305 257.289 l 428.133 257.289 l 428.133 250.656 l 428.133 249.781
 428.059 249.129 427.91 248.699 c 427.77 248.27 427.57 247.934 427.312 247.691
 c 427.055 247.441 426.707 247.246 426.27 247.105 c 425.84 246.965 425.293
 246.895 424.629 246.895 c 423.371 246.895 422.48 247.109 421.957 247.539
 c 421.434 247.969 421.172 248.512 421.172 249.168 c 421.172 249.238 421.176
 249.316 421.184 249.402 c h
422.93 253.738 m 422.93 252.957 423.082 252.383 423.387 252.016 c 423.691
 251.656 424.066 251.477 424.512 251.477 c 424.988 251.477 425.391 251.66
 425.719 252.027 c 426.047 252.402 426.211 252.957 426.211 253.691 c 426.211
 254.457 426.051 255.023 425.73 255.391 c 425.418 255.766 425.023 255.953
 424.547 255.953 c 424.078 255.953 423.691 255.77 423.387 255.402 c 423.082
 255.043 422.93 254.488 422.93 253.738 c h
422.93 253.738 m f
391.594 294.754 m 388.617 302.148 l 390.668 302.148 l 392.051 298.375 l
 392.461 297.109 l 392.57 297.43 392.637 297.641 392.66 297.742 c 392.723
 297.953 392.793 298.164 392.871 298.375 c 394.277 302.148 l 396.281 302.148
 l 393.352 294.754 l h
391.594 294.754 m f
421.074 356.258 m 418.73 363.652 l 420.629 363.652 l 422.023 358.801 l 
423.289 363.652 l 425.176 363.652 l 426.406 358.801 l 427.824 363.652 l 
429.746 363.652 l 427.379 356.258 l 425.492 356.258 l 424.227 361.016 l 
422.973 356.258 l h
421.074 356.258 m f
2.25 w
1 J
[] 0.0 d
q 1 0 0 -1 0 706 cm
204.152 515.895 m 270.012 569.988 l S Q
q 1 0 0 -1 0 706 cm
297.152 508.77 m 298.5 555 l S Q
q 1 0 0 -1 0 706 cm
348.379 552.211 m 298.488 555 l S Q
q 1 0 0 -1 0 706 cm
343.312 626.375 m 273.605 593.23 l S Q
q 1 0 0 -1 0 706 cm
188.785 603.637 m 245.738 609.805 l S Q
0 J
q 1 0 0 -1 0 706 cm
213.316 664.777 m 250.473 635.152 l S Q
q 1 0 0 -1 0 706 cm
278.566 663.277 m 250.27 634.883 l S Q
q 1 0 0 -1 0 706 cm
245.566 610.402 m 274.055 592.66 l S Q
q 1 0 0 -1 0 706 cm
246.316 609.652 m 250.992 636.438 l S Q
q 1 0 0 -1 0 706 cm
298.5 555 m 270.012 570 l S Q
q 1 0 0 -1 0 706 cm
270 570 m 273.566 593.738 l S Q
353.125 79.504 m 351.355 79.832 l 351.551 80.543 351.891 81.07 352.375 
81.414 c 352.867 81.758 353.594 81.93 354.555 81.93 c 355.422 81.93 356.07
 81.824 356.5 81.613 c 356.93 81.41 357.23 81.148 357.402 80.828 c 357.574
 80.516 357.66 79.934 357.66 79.082 c 357.637 76.797 l 357.637 76.148 357.668
 75.668 357.73 75.355 c 357.793 75.051 357.91 74.723 358.082 74.371 c 356.148
 74.371 l 356.102 74.504 356.039 74.695 355.961 74.945 c 355.93 75.062 355.906
 75.141 355.891 75.18 c 355.562 74.852 355.207 74.605 354.824 74.441 c 354.441
 74.285 354.035 74.207 353.605 74.207 c 352.848 74.207 352.246 74.41 351.801
 74.816 c 351.363 75.23 351.145 75.754 351.145 76.387 c 351.145 76.809 351.242
 77.18 351.438 77.5 c 351.641 77.828 351.922 78.078 352.281 78.25 c 352.641
 78.43 353.16 78.586 353.84 78.719 c 354.754 78.883 355.387 79.039 355.738
 79.188 c 355.738 79.387 l 355.738 79.762 355.645 80.027 355.457 80.184 
c 355.277 80.348 354.93 80.43 354.414 80.43 c 354.062 80.43 353.789 80.359
 353.594 80.219 c 353.398 80.086 353.242 79.848 353.125 79.504 c h
355.738 77.922 m 355.488 77.836 355.09 77.734 354.543 77.617 c 354.004 
77.5 353.652 77.387 353.488 77.277 c 353.23 77.098 353.102 76.867 353.102
 76.586 c 353.102 76.312 353.203 76.074 353.406 75.871 c 353.609 75.676 
353.871 75.578 354.191 75.578 c 354.543 75.578 354.879 75.695 355.199 75.93
 c 355.434 76.109 355.59 76.324 355.668 76.574 c 355.715 76.746 355.738 
77.066 355.738 77.535 c h
355.738 77.922 m f
356.164 153.918 m 356.164 164.113 l 358.121 164.113 l 358.121 160.445 l
 358.723 161.133 359.438 161.477 360.266 161.477 c 361.164 161.477 361.906
 161.148 362.492 160.492 c 363.086 159.844 363.383 158.91 363.383 157.691
 c 363.383 156.426 363.082 155.453 362.48 154.773 c 361.879 154.094 361.148
 153.754 360.289 153.754 c 359.867 153.754 359.449 153.859 359.035 154.07
 c 358.629 154.281 358.277 154.594 357.98 155.008 c 357.98 153.918 l h
358.109 157.773 m 358.109 157.008 358.23 156.441 358.473 156.074 c 358.809
 155.559 359.258 155.301 359.82 155.301 c 360.25 155.301 360.617 155.484
 360.922 155.852 c 361.227 156.219 361.379 156.801 361.379 157.598 c 361.379
 158.441 361.227 159.047 360.922 159.414 c 360.617 159.789 360.223 159.977
 359.738 159.977 c 359.27 159.977 358.879 159.793 358.566 159.426 c 358.262
 159.066 358.109 158.516 358.109 157.773 c h
358.109 157.773 m f
300.27 209.152 m 298.348 208.801 l 298.277 209.191 298.129 209.484 297.902
 209.68 c 297.676 209.875 297.379 209.973 297.012 209.973 c 296.52 209.973
 296.129 209.805 295.84 209.469 c 295.551 209.133 295.406 208.57 295.406
 207.781 c 295.406 206.898 295.551 206.277 295.84 205.918 c 296.137 205.559
 296.535 205.379 297.035 205.379 c 297.41 205.379 297.715 205.484 297.949
 205.695 c 298.184 205.906 298.352 206.27 298.453 206.785 c 300.363 206.457
 l 300.168 205.574 299.785 204.906 299.215 204.453 c 298.652 204.008 297.895
 203.785 296.941 203.785 c 295.863 203.785 295 204.125 294.352 204.805 c
 293.711 205.484 293.391 206.43 293.391 207.641 c 293.391 208.859 293.715
 209.809 294.363 210.488 c 295.012 211.168 295.883 211.508 296.977 211.508
 c 297.875 211.508 298.59 211.312 299.121 210.922 c 299.652 210.539 300.035
 209.949 300.27 209.152 c h
300.27 209.152 m f
195.547 190.391 m 193.73 190.391 l 193.73 191.48 l 193.426 191.059 193.066
 190.742 192.652 190.531 c 192.246 190.328 191.836 190.227 191.422 190.227
 c 190.57 190.227 189.84 190.566 189.23 191.246 c 188.629 191.934 188.328
 192.891 188.328 194.117 c 188.328 195.367 188.621 196.316 189.207 196.965
 c 189.801 197.621 190.547 197.949 191.445 197.949 c 192.273 197.949 192.988
 197.605 193.59 196.918 c 193.59 200.586 l 195.547 200.586 l h
190.32 194.246 m 190.32 193.457 190.43 192.887 190.648 192.535 c 190.969
 192.027 191.41 191.773 191.973 191.773 c 192.426 191.773 192.809 191.965
 193.121 192.348 c 193.434 192.73 193.59 193.301 193.59 194.059 c 193.59
 194.91 193.438 195.52 193.133 195.887 c 192.828 196.262 192.438 196.449
 191.961 196.449 c 191.492 196.449 191.102 196.266 190.789 195.898 c 190.477
 195.531 190.32 194.98 190.32 194.246 c h
190.32 194.246 m f
261.266 69.688 m 261.266 70.789 l 261 70.398 260.648 70.09 260.211 69.863
 c 259.773 69.637 259.309 69.523 258.816 69.523 c 258.324 69.523 257.879
 69.633 257.48 69.852 c 257.09 70.07 256.805 70.375 256.625 70.766 c 256.453
 71.164 256.367 71.711 256.367 72.406 c 256.367 77.082 l 258.324 77.082 
l 258.324 73.684 l 258.324 72.645 258.359 72.008 258.43 71.773 c 258.5 71.539
 258.629 71.352 258.816 71.211 c 259.012 71.078 259.254 71.012 259.543 71.012
 c 259.879 71.012 260.18 71.102 260.445 71.281 c 260.711 71.469 260.891 
71.695 260.984 71.961 c 261.078 72.234 261.125 72.902 261.125 73.965 c 261.125
 77.082 l 263.082 77.082 l 263.082 69.688 l h
261.266 69.688 m f
180.062 105.914 m 182.02 105.586 l 181.77 104.867 181.371 104.32 180.824
 103.945 c 180.285 103.578 179.609 103.395 178.797 103.395 c 177.516 103.395
 176.566 103.812 175.949 104.648 c 175.465 105.32 175.223 106.172 175.223
 107.203 c 175.223 108.422 175.539 109.379 176.172 110.074 c 176.812 110.77
 177.625 111.117 178.609 111.117 c 179.703 111.117 180.566 110.754 181.199
 110.027 c 181.84 109.301 182.148 108.188 182.125 106.688 c 177.227 106.688
 l 177.234 106.109 177.391 105.656 177.695 105.328 c 178 105.008 178.375
 104.848 178.82 104.848 c 179.125 104.848 179.383 104.93 179.594 105.094
 c 179.805 105.266 179.961 105.539 180.062 105.914 c h
180.18 107.883 m 180.164 108.453 180.016 108.883 179.734 109.172 c 179.461
 109.469 179.125 109.617 178.727 109.617 c 178.297 109.617 177.945 109.461
 177.672 109.148 c 177.391 108.844 177.254 108.422 177.262 107.883 c h
180.18 107.883 m f
202.727 49.258 m 203.816 49.258 l 203.816 49.809 l 203.816 50.434 203.883
 50.898 204.016 51.203 c 204.148 51.508 204.391 51.754 204.742 51.941 c 
205.102 52.137 205.551 52.234 206.09 52.234 c 206.645 52.234 207.191 52.152
 207.73 51.988 c 207.461 50.629 l 207.148 50.699 206.848 50.734 206.559 
50.734 c 206.277 50.734 206.074 50.668 205.949 50.535 c 205.832 50.402 205.773
 50.148 205.773 49.773 c 205.773 49.258 l 207.227 49.258 l 207.227 47.711
 l 205.773 47.711 l 205.773 41.863 l 203.816 41.863 l 203.816 47.711 l 202.727
 47.711 l h
202.727 49.258 m f
285.504 42.52 m 287.73 42.25 l 287.77 41.992 287.855 41.816 287.988 41.723
 c 288.176 41.582 288.469 41.512 288.867 41.512 c 289.383 41.512 289.766
 41.586 290.016 41.734 c 290.188 41.836 290.316 42 290.402 42.227 c 290.465
 42.391 290.496 42.691 290.496 43.129 c 290.496 44.207 l 289.91 43.41 289.172
 43.012 288.281 43.012 c 287.289 43.012 286.504 43.43 285.926 44.266 c 285.473
 44.93 285.246 45.758 285.246 46.75 c 285.246 47.984 285.543 48.93 286.137
 49.586 c 286.73 50.242 287.473 50.57 288.363 50.57 c 289.277 50.57 290.031
 50.168 290.625 49.363 c 290.625 50.406 l 292.453 50.406 l 292.453 43.773
 l 292.453 42.898 292.379 42.246 292.23 41.816 c 292.09 41.387 291.891 41.051
 291.633 40.809 c 291.375 40.559 291.027 40.363 290.59 40.223 c 290.16 40.082
 289.613 40.012 288.949 40.012 c 287.691 40.012 286.801 40.227 286.277 40.656
 c 285.754 41.086 285.492 41.629 285.492 42.285 c 285.492 42.355 285.496
 42.434 285.504 42.52 c h
287.25 46.855 m 287.25 46.074 287.402 45.5 287.707 45.133 c 288.012 44.773
 288.387 44.594 288.832 44.594 c 289.309 44.594 289.711 44.777 290.039 45.145
 c 290.367 45.52 290.531 46.074 290.531 46.809 c 290.531 47.574 290.371 
48.141 290.051 48.508 c 289.738 48.883 289.344 49.07 288.867 49.07 c 288.398
 49.07 288.012 48.887 287.707 48.52 c 287.402 48.16 287.25 47.605 287.25
 46.855 c h
287.25 46.855 m f
258.23 88.66 m 255.254 96.055 l 257.305 96.055 l 258.688 92.281 l 259.098
 91.016 l 259.207 91.336 259.273 91.547 259.297 91.648 c 259.359 91.859 
259.43 92.07 259.508 92.281 c 260.914 96.055 l 262.918 96.055 l 259.988 
88.66 l h
258.23 88.66 m f
301.523 137 m 299.18 144.395 l 301.078 144.395 l 302.473 139.543 l 303.738
 144.395 l 305.625 144.395 l 306.855 139.543 l 308.273 144.395 l 310.195
 144.395 l 307.828 137 l 305.941 137 l 304.676 141.758 l 303.422 137 l h
301.523 137 m f
267.129 144.566 m 269.801 148.375 l 267.246 151.961 l 269.625 151.961 l
 270.938 149.922 l 272.309 151.961 l 274.605 151.961 l 272.109 148.457 l
 274.84 144.566 l 272.438 144.566 l 270.938 146.852 l 269.414 144.566 l 
h
267.129 144.566 m f
260.957 121.957 m 263.043 121.957 l 264.812 116.707 l 266.535 121.957 l
 268.562 121.957 l 265.949 114.844 l 265.48 113.555 l 265.309 113.125 265.145
 112.797 264.988 112.57 c 264.84 112.336 264.664 112.148 264.461 112.008
 c 264.258 111.867 264.008 111.758 263.711 111.68 c 263.414 111.602 263.082
 111.562 262.715 111.562 c 262.34 111.562 261.973 111.602 261.613 111.68
 c 261.438 113.215 l 261.742 113.152 262.016 113.121 262.258 113.121 c 262.719
 113.121 263.055 113.254 263.266 113.52 c 263.484 113.785 263.652 114.125
 263.77 114.539 c h
260.957 121.957 m f
3 w
q 1 0 0 -1 0 706 cm
250.738 133.25 m 264.242 132.715 l S Q
264.438 568.336 m 277.848 573.828 l 264.047 578.238 l h
264.438 568.336 m f*
0 j
q 1 0 0 -1 0 706 cm
264.438 137.664 m 277.848 132.172 l 264.047 127.762 l h
264.438 137.664 m S Q
1 j
q 1 0 0 -1 0 706 cm
267.398 244.199 m 256.93 252.477 l S Q
253.855 457.41 m 246.25 445.078 l 260.004 449.633 l h
253.855 457.41 m f*
0 j
q 1 0 0 -1 0 706 cm
253.855 248.59 m 246.25 260.922 l 260.004 256.367 l h
253.855 248.59 m S Q
1 j
q 1 0 0 -1 0 706 cm
259.988 366 m 272.934 365.922 l S Q
272.965 335.125 m 286.551 340.164 l 272.906 345.035 l h
272.965 335.125 m f*
0 j
q 1 0 0 -1 0 706 cm
272.965 370.875 m 286.551 365.836 l 272.906 360.965 l h
272.965 370.875 m S Q
1 j
q 1 0 0 -1 0 706 cm
365.379 483 m 356.152 492.207 l S Q
352.652 217.301 m 346.516 204.176 l 359.652 210.285 l h
352.652 217.301 m f*
0 j
q 1 0 0 -1 0 706 cm
352.652 488.699 m 346.516 501.824 l 359.652 495.715 l h
352.652 488.699 m S Q
286.387 677.73 m 293.254 677.73 l 294.613 677.73 295.625 677.672 296.289
 677.555 c 296.961 677.445 297.559 677.211 298.082 676.852 c 298.613 676.492
 299.055 676.012 299.406 675.41 c 299.758 674.816 299.934 674.148 299.934
 673.406 c 299.934 672.602 299.715 671.863 299.277 671.191 c 298.848 670.52
 298.262 670.016 297.52 669.68 c 298.566 669.375 299.371 668.855 299.934
 668.121 c 300.496 667.387 300.777 666.523 300.777 665.531 c 300.777 664.75
 300.594 663.988 300.227 663.246 c 299.867 662.512 299.371 661.922 298.738
 661.477 c 298.113 661.039 297.34 660.77 296.418 660.668 c 295.84 660.605
 294.445 660.566 292.234 660.551 c 286.387 660.551 l h
289.855 674.871 m 289.855 670.898 l 292.129 670.898 l 293.48 670.898 294.32
 670.918 294.648 670.957 c 295.242 671.027 295.707 671.23 296.043 671.566
 c 296.387 671.91 296.559 672.359 296.559 672.914 c 296.559 673.445 296.41
 673.875 296.113 674.203 c 295.824 674.539 295.391 674.742 294.812 674.812
 c 294.469 674.852 293.48 674.871 291.848 674.871 c h
289.855 668.039 m 289.855 663.445 l 293.066 663.445 l 294.316 663.445 295.109
 663.48 295.445 663.551 c 295.961 663.645 296.379 663.871 296.699 664.23
 c 297.027 664.598 297.191 665.086 297.191 665.695 c 297.191 666.211 297.066
 666.648 296.816 667.008 c 296.566 667.367 296.203 667.629 295.727 667.793
 c 295.258 667.957 294.234 668.039 292.656 668.039 c h
289.855 668.039 m f
36.352 417.73 m 39.715 416.664 l 39.199 414.789 38.34 413.395 37.137 412.48
 c 35.941 411.574 34.422 411.121 32.578 411.121 c 30.297 411.121 28.422 
411.898 26.953 413.453 c 25.484 415.016 24.75 417.148 24.75 419.852 c 24.75
 422.711 25.488 424.93 26.965 426.508 c 28.441 428.094 30.383 428.887 32.789
 428.887 c 34.891 428.887 36.598 428.266 37.91 427.023 c 38.691 426.289 
39.277 425.234 39.668 423.859 c 36.234 423.039 l 36.031 423.93 35.605 424.633
 34.957 425.148 c 34.316 425.664 33.535 425.922 32.613 425.922 c 31.34 425.922
 30.305 425.465 29.508 424.551 c 28.719 423.637 28.324 422.156 28.324 420.109
 c 28.324 417.938 28.715 416.391 29.496 415.469 c 30.277 414.547 31.293 
414.086 32.543 414.086 c 33.465 414.086 34.258 414.379 34.922 414.965 c 
35.586 415.551 36.062 416.473 36.352 417.73 c h
36.352 417.73 m f
134.746 171.641 m 134.746 188.82 l 147.484 188.82 l 147.484 185.914 l 138.215
 185.914 l 138.215 182.105 l 146.84 182.105 l 146.84 179.211 l 138.215 179.211
 l 138.215 174.535 l 147.812 174.535 l 147.812 171.641 l h
134.746 171.641 m f
43.008 660.438 m 39.234 660.438 l 37.734 664.34 l 30.867 664.34 l 29.449
 660.438 l 25.77 660.438 l 32.461 677.617 l 36.129 677.617 l h
36.621 667.234 m 34.254 673.609 l 31.934 667.234 l h
36.621 667.234 m f
295.363 426.918 m 301.703 426.918 l 303.133 426.918 304.223 426.809 304.973
 426.59 c 305.98 426.293 306.844 425.766 307.562 425.008 c 308.281 424.25
 308.828 423.32 309.203 422.219 c 309.578 421.125 309.766 419.773 309.766
 418.164 c 309.766 416.75 309.59 415.531 309.238 414.508 c 308.809 413.258
 308.195 412.246 307.398 411.473 c 306.797 410.887 305.984 410.43 304.961
 410.102 c 304.195 409.859 303.172 409.738 301.891 409.738 c 295.363 409.738
 l h
298.832 424.012 m 298.832 412.633 l 301.422 412.633 l 302.391 412.633 303.09
 412.688 303.52 412.797 c 304.082 412.938 304.547 413.176 304.914 413.512
 c 305.289 413.848 305.594 414.398 305.828 415.164 c 306.062 415.938 306.18
 416.988 306.18 418.316 c 306.18 419.645 306.062 420.664 305.828 421.375
 c 305.594 422.086 305.266 422.641 304.844 423.039 c 304.422 423.438 303.887
 423.707 303.238 423.848 c 302.754 423.957 301.805 424.012 300.391 424.012
 c h
298.832 424.012 m f
  Q
Q
Q Q
showpage
%%Trailer
end restore
%%EOF
