idnum|extra|title|percent|clusterid|real_author|label|filename
0|4433aa|InvisibleLinks|100.0|Cluster 0|Selma Lagerlöf|Selma Lagerlöf|corpora/multiauthor/corpus_20_filtered/14273.epub
1|4433aa|VisitsandSketchesatHomeandAbroadVol1of3WithTalesandMiscellaniesNowFirstCollected|0.01|Cluster 0|Mrs. Jameson|Selma Lagerlöf|corpora/multiauthor/corpus_20_filtered/36818.epub
2|4433aa|TheDragonsSecret|0.01|Cluster 0|Augusta Huiell Seaman|Selma Lagerlöf|corpora/multiauthor/corpus_20_filtered/25770.epub
3|4433aa|TheFifthQueenCrowned|0.31|Cluster 0|Ford Madox Ford|Selma Lagerlöf|corpora/multiauthor/corpus_20_filtered/27432.epub
4|4433aa|TheSlipperPointMystery|0.38|Cluster 0|Augusta Huiell Seaman|Selma Lagerlöf|corpora/multiauthor/corpus_20_filtered/50961.epub
5|4433aa|TheWonderfulAdventuresofNils|0.19|Cluster 0|Selma Lagerlöf|Selma Lagerlöf|corpora/multiauthor/corpus_20_filtered/10935.epub
6|4433aa|TheMiraclesofAntichristANovel|0.16|Cluster 0|Selma Lagerlöf|Selma Lagerlöf|corpora/multiauthor/corpus_20_filtered/54615.epub
7|4433aa|JosephintheSnowandTheClockmakerInThreeVolumesVolI|0.52|Cluster 0|Berthold Auerbach|Selma Lagerlöf|corpora/multiauthor/corpus_20_filtered/33162.epub
8|4433aa|TheWorksofCharlesandMaryLamb—Volume3BooksforChildren|0.15|Cluster 0|Charles Lamb|Selma Lagerlöf|corpora/multiauthor/corpus_20_filtered/10130.epub
9|4433aa|WhenaCobblerRuledtheKing|0.24|Cluster 0|Augusta Huiell Seaman|Selma Lagerlöf|corpora/multiauthor/corpus_20_filtered/38570.epub
10|4433aa|TheCrimsonPatch|0.1|Cluster 0|Augusta Huiell Seaman|Selma Lagerlöf|corpora/multiauthor/corpus_20_filtered/52509.epub
11|4433aa|EdelweissAStory|0.17|Cluster 0|Berthold Auerbach|Selma Lagerlöf|corpora/multiauthor/corpus_20_filtered/33007.epub
12|4433aa|TheMan|0.6|Cluster 0|Bram Stoker|Selma Lagerlöf|corpora/multiauthor/corpus_20_filtered/2520.epub
13|4433aa|Dracula|0.98|Cluster 0|Bram Stoker|Selma Lagerlöf|corpora/multiauthor/corpus_20_filtered/345.epub
14|4433aa|PecksCompendiumofFunComprisingtheChoicestGemsofWitHumorSarcasmandPathosofAmericasFavoriteHumorist|0.2|Cluster 0|George W. Peck|Selma Lagerlöf|corpora/multiauthor/corpus_20_filtered/14815.epub
15|4433aa|PaintedWindows|0.01|Cluster 0|Elia Wilkinson Peattie|Selma Lagerlöf|corpora/multiauthor/corpus_20_filtered/1875.epub
16|4433aa|TheImperialist|0.51|Cluster 0|Sara Jeannette Duncan|Selma Lagerlöf|corpora/multiauthor/corpus_20_filtered/5301.epub
17|4433aa|TheTreasure|0.07|Cluster 0|Selma Lagerlöf|Selma Lagerlöf|corpora/multiauthor/corpus_20_filtered/5161.epub
18|4433aa|TrueStoriesofCrimeFromtheDistrictAttorneysOffice|0.7|Cluster 0|Arthur Cheney Train|Selma Lagerlöf|corpora/multiauthor/corpus_20_filtered/13172.epub
19|4433aa|HowPrivateGeorgeWPeckPutDowntheRebellionorTheFunnyExperiencesofaRawRecruit1887|0.59|Cluster 0|George W. Peck|Selma Lagerlöf|corpora/multiauthor/corpus_20_filtered/25492.epub
20|4433aa|TheFeather|0.48|Cluster 0|Ford Madox Ford|Selma Lagerlöf|corpora/multiauthor/corpus_20_filtered/50658.epub
21|4433aa|TalesfromShakespeare|0.41|Cluster 0|Charles Lamb|Selma Lagerlöf|corpora/multiauthor/corpus_20_filtered/1286.epub
22|4433aa|ThePrecipiceANovel|0.16|Cluster 0|Elia Wilkinson Peattie|Selma Lagerlöf|corpora/multiauthor/corpus_20_filtered/12177.epub
23|4433aa|ADaughterofToDay|0.86|Cluster 0|Sara Jeannette Duncan|Selma Lagerlöf|corpora/multiauthor/corpus_20_filtered/14490.epub
24|4433aa|HisHonourandaLady|0.89|Cluster 0|Sara Jeannette Duncan|Selma Lagerlöf|corpora/multiauthor/corpus_20_filtered/53036.epub
25|4433aa|TheColossusANovel|0.22|Cluster 0|Opie Percival Read|Selma Lagerlöf|corpora/multiauthor/corpus_20_filtered/15073.epub
26|4433aa|AzaleaatSunsetGap|0.23|Cluster 0|Elia Wilkinson Peattie|Selma Lagerlöf|corpora/multiauthor/corpus_20_filtered/54813.epub
27|4433aa|Romance|0.1|Cluster 0|Joseph Conrad|Selma Lagerlöf|corpora/multiauthor/corpus_20_filtered/17642.epub
28|4433aa|AYankeefromtheWestANovel|0.22|Cluster 0|Opie Percival Read|Selma Lagerlöf|corpora/multiauthor/corpus_20_filtered/33773.epub
29|4433aa|TheStarbucks|0.33|Cluster 0|Opie Percival Read|Selma Lagerlöf|corpora/multiauthor/corpus_20_filtered/18984.epub
30|4433aa|TheGoodSoldier|0.53|Cluster 0|Ford Madox Ford|Selma Lagerlöf|corpora/multiauthor/corpus_20_filtered/2775.epub
31|4433aa|TheShortCut|0.97|Cluster 0|Jackson Gregory|Selma Lagerlöf|corpora/multiauthor/corpus_20_filtered/18950.epub
32|4433aa|OntheHeightsANovel|0.23|Cluster 0|Berthold Auerbach|Selma Lagerlöf|corpora/multiauthor/corpus_20_filtered/33294.epub
33|4433aa|TheEverlastingWhisper|0.6|Cluster 0|Jackson Gregory|Selma Lagerlöf|corpora/multiauthor/corpus_20_filtered/10213.epub
34|4433aa|JustPatty|0.86|Cluster 0|Jean Webster|Selma Lagerlöf|corpora/multiauthor/corpus_20_filtered/21048.epub
35|4433aa|Jerusalem|0.67|Cluster 0|Selma Lagerlöf|Selma Lagerlöf|corpora/multiauthor/corpus_20_filtered/15837.epub
36|4433aa|TheShapeofFear|0.02|Cluster 0|Elia Wilkinson Peattie|Selma Lagerlöf|corpora/multiauthor/corpus_20_filtered/1876.epub
37|4433aa|TheBellsofSanJuan|0.71|Cluster 0|Jackson Gregory|Selma Lagerlöf|corpora/multiauthor/corpus_20_filtered/15438.epub
38|4433aa|SixFeetFour|0.01|Cluster 0|Jackson Gregory|Selma Lagerlöf|corpora/multiauthor/corpus_20_filtered/15148.epub
39|4433aa|BlackForestVillageStories|0.23|Cluster 0|Berthold Auerbach|Selma Lagerlöf|corpora/multiauthor/corpus_20_filtered/32517.epub
40|4433aa|JudithofBlueLakeRanch|0.64|Cluster 0|Jackson Gregory|Selma Lagerlöf|corpora/multiauthor/corpus_20_filtered/18926.epub
41|4433aa|UnderHandicapANovel|0.98|Cluster 0|Jackson Gregory|Selma Lagerlöf|corpora/multiauthor/corpus_20_filtered/17981.epub
42|4433aa|AnnieLaurieandAzalea|0.64|Cluster 0|Elia Wilkinson Peattie|Selma Lagerlöf|corpora/multiauthor/corpus_20_filtered/53975.epub
43|4433aa|TheEmperorofPortugallia|0.15|Cluster 0|Selma Lagerlöf|Selma Lagerlöf|corpora/multiauthor/corpus_20_filtered/14356.epub
44|4433aa|DaughteroftheSunATaleofAdventure|0.69|Cluster 0|Jackson Gregory|Selma Lagerlöf|corpora/multiauthor/corpus_20_filtered/18916.epub
45|4433aa|TheStoryofGöstaBerling|0.52|Cluster 0|Selma Lagerlöf|Selma Lagerlöf|corpora/multiauthor/corpus_20_filtered/56158.epub
46|4433aa|AzaleasSilverWeb|0.07|Cluster 0|Elia Wilkinson Peattie|Selma Lagerlöf|corpora/multiauthor/corpus_20_filtered/55304.epub
47|4433aa|FromaSwedishHomestead|0.89|Cluster 0|Selma Lagerlöf|Selma Lagerlöf|corpora/multiauthor/corpus_20_filtered/44630.epub
48|4433aa|JerryJunior|0.0|Cluster 0|Jean Webster|Selma Lagerlöf|corpora/multiauthor/corpus_20_filtered/20358.epub
49|4433aa|TheWheatPrincess|0.04|Cluster 0|Jean Webster|Selma Lagerlöf|corpora/multiauthor/corpus_20_filtered/46761.epub
50|4433aa|TheDesertValley|0.08|Cluster 0|Jackson Gregory|Selma Lagerlöf|corpora/multiauthor/corpus_20_filtered/15502.epub
51|4433aa|ChristLegends|0.44|Cluster 0|Selma Lagerlöf|Selma Lagerlöf|corpora/multiauthor/corpus_20_filtered/44818.epub
52|4433aa|AzaleaTheStoryofaLittleGirlintheBlueRidgeMountains|0.74|Cluster 0|Elia Wilkinson Peattie|Selma Lagerlöf|corpora/multiauthor/corpus_20_filtered/53727.epub
53|4433aa|TheInheritors|0.98|Cluster 0|Joseph Conrad|Selma Lagerlöf|corpora/multiauthor/corpus_20_filtered/14888.epub
54|4433aa|WaldfriedANovel|0.28|Cluster 0|Berthold Auerbach|Selma Lagerlöf|corpora/multiauthor/corpus_20_filtered/32446.epub
55|4433aa|MuchAdoAboutPeter|0.92|Cluster 0|Jean Webster|Selma Lagerlöf|corpora/multiauthor/corpus_20_filtered/42768.epub
56|4433aa|JosephintheSnowandTheClockmakerInThreeVolumesVolIII|0.43|Cluster 0|Berthold Auerbach|Selma Lagerlöf|corpora/multiauthor/corpus_20_filtered/33164.epub
57|4433aa|AMountainWoman|0.23|Cluster 0|Elia Wilkinson Peattie|Selma Lagerlöf|corpora/multiauthor/corpus_20_filtered/1877.epub
58|4433aa|MantoMan|0.9|Cluster 0|Jackson Gregory|Selma Lagerlöf|corpora/multiauthor/corpus_20_filtered/18933.epub
59|4433aa|Landolin|0.99|Cluster 0|Berthold Auerbach|Selma Lagerlöf|corpora/multiauthor/corpus_20_filtered/33008.epub
60|4433aa|PecksSunshineBeingaCollectionofArticlesWrittenforPecksSunMilwaukeeWis1882|0.63|Cluster 0|George W. Peck|Selma Lagerlöf|corpora/multiauthor/corpus_20_filtered/25491.epub
61|4433aa|TheBlueJarStoryBook|0.36|Cluster 0|Maria Edgeworth|Selma Lagerlöf|corpora/multiauthor/corpus_20_filtered/34470.epub
62|4433aa|WolfBreed|0.52|Cluster 0|Jackson Gregory|Selma Lagerlöf|corpora/multiauthor/corpus_20_filtered/18964.epub
63|4433aa|TheBoardedUpHouse|0.99|Cluster 0|Augusta Huiell Seaman|Selma Lagerlöf|corpora/multiauthor/corpus_20_filtered/30905.epub
64|4433aa|VillaEdenTheCountryHouseontheRhine|0.08|Cluster 0|Berthold Auerbach|Selma Lagerlöf|corpora/multiauthor/corpus_20_filtered/32902.epub
65|4433aa|Jerry|0.31|Cluster 0|Jean Webster|Selma Lagerlöf|corpora/multiauthor/corpus_20_filtered/20357.epub
66|4433aa|Mortmain|0.26|Cluster 0|Arthur Cheney Train|Selma Lagerlöf|corpora/multiauthor/corpus_20_filtered/37346.epub
67|4433aa|TheStoryofSonnySahib|0.22|Cluster 0|Sara Jeannette Duncan|Selma Lagerlöf|corpora/multiauthor/corpus_20_filtered/4547.epub
68|4433aa|WhenPattyWenttoCollege|0.29|Cluster 0|Jean Webster|Selma Lagerlöf|corpora/multiauthor/corpus_20_filtered/21639.epub
69|4433aa|OldEbenezer|0.29|Cluster 0|Opie Percival Read|Selma Lagerlöf|corpora/multiauthor/corpus_20_filtered/23215.epub
70|4433aa|TheQueenWhoFlewAFairyTale|0.99|Cluster 0|Ford Madox Ford|Selma Lagerlöf|corpora/multiauthor/corpus_20_filtered/52636.epub
71|4433aa|HildaAStoryofCalcutta|0.74|Cluster 0|Sara Jeannette Duncan|Selma Lagerlöf|corpora/multiauthor/corpus_20_filtered/18051.epub
72|4433aa|JosephintheSnowandTheClockmakerInThreeVolumesVolII|0.95|Cluster 0|Berthold Auerbach|Selma Lagerlöf|corpora/multiauthor/corpus_20_filtered/33163.epub
73|4433aa|TheBrownOwlAFairyStory|0.82|Cluster 0|Ford Madox Ford|Selma Lagerlöf|corpora/multiauthor/corpus_20_filtered/48860.epub
74|4433aa|ThePathofaStar|0.74|Cluster 0|Sara Jeannette Duncan|Selma Lagerlöf|corpora/multiauthor/corpus_20_filtered/5102.epub
75|4433aa|TheGirlfromtheMarshCroft|0.58|Cluster 0|Selma Lagerlöf|Selma Lagerlöf|corpora/multiauthor/corpus_20_filtered/41414.epub
0|4433aa|CappyRicksOrtheSubjugationofMattPeasley|100.0|Cluster 1|Peter B. Kyne|Peter B. Kyne|corpora/multiauthor/corpus_20_filtered/5738.epub
1|4433aa|TheValleyoftheGiants|0.65|Cluster 1|Peter B. Kyne|Peter B. Kyne|corpora/multiauthor/corpus_20_filtered/5735.epub
2|4433aa|Bolanyo|0.32|Cluster 1|Opie Percival Read|Peter B. Kyne|corpora/multiauthor/corpus_20_filtered/38826.epub
3|4433aa|KindredoftheDust|0.42|Cluster 1|Peter B. Kyne|Peter B. Kyne|corpora/multiauthor/corpus_20_filtered/13532.epub
4|4433aa|PecksBadBoyAbroadBeingaHumorousDescriptionoftheBadBoyandHisDadinTheirJourneysThroughForeignLands1904|0.49|Cluster 1|George W. Peck|Peter B. Kyne|corpora/multiauthor/corpus_20_filtered/25489.epub
5|4433aa|TheJucklinsANovel|0.0|Cluster 1|Opie Percival Read|Peter B. Kyne|corpora/multiauthor/corpus_20_filtered/26499.epub
6|4433aa|AnArkansasPlanter|0.54|Cluster 1|Opie Percival Read|Peter B. Kyne|corpora/multiauthor/corpus_20_filtered/19107.epub
7|4433aa|CappyRicksRetiresButThatDoesntKeepHimfromComingBackStrongerThanEver|0.0|Cluster 1|Peter B. Kyne|Peter B. Kyne|corpora/multiauthor/corpus_20_filtered/6020.epub
8|4433aa|TheLongChance|0.81|Cluster 1|Peter B. Kyne|Peter B. Kyne|corpora/multiauthor/corpus_20_filtered/6115.epub
9|4433aa|DaddyLongLegsAComedyinFourActs|0.21|Cluster 1|Jean Webster|Peter B. Kyne|corpora/multiauthor/corpus_20_filtered/40426.epub
10|4433aa|UpTerrapinRiver|0.18|Cluster 1|Opie Percival Read|Peter B. Kyne|corpora/multiauthor/corpus_20_filtered/44879.epub
11|4433aa|CaptainScraggsOrTheGreenPeaPirates|0.52|Cluster 1|Peter B. Kyne|Peter B. Kyne|corpora/multiauthor/corpus_20_filtered/18469.epub
12|4433aa|ThePrideofPalomar|0.12|Cluster 1|Peter B. Kyne|Peter B. Kyne|corpora/multiauthor/corpus_20_filtered/16674.epub
13|4433aa|MyYoungMasterANovel|0.28|Cluster 1|Opie Percival Read|Peter B. Kyne|corpora/multiauthor/corpus_20_filtered/59834.epub
14|4433aa|TheGoGetterAStoryThatTellsYouHowtobeOne|0.98|Cluster 1|Peter B. Kyne|Peter B. Kyne|corpora/multiauthor/corpus_20_filtered/12257.epub
15|4433aa|TheThreeGodfathers|0.31|Cluster 1|Peter B. Kyne|Peter B. Kyne|corpora/multiauthor/corpus_20_filtered/51942.epub
16|4433aa|Webster—MansMan|0.28|Cluster 1|Peter B. Kyne|Peter B. Kyne|corpora/multiauthor/corpus_20_filtered/51987.epub
17|4433aa|PecksUncleIkeandTheRedHeadedBoy1899|0.15|Cluster 1|George W. Peck|Peter B. Kyne|corpora/multiauthor/corpus_20_filtered/25490.epub
18|4433aa|JudgeElbridge|0.62|Cluster 1|Opie Percival Read|Peter B. Kyne|corpora/multiauthor/corpus_20_filtered/46699.epub
19|4433aa|DaddyLongLegs|0.24|Cluster 1|Jean Webster|Peter B. Kyne|corpora/multiauthor/corpus_20_filtered/157.epub
0|4433aa|ParadiseLost|100.0|Cluster 2|John Milton|John Milton|corpora/multiauthor/corpus_20_filtered/20.epub
1|4433aa|ParadiseRegained|0.01|Cluster 2|John Milton|John Milton|corpora/multiauthor/corpus_20_filtered/58.epub
2|4433aa|AreopagiticaASpeechfortheLibertyofUnlicensedPrintingtotheParliamentofEngland|0.08|Cluster 2|John Milton|John Milton|corpora/multiauthor/corpus_20_filtered/608.epub
3|4433aa|LAllegroIlPenserosoComusandLycidas|0.67|Cluster 2|John Milton|John Milton|corpora/multiauthor/corpus_20_filtered/397.epub
4|4433aa|AnIntroductiontotheProseandPoeticalWorksofJohnMiltonComprisingAlltheAutobiographicPassagesinHisWorkstheMoreExplicitPresentationsofHisIdeasofTrueLiberty|0.36|Cluster 2|John Milton|John Milton|corpora/multiauthor/corpus_20_filtered/44733.epub
5|4433aa|PoemataLatinGreekandItalianPoemsbyJohnMilton|0.61|Cluster 2|John Milton|John Milton|corpora/multiauthor/corpus_20_filtered/6929.epub
6|4433aa|ThePoeticalWorksofJohnMilton|0.74|Cluster 2|John Milton|John Milton|corpora/multiauthor/corpus_20_filtered/1745.epub
0|4433aa|PervertedProverbsAManualofImmoralsfortheMany|100.0|Cluster 3|Harry Graham|unknown_4|corpora/multiauthor/corpus_20_filtered/34790.epub
1|4433aa|VerseandWorse|0.91|Cluster 3|Harry Graham|unknown_4|corpora/multiauthor/corpus_20_filtered/36702.epub
0|4433aa|BrazilianGoldMineMysteryABiffBrewsterMysteryAdventure|100.0|Cluster 4|Andy Adams|unknown_5|corpora/multiauthor/corpus_20_filtered/51538.epub
1|4433aa|MysteryoftheAmbushinIndiaABiffBrewsterMysteryAdventure|0.43|Cluster 4|Andy Adams|unknown_5|corpora/multiauthor/corpus_20_filtered/51830.epub
2|4433aa|McAllisterandHisDouble|0.79|Cluster 4|Arthur Cheney Train|unknown_5|corpora/multiauthor/corpus_20_filtered/34597.epub
3|4433aa|HawaiianSeaHuntMysteryABiffBrewsterMysteryAdventure|0.78|Cluster 4|Andy Adams|unknown_5|corpora/multiauthor/corpus_20_filtered/51755.epub
4|4433aa|MysteryoftheChineseRingABiffBrewsterMysteryAdventure|0.25|Cluster 4|Andy Adams|unknown_5|corpora/multiauthor/corpus_20_filtered/51608.epub
0|4433aa|WellsBrothersTheYoungCattleKings|100.0|Cluster 5|Andy Adams|Andy Adams|corpora/multiauthor/corpus_20_filtered/12791.epub
1|4433aa|ReedAnthonyCowmanAnAutobiography|0.29|Cluster 5|Andy Adams|Andy Adams|corpora/multiauthor/corpus_20_filtered/12884.epub
2|4433aa|TheManWhoRockedtheEarth|0.82|Cluster 5|Arthur Cheney Train|Andy Adams|corpora/multiauthor/corpus_20_filtered/19174.epub
3|4433aa|ATexasMatchmaker|0.46|Cluster 5|Andy Adams|Andy Adams|corpora/multiauthor/corpus_20_filtered/12919.epub
4|4433aa|TheLogofaCowboyANarrativeoftheOldTrailDays|0.43|Cluster 5|Andy Adams|Andy Adams|corpora/multiauthor/corpus_20_filtered/12797.epub
5|4433aa|CattleBrandsACollectionofWesternCampFireStories|0.8|Cluster 5|Andy Adams|Andy Adams|corpora/multiauthor/corpus_20_filtered/12281.epub
6|4433aa|TheOutlet|0.96|Cluster 5|Andy Adams|Andy Adams|corpora/multiauthor/corpus_20_filtered/1987.epub
0|4433aa|TheDiaryofanEnnuyée|100.0|Cluster 6|Mrs. Jameson|Mrs. Jameson|corpora/multiauthor/corpus_20_filtered/18049.epub
1|4433aa|"PeterParleysOwnStoryFromthePersonalNarrativeoftheLateSamuelGGoodrich""PeterParley"""|0.6|Cluster 6|Samuel G. Goodrich|Mrs. Jameson|corpora/multiauthor/corpus_20_filtered/45165.epub
2|4433aa|SketchesinCanadaandramblesamongtheredmen|0.33|Cluster 6|Mrs. Jameson|Mrs. Jameson|corpora/multiauthor/corpus_20_filtered/35224.epub
3|4433aa|IllustrativeAnecdotesoftheAnimalKingdom|0.84|Cluster 6|Samuel G. Goodrich|Mrs. Jameson|corpora/multiauthor/corpus_20_filtered/33687.epub
4|4433aa|JacquelineoftheCarrierPigeons|0.34|Cluster 6|Augusta Huiell Seaman|Mrs. Jameson|corpora/multiauthor/corpus_20_filtered/57466.epub
5|4433aa|BuffonsNaturalHistoryVolume06of10ContainingaTheoryoftheEarthaGeneralHistoryofManoftheBruteCreationandofVegetablesMinerals&c&c|0.65|Cluster 6|comte de Georges Louis Leclerc Buffon|Mrs. Jameson|corpora/multiauthor/corpus_20_filtered/45731.epub
6|4433aa|TheJewelofSevenStars|0.34|Cluster 6|Bram Stoker|Mrs. Jameson|corpora/multiauthor/corpus_20_filtered/3781.epub
7|4433aa|TheRomanceofBiographyVol1of2orMemoirsofWomenLovedandCelebratedbyPoetsfromtheDaysoftheTroubadourstothePresentAge3rded2Vols|0.55|Cluster 6|Mrs. Jameson|Mrs. Jameson|corpora/multiauthor/corpus_20_filtered/35382.epub
8|4433aa|CuriositiesofHumanNature|0.34|Cluster 6|Samuel G. Goodrich|Mrs. Jameson|corpora/multiauthor/corpus_20_filtered/39333.epub
9|4433aa|TheLifeofBenjaminFranklinIllustratedbyTalesSketchesandAnecdotes|0.77|Cluster 6|Samuel G. Goodrich|Mrs. Jameson|corpora/multiauthor/corpus_20_filtered/38469.epub
10|4433aa|HistoryoftheIndiansofNorthandSouthAmerica|0.85|Cluster 6|Samuel G. Goodrich|Mrs. Jameson|corpora/multiauthor/corpus_20_filtered/54266.epub
11|4433aa|TheLairoftheWhiteWorm|0.24|Cluster 6|Bram Stoker|Mrs. Jameson|corpora/multiauthor/corpus_20_filtered/1188.epub
12|4433aa|ACommonplaceBookofThoughtsMemoriesandFancies2nded|0.71|Cluster 6|Mrs. Jameson|Mrs. Jameson|corpora/multiauthor/corpus_20_filtered/39680.epub
13|4433aa|TheWorksofCharlesandMaryLamb—Volume6Letters18211842|0.3|Cluster 6|Charles Lamb|Mrs. Jameson|corpora/multiauthor/corpus_20_filtered/10851.epub
14|4433aa|MiltonMinorPoems|0.34|Cluster 6|John Milton|Mrs. Jameson|corpora/multiauthor/corpus_20_filtered/31706.epub
15|4433aa|TheRomanceofBiographyVol2of2orMemoirsofWomenLovedandCelebratedbyPoetsfromtheDaysoftheTroubadourstothePresentAge3rded2Vols|0.39|Cluster 6|Mrs. Jameson|Mrs. Jameson|corpora/multiauthor/corpus_20_filtered/35416.epub
16|4433aa|TheWorksofCharlesandMaryLamb—Volume5TheLettersofCharlesandMaryLamb17961820|0.28|Cluster 6|Charles Lamb|Mrs. Jameson|corpora/multiauthor/corpus_20_filtered/9365.epub
17|4433aa|VisitsandSketchesatHomeandAbroadVol3of3WithTalesandMiscellaniesNowFirstCollected|0.16|Cluster 6|Mrs. Jameson|Mrs. Jameson|corpora/multiauthor/corpus_20_filtered/36820.epub
18|4433aa|VisitsandSketchesatHomeandAbroadVol2of3WithTalesandMiscellaniesNowFirstCollected|0.04|Cluster 6|Mrs. Jameson|Mrs. Jameson|corpora/multiauthor/corpus_20_filtered/36819.epub
19|4433aa|DraculasGuest|0.13|Cluster 6|Bram Stoker|Mrs. Jameson|corpora/multiauthor/corpus_20_filtered/10150.epub
20|4433aa|LivesofCelebratedWomen|0.82|Cluster 6|Samuel G. Goodrich|Mrs. Jameson|corpora/multiauthor/corpus_20_filtered/33273.epub
21|4433aa|FamousImpostors|0.47|Cluster 6|Bram Stoker|Mrs. Jameson|corpora/multiauthor/corpus_20_filtered/51391.epub
22|4433aa|TheWorksofCharlesandMaryLamb—Volume1MiscellaneousProse|0.09|Cluster 6|Charles Lamb|Mrs. Jameson|corpora/multiauthor/corpus_20_filtered/40988.epub
23|4433aa|TheMysteryoftheSea|0.92|Cluster 6|Bram Stoker|Mrs. Jameson|corpora/multiauthor/corpus_20_filtered/42455.epub
24|4433aa|LegendsoftheMadonnaasRepresentedintheFineArts|0.67|Cluster 6|Mrs. Jameson|Mrs. Jameson|corpora/multiauthor/corpus_20_filtered/12047.epub
25|4433aa|CharacteristicsofWomenMoralPoeticalandHistorical|0.74|Cluster 6|Mrs. Jameson|Mrs. Jameson|corpora/multiauthor/corpus_20_filtered/26152.epub
26|4433aa|MiltonsComus|0.73|Cluster 6|John Milton|Mrs. Jameson|corpora/multiauthor/corpus_20_filtered/19819.epub
27|4433aa|TheWorksofCharlesandMaryLamb—Volume2EliaandTheLastEssaysofElia|0.18|Cluster 6|Charles Lamb|Mrs. Jameson|corpora/multiauthor/corpus_20_filtered/10343.epub
28|4433aa|PeterParleysTalesAboutAmericaandAustralia|0.46|Cluster 6|Samuel G. Goodrich|Mrs. Jameson|corpora/multiauthor/corpus_20_filtered/16891.epub
29|4433aa|TheWorksofCharlesandMaryLamb—Volume4PoemsandPlays|0.19|Cluster 6|Charles Lamb|Mrs. Jameson|corpora/multiauthor/corpus_20_filtered/11576.epub
0|4433aa|AMichiganMan1891|100.0|Cluster 7|Elia Wilkinson Peattie|Elia Wilkinson Peattie|corpora/multiauthor/corpus_20_filtered/23176.epub
0|4433aa|"The""Goldfish""BeingtheConfessionsafaSuccessfulMan"|100.0|Cluster 8|Arthur Cheney Train|Arthur Cheney Train|corpora/multiauthor/corpus_20_filtered/12920.epub
1|4433aa|TheGirlNextDoor|0.4|Cluster 8|Augusta Huiell Seaman|Arthur Cheney Train|corpora/multiauthor/corpus_20_filtered/39896.epub
2|4433aa|ThePrisonerattheBarSidelightsontheAdministrationofCriminalJustice|0.31|Cluster 8|Arthur Cheney Train|Arthur Cheney Train|corpora/multiauthor/corpus_20_filtered/58534.epub
3|4433aa|TheSimpleAdventuresofaMemsahib|0.54|Cluster 8|Sara Jeannette Duncan|Arthur Cheney Train|corpora/multiauthor/corpus_20_filtered/56513.epub
4|4433aa|DearEnemy|0.94|Cluster 8|Jean Webster|Arthur Cheney Train|corpora/multiauthor/corpus_20_filtered/238.epub
5|4433aa|TheLadyoftheShroud|0.88|Cluster 8|Bram Stoker|Arthur Cheney Train|corpora/multiauthor/corpus_20_filtered/3095.epub
6|4433aa|ThreeSidesofParadiseGreen|0.9|Cluster 8|Augusta Huiell Seaman|Arthur Cheney Train|corpora/multiauthor/corpus_20_filtered/52946.epub
7|4433aa|TuttandMrTutt|0.86|Cluster 8|Arthur Cheney Train|Arthur Cheney Train|corpora/multiauthor/corpus_20_filtered/10440.epub
8|4433aa|ThePoolintheDesert|0.83|Cluster 8|Sara Jeannette Duncan|Arthur Cheney Train|corpora/multiauthor/corpus_20_filtered/1168.epub
9|4433aa|"TheConfessionsofArtemasQuibbleBeingtheIngenuousandUnvarnishedHistoryofArtemasQuibbleEsquireOneTimePractitionerintheNewYorkCriminalCourtsTogetherwithanAccountoftheDiversWilesTricksSophistriesTechnicalitiesandSundryArtificesofHimselfandOthersoftheFraternityCommonlyYclept""Shysters""or""ShysterLawyers"""|0.52|Cluster 8|Arthur Cheney Train|Arthur Cheney Train|corpora/multiauthor/corpus_20_filtered/20451.epub
10|4433aa|TheFourPoolsMystery|0.28|Cluster 8|Jean Webster|Arthur Cheney Train|corpora/multiauthor/corpus_20_filtered/21264.epub
11|4433aa|ByAdviceofCounsel|0.75|Cluster 8|Arthur Cheney Train|Arthur Cheney Train|corpora/multiauthor/corpus_20_filtered/11987.epub
12|4433aa|TheSapphireSignet|0.75|Cluster 8|Augusta Huiell Seaman|Arthur Cheney Train|corpora/multiauthor/corpus_20_filtered/55964.epub
13|4433aa|AVoyageofConsolationbeinginthenatureofasequeltotheexperiencesofAnAmericangirlinLondon|0.55|Cluster 8|Sara Jeannette Duncan|Arthur Cheney Train|corpora/multiauthor/corpus_20_filtered/15966.epub
14|4433aa|CourtsandCriminals|0.86|Cluster 8|Arthur Cheney Train|Arthur Cheney Train|corpora/multiauthor/corpus_20_filtered/5268.epub
15|4433aa|AnAmericanGirlinLondon|0.1|Cluster 8|Sara Jeannette Duncan|Arthur Cheney Train|corpora/multiauthor/corpus_20_filtered/45925.epub
0|4433aa|MoreMisrepresentativeMen|100.0|Cluster 9|Harry Graham|Harry Graham|corpora/multiauthor/corpus_20_filtered/36782.epub
1|4433aa|TheMotleyMuseRhymesfortheTimes|0.3|Cluster 9|Harry Graham|Harry Graham|corpora/multiauthor/corpus_20_filtered/36543.epub
2|4433aa|FamiliarFaces|0.18|Cluster 9|Harry Graham|Harry Graham|corpora/multiauthor/corpus_20_filtered/35059.epub
0|4433aa|BuffonsNaturalHistoryVolume02of10ContainingaTheoryoftheEarthaGeneralHistoryofManoftheBruteCreationandofVegetablesMineral&c&c|100.0|Cluster 10|comte de Georges Louis Leclerc Buffon|comte de Georges Louis Leclerc Buffon|corpora/multiauthor/corpus_20_filtered/45602.epub
1|4433aa|BuffonsNaturalHistoryVolume01of10ContainingaTheoryoftheEarthaGeneralHistoryofManoftheBruteCreationandofVegetablesMineral&c&c|0.69|Cluster 10|comte de Georges Louis Leclerc Buffon|comte de Georges Louis Leclerc Buffon|corpora/multiauthor/corpus_20_filtered/44792.epub
2|4433aa|BuffonsNaturalHistoryVolume08of10ContainingaTheoryoftheEarthaGeneralHistoryofManoftheBruteCreationandofVegetablesMinerals&c&c|0.5|Cluster 10|comte de Georges Louis Leclerc Buffon|comte de Georges Louis Leclerc Buffon|corpora/multiauthor/corpus_20_filtered/45821.epub
3|4433aa|BuffonsNaturalHistoryVolume07of10ContainingaTheoryoftheEarthaGeneralHistoryofManoftheBruteCreationandofVegetablesMinerals&c&c|0.77|Cluster 10|comte de Georges Louis Leclerc Buffon|comte de Georges Louis Leclerc Buffon|corpora/multiauthor/corpus_20_filtered/45820.epub
4|4433aa|TheMotherofParliaments|0.44|Cluster 10|Harry Graham|comte de Georges Louis Leclerc Buffon|corpora/multiauthor/corpus_20_filtered/41304.epub
5|4433aa|BuffonsNaturalHistoryVolume09of10ContainingaTheoryoftheEarthaGeneralHistoryofManoftheBruteCreationandofVegetablesMinerals&c&c|0.84|Cluster 10|comte de Georges Louis Leclerc Buffon|comte de Georges Louis Leclerc Buffon|corpora/multiauthor/corpus_20_filtered/45867.epub
6|4433aa|BuffonsNaturalHistoryVolume04of10ContainingaTheoryoftheEarthaGeneralHistoryofManoftheBruteCreationandofVegetablesMinerals&c&c|0.69|Cluster 10|comte de Georges Louis Leclerc Buffon|comte de Georges Louis Leclerc Buffon|corpora/multiauthor/corpus_20_filtered/45729.epub
7|4433aa|BuffonsNaturalHistoryVolume05of10ContainingaTheoryoftheEarthaGeneralHistoryofManoftheBruteCreationandofVegetablesMinerals&c&c|0.32|Cluster 10|comte de Georges Louis Leclerc Buffon|comte de Georges Louis Leclerc Buffon|corpora/multiauthor/corpus_20_filtered/45730.epub
8|4433aa|BuffonsNaturalHistoryVolume10of10ContainingaTheoryoftheEarthaGeneralHistoryofManoftheBruteCreationandofVegetablesMinerals&c&c|0.72|Cluster 10|comte de Georges Louis Leclerc Buffon|comte de Georges Louis Leclerc Buffon|corpora/multiauthor/corpus_20_filtered/45868.epub
9|4433aa|BuffonsNaturalHistoryVolume03of10ContainingaTheoryoftheEarthaGeneralHistoryofManoftheBruteCreationandofVegetablesMinerals&c&c|0.4|Cluster 10|comte de Georges Louis Leclerc Buffon|comte de Georges Louis Leclerc Buffon|corpora/multiauthor/corpus_20_filtered/45639.epub
0|4433aa|PrivySealHisLastVenture|100.0|Cluster 11|Ford Madox Ford|Ford Madox Ford|corpora/multiauthor/corpus_20_filtered/26698.epub
1|4433aa|TheYoungLovellARomance|0.37|Cluster 11|Ford Madox Ford|Ford Madox Ford|corpora/multiauthor/corpus_20_filtered/42801.epub
2|4433aa|TheFifthQueenAndHowSheCametoCourt|0.31|Cluster 11|Ford Madox Ford|Ford Madox Ford|corpora/multiauthor/corpus_20_filtered/30188.epub
0|4433aa|"WorksofGeorgeWPeckALinkedIndextotheProjectGutenbergEditionsofthe""BadBoy""SeriesandOthers"|100.0|Cluster 12|George W. Peck|George W. Peck|corpora/multiauthor/corpus_20_filtered/28970.epub
1|4433aa|IndexoftheProjectGutenbergWorksofBramStoker|0.3|Cluster 12|Bram Stoker|George W. Peck|corpora/multiauthor/corpus_20_filtered/59671.epub
2|4433aa|PecksBadBoywiththeCircus|0.61|Cluster 12|George W. Peck|George W. Peck|corpora/multiauthor/corpus_20_filtered/10212.epub
3|4433aa|PecksBadBoywiththeCowboys|0.41|Cluster 12|George W. Peck|George W. Peck|corpora/multiauthor/corpus_20_filtered/6141.epub
4|4433aa|PecksBadBoyandHisPa1883|0.69|Cluster 12|George W. Peck|George W. Peck|corpora/multiauthor/corpus_20_filtered/25487.epub
5|4433aa|TheGroceryManAndPecksBadBoyPecksBadBoyandHisPaNo21883|0.77|Cluster 12|George W. Peck|George W. Peck|corpora/multiauthor/corpus_20_filtered/25488.epub
0|4433aa|Poems|100.0|Cluster 13|Samuel G. Goodrich|unknown_14|corpora/multiauthor/corpus_20_filtered/11558.epub
1|4433aa|PoemsYouOughttoKnow|0.97|Cluster 13|Elia Wilkinson Peattie|unknown_14|corpora/multiauthor/corpus_20_filtered/53415.epub
0|4433aa|MisrepresentativeMen|100.0|Cluster 14|Harry Graham|unknown_15|corpora/multiauthor/corpus_20_filtered/36321.epub
1|4433aa|MisrepresentativeWomen|0.22|Cluster 14|Harry Graham|unknown_15|corpora/multiauthor/corpus_20_filtered/42407.epub
0|4433aa|FiscalBallads|100.0|Cluster 15|Harry Graham|unknown_16|corpora/multiauthor/corpus_20_filtered/36038.epub
0|4433aa|PeterParleysVisittoLondonDuringtheCoronationofQueenVictoria|100.0|Cluster 16|Samuel G. Goodrich|Samuel G. Goodrich|corpora/multiauthor/corpus_20_filtered/43995.epub
1|4433aa|FamousMenofAncientTimes|0.67|Cluster 16|Samuel G. Goodrich|Samuel G. Goodrich|corpora/multiauthor/corpus_20_filtered/52400.epub
0|4433aa|"ChristianGellertsLastChristmasFrom""GermanTales""PublishedbytheAmericanPublishersCorporation"|100.0|Cluster 17|Berthold Auerbach|Berthold Auerbach|corpora/multiauthor/corpus_20_filtered/22665.epub
0|4433aa|RuthlessRhymesforHeartlessHomes|100.0|Cluster 18|Harry Graham|unknown_19|corpora/multiauthor/corpus_20_filtered/35051.epub
