idnum|extra|percent|title|clusterid|real_author|label|filename
5|||ATaleofTwoCities|Cluster 5|Charles Dickens|unknown_1|corpora/baseline/corpus3/pg98.epub
5|||OliverTwist|Cluster 5|Charles Dickens|unknown_1|corpora/baseline/corpus3/pg730.epub
5|||BarnabyRudgeATaleoftheRiotsofEighty|Cluster 5|Charles Dickens|unknown_1|corpora/baseline/corpus3/pg917.epub
5|||DombeyandSon|Cluster 5|Charles Dickens|unknown_1|corpora/baseline/corpus3/pg821.epub
5|||ThePickwickPapers|Cluster 5|Charles Dickens|unknown_1|corpora/baseline/corpus3/pg580.epub
2|||FelixHolttheRadical|Cluster 2|George Eliot|George Eliot|corpora/baseline/corpus3/pg40882.epub
2|||Middlemarch|Cluster 2|George Eliot|George Eliot|corpora/baseline/corpus3/pg145.epub
2|||TheMillontheFloss|Cluster 2|George Eliot|George Eliot|corpora/baseline/corpus3/pg6688.epub
2|||SilasMarner|Cluster 2|George Eliot|George Eliot|corpora/baseline/corpus3/pg550.epub
2|||AdamBede|Cluster 2|George Eliot|George Eliot|corpora/baseline/corpus3/pg507.epub
2|||Romola|Cluster 2|George Eliot|George Eliot|corpora/baseline/corpus3/pg24020.epub
2|||DanielDeronda|Cluster 2|George Eliot|George Eliot|corpora/baseline/corpus3/pg7469.epub
0|||HarryPotterandtheChamberofSecrets|Cluster 0|J.K. Rowling|J.K. Rowling|corpora/baseline/corpus3/Harry Potter and the Chamber of Secrets - J.K. Rowling.epub
0|||HarryPotterandtheHalfBloodPrince|Cluster 0|J.K. Rowling|J.K. Rowling|corpora/baseline/corpus3/Harry Potter and the Half-Blood Prince - J.K. Rowling.epub
0|||HarryPotterandtheOrderofthePhoenix|Cluster 0|J.K. Rowling|J.K. Rowling|corpora/baseline/corpus3/Harry Potter and the Order of the Phoenix - J.K. Rowling.epub
0|||HarryPotterandthePrisonerofAzkaban|Cluster 0|J.K. Rowling|J.K. Rowling|corpora/baseline/corpus3/Harry Potter and the Prisoner of Azkaban - J.K. Rowling.epub
0|||HarryPotterandtheDeathlyHallows|Cluster 0|J.K. Rowling|J.K. Rowling|corpora/baseline/corpus3/Harry Potter and the Deathly Hallows - J.K. Rowling.epub
0|||HarryPotterandthePhilosophersStone|Cluster 0|J.K. Rowling|J.K. Rowling|corpora/baseline/corpus3/Harry Potter and the Philosopher's Stone - J.K. Rowling.epub
0|||HarryPotterandtheGobletofFire|Cluster 0|J.K. Rowling|J.K. Rowling|corpora/baseline/corpus3/Harry Potter and the Goblet of Fire - J.K. Rowling.epub
3|||NicholasNickleby|Cluster 3|Charles Dickens|Charles Dickens|corpora/baseline/corpus3/pg967.epub
3|||TheMysteryofEdwinDrood|Cluster 3|Charles Dickens|Charles Dickens|corpora/baseline/corpus3/pg564.epub
3|||HardTimes|Cluster 3|Charles Dickens|Charles Dickens|corpora/baseline/corpus3/pg786.epub
3|||MartinChuzzlewit|Cluster 3|Charles Dickens|Charles Dickens|corpora/baseline/corpus3/pg968.epub
3|||LittleDorrit|Cluster 3|Charles Dickens|Charles Dickens|corpora/baseline/corpus3/pg963.epub
3|||OurMutualFriend|Cluster 3|Charles Dickens|Charles Dickens|corpora/baseline/corpus3/pg883.epub
1|||VanityFair|Cluster 1|William Makepeace Thackeray|William Makepeace Thackeray|corpora/baseline/corpus3/pg599.epub
1|||CatherineAStory|Cluster 1|William Makepeace Thackeray|William Makepeace Thackeray|corpora/baseline/corpus3/pg1969.epub
1|||TheNewcomesMemoirsofaMostRespectableFamily|Cluster 1|William Makepeace Thackeray|William Makepeace Thackeray|corpora/baseline/corpus3/pg7467.epub
1|||TheHistoryofPendennis|Cluster 1|William Makepeace Thackeray|William Makepeace Thackeray|corpora/baseline/corpus3/pg7265.epub
1|||TheVirginians|Cluster 1|William Makepeace Thackeray|William Makepeace Thackeray|corpora/baseline/corpus3/pg8123.epub
1|||TheHistoryofHenryEsmondEsqaColonelintheServiceofHerMajestyQueenAnne|Cluster 1|William Makepeace Thackeray|William Makepeace Thackeray|corpora/baseline/corpus3/pg2511.epub
4|||MansfieldPark|Cluster 4|Jane Austen|Jane Austen|corpora/baseline/corpus3/pg141.epub
4|||SenseandSensibility|Cluster 4|Jane Austen|Jane Austen|corpora/baseline/corpus3/pg161.epub
4|||Persuasion|Cluster 4|Jane Austen|Jane Austen|corpora/baseline/corpus3/pg105.epub
4|||PrideandPrejudice|Cluster 4|Jane Austen|Jane Austen|corpora/baseline/corpus3/pg42671.epub
4|||Emma|Cluster 4|Jane Austen|Jane Austen|corpora/baseline/corpus3/pg158.epub
4|||NorthangerAbbey|Cluster 4|Jane Austen|Jane Austen|corpora/baseline/corpus3/pg121.epub
6|||MaryBarton|Cluster 6|Elizabeth Cleghorn Gaskell|Elizabeth Cleghorn Gaskell|corpora/baseline/corpus3/pg2153.epub
6|||Ruth|Cluster 6|Elizabeth Cleghorn Gaskell|Elizabeth Cleghorn Gaskell|corpora/baseline/corpus3/pg4275.epub
6|||SylviasLovers—Complete|Cluster 6|Elizabeth Cleghorn Gaskell|Elizabeth Cleghorn Gaskell|corpora/baseline/corpus3/pg4537.epub
6|||Cranford|Cluster 6|Elizabeth Cleghorn Gaskell|Elizabeth Cleghorn Gaskell|corpora/baseline/corpus3/pg394.epub
6|||NorthandSouth|Cluster 6|Elizabeth Cleghorn Gaskell|Elizabeth Cleghorn Gaskell|corpora/baseline/corpus3/pg4276.epub
