idnum|extra|percent|title|clusterid|real_author|label|filename
5|||OurMutualFriend|Cluster 5|Charles Dickens|Charles Dickens|corpora/baseline/corpus3/pg883.epub
5|||LittleDorrit|Cluster 5|Charles Dickens|Charles Dickens|corpora/baseline/corpus3/pg963.epub
5|||MartinChuzzlewit|Cluster 5|Charles Dickens|Charles Dickens|corpora/baseline/corpus3/pg968.epub
5|||HardTimes|Cluster 5|Charles Dickens|Charles Dickens|corpora/baseline/corpus3/pg786.epub
5|||TheMysteryofEdwinDrood|Cluster 5|Charles Dickens|Charles Dickens|corpora/baseline/corpus3/pg564.epub
5|||NicholasNickleby|Cluster 5|Charles Dickens|Charles Dickens|corpora/baseline/corpus3/pg967.epub
2|||AdamBede|Cluster 2|George Eliot|George Eliot|corpora/baseline/corpus3/pg507.epub
2|||TheMillontheFloss|Cluster 2|George Eliot|George Eliot|corpora/baseline/corpus3/pg6688.epub
2|||DanielDeronda|Cluster 2|George Eliot|George Eliot|corpora/baseline/corpus3/pg7469.epub
2|||Romola|Cluster 2|George Eliot|George Eliot|corpora/baseline/corpus3/pg24020.epub
2|||Middlemarch|Cluster 2|George Eliot|George Eliot|corpora/baseline/corpus3/pg145.epub
2|||FelixHolttheRadical|Cluster 2|George Eliot|George Eliot|corpora/baseline/corpus3/pg40882.epub
2|||SilasMarner|Cluster 2|George Eliot|George Eliot|corpora/baseline/corpus3/pg550.epub
0|||HarryPotterandtheDeathlyHallows|Cluster 0|J.K. Rowling|J.K. Rowling|corpora/baseline/corpus3/Harry Potter and the Deathly Hallows - J.K. Rowling.epub
0|||HarryPotterandtheHalfBloodPrince|Cluster 0|J.K. Rowling|J.K. Rowling|corpora/baseline/corpus3/Harry Potter and the Half-Blood Prince - J.K. Rowling.epub
0|||HarryPotterandthePhilosophersStone|Cluster 0|J.K. Rowling|J.K. Rowling|corpora/baseline/corpus3/Harry Potter and the Philosopher's Stone - J.K. Rowling.epub
0|||HarryPotterandthePrisonerofAzkaban|Cluster 0|J.K. Rowling|J.K. Rowling|corpora/baseline/corpus3/Harry Potter and the Prisoner of Azkaban - J.K. Rowling.epub
0|||HarryPotterandtheGobletofFire|Cluster 0|J.K. Rowling|J.K. Rowling|corpora/baseline/corpus3/Harry Potter and the Goblet of Fire - J.K. Rowling.epub
0|||HarryPotterandtheOrderofthePhoenix|Cluster 0|J.K. Rowling|J.K. Rowling|corpora/baseline/corpus3/Harry Potter and the Order of the Phoenix - J.K. Rowling.epub
0|||HarryPotterandtheChamberofSecrets|Cluster 0|J.K. Rowling|J.K. Rowling|corpora/baseline/corpus3/Harry Potter and the Chamber of Secrets - J.K. Rowling.epub
3|||TheHistoryofHenryEsmondEsqaColonelintheServiceofHerMajestyQueenAnne|Cluster 3|William Makepeace Thackeray|William Makepeace Thackeray|corpora/baseline/corpus3/pg2511.epub
3|||CatherineAStory|Cluster 3|William Makepeace Thackeray|William Makepeace Thackeray|corpora/baseline/corpus3/pg1969.epub
3|||TheVirginians|Cluster 3|William Makepeace Thackeray|William Makepeace Thackeray|corpora/baseline/corpus3/pg8123.epub
3|||TheNewcomesMemoirsofaMostRespectableFamily|Cluster 3|William Makepeace Thackeray|William Makepeace Thackeray|corpora/baseline/corpus3/pg7467.epub
3|||TheHistoryofPendennis|Cluster 3|William Makepeace Thackeray|William Makepeace Thackeray|corpora/baseline/corpus3/pg7265.epub
3|||VanityFair|Cluster 3|William Makepeace Thackeray|William Makepeace Thackeray|corpora/baseline/corpus3/pg599.epub
1|||ThePickwickPapers|Cluster 1|Charles Dickens|unknown_5|corpora/baseline/corpus3/pg580.epub
1|||DombeyandSon|Cluster 1|Charles Dickens|unknown_5|corpora/baseline/corpus3/pg821.epub
1|||BarnabyRudgeATaleoftheRiotsofEighty|Cluster 1|Charles Dickens|unknown_5|corpora/baseline/corpus3/pg917.epub
1|||ATaleofTwoCities|Cluster 1|Charles Dickens|unknown_5|corpora/baseline/corpus3/pg98.epub
1|||OliverTwist|Cluster 1|Charles Dickens|unknown_5|corpora/baseline/corpus3/pg730.epub
4|||NorthandSouth|Cluster 4|Elizabeth Cleghorn Gaskell|Elizabeth Cleghorn Gaskell|corpora/baseline/corpus3/pg4276.epub
4|||Ruth|Cluster 4|Elizabeth Cleghorn Gaskell|Elizabeth Cleghorn Gaskell|corpora/baseline/corpus3/pg4275.epub
4|||Cranford|Cluster 4|Elizabeth Cleghorn Gaskell|Elizabeth Cleghorn Gaskell|corpora/baseline/corpus3/pg394.epub
4|||MaryBarton|Cluster 4|Elizabeth Cleghorn Gaskell|Elizabeth Cleghorn Gaskell|corpora/baseline/corpus3/pg2153.epub
4|||SylviasLovers—Complete|Cluster 4|Elizabeth Cleghorn Gaskell|Elizabeth Cleghorn Gaskell|corpora/baseline/corpus3/pg4537.epub
6|||SenseandSensibility|Cluster 6|Jane Austen|Jane Austen|corpora/baseline/corpus3/pg161.epub
6|||Persuasion|Cluster 6|Jane Austen|Jane Austen|corpora/baseline/corpus3/pg105.epub
6|||Emma|Cluster 6|Jane Austen|Jane Austen|corpora/baseline/corpus3/pg158.epub
6|||MansfieldPark|Cluster 6|Jane Austen|Jane Austen|corpora/baseline/corpus3/pg141.epub
6|||PrideandPrejudice|Cluster 6|Jane Austen|Jane Austen|corpora/baseline/corpus3/pg42671.epub
6|||NorthangerAbbey|Cluster 6|Jane Austen|Jane Austen|corpora/baseline/corpus3/pg121.epub
