threshold;Purity;MutualInformation;Accuracy;Clusters
0.6;0.04088586030664395;0.08694958687826339;0.04088586030664395;3
0.601010101010101;0.04088586030664395;0.08694958687826339;0.04088586030664395;3
0.602020202020202;0.04088586030664395;0.08694958687826339;0.04088586030664395;3
0.603030303030303;0.04088586030664395;0.08694958687826339;0.04088586030664395;3
0.604040404040404;0.04088586030664395;0.08694958687826339;0.04088586030664395;3
0.6050505050505051;0.04088586030664395;0.08694958687826339;0.04088586030664395;3
0.6060606060606061;0.04088586030664395;0.08694958687826339;0.04088586030664395;3
0.6070707070707071;0.04088586030664395;0.08694958687826339;0.04088586030664395;3
0.6080808080808081;0.04088586030664395;0.08694958687826339;0.04088586030664395;3
0.609090909090909;0.04088586030664395;0.08694958687826339;0.04088586030664395;3
0.61010101010101;0.04088586030664395;0.08694958687826339;0.04088586030664395;3
0.611111111111111;0.04088586030664395;0.08694958687826339;0.04088586030664395;3
0.6121212121212121;0.04088586030664395;0.08694958687826339;0.04088586030664395;3
0.6131313131313131;0.04088586030664395;0.08694958687826339;0.04088586030664395;3
0.6141414141414141;0.04088586030664395;0.08694958687826339;0.04088586030664395;3
0.6151515151515151;0.04088586030664395;0.08694958687826339;0.04088586030664395;3
0.6161616161616161;0.04258943781942078;0.10736581237532321;0.04258943781942078;4
0.6171717171717171;0.04258943781942078;0.10736581237532321;0.04258943781942078;4
0.6181818181818182;0.04258943781942078;0.10736581237532321;0.04258943781942078;4
0.6191919191919192;0.04258943781942078;0.10736581237532321;0.04258943781942078;4
0.6202020202020202;0.04258943781942078;0.10736581237532321;0.04258943781942078;4
0.6212121212121212;0.04258943781942078;0.10736581237532321;0.04258943781942078;4
0.6222222222222222;0.04258943781942078;0.10736581237532321;0.04258943781942078;4
0.6232323232323232;0.039182282793867124;0.11544040177761723;0.039182282793867124;4
0.6242424242424243;0.039182282793867124;0.11544040177761723;0.039182282793867124;4
0.6252525252525252;0.039182282793867124;0.11544040177761723;0.039182282793867124;4
0.6262626262626262;0.03747870528109029;0.09485884902289494;0.03577512776831346;4
0.6272727272727272;0.03747870528109029;0.09485884902289494;0.03577512776831346;4
0.6282828282828282;0.03747870528109029;0.09485884902289494;0.03577512776831346;4
0.6292929292929292;0.03747870528109029;0.09485884902289494;0.03577512776831346;4
0.6303030303030303;0.03747870528109029;0.09485884902289494;0.03577512776831346;4
0.6313131313131313;0.03747870528109029;0.09485884902289494;0.03577512776831346;4
0.6323232323232323;0.03747870528109029;0.09485884902289494;0.03577512776831346;4
0.6333333333333333;0.03747870528109029;0.09485884902289494;0.03577512776831346;4
0.6343434343434343;0.03747870528109029;0.09485884902289494;0.03577512776831346;4
0.6353535353535353;0.03747870528109029;0.09485884902289494;0.03577512776831346;4
0.6363636363636364;0.03747870528109029;0.09485884902289494;0.03577512776831346;4
0.6373737373737374;0.049403747870528106;0.09918759737570085;0.04770017035775128;5
0.6383838383838384;0.049403747870528106;0.09918759737570085;0.04770017035775128;5
0.6393939393939394;0.049403747870528106;0.09918759737570085;0.04770017035775128;5
0.6404040404040404;0.049403747870528106;0.09918759737570085;0.04770017035775128;5
0.6414141414141414;0.049403747870528106;0.09918759737570085;0.04770017035775128;5
0.6424242424242423;0.049403747870528106;0.09918759737570085;0.04770017035775128;5
0.6434343434343434;0.049403747870528106;0.09918759737570085;0.04770017035775128;5
0.6444444444444444;0.04258943781942078;0.09496527731002138;0.04088586030664395;5
0.6454545454545454;0.044293015332197615;0.1401108058328095;0.044293015332197615;5
0.6464646464646464;0.044293015332197615;0.1401108058328095;0.044293015332197615;5
0.6474747474747474;0.044293015332197615;0.1401108058328095;0.044293015332197615;5
0.6484848484848484;0.044293015332197615;0.1401108058328095;0.044293015332197615;5
0.6494949494949495;0.044293015332197615;0.1401108058328095;0.044293015332197615;5
0.6505050505050505;0.044293015332197615;0.1401108058328095;0.044293015332197615;5
0.6515151515151515;0.044293015332197615;0.1401108058328095;0.044293015332197615;5
0.6525252525252525;0.044293015332197615;0.1401108058328095;0.044293015332197615;5
0.6535353535353535;0.044293015332197615;0.1401108058328095;0.044293015332197615;5
0.6545454545454545;0.044293015332197615;0.1401108058328095;0.044293015332197615;5
0.6555555555555556;0.044293015332197615;0.1401108058328095;0.044293015332197615;5
0.6565656565656566;0.04770017035775128;0.14541363083054515;0.04770017035775128;6
0.6575757575757576;0.04599659284497445;0.12116565626797672;0.044293015332197615;6
0.6585858585858586;0.054514480408858604;0.1831988950469153;0.054514480408858604;7
0.6595959595959595;0.056218057921635436;0.18794984465264364;0.056218057921635436;7
0.6606060606060605;0.06303236797274275;0.2105864594548696;0.06303236797274275;8
0.6616161616161615;0.06303236797274275;0.2105864594548696;0.06303236797274275;8
0.6626262626262626;0.06303236797274275;0.2105864594548696;0.06303236797274275;8
0.6636363636363636;0.06473594548551959;0.19885792161767946;0.06473594548551959;8
0.6646464646464646;0.06473594548551959;0.19885792161767946;0.06473594548551959;8
0.6656565656565656;0.06473594548551959;0.19885792161767946;0.06473594548551959;8
0.6666666666666666;0.06473594548551959;0.19885792161767946;0.06473594548551959;8
0.6676767676767676;0.06473594548551959;0.19885792161767946;0.06473594548551959;8
0.6686868686868687;0.06473594548551959;0.19885792161767946;0.06473594548551959;8
0.6696969696969697;0.06473594548551959;0.2030565813036284;0.06303236797274275;8
0.6707070707070707;0.06473594548551959;0.2030565813036284;0.06303236797274275;8
0.6717171717171717;0.06473594548551959;0.2030565813036284;0.06303236797274275;8
0.6727272727272727;0.07325383304940375;0.2551969987766562;0.07155025553662692;9
0.6737373737373737;0.07325383304940375;0.2551969987766562;0.07155025553662692;9
0.6747474747474747;0.07325383304940375;0.2551969987766562;0.07155025553662692;9
0.6757575757575758;0.07325383304940375;0.2551969987766562;0.07155025553662692;9
0.6767676767676767;0.07325383304940375;0.2551969987766562;0.07155025553662692;9
0.6777777777777777;0.07836456558773425;0.2645690421846909;0.07666098807495741;9
0.6787878787878787;0.07836456558773425;0.2645690421846909;0.07666098807495741;9
0.6797979797979797;0.07836456558773425;0.2645690421846909;0.07666098807495741;9
0.6808080808080808;0.07836456558773425;0.2645690421846909;0.07666098807495741;9
0.6818181818181818;0.07836456558773425;0.2645690421846909;0.07666098807495741;9
0.6828282828282828;0.07836456558773425;0.2645690421846909;0.07666098807495741;9
0.6838383838383838;0.07836456558773425;0.264915526391092;0.07495741056218058;10
0.6848484848484848;0.07836456558773425;0.264915526391092;0.07495741056218058;10
0.6858585858585858;0.07836456558773425;0.264915526391092;0.07495741056218058;10
0.6868686868686869;0.07836456558773425;0.264915526391092;0.07495741056218058;10
0.6878787878787879;0.07836456558773425;0.264915526391092;0.07495741056218058;10
0.6888888888888889;0.08517887563884156;0.27441372269237624;0.0817717206132879;11
0.6898989898989899;0.08517887563884156;0.27441372269237624;0.0817717206132879;11
0.6909090909090909;0.08517887563884156;0.27441372269237624;0.0817717206132879;11
0.6919191919191918;0.08517887563884156;0.27441372269237624;0.0817717206132879;11
0.6929292929292928;0.08517887563884156;0.27441372269237624;0.0817717206132879;11
0.6939393939393939;0.08517887563884156;0.27441372269237624;0.0817717206132879;11
0.6949494949494949;0.08517887563884156;0.27370303696984394;0.08006814310051108;12
0.6959595959595959;0.09028960817717206;0.2898435250358827;0.08858603066439523;12
0.6969696969696969;0.10051107325383304;0.3063875874197958;0.09710391822827939;14
0.6979797979797979;0.10051107325383304;0.3063875874197958;0.09710391822827939;14
0.6989898989898989;0.10391822827938671;0.3080903011749015;0.10051107325383304;15
0.7;0.10391822827938671;0.3080903011749015;0.10051107325383304;15
