idnum|extra|percent|title|clusterid|real_author|label|filename
5|||ATaleofTwoCities|Cluster 5|Charles Dickens|unknown_1|corpora/baseline/corpus2/pg98.epub
5|||SylviasLovers—Complete|Cluster 5|Elizabeth Cleghorn Gaskell|unknown_1|corpora/baseline/corpus2/pg4537.epub
5|||OliverTwist|Cluster 5|Charles Dickens|unknown_1|corpora/baseline/corpus2/pg730.epub
5|||BarnabyRudgeATaleoftheRiotsofEighty|Cluster 5|Charles Dickens|unknown_1|corpora/baseline/corpus2/pg917.epub
5|||ThePickwickPapers|Cluster 5|Charles Dickens|unknown_1|corpora/baseline/corpus2/pg580.epub
5|||NicholasNickleby|Cluster 5|Charles Dickens|unknown_1|corpora/baseline/corpus2/pg967.epub
2|||TheVirginians|Cluster 2|William Makepeace Thackeray|William Makepeace Thackeray|corpora/baseline/corpus2/pg8123.epub
2|||TheHistoryofHenryEsmondEsqaColonelintheServiceofHerMajestyQueenAnne|Cluster 2|William Makepeace Thackeray|William Makepeace Thackeray|corpora/baseline/corpus2/pg2511.epub
2|||TheNewcomesMemoirsofaMostRespectableFamily|Cluster 2|William Makepeace Thackeray|William Makepeace Thackeray|corpora/baseline/corpus2/pg7467.epub
2|||CatherineAStory|Cluster 2|William Makepeace Thackeray|William Makepeace Thackeray|corpora/baseline/corpus2/pg1969.epub
2|||VanityFair|Cluster 2|William Makepeace Thackeray|William Makepeace Thackeray|corpora/baseline/corpus2/pg599.epub
2|||TheHistoryofPendennis|Cluster 2|William Makepeace Thackeray|William Makepeace Thackeray|corpora/baseline/corpus2/pg7265.epub
0|||AdamBede|Cluster 0|George Eliot|George Eliot|corpora/baseline/corpus2/pg507.epub
0|||DanielDeronda|Cluster 0|George Eliot|George Eliot|corpora/baseline/corpus2/pg7469.epub
0|||TheMillontheFloss|Cluster 0|George Eliot|George Eliot|corpora/baseline/corpus2/pg6688.epub
0|||FelixHolttheRadical|Cluster 0|George Eliot|George Eliot|corpora/baseline/corpus2/pg40882.epub
0|||Romola|Cluster 0|George Eliot|George Eliot|corpora/baseline/corpus2/pg24020.epub
0|||SilasMarner|Cluster 0|George Eliot|George Eliot|corpora/baseline/corpus2/pg550.epub
0|||Middlemarch|Cluster 0|George Eliot|George Eliot|corpora/baseline/corpus2/pg145.epub
3|||NorthangerAbbey|Cluster 3|Jane Austen|Jane Austen|corpora/baseline/corpus2/pg121.epub
3|||Emma|Cluster 3|Jane Austen|Jane Austen|corpora/baseline/corpus2/pg158.epub
3|||Cranford|Cluster 3|Elizabeth Cleghorn Gaskell|Jane Austen|corpora/baseline/corpus2/pg394.epub
3|||MaryBarton|Cluster 3|Elizabeth Cleghorn Gaskell|Jane Austen|corpora/baseline/corpus2/pg2153.epub
3|||PrideandPrejudice|Cluster 3|Jane Austen|Jane Austen|corpora/baseline/corpus2/pg42671.epub
3|||Persuasion|Cluster 3|Jane Austen|Jane Austen|corpora/baseline/corpus2/pg105.epub
3|||Ruth|Cluster 3|Elizabeth Cleghorn Gaskell|Jane Austen|corpora/baseline/corpus2/pg4275.epub
3|||SenseandSensibility|Cluster 3|Jane Austen|Jane Austen|corpora/baseline/corpus2/pg161.epub
3|||MansfieldPark|Cluster 3|Jane Austen|Jane Austen|corpora/baseline/corpus2/pg141.epub
3|||NorthandSouth|Cluster 3|Elizabeth Cleghorn Gaskell|Jane Austen|corpora/baseline/corpus2/pg4276.epub
1|||TheIdiot|Cluster 1|Fyodor Dostoyevsky|Ivan Sergeevich Turgenev|corpora/baseline/corpus2/pg2638.epub
1|||RudinANovel|Cluster 1|Ivan Sergeevich Turgenev|Ivan Sergeevich Turgenev|corpora/baseline/corpus2/pg6900.epub
1|||FathersandChildren|Cluster 1|Ivan Sergeevich Turgenev|Ivan Sergeevich Turgenev|corpora/baseline/corpus2/pg30723.epub
1|||ThePossessedTheDevils|Cluster 1|Fyodor Dostoyevsky|Ivan Sergeevich Turgenev|corpora/baseline/corpus2/pg8117.epub
1|||VirginSoil|Cluster 1|Ivan Sergeevich Turgenev|Ivan Sergeevich Turgenev|corpora/baseline/corpus2/pg2466.epub
1|||CrimeandPunishment|Cluster 1|Fyodor Dostoyevsky|Ivan Sergeevich Turgenev|corpora/baseline/corpus2/pg2554.epub
1|||TheBrothersKaramazov|Cluster 1|Fyodor Dostoyevsky|Ivan Sergeevich Turgenev|corpora/baseline/corpus2/pg28054.epub
1|||Smoke|Cluster 1|Ivan Sergeevich Turgenev|Ivan Sergeevich Turgenev|corpora/baseline/corpus2/pg40813.epub
1|||OntheEveANovel|Cluster 1|Ivan Sergeevich Turgenev|Ivan Sergeevich Turgenev|corpora/baseline/corpus2/pg6902.epub
1|||AHouseofGentlefolk|Cluster 1|Ivan Sergeevich Turgenev|Ivan Sergeevich Turgenev|corpora/baseline/corpus2/pg5721.epub
4|||TheMysteryofEdwinDrood|Cluster 4|Charles Dickens|Charles Dickens|corpora/baseline/corpus2/pg564.epub
4|||DombeyandSon|Cluster 4|Charles Dickens|Charles Dickens|corpora/baseline/corpus2/pg821.epub
4|||OurMutualFriend|Cluster 4|Charles Dickens|Charles Dickens|corpora/baseline/corpus2/pg883.epub
4|||HardTimes|Cluster 4|Charles Dickens|Charles Dickens|corpora/baseline/corpus2/pg786.epub
4|||MartinChuzzlewit|Cluster 4|Charles Dickens|Charles Dickens|corpora/baseline/corpus2/pg968.epub
4|||LittleDorrit|Cluster 4|Charles Dickens|Charles Dickens|corpora/baseline/corpus2/pg963.epub
