threshold;Purity;MutualInformation;Accuracy;Clusters
0.6;0.9428571428571428;0.8914993949394502;0.9428571428571428;5
0.601010101010101;0.9428571428571428;0.8914993949394502;0.9428571428571428;5
0.602020202020202;0.9428571428571428;0.8914993949394502;0.9428571428571428;5
0.603030303030303;0.9428571428571428;0.8914993949394502;0.9428571428571428;5
0.604040404040404;0.9428571428571428;0.8914993949394502;0.9428571428571428;5
0.6050505050505051;0.9428571428571428;0.8914993949394502;0.9428571428571428;5
0.6060606060606061;0.9428571428571428;0.8914993949394502;0.9428571428571428;5
0.6070707070707071;0.9428571428571428;0.8914993949394502;0.9428571428571428;5
0.6080808080808081;0.9428571428571428;0.8914993949394502;0.9428571428571428;5
0.609090909090909;0.9428571428571428;0.8914993949394502;0.9428571428571428;5
0.61010101010101;0.9428571428571428;0.8914993949394502;0.9428571428571428;5
0.611111111111111;0.9428571428571428;0.8914993949394502;0.9428571428571428;5
0.6121212121212121;0.9428571428571428;0.8914993949394502;0.9428571428571428;5
0.6131313131313131;0.9714285714285714;0.9090454004361006;0.9142857142857143;6
0.6141414141414141;0.9714285714285714;0.9090454004361006;0.9142857142857143;6
0.6151515151515151;0.9714285714285714;0.9090454004361006;0.9142857142857143;6
0.6161616161616161;0.9714285714285714;0.9090454004361006;0.9142857142857143;6
0.6171717171717171;0.9714285714285714;0.9090454004361006;0.9142857142857143;6
0.6181818181818182;0.9714285714285714;0.9090454004361006;0.9142857142857143;6
0.6191919191919192;0.9714285714285714;0.9090454004361006;0.9142857142857143;6
0.6202020202020202;0.9714285714285714;0.9090454004361006;0.9142857142857143;6
0.6212121212121212;0.9714285714285714;0.9090454004361006;0.9142857142857143;6
0.6222222222222222;0.9714285714285714;0.9090454004361006;0.9142857142857143;6
0.6232323232323232;0.9714285714285714;0.9090454004361006;0.9142857142857143;6
0.6242424242424243;1.0;0.9059396513016726;0.8285714285714286;7
0.6252525252525252;1.0;0.9059396513016726;0.8285714285714286;7
0.6262626262626262;1.0;0.9059396513016726;0.8285714285714286;7
0.6272727272727272;1.0;0.9059396513016726;0.8285714285714286;7
0.6282828282828282;1.0;0.9059396513016726;0.8285714285714286;7
0.6292929292929292;1.0;0.9059396513016726;0.8285714285714286;7
0.6303030303030303;1.0;0.9059396513016726;0.8285714285714286;7
0.6313131313131313;1.0;0.9059396513016726;0.8285714285714286;7
0.6323232323232323;1.0;0.9059396513016726;0.8285714285714286;7
0.6333333333333333;1.0;0.9059396513016726;0.8285714285714286;7
0.6343434343434343;1.0;0.9059396513016726;0.8285714285714286;7
0.6353535353535353;1.0;0.9059396513016726;0.8285714285714286;7
0.6363636363636364;1.0;0.9059396513016726;0.8285714285714286;7
0.6373737373737374;1.0;0.9059396513016726;0.8285714285714286;7
0.6383838383838384;1.0;0.9059396513016726;0.8285714285714286;7
0.6393939393939394;1.0;0.9059396513016726;0.8285714285714286;7
0.6404040404040404;1.0;0.9059396513016726;0.8285714285714286;7
0.6414141414141414;1.0;0.9059396513016726;0.8285714285714286;7
0.6424242424242423;1.0;0.9059396513016726;0.8285714285714286;7
0.6434343434343434;1.0;0.90153189073369;0.8;7
0.6444444444444444;1.0;0.8807675081920299;0.7714285714285715;8
0.6454545454545454;1.0;0.8674776465475631;0.7714285714285715;9
0.6464646464646464;1.0;0.8674776465475631;0.7714285714285715;9
0.6474747474747474;1.0;0.8674776465475631;0.7714285714285715;9
0.6484848484848484;1.0;0.8674776465475631;0.7714285714285715;9
0.6494949494949495;1.0;0.8545828835365572;0.7142857142857143;9
0.6505050505050505;1.0;0.8545828835365572;0.7142857142857143;9
0.6515151515151515;1.0;0.8545828835365572;0.7142857142857143;9
0.6525252525252525;1.0;0.8545828835365572;0.7142857142857143;9
0.6535353535353535;1.0;0.8545828835365572;0.7142857142857143;9
0.6545454545454545;1.0;0.8545828835365572;0.7142857142857143;9
0.6555555555555556;1.0;0.8545828835365572;0.7142857142857143;9
0.6565656565656566;1.0;0.8545828835365572;0.7142857142857143;9
0.6575757575757576;1.0;0.8545828835365572;0.7142857142857143;9
0.6585858585858586;1.0;0.8545828835365572;0.7142857142857143;9
0.6595959595959595;1.0;0.8545828835365572;0.7142857142857143;9
0.6606060606060605;1.0;0.8545828835365572;0.7142857142857143;9
0.6616161616161615;1.0;0.8545828835365572;0.7142857142857143;9
0.6626262626262626;1.0;0.8545828835365572;0.7142857142857143;9
0.6636363636363636;1.0;0.8545828835365572;0.7142857142857143;9
0.6646464646464646;1.0;0.8545828835365572;0.7142857142857143;9
0.6656565656565656;1.0;0.8545828835365572;0.7142857142857143;9
0.6666666666666666;1.0;0.8545828835365572;0.7142857142857143;9
0.6676767676767676;1.0;0.8545828835365572;0.7142857142857143;9
0.6686868686868687;1.0;0.8545828835365572;0.7142857142857143;9
0.6696969696969697;1.0;0.8545828835365572;0.7142857142857143;9
0.6707070707070707;1.0;0.8365281226738658;0.7142857142857143;10
0.6717171717171717;1.0;0.8365281226738658;0.7142857142857143;10
0.6727272727272727;1.0;0.8365281226738658;0.7142857142857143;10
0.6737373737373737;1.0;0.8365281226738658;0.7142857142857143;10
0.6747474747474747;1.0;0.8365281226738658;0.7142857142857143;10
0.6757575757575758;1.0;0.8365281226738658;0.7142857142857143;10
0.6767676767676767;1.0;0.8365281226738658;0.7142857142857143;10
0.6777777777777777;1.0;0.820877915939581;0.6857142857142857;11
0.6787878787878787;1.0;0.820877915939581;0.6857142857142857;11
0.6797979797979797;1.0;0.820877915939581;0.6857142857142857;11
0.6808080808080808;1.0;0.820877915939581;0.6857142857142857;11
0.6818181818181818;1.0;0.8072997792583533;0.6571428571428571;12
0.6828282828282828;1.0;0.8072997792583533;0.6571428571428571;12
0.6838383838383838;1.0;0.7961204817735982;0.6571428571428571;13
0.6848484848484848;1.0;0.7961204817735982;0.6571428571428571;13
0.6858585858585858;1.0;0.7833426449566055;0.6285714285714286;14
0.6868686868686869;1.0;0.7833426449566055;0.6285714285714286;14
0.6878787878787879;1.0;0.7833426449566055;0.6285714285714286;14
0.6888888888888889;1.0;0.7833426449566055;0.6285714285714286;14
0.6898989898989899;1.0;0.7833426449566055;0.6285714285714286;14
0.6909090909090909;1.0;0.7833426449566055;0.6285714285714286;14
0.6919191919191918;1.0;0.7833426449566055;0.6285714285714286;14
0.6929292929292928;1.0;0.7833426449566055;0.6285714285714286;14
0.6939393939393939;1.0;0.7804288142591965;0.6;14
0.6949494949494949;1.0;0.7804288142591965;0.6;14
0.6959595959595959;1.0;0.7804288142591965;0.6;14
0.6969696969696969;1.0;0.7804288142591965;0.6;14
0.6979797979797979;1.0;0.7804288142591965;0.6;14
0.6989898989898989;1.0;0.7785481501459055;0.5714285714285714;14
0.7;1.0;0.7681458342328773;0.5714285714285714;15
