idnum|extra|title|percent|clusterid|real_author|label|filename
0|6346aa|BuffonsNaturalHistoryVolume05of10ContainingaTheoryoftheEarthaGeneralHistoryofManoftheBruteCreationandofVegetablesMinerals&c&c|100.0|Cluster 0|comte de Georges Louis Leclerc Buffon|comte de Georges Louis Leclerc Buffon|corpora/multiauthor/corpus_60_filtered/45730.epub
1|6346aa|IndianScoutTalksAGuideforBoyScoutsandCampFireGirls|0.79|Cluster 0|Charles A. Eastman|comte de Georges Louis Leclerc Buffon|corpora/multiauthor/corpus_60_filtered/37373.epub
2|6346aa|MemoirsoftheCourtsofLouisXVandXVI—CompleteBeingsecretmemoirsofMadameDuHaussetladysmaidtoMadamedePompadourandofthePrincessLamballe|0.81|Cluster 0|Mme. Du Hausset|comte de Georges Louis Leclerc Buffon|corpora/multiauthor/corpus_60_filtered/3883.epub
3|6346aa|DreamDays|0.6|Cluster 0|Kenneth Grahame|comte de Georges Louis Leclerc Buffon|corpora/multiauthor/corpus_60_filtered/1288.epub
4|6346aa|IllustrativeAnecdotesoftheAnimalKingdom|0.79|Cluster 0|Samuel G. Goodrich|comte de Georges Louis Leclerc Buffon|corpora/multiauthor/corpus_60_filtered/33687.epub
5|6346aa|ChipsfromaGermanWorkshopVolume3EssaysonLiteratureBiographyandAntiquities|0.6|Cluster 0|F. Max Müller|comte de Georges Louis Leclerc Buffon|corpora/multiauthor/corpus_60_filtered/26572.epub
6|6346aa|OtherWorldsTheirNaturePossibilitiesandHabitabilityintheLightoftheLatestDiscoveries|0.74|Cluster 0|Garrett Putman Serviss|comte de Georges Louis Leclerc Buffon|corpora/multiauthor/corpus_60_filtered/18431.epub
7|6346aa|FundamentalPrinciplesoftheMetaphysicofMorals|0.28|Cluster 0|Immanuel Kant|comte de Georges Louis Leclerc Buffon|corpora/multiauthor/corpus_60_filtered/5682.epub
8|6346aa|TheSevenGreatMonarchiesOfTheAncientEasternWorldVol1ChaldaeaTheHistoryGeographyAndAntiquitiesOfChaldaeaAssyriaBabylonMediaPersiaParthiaAndSassanianorNewPersianEmpireWithMapsandIllustrations|0.78|Cluster 0|George Rawlinson|comte de Georges Louis Leclerc Buffon|corpora/multiauthor/corpus_60_filtered/16161.epub
9|6346aa|AShortHistoryofChristianitySecondEditionRevisedWithAdditions|0.46|Cluster 0|J. M. Robertson|comte de Georges Louis Leclerc Buffon|corpora/multiauthor/corpus_60_filtered/52550.epub
10|6346aa|VisitsandSketchesatHomeandAbroadVol2of3WithTalesandMiscellaniesNowFirstCollected|0.66|Cluster 0|Mrs. Jameson|comte de Georges Louis Leclerc Buffon|corpora/multiauthor/corpus_60_filtered/36819.epub
11|6346aa|AmericanSceneryVol2of2orLandlakeandriverillustrationsoftransatlanticnature|0.77|Cluster 0|Nathaniel Parker Willis|comte de Georges Louis Leclerc Buffon|corpora/multiauthor/corpus_60_filtered/49043.epub
12|6346aa|AmericanSceneryVol1of2orLandlakeandriverillustrationsoftransatlanticnature|0.61|Cluster 0|Nathaniel Parker Willis|comte de Georges Louis Leclerc Buffon|corpora/multiauthor/corpus_60_filtered/49042.epub
13|6346aa|TheGlowWormandOtherBeetles|0.02|Cluster 0|Jean-Henri Fabre|comte de Georges Louis Leclerc Buffon|corpora/multiauthor/corpus_60_filtered/27868.epub
14|6346aa|AShortHistoryofFreethoughtAncientandModernVolume1of2ThirdeditionRevisedandExpandedintwovolumes|0.92|Cluster 0|J. M. Robertson|comte de Georges Louis Leclerc Buffon|corpora/multiauthor/corpus_60_filtered/51793.epub
15|6346aa|TheWorksofCharlesandMaryLamb—Volume1MiscellaneousProse|0.06|Cluster 0|Charles Lamb|comte de Georges Louis Leclerc Buffon|corpora/multiauthor/corpus_60_filtered/40988.epub
16|6346aa|TheIndianTodayThePastandFutureoftheFirstAmerican|0.3|Cluster 0|Charles A. Eastman|comte de Georges Louis Leclerc Buffon|corpora/multiauthor/corpus_60_filtered/27448.epub
17|6346aa|ThePhilosophyofSpinoza|0.89|Cluster 0|Benedictus de Spinoza|comte de Georges Louis Leclerc Buffon|corpora/multiauthor/corpus_60_filtered/31205.epub
18|6346aa|ChipsfromaGermanWorkshopVolume1EssaysontheScienceofReligion|0.71|Cluster 0|F. Max Müller|comte de Georges Louis Leclerc Buffon|corpora/multiauthor/corpus_60_filtered/24686.epub
19|6346aa|Rationalism|0.39|Cluster 0|J. M. Robertson|comte de Georges Louis Leclerc Buffon|corpora/multiauthor/corpus_60_filtered/31941.epub
20|6346aa|AHistoryofEnglishRomanticismintheNineteenthCentury|0.81|Cluster 0|Henry A. Beers|comte de Georges Louis Leclerc Buffon|corpora/multiauthor/corpus_60_filtered/15931.epub
21|6346aa|OntheImprovementoftheUnderstanding|0.31|Cluster 0|Benedictus de Spinoza|comte de Georges Louis Leclerc Buffon|corpora/multiauthor/corpus_60_filtered/1016.epub
22|6346aa|BuffonsNaturalHistoryVolume04of10ContainingaTheoryoftheEarthaGeneralHistoryofManoftheBruteCreationandofVegetablesMinerals&c&c|0.39|Cluster 0|comte de Georges Louis Leclerc Buffon|comte de Georges Louis Leclerc Buffon|corpora/multiauthor/corpus_60_filtered/45729.epub
23|6346aa|BuffonsNaturalHistoryVolume08of10ContainingaTheoryoftheEarthaGeneralHistoryofManoftheBruteCreationandofVegetablesMinerals&c&c|0.42|Cluster 0|comte de Georges Louis Leclerc Buffon|comte de Georges Louis Leclerc Buffon|corpora/multiauthor/corpus_60_filtered/45821.epub
24|6346aa|PinnocksimprovededitionofDrGoldsmithsHistoryofRometowhichisprefixedanintroductiontothestudyofRomanhistoryandagreatvarietyofvaluableinformationaddedthroughouttheworkonthemannersinstitutionsandantiquitiesoftheRomanswithnumerousbiographicalandhistoricalnotesandquestionsforexaminationattheendofeachsectionByWmCTaylor|0.03|Cluster 0|Oliver Goldsmith|comte de Georges Louis Leclerc Buffon|corpora/multiauthor/corpus_60_filtered/16387.epub
25|6346aa|IndiaWhatcanitteachus?ACourseofLecturesDeliveredbeforetheUniversityOfCambridge|0.23|Cluster 0|F. Max Müller|comte de Georges Louis Leclerc Buffon|corpora/multiauthor/corpus_60_filtered/20847.epub
26|6346aa|Ethics—Part4|0.16|Cluster 0|Benedictus de Spinoza|comte de Georges Louis Leclerc Buffon|corpora/multiauthor/corpus_60_filtered/971.epub
27|6346aa|ADaywithJohnMilton|0.62|Cluster 0|May Byron|comte de Georges Louis Leclerc Buffon|corpora/multiauthor/corpus_60_filtered/40130.epub
28|6346aa|InitialStudiesinAmericanLetters|0.43|Cluster 0|Henry A. Beers|comte de Georges Louis Leclerc Buffon|corpora/multiauthor/corpus_60_filtered/15854.epub
29|6346aa|HistoryofPhoenicia|0.61|Cluster 0|George Rawlinson|comte de Georges Louis Leclerc Buffon|corpora/multiauthor/corpus_60_filtered/2331.epub
30|6346aa|LivesofCelebratedWomen|0.57|Cluster 0|Samuel G. Goodrich|comte de Georges Louis Leclerc Buffon|corpora/multiauthor/corpus_60_filtered/33273.epub
31|6346aa|TheNegrointheAmericanRebellionHisHeroismandHisFidelity|0.96|Cluster 0|William Wells Brown|comte de Georges Louis Leclerc Buffon|corpora/multiauthor/corpus_60_filtered/50130.epub
32|6346aa|MemoirsoftheCourtsofLouisXVandXVI—Volume1BeingsecretmemoirsofMadameDuHaussetladysmaidtoMadamedePompadourandofthePrincessLamballe|0.04|Cluster 0|Mme. Du Hausset|comte de Georges Louis Leclerc Buffon|corpora/multiauthor/corpus_60_filtered/3876.epub
33|6346aa|TheConnecticutWitsandOtherEssays|0.48|Cluster 0|Henry A. Beers|comte de Georges Louis Leclerc Buffon|corpora/multiauthor/corpus_60_filtered/50915.epub
34|6346aa|Ethics—Part5|0.38|Cluster 0|Benedictus de Spinoza|comte de Georges Louis Leclerc Buffon|corpora/multiauthor/corpus_60_filtered/975.epub
35|6346aa|MatildaMontgomerieOrTheProphecyFulfilled|0.28|Cluster 0|Major Richardson|comte de Georges Louis Leclerc Buffon|corpora/multiauthor/corpus_60_filtered/39758.epub
36|6346aa|BuffonsNaturalHistoryVolume10of10ContainingaTheoryoftheEarthaGeneralHistoryofManoftheBruteCreationandofVegetablesMinerals&c&c|0.39|Cluster 0|comte de Georges Louis Leclerc Buffon|comte de Georges Louis Leclerc Buffon|corpora/multiauthor/corpus_60_filtered/45868.epub
37|6346aa|TheWorksofCharlesandMaryLamb—Volume6Letters18211842|0.45|Cluster 0|Charles Lamb|comte de Georges Louis Leclerc Buffon|corpora/multiauthor/corpus_60_filtered/10851.epub
38|6346aa|HistoryoftheIndiansofNorthandSouthAmerica|0.0|Cluster 0|Samuel G. Goodrich|comte de Georges Louis Leclerc Buffon|corpora/multiauthor/corpus_60_filtered/54266.epub
39|6346aa|ChipsfromaGermanWorkshopVolume5MiscellaneousLaterEssays|0.43|Cluster 0|F. Max Müller|comte de Georges Louis Leclerc Buffon|corpora/multiauthor/corpus_60_filtered/27810.epub
40|6346aa|MyAutobiographyAFragment|0.62|Cluster 0|F. Max Müller|comte de Georges Louis Leclerc Buffon|corpora/multiauthor/corpus_60_filtered/30269.epub
41|6346aa|PleasuresofthetelescopeAnIllustratedGuideforAmateurAstronomersandaPopularDescriptionoftheChiefWondersoftheHeavensforGeneralReaders|0.95|Cluster 0|Garrett Putman Serviss|comte de Georges Louis Leclerc Buffon|corpora/multiauthor/corpus_60_filtered/28752.epub
42|6346aa|PeterParleysTalesAboutAmericaandAustralia|0.66|Cluster 0|Samuel G. Goodrich|comte de Georges Louis Leclerc Buffon|corpora/multiauthor/corpus_60_filtered/16891.epub
43|6346aa|AreopagiticaASpeechfortheLibertyofUnlicensedPrintingtotheParliamentofEngland|0.99|Cluster 0|John Milton|comte de Georges Louis Leclerc Buffon|corpora/multiauthor/corpus_60_filtered/608.epub
44|6346aa|WacoustaataleofthePontiacconspiracy—Volume2|0.38|Cluster 0|Major Richardson|comte de Georges Louis Leclerc Buffon|corpora/multiauthor/corpus_60_filtered/4720.epub
45|6346aa|TheBotanicalMagazineVol04OrFlowerGardenDisplayed|0.91|Cluster 0|William Curtis|comte de Georges Louis Leclerc Buffon|corpora/multiauthor/corpus_60_filtered/17979.epub
46|6346aa|FamousImpostors|0.55|Cluster 0|Bram Stoker|comte de Georges Louis Leclerc Buffon|corpora/multiauthor/corpus_60_filtered/51391.epub
47|6346aa|TheSevenGreatMonarchiesOfTheAncientEasternWorldVol3MediaTheHistoryGeographyAndAntiquitiesOfChaldaeaAssyriaBabylonMediaPersiaParthiaAndSassanianorNewPersianEmpireWithMapsandIllustrations|0.82|Cluster 0|George Rawlinson|comte de Georges Louis Leclerc Buffon|corpora/multiauthor/corpus_60_filtered/16163.epub
48|6346aa|TheSympathyofReligions|0.32|Cluster 0|Thomas Wentworth Higginson|comte de Georges Louis Leclerc Buffon|corpora/multiauthor/corpus_60_filtered/25792.epub
49|6346aa|PaganPapers|0.59|Cluster 0|Kenneth Grahame|comte de Georges Louis Leclerc Buffon|corpora/multiauthor/corpus_60_filtered/5319.epub
50|6346aa|SketchesinCanadaandramblesamongtheredmen|0.5|Cluster 0|Mrs. Jameson|comte de Georges Louis Leclerc Buffon|corpora/multiauthor/corpus_60_filtered/35224.epub
51|6346aa|TheSevenGreatMonarchiesOfTheAncientEasternWorldVol6ParthiaTheHistoryGeographyAndAntiquitiesOfChaldaeaAssyriaBabylonMediaPersiaParthiaAndSassanianorNewPersianEmpireWithMapsandIllustrations|0.95|Cluster 0|George Rawlinson|comte de Georges Louis Leclerc Buffon|corpora/multiauthor/corpus_60_filtered/16166.epub
52|6346aa|TheLifeofBenjaminFranklinIllustratedbyTalesSketchesandAnecdotes|0.0|Cluster 0|Samuel G. Goodrich|comte de Georges Louis Leclerc Buffon|corpora/multiauthor/corpus_60_filtered/38469.epub
53|6346aa|"""Mycountrytisofthee!""OrtheUnitedStatesofAmericapastpresentandfutureAphilosophicviewofAmericanhistoryandofourpresentstatustobeseenintheColumbianexhibition"|0.7|Cluster 0|Willis Fletcher Johnson|comte de Georges Louis Leclerc Buffon|corpora/multiauthor/corpus_60_filtered/50036.epub
54|6346aa|WacoustaataleofthePontiacconspiracy—Volume1|0.43|Cluster 0|Major Richardson|comte de Georges Louis Leclerc Buffon|corpora/multiauthor/corpus_60_filtered/4719.epub
55|6346aa|TheWorksofCharlesandMaryLamb—Volume5TheLettersofCharlesandMaryLamb17961820|0.78|Cluster 0|Charles Lamb|comte de Georges Louis Leclerc Buffon|corpora/multiauthor/corpus_60_filtered/9365.epub
56|6346aa|TheCritiqueofPureReason|0.5|Cluster 0|Immanuel Kant|comte de Georges Louis Leclerc Buffon|corpora/multiauthor/corpus_60_filtered/4280.epub
57|6346aa|TheSevenGreatMonarchiesOfTheAncientEasternWorldVol7TheSassanianorNewPersianEmpireTheHistoryGeographyAndAntiquitiesOfChaldaeaAssyriaBabylonMediaPersiaParthiaAndSassanianorNewPersianEmpireWithMapsandIllustrations|0.09|Cluster 0|George Rawlinson|comte de Georges Louis Leclerc Buffon|corpora/multiauthor/corpus_60_filtered/16167.epub
58|6346aa|TheRomanceofBiographyVol2of2orMemoirsofWomenLovedandCelebratedbyPoetsfromtheDaysoftheTroubadourstothePresentAge3rded2Vols|0.76|Cluster 0|Mrs. Jameson|comte de Georges Louis Leclerc Buffon|corpora/multiauthor/corpus_60_filtered/35416.epub
59|6346aa|MemoirsoftheCourtsofLouisXVandXVI—Volume3BeingsecretmemoirsofMadameDuHaussetladysmaidtoMadamedePompadourandofthePrincessLamballe|0.65|Cluster 0|Mme. Du Hausset|comte de Georges Louis Leclerc Buffon|corpora/multiauthor/corpus_60_filtered/3878.epub
60|6346aa|TheSevenGreatMonarchiesOfTheAncientEasternWorldVol5PersiaTheHistoryGeographyAndAntiquitiesOfChaldaeaAssyriaBabylonMediaPersiaParthiaAndSassanianorNewPersianEmpireWithMapsandIllustrations|0.1|Cluster 0|George Rawlinson|comte de Georges Louis Leclerc Buffon|corpora/multiauthor/corpus_60_filtered/16165.epub
61|6346aa|ThreeYearsinEuropePlacesIHaveSeenandPeopleIHaveMet|0.06|Cluster 0|William Wells Brown|comte de Georges Louis Leclerc Buffon|corpora/multiauthor/corpus_60_filtered/15830.epub
62|6346aa|TheMetaphysicalElementsofEthics|0.55|Cluster 0|Immanuel Kant|comte de Georges Louis Leclerc Buffon|corpora/multiauthor/corpus_60_filtered/5684.epub
63|6346aa|VisitsandSketchesatHomeandAbroadVol3of3WithTalesandMiscellaniesNowFirstCollected|0.14|Cluster 0|Mrs. Jameson|comte de Georges Louis Leclerc Buffon|corpora/multiauthor/corpus_60_filtered/36820.epub
64|6346aa|MemoirsoftheCourtsofLouisXVandXVI—Volume7BeingsecretmemoirsofMadameDuHaussetladysmaidtoMadamedePompadourandofthePrincessLamballe|0.39|Cluster 0|Mme. Du Hausset|comte de Georges Louis Leclerc Buffon|corpora/multiauthor/corpus_60_filtered/3882.epub
65|6346aa|TheHistoryofCubavol3|0.19|Cluster 0|Willis Fletcher Johnson|comte de Georges Louis Leclerc Buffon|corpora/multiauthor/corpus_60_filtered/38139.epub
66|6346aa|MoreHuntingWasps|0.84|Cluster 0|Jean-Henri Fabre|comte de Georges Louis Leclerc Buffon|corpora/multiauthor/corpus_60_filtered/3462.epub
67|6346aa|BuffonsNaturalHistoryVolume06of10ContainingaTheoryoftheEarthaGeneralHistoryofManoftheBruteCreationandofVegetablesMinerals&c&c|0.89|Cluster 0|comte de Georges Louis Leclerc Buffon|comte de Georges Louis Leclerc Buffon|corpora/multiauthor/corpus_60_filtered/45731.epub
68|6346aa|BuffonsNaturalHistoryVolume03of10ContainingaTheoryoftheEarthaGeneralHistoryofManoftheBruteCreationandofVegetablesMinerals&c&c|0.26|Cluster 0|comte de Georges Louis Leclerc Buffon|comte de Georges Louis Leclerc Buffon|corpora/multiauthor/corpus_60_filtered/45639.epub
69|6346aa|TheBotanicalMagazineVol06OrFlowerGardenDisplayed|0.23|Cluster 0|William Curtis|comte de Georges Louis Leclerc Buffon|corpora/multiauthor/corpus_60_filtered/21843.epub
70|6346aa|CanadianSceneryVolume2of2|0.9|Cluster 0|Nathaniel Parker Willis|comte de Georges Louis Leclerc Buffon|corpora/multiauthor/corpus_60_filtered/47691.epub
71|6346aa|BuffonsNaturalHistoryVolume01of10ContainingaTheoryoftheEarthaGeneralHistoryofManoftheBruteCreationandofVegetablesMineral&c&c|0.3|Cluster 0|comte de Georges Louis Leclerc Buffon|comte de Georges Louis Leclerc Buffon|corpora/multiauthor/corpus_60_filtered/44792.epub
72|6346aa|MemoirsoftheCourtsofLouisXVandXVI—Volume5BeingsecretmemoirsofMadameDuHaussetladysmaidtoMadamedePompadourandofthePrincessLamballe|0.1|Cluster 0|Mme. Du Hausset|comte de Georges Louis Leclerc Buffon|corpora/multiauthor/corpus_60_filtered/3880.epub
73|6346aa|TheSouloftheIndianAnInterpretation|0.28|Cluster 0|Charles A. Eastman|comte de Georges Louis Leclerc Buffon|corpora/multiauthor/corpus_60_filtered/340.epub
74|6346aa|ColonelHenryLudingtonAMemoir|0.59|Cluster 0|Willis Fletcher Johnson|comte de Georges Louis Leclerc Buffon|corpora/multiauthor/corpus_60_filtered/58125.epub
75|6346aa|HenryWadsworthLongfellow|0.98|Cluster 0|Thomas Wentworth Higginson|comte de Georges Louis Leclerc Buffon|corpora/multiauthor/corpus_60_filtered/33402.epub
76|6346aa|ACommonplaceBookofThoughtsMemoriesandFancies2nded|0.32|Cluster 0|Mrs. Jameson|comte de Georges Louis Leclerc Buffon|corpora/multiauthor/corpus_60_filtered/39680.epub
77|6346aa|CourtsandCriminals|0.67|Cluster 0|Arthur Cheney Train|comte de Georges Louis Leclerc Buffon|corpora/multiauthor/corpus_60_filtered/5268.epub
78|6346aa|LiteraryandPhilosophicalEssaysFrenchGermanandItalian|0.21|Cluster 0|Immanuel Kant|comte de Georges Louis Leclerc Buffon|corpora/multiauthor/corpus_60_filtered/5637.epub
79|6346aa|TheBotanicalMagazineVol13OrFlowerGardenDisplayed|0.38|Cluster 0|William Curtis|comte de Georges Louis Leclerc Buffon|corpora/multiauthor/corpus_60_filtered/43858.epub
80|6346aa|BlackRebellionFiveSlaveRevolts|0.68|Cluster 0|Thomas Wentworth Higginson|comte de Georges Louis Leclerc Buffon|corpora/multiauthor/corpus_60_filtered/8432.epub
81|6346aa|ADaywithRobertSchumann|0.79|Cluster 0|May Byron|comte de Georges Louis Leclerc Buffon|corpora/multiauthor/corpus_60_filtered/36472.epub
82|6346aa|TheSevenGreatMonarchiesOfTheAncientEasternWorldVol2AssyriaTheHistoryGeographyAndAntiquitiesOfChaldaeaAssyriaBabylonMediaPersiaParthiaAndSassanianorNewPersianEmpireWithMapsandIllustrations|0.67|Cluster 0|George Rawlinson|comte de Georges Louis Leclerc Buffon|corpora/multiauthor/corpus_60_filtered/16162.epub
83|6346aa|BrambleBeesandOthers|0.32|Cluster 0|Jean-Henri Fabre|comte de Georges Louis Leclerc Buffon|corpora/multiauthor/corpus_60_filtered/3421.epub
84|6346aa|MemoriesAStoryofGermanLove|0.93|Cluster 0|F. Max Müller|comte de Georges Louis Leclerc Buffon|corpora/multiauthor/corpus_60_filtered/14521.epub
85|6346aa|WacoustaataleofthePontiacconspiracyComplete|0.5|Cluster 0|Major Richardson|comte de Georges Louis Leclerc Buffon|corpora/multiauthor/corpus_60_filtered/4912.epub
86|6346aa|BuffonsNaturalHistoryVolume07of10ContainingaTheoryoftheEarthaGeneralHistoryofManoftheBruteCreationandofVegetablesMinerals&c&c|0.68|Cluster 0|comte de Georges Louis Leclerc Buffon|comte de Georges Louis Leclerc Buffon|corpora/multiauthor/corpus_60_filtered/45820.epub
87|6346aa|Ethics—Part2|0.5|Cluster 0|Benedictus de Spinoza|comte de Georges Louis Leclerc Buffon|corpora/multiauthor/corpus_60_filtered/920.epub
88|6346aa|BriefHistoryofEnglishandAmericanLiterature|0.27|Cluster 0|Henry A. Beers|comte de Georges Louis Leclerc Buffon|corpora/multiauthor/corpus_60_filtered/21090.epub
89|6346aa|TheBotanicalMagazineVol03OrFlowerGardenDisplayed|0.19|Cluster 0|William Curtis|comte de Georges Louis Leclerc Buffon|corpora/multiauthor/corpus_60_filtered/17672.epub
90|6346aa|CharacteristicsofWomenMoralPoeticalandHistorical|0.06|Cluster 0|Mrs. Jameson|comte de Georges Louis Leclerc Buffon|corpora/multiauthor/corpus_60_filtered/26152.epub
91|6346aa|TheologicoPoliticalTreatise—Part2|0.16|Cluster 0|Benedictus de Spinoza|comte de Georges Louis Leclerc Buffon|corpora/multiauthor/corpus_60_filtered/990.epub
92|6346aa|MemoirsoftheCourtsofLouisXVandXVI—Volume4BeingsecretmemoirsofMadameDuHaussetladysmaidtoMadamedePompadourandofthePrincessLamballe|0.77|Cluster 0|Mme. Du Hausset|comte de Georges Louis Leclerc Buffon|corpora/multiauthor/corpus_60_filtered/3879.epub
93|6346aa|TheHistoryofCubavol1|0.09|Cluster 0|Willis Fletcher Johnson|comte de Georges Louis Leclerc Buffon|corpora/multiauthor/corpus_60_filtered/33847.epub
94|6346aa|TheRomanceofBiographyVol1of2orMemoirsofWomenLovedandCelebratedbyPoetsfromtheDaysoftheTroubadourstothePresentAge3rded2Vols|0.59|Cluster 0|Mrs. Jameson|comte de Georges Louis Leclerc Buffon|corpora/multiauthor/corpus_60_filtered/35382.epub
95|6346aa|TheWorksofCharlesandMaryLamb—Volume2EliaandTheLastEssaysofElia|0.94|Cluster 0|Charles Lamb|comte de Georges Louis Leclerc Buffon|corpora/multiauthor/corpus_60_filtered/10343.epub
96|6346aa|AShortHistoryofFreethoughtAncientandModernVolume2of2ThirdeditionRevisedandExpandedintwovolumes|0.17|Cluster 0|J. M. Robertson|comte de Georges Louis Leclerc Buffon|corpora/multiauthor/corpus_60_filtered/52160.epub
97|6346aa|TheSilesianHorseherdQuestionsoftheHour|0.59|Cluster 0|F. Max Müller|comte de Georges Louis Leclerc Buffon|corpora/multiauthor/corpus_60_filtered/24315.epub
98|6346aa|TheBotanicalMagazineVol07OrFlowerGardenDisplayed|0.48|Cluster 0|William Curtis|comte de Georges Louis Leclerc Buffon|corpora/multiauthor/corpus_60_filtered/23579.epub
99|6346aa|OntarioNormalSchoolManualsScienceofEducation|0.01|Cluster 0|Ontario. Department of Education|comte de Georges Louis Leclerc Buffon|corpora/multiauthor/corpus_60_filtered/18451.epub
100|6346aa|TheBotanicalMagazineVol01OrFlowerGardenDisplayed|0.14|Cluster 0|William Curtis|comte de Georges Louis Leclerc Buffon|corpora/multiauthor/corpus_60_filtered/17198.epub
101|6346aa|TheJesusProblemARestatementoftheMythTheory|0.92|Cluster 0|J. M. Robertson|comte de Georges Louis Leclerc Buffon|corpora/multiauthor/corpus_60_filtered/53616.epub
102|6346aa|TheHistoryofCubavol2|0.91|Cluster 0|Willis Fletcher Johnson|comte de Georges Louis Leclerc Buffon|corpora/multiauthor/corpus_60_filtered/37676.epub
103|6346aa|ThoughtsonLifeandReligionAnAftermathfromtheWritingsofTheRightHonourableProfessorMaxMüller|0.29|Cluster 0|F. Max Müller|comte de Georges Louis Leclerc Buffon|corpora/multiauthor/corpus_60_filtered/45122.epub
104|6346aa|CharlesBradlaughaRecordofHisLifeandWorkVolume2of2WithanAccountofhisParliamentaryStrugglePoliticsandTeachingsSeventhEdition|0.13|Cluster 0|Hypatia Bradlaugh Bonner|comte de Georges Louis Leclerc Buffon|corpora/multiauthor/corpus_60_filtered/45131.epub
105|6346aa|MemoirsoftheCourtsofLouisXVandXVI—Volume6BeingsecretmemoirsofMadameDuHaussetladysmaidtoMadamedePompadourandofthePrincessLamballe|0.58|Cluster 0|Mme. Du Hausset|comte de Georges Louis Leclerc Buffon|corpora/multiauthor/corpus_60_filtered/3881.epub
106|6346aa|ADaywithLudwigBeethoven|0.85|Cluster 0|May Byron|comte de Georges Louis Leclerc Buffon|corpora/multiauthor/corpus_60_filtered/59672.epub
107|6346aa|MemoirsandHistoricalChroniclesoftheCourtsofEuropeMemoirsofMargueritedeValoisQueenofFranceWifeofHenriIVofMadamedePompadouroftheCourtofLouisXVandofCatherinedeMediciQueenofFranceWifeofHenriII|0.97|Cluster 0|Pierre de Bourdeille Brantôme|comte de Georges Louis Leclerc Buffon|corpora/multiauthor/corpus_60_filtered/12967.epub
108|6346aa|TheBotanicalMagazineVol09OrFlowerGardenDisplayed|0.14|Cluster 0|William Curtis|comte de Georges Louis Leclerc Buffon|corpora/multiauthor/corpus_60_filtered/38382.epub
109|6346aa|VisitsandSketchesatHomeandAbroadVol1of3WithTalesandMiscellaniesNowFirstCollected|0.61|Cluster 0|Mrs. Jameson|comte de Georges Louis Leclerc Buffon|corpora/multiauthor/corpus_60_filtered/36818.epub
110|6346aa|KantsCritiqueofJudgement|0.91|Cluster 0|Immanuel Kant|comte de Georges Louis Leclerc Buffon|corpora/multiauthor/corpus_60_filtered/48433.epub
111|6346aa|TheVicarofWakefield|0.62|Cluster 0|Oliver Goldsmith|comte de Georges Louis Leclerc Buffon|corpora/multiauthor/corpus_60_filtered/2667.epub
112|6346aa|TheEvolutionofStates|0.99|Cluster 0|J. M. Robertson|comte de Georges Louis Leclerc Buffon|corpora/multiauthor/corpus_60_filtered/39860.epub
113|6346aa|MontaigneandShakspere|0.28|Cluster 0|J. M. Robertson|comte de Georges Louis Leclerc Buffon|corpora/multiauthor/corpus_60_filtered/25535.epub
114|6346aa|BuffonsNaturalHistoryVolume02of10ContainingaTheoryoftheEarthaGeneralHistoryofManoftheBruteCreationandofVegetablesMineral&c&c|0.86|Cluster 0|comte de Georges Louis Leclerc Buffon|comte de Georges Louis Leclerc Buffon|corpora/multiauthor/corpus_60_filtered/45602.epub
115|6346aa|CharlesBradlaughaRecordofHisLifeandWorkVolume1of2WithanAccountofhisParliamentaryStrugglePoliticsandTeachingsSeventhEdition|0.3|Cluster 0|Hypatia Bradlaugh Bonner|comte de Georges Louis Leclerc Buffon|corpora/multiauthor/corpus_60_filtered/45130.epub
116|6346aa|AstronomywithanOperaglassAPopularIntroductiontotheStudyoftheStarryHeavenswiththeSimplestofOpticalInstruments|0.95|Cluster 0|Garrett Putman Serviss|comte de Georges Louis Leclerc Buffon|corpora/multiauthor/corpus_60_filtered/36741.epub
117|6346aa|Ethics|0.58|Cluster 0|Benedictus de Spinoza|comte de Georges Louis Leclerc Buffon|corpora/multiauthor/corpus_60_filtered/3800.epub
118|6346aa|TheCritiqueofPracticalReason|0.24|Cluster 0|Immanuel Kant|comte de Georges Louis Leclerc Buffon|corpora/multiauthor/corpus_60_filtered/5683.epub
119|6346aa|AncientEgypt|0.22|Cluster 0|Arthur Gilman|comte de Georges Louis Leclerc Buffon|corpora/multiauthor/corpus_60_filtered/15663.epub
120|6346aa|ThePrisonerattheBarSidelightsontheAdministrationofCriminalJustice|0.31|Cluster 0|Arthur Cheney Train|comte de Georges Louis Leclerc Buffon|corpora/multiauthor/corpus_60_filtered/58534.epub
121|6346aa|PerpetualPeaceAPhilosophicalEssay|0.58|Cluster 0|Immanuel Kant|comte de Georges Louis Leclerc Buffon|corpora/multiauthor/corpus_60_filtered/50922.epub
122|6346aa|TheHistoryofCubavol4|0.36|Cluster 0|Willis Fletcher Johnson|comte de Georges Louis Leclerc Buffon|corpora/multiauthor/corpus_60_filtered/33848.epub
123|6346aa|AlexandriaAHistoryandaGuide|0.79|Cluster 0|E. M. Forster|comte de Georges Louis Leclerc Buffon|corpora/multiauthor/corpus_60_filtered/57010.epub
124|6346aa|TheSevenGreatMonarchiesOfTheAncientEasternWorldVol4BabylonTheHistoryGeographyAndAntiquitiesOfChaldaeaAssyriaBabylonMediaPersiaParthiaAndSassanianorNewPersianEmpireWithMapsandIllustrations|0.12|Cluster 0|George Rawlinson|comte de Georges Louis Leclerc Buffon|corpora/multiauthor/corpus_60_filtered/16164.epub
125|6346aa|LegendsoftheMadonnaasRepresentedintheFineArts|0.01|Cluster 0|Mrs. Jameson|comte de Georges Louis Leclerc Buffon|corpora/multiauthor/corpus_60_filtered/12047.epub
126|6346aa|MiltonsTercentenaryAnaddressdeliveredbeforetheModernLanguageClubofYaleUniversityonMiltonsThreeHundredthBirthday|0.4|Cluster 0|Henry A. Beers|comte de Georges Louis Leclerc Buffon|corpora/multiauthor/corpus_60_filtered/33248.epub
127|6346aa|Ethics—Part1|0.45|Cluster 0|Benedictus de Spinoza|comte de Georges Louis Leclerc Buffon|corpora/multiauthor/corpus_60_filtered/919.epub
128|6346aa|WomenandtheAlphabetASeriesofEssays|0.81|Cluster 0|Thomas Wentworth Higginson|comte de Georges Louis Leclerc Buffon|corpora/multiauthor/corpus_60_filtered/13474.epub
129|6346aa|TheCanadianBrothersOrTheProphecyFulfilledATaleoftheLateAmericanWar—Complete|0.17|Cluster 0|Major Richardson|comte de Georges Louis Leclerc Buffon|corpora/multiauthor/corpus_60_filtered/5108.epub
130|6346aa|FourAmericansRooseveltHawthorneEmersonWhitman|0.81|Cluster 0|Henry A. Beers|comte de Georges Louis Leclerc Buffon|corpora/multiauthor/corpus_60_filtered/24435.epub
131|6346aa|TheDiaryofanEnnuyée|0.77|Cluster 0|Mrs. Jameson|comte de Georges Louis Leclerc Buffon|corpora/multiauthor/corpus_60_filtered/18049.epub
132|6346aa|CanadianSceneryVolume1of2|0.62|Cluster 0|Nathaniel Parker Willis|comte de Georges Louis Leclerc Buffon|corpora/multiauthor/corpus_60_filtered/47690.epub
133|6346aa|TheHistoricalJesusASurveyofPositions|0.51|Cluster 0|J. M. Robertson|comte de Georges Louis Leclerc Buffon|corpora/multiauthor/corpus_60_filtered/51655.epub
134|6346aa|LecturesontheScienceofLanguage|0.37|Cluster 0|F. Max Müller|comte de Georges Louis Leclerc Buffon|corpora/multiauthor/corpus_60_filtered/32856.epub
135|6346aa|KantsProlegomenatoAnyFutureMetaphysics|0.72|Cluster 0|Immanuel Kant|comte de Georges Louis Leclerc Buffon|corpora/multiauthor/corpus_60_filtered/52821.epub
136|6346aa|TheCanadianBrothersOrTheProphecyFulfilledATaleoftheLateAmericanWar—Volume1|0.17|Cluster 0|Major Richardson|comte de Georges Louis Leclerc Buffon|corpora/multiauthor/corpus_60_filtered/5106.epub
137|6346aa|FromChaucertoTennysonWithTwentyNinePortraitsandSelectionsfromThirtyAuthors|0.99|Cluster 0|Henry A. Beers|comte de Georges Louis Leclerc Buffon|corpora/multiauthor/corpus_60_filtered/11618.epub
138|6346aa|SocialLifeintheInsectWorld|0.84|Cluster 0|Jean-Henri Fabre|comte de Georges Louis Leclerc Buffon|corpora/multiauthor/corpus_60_filtered/18350.epub
139|6346aa|TheCanadianBrothersOrTheProphecyFulfilledATaleoftheLateAmericanWar—Volume2|0.33|Cluster 0|Major Richardson|comte de Georges Louis Leclerc Buffon|corpora/multiauthor/corpus_60_filtered/5107.epub
140|6346aa|Hieroglyphics|0.98|Cluster 0|Arthur Machen|comte de Georges Louis Leclerc Buffon|corpora/multiauthor/corpus_60_filtered/40241.epub
141|6346aa|TheBotanicalMagazineVol02OrFlowerGardenDisplayed|0.93|Cluster 0|William Curtis|comte de Georges Louis Leclerc Buffon|corpora/multiauthor/corpus_60_filtered/17531.epub
142|6346aa|BuffonsNaturalHistoryVolume09of10ContainingaTheoryoftheEarthaGeneralHistoryofManoftheBruteCreationandofVegetablesMinerals&c&c|0.83|Cluster 0|comte de Georges Louis Leclerc Buffon|comte de Georges Louis Leclerc Buffon|corpora/multiauthor/corpus_60_filtered/45867.epub
143|6346aa|FamousMenofAncientTimes|0.19|Cluster 0|Samuel G. Goodrich|comte de Georges Louis Leclerc Buffon|corpora/multiauthor/corpus_60_filtered/52400.epub
144|6346aa|CuriositiesoftheSky|0.47|Cluster 0|Garrett Putman Serviss|comte de Georges Louis Leclerc Buffon|corpora/multiauthor/corpus_60_filtered/6630.epub
145|6346aa|TheBotanicalMagazineVol08OrFlowerGardenDisplayed|0.78|Cluster 0|William Curtis|comte de Georges Louis Leclerc Buffon|corpora/multiauthor/corpus_60_filtered/24670.epub
146|6346aa|ABookofAmericanExplorers|0.95|Cluster 0|Thomas Wentworth Higginson|comte de Georges Louis Leclerc Buffon|corpora/multiauthor/corpus_60_filtered/56346.epub
147|6346aa|TheBotanicalMagazineVol05OrFlowerGardenDisplayed|0.27|Cluster 0|William Curtis|comte de Georges Louis Leclerc Buffon|corpora/multiauthor/corpus_60_filtered/19123.epub
148|6346aa|Ethics—Part3|0.5|Cluster 0|Benedictus de Spinoza|comte de Georges Louis Leclerc Buffon|corpora/multiauthor/corpus_60_filtered/948.epub
149|6346aa|AHistoryofEnglishRomanticismintheEighteenthCentury|0.61|Cluster 0|Henry A. Beers|comte de Georges Louis Leclerc Buffon|corpora/multiauthor/corpus_60_filtered/15447.epub
150|6346aa|TheMotherofParliaments|0.03|Cluster 0|Harry Graham|comte de Georges Louis Leclerc Buffon|corpora/multiauthor/corpus_60_filtered/41304.epub
151|6346aa|NathanielParkerWillis|0.76|Cluster 0|Henry A. Beers|comte de Georges Louis Leclerc Buffon|corpora/multiauthor/corpus_60_filtered/53876.epub
152|6346aa|CuriositiesofHumanNature|0.58|Cluster 0|Samuel G. Goodrich|comte de Georges Louis Leclerc Buffon|corpora/multiauthor/corpus_60_filtered/39333.epub
153|6346aa|TheologicoPoliticalTreatise—Part1|0.46|Cluster 0|Benedictus de Spinoza|comte de Georges Louis Leclerc Buffon|corpora/multiauthor/corpus_60_filtered/989.epub
0|6346aa|TheCampFireGirlsatCampKeewaydinOrPaddlesDown|100.0|Cluster 1|Hildegard G. Frey|Hildegard G. Frey|corpora/multiauthor/corpus_60_filtered/10688.epub
1|6346aa|TheMan|0.28|Cluster 1|Bram Stoker|Hildegard G. Frey|corpora/multiauthor/corpus_60_filtered/2520.epub
2|6346aa|Wolfbane|0.85|Cluster 1|C. M. Kornbluth|Hildegard G. Frey|corpora/multiauthor/corpus_60_filtered/51845.epub
3|6346aa|TheWonderfulAdventuresofNils|0.42|Cluster 1|Selma Lagerlöf|Hildegard G. Frey|corpora/multiauthor/corpus_60_filtered/10935.epub
4|6346aa|TheSixFingersofTime|0.51|Cluster 1|R. A. Lafferty|Hildegard G. Frey|corpora/multiauthor/corpus_60_filtered/31663.epub
5|6346aa|PlagueofPythons|0.9|Cluster 1|Frederik Pohl|Hildegard G. Frey|corpora/multiauthor/corpus_60_filtered/51804.epub
6|6346aa|TheirYesterdays|0.22|Cluster 1|Harold Bell Wright|Hildegard G. Frey|corpora/multiauthor/corpus_60_filtered/6105.epub
7|6346aa|NarrativeofWilliamWBrownaFugitiveSlave|0.46|Cluster 1|William Wells Brown|Hildegard G. Frey|corpora/multiauthor/corpus_60_filtered/15132.epub
8|6346aa|SusanCleggandaManintheHouse|0.04|Cluster 1|Anne Warner|Hildegard G. Frey|corpora/multiauthor/corpus_60_filtered/22872.epub
9|6346aa|MuchAdoAboutPeter|0.75|Cluster 1|Jean Webster|Hildegard G. Frey|corpora/multiauthor/corpus_60_filtered/42768.epub
10|6346aa|TheFeather|0.07|Cluster 1|Ford Madox Ford|Hildegard G. Frey|corpora/multiauthor/corpus_60_filtered/50658.epub
11|6346aa|VillaEdenTheCountryHouseontheRhine|0.81|Cluster 1|Berthold Auerbach|Hildegard G. Frey|corpora/multiauthor/corpus_60_filtered/32902.epub
12|6346aa|TheLongChance|0.66|Cluster 1|Peter B. Kyne|Hildegard G. Frey|corpora/multiauthor/corpus_60_filtered/6115.epub
13|6346aa|MadBarbara|0.3|Cluster 1|Warwick Deeping|Hildegard G. Frey|corpora/multiauthor/corpus_60_filtered/50995.epub
14|6346aa|SusanCleggandHerFriendMrsLathrop|0.53|Cluster 1|Anne Warner|Hildegard G. Frey|corpora/multiauthor/corpus_60_filtered/15899.epub
15|6346aa|TheSlanderers|0.85|Cluster 1|Warwick Deeping|Hildegard G. Frey|corpora/multiauthor/corpus_60_filtered/58287.epub
16|6346aa|UnderHandicapANovel|0.24|Cluster 1|Jackson Gregory|Hildegard G. Frey|corpora/multiauthor/corpus_60_filtered/17981.epub
17|6346aa|TheValleyoftheGiants|0.77|Cluster 1|Peter B. Kyne|Hildegard G. Frey|corpora/multiauthor/corpus_60_filtered/5735.epub
18|6346aa|TheWheatPrincess|0.0|Cluster 1|Jean Webster|Hildegard G. Frey|corpora/multiauthor/corpus_60_filtered/46761.epub
19|6346aa|TheTrailtoYesterday|0.44|Cluster 1|Charles Alden Seltzer|Hildegard G. Frey|corpora/multiauthor/corpus_60_filtered/27051.epub
20|6346aa|HowardsEnd|0.62|Cluster 1|E. M. Forster|Hildegard G. Frey|corpora/multiauthor/corpus_60_filtered/2946.epub
21|6346aa|TheCampFireGirlsGoMotoringOrAlongtheRoadThatLeadstheWay|0.28|Cluster 1|Hildegard G. Frey|Hildegard G. Frey|corpora/multiauthor/corpus_60_filtered/6895.epub
22|6346aa|TheQueenWhoFlewAFairyTale|0.24|Cluster 1|Ford Madox Ford|Hildegard G. Frey|corpora/multiauthor/corpus_60_filtered/52636.epub
23|6346aa|WacoustaataleofthePontiacconspiracy—Volume3|0.53|Cluster 1|Major Richardson|Hildegard G. Frey|corpora/multiauthor/corpus_60_filtered/4911.epub
24|6346aa|AVoyageofConsolationbeinginthenatureofasequeltotheexperiencesofAnAmericangirlinLondon|0.16|Cluster 1|Sara Jeannette Duncan|Hildegard G. Frey|corpora/multiauthor/corpus_60_filtered/15966.epub
25|6346aa|DuncanPolitetheWatchmanofGlenoro|0.4|Cluster 1|Mary Esther Miller MacGregor|Hildegard G. Frey|corpora/multiauthor/corpus_60_filtered/28689.epub
26|6346aa|TheDaftDays|0.74|Cluster 1|Neil Munro|Hildegard G. Frey|corpora/multiauthor/corpus_60_filtered/49906.epub
27|6346aa|FromaSwedishHomestead|0.82|Cluster 1|Selma Lagerlöf|Hildegard G. Frey|corpora/multiauthor/corpus_60_filtered/44630.epub
28|6346aa|TheGroceryManAndPecksBadBoyPecksBadBoyandHisPaNo21883|0.34|Cluster 1|George W. Peck|Hildegard G. Frey|corpora/multiauthor/corpus_60_filtered/25488.epub
29|6346aa|VerseandWorse|0.31|Cluster 1|Harry Graham|Hildegard G. Frey|corpora/multiauthor/corpus_60_filtered/36702.epub
30|6346aa|JohnSplendidTheTaleofaPoorGentlemanandtheLittleWarsofLorn|0.62|Cluster 1|Neil Munro|Hildegard G. Frey|corpora/multiauthor/corpus_60_filtered/22321.epub
31|6346aa|TuttandMrTutt|0.85|Cluster 1|Arthur Cheney Train|Hildegard G. Frey|corpora/multiauthor/corpus_60_filtered/10440.epub
32|6346aa|TheReCreationofBrianKent|0.67|Cluster 1|Harold Bell Wright|Hildegard G. Frey|corpora/multiauthor/corpus_60_filtered/3265.epub
33|6346aa|WigwamEveningsSiouxFolkTalesRetold|0.81|Cluster 1|Charles A. Eastman|Hildegard G. Frey|corpora/multiauthor/corpus_60_filtered/28099.epub
34|6346aa|TheWindintheWillows|0.62|Cluster 1|Kenneth Grahame|Hildegard G. Frey|corpora/multiauthor/corpus_60_filtered/27805.epub
35|6346aa|TheComingoftheLaw|0.21|Cluster 1|Charles Alden Seltzer|Hildegard G. Frey|corpora/multiauthor/corpus_60_filtered/31512.epub
36|6346aa|TheJucklinsANovel|0.14|Cluster 1|Opie Percival Read|Hildegard G. Frey|corpora/multiauthor/corpus_60_filtered/26499.epub
37|6346aa|ThenMarchedtheBrave|0.13|Cluster 1|Harriet T. Comstock|Hildegard G. Frey|corpora/multiauthor/corpus_60_filtered/16156.epub
38|6346aa|TheCampFireGirlsatOnowayHouseOrTheMagicGarden|0.43|Cluster 1|Hildegard G. Frey|Hildegard G. Frey|corpora/multiauthor/corpus_60_filtered/36833.epub
39|6346aa|TheCampFireGirlsontheOpenRoadOrGlorifyWork|0.36|Cluster 1|Hildegard G. Frey|Hildegard G. Frey|corpora/multiauthor/corpus_60_filtered/36485.epub
40|6346aa|TheCallingofDanMatthews|0.68|Cluster 1|Harold Bell Wright|Hildegard G. Frey|corpora/multiauthor/corpus_60_filtered/9314.epub
41|6346aa|ARoomwithaView|0.08|Cluster 1|E. M. Forster|Hildegard G. Frey|corpora/multiauthor/corpus_60_filtered/2641.epub
42|6346aa|TheOntarioReadersThirdBook|0.35|Cluster 1|Ontario. Department of Education|Hildegard G. Frey|corpora/multiauthor/corpus_60_filtered/18561.epub
43|6346aa|MoranoftheLadyLetty|0.14|Cluster 1|Frank Norris|Hildegard G. Frey|corpora/multiauthor/corpus_60_filtered/321.epub
44|6346aa|TheMasonBees|0.39|Cluster 1|Jean-Henri Fabre|Hildegard G. Frey|corpora/multiauthor/corpus_60_filtered/2884.epub
45|6346aa|NellofShorneMillsorOneHeartsBurden|0.52|Cluster 1|Charles Garvice|Hildegard G. Frey|corpora/multiauthor/corpus_60_filtered/22961.epub
46|6346aa|IndianChildLife|0.88|Cluster 1|Charles A. Eastman|Hildegard G. Frey|corpora/multiauthor/corpus_60_filtered/25907.epub
47|6346aa|TheColossusANovel|0.95|Cluster 1|Opie Percival Read|Hildegard G. Frey|corpora/multiauthor/corpus_60_filtered/15073.epub
48|6346aa|JanetoftheDunes|0.22|Cluster 1|Harriet T. Comstock|Hildegard G. Frey|corpora/multiauthor/corpus_60_filtered/22998.epub
49|6346aa|JosephintheSnowandTheClockmakerInThreeVolumesVolII|0.98|Cluster 1|Berthold Auerbach|Hildegard G. Frey|corpora/multiauthor/corpus_60_filtered/33163.epub
50|6346aa|UpTerrapinRiver|0.31|Cluster 1|Opie Percival Read|Hildegard G. Frey|corpora/multiauthor/corpus_60_filtered/44879.epub
51|6346aa|FamousPersonsandPlaces|0.81|Cluster 1|Nathaniel Parker Willis|Hildegard G. Frey|corpora/multiauthor/corpus_60_filtered/49841.epub
52|6346aa|TheDragonsSecret|0.85|Cluster 1|Augusta Huiell Seaman|Hildegard G. Frey|corpora/multiauthor/corpus_60_filtered/25770.epub
53|6346aa|TheCampFireGirlsatSchoolOrTheWoheloWeavers|0.6|Cluster 1|Hildegard G. Frey|Hildegard G. Frey|corpora/multiauthor/corpus_60_filtered/11718.epub
54|6346aa|JerryJunior|0.21|Cluster 1|Jean Webster|Hildegard G. Frey|corpora/multiauthor/corpus_60_filtered/20358.epub
55|6346aa|MalboneAnOldportRomance|0.77|Cluster 1|Thomas Wentworth Higginson|Hildegard G. Frey|corpora/multiauthor/corpus_60_filtered/993.epub
56|6346aa|StanleysAdventuresintheWildsofAfricaAGraphicAccountoftheSeveralExpeditionsofHenryMStanleyintotheHeartoftheDarkContinent|0.76|Cluster 1|Joel Tyler Headley|Hildegard G. Frey|corpora/multiauthor/corpus_60_filtered/38389.epub
57|6346aa|AzaleasSilverWeb|0.34|Cluster 1|Elia Wilkinson Peattie|Hildegard G. Frey|corpora/multiauthor/corpus_60_filtered/55304.epub
58|6346aa|Blix|0.24|Cluster 1|Frank Norris|Hildegard G. Frey|corpora/multiauthor/corpus_60_filtered/401.epub
59|6346aa|TheImperialist|0.06|Cluster 1|Sara Jeannette Duncan|Hildegard G. Frey|corpora/multiauthor/corpus_60_filtered/5301.epub
60|6346aa|BrazilianGoldMineMysteryABiffBrewsterMysteryAdventure|0.3|Cluster 1|Andy Adams|Hildegard G. Frey|corpora/multiauthor/corpus_60_filtered/51538.epub
61|6346aa|WhenPattyWenttoCollege|0.37|Cluster 1|Jean Webster|Hildegard G. Frey|corpora/multiauthor/corpus_60_filtered/21639.epub
62|6346aa|VandoverandtheBrute|0.78|Cluster 1|Frank Norris|Hildegard G. Frey|corpora/multiauthor/corpus_60_filtered/14712.epub
63|6346aa|TheKnightsofArthur|0.47|Cluster 1|Frederik Pohl|Hildegard G. Frey|corpora/multiauthor/corpus_60_filtered/32004.epub
64|6346aa|AnAmericanGirlinLondon|0.85|Cluster 1|Sara Jeannette Duncan|Hildegard G. Frey|corpora/multiauthor/corpus_60_filtered/45925.epub
65|6346aa|"PeterParleysOwnStoryFromthePersonalNarrativeoftheLateSamuelGGoodrich""PeterParley"""|0.44|Cluster 1|Samuel G. Goodrich|Hildegard G. Frey|corpora/multiauthor/corpus_60_filtered/45165.epub
66|6346aa|TheGirlfromtheMarshCroft|0.22|Cluster 1|Selma Lagerlöf|Hildegard G. Frey|corpora/multiauthor/corpus_60_filtered/41414.epub
67|6346aa|TheAlmostMen|0.71|Cluster 1|Irving E. Cox|Hildegard G. Frey|corpora/multiauthor/corpus_60_filtered/59356.epub
68|6346aa|BoysBookofIndianWarriorsandHeroicIndianWomen|0.75|Cluster 1|Edwin L. Sabin|Hildegard G. Frey|corpora/multiauthor/corpus_60_filtered/31131.epub
69|6346aa|PeaceonEarthGoodwilltoDogs|0.95|Cluster 1|Eleanor Hallowell Abbott|Hildegard G. Frey|corpora/multiauthor/corpus_60_filtered/20213.epub
70|6346aa|JudithofBlueLakeRanch|0.97|Cluster 1|Jackson Gregory|Hildegard G. Frey|corpora/multiauthor/corpus_60_filtered/18926.epub
71|6346aa|ThePoolintheDesert|0.41|Cluster 1|Sara Jeannette Duncan|Hildegard G. Frey|corpora/multiauthor/corpus_60_filtered/1168.epub
72|6346aa|TheHouseofSouls|0.31|Cluster 1|Arthur Machen|Hildegard G. Frey|corpora/multiauthor/corpus_60_filtered/25016.epub
73|6346aa|Tillie|0.28|Cluster 1|Rog Phillips|Hildegard G. Frey|corpora/multiauthor/corpus_60_filtered/32802.epub
74|6346aa|Unthinkable|0.84|Cluster 1|Rog Phillips|Hildegard G. Frey|corpora/multiauthor/corpus_60_filtered/27491.epub
75|6346aa|MysteryoftheAmbushinIndiaABiffBrewsterMysteryAdventure|0.77|Cluster 1|Andy Adams|Hildegard G. Frey|corpora/multiauthor/corpus_60_filtered/51830.epub
76|6346aa|AzaleaTheStoryofaLittleGirlintheBlueRidgeMountains|0.44|Cluster 1|Elia Wilkinson Peattie|Hildegard G. Frey|corpora/multiauthor/corpus_60_filtered/53727.epub
77|6346aa|WhereAngelsFeartoTread|0.62|Cluster 1|E. M. Forster|Hildegard G. Frey|corpora/multiauthor/corpus_60_filtered/2948.epub
78|6346aa|TheBellsofSanJuan|0.84|Cluster 1|Jackson Gregory|Hildegard G. Frey|corpora/multiauthor/corpus_60_filtered/15438.epub
79|6346aa|TheDesertValley|0.0|Cluster 1|Jackson Gregory|Hildegard G. Frey|corpora/multiauthor/corpus_60_filtered/15502.epub
80|6346aa|EdelweissAStory|0.56|Cluster 1|Berthold Auerbach|Hildegard G. Frey|corpora/multiauthor/corpus_60_filtered/33007.epub
81|6346aa|AzaleaatSunsetGap|0.65|Cluster 1|Elia Wilkinson Peattie|Hildegard G. Frey|corpora/multiauthor/corpus_60_filtered/54813.epub
82|6346aa|FarOffThings|0.06|Cluster 1|Arthur Machen|Hildegard G. Frey|corpora/multiauthor/corpus_60_filtered/35153.epub
83|6346aa|DoomCastle|0.65|Cluster 1|Neil Munro|Hildegard G. Frey|corpora/multiauthor/corpus_60_filtered/21333.epub
84|6346aa|ReedAnthonyCowmanAnAutobiography|0.76|Cluster 1|Andy Adams|Hildegard G. Frey|corpora/multiauthor/corpus_60_filtered/12884.epub
85|6346aa|TheFlightofGeorgianaAStoryofLoveandPerilinEnglandin1746|0.36|Cluster 1|Robert Neilson Stephens|Hildegard G. Frey|corpora/multiauthor/corpus_60_filtered/56364.epub
86|6346aa|TheTreasure|0.86|Cluster 1|Selma Lagerlöf|Hildegard G. Frey|corpora/multiauthor/corpus_60_filtered/5161.epub
87|6346aa|ThatPrinterofUdellsAStoryoftheMiddleWest|0.06|Cluster 1|Harold Bell Wright|Hildegard G. Frey|corpora/multiauthor/corpus_60_filtered/6384.epub
88|6346aa|TheOntarioReadersThirdReader|0.03|Cluster 1|Ontario. Department of Education|Hildegard G. Frey|corpora/multiauthor/corpus_60_filtered/51707.epub
89|6346aa|ThePikesPeakRushOrTerryintheNewGoldFields|0.42|Cluster 1|Edwin L. Sabin|Hildegard G. Frey|corpora/multiauthor/corpus_60_filtered/37943.epub
90|6346aa|WhenYouWereaBoy|0.72|Cluster 1|Edwin L. Sabin|Hildegard G. Frey|corpora/multiauthor/corpus_60_filtered/58165.epub
91|6346aa|SheStoopstoConquerOrTheMistakesofaNightAComedy|0.09|Cluster 1|Oliver Goldsmith|Hildegard G. Frey|corpora/multiauthor/corpus_60_filtered/383.epub
92|6346aa|SixFeetFour|0.65|Cluster 1|Jackson Gregory|Hildegard G. Frey|corpora/multiauthor/corpus_60_filtered/15148.epub
93|6346aa|MyLadyGreensleeves|0.75|Cluster 1|Frederik Pohl|Hildegard G. Frey|corpora/multiauthor/corpus_60_filtered/51310.epub
94|6346aa|LifeofWmTecumsehShermanLateRetiredGeneralUSA|0.62|Cluster 1|Willis Fletcher Johnson|Hildegard G. Frey|corpora/multiauthor/corpus_60_filtered/44686.epub
95|6346aa|HelenoftheOldHouse|0.13|Cluster 1|Harold Bell Wright|Hildegard G. Frey|corpora/multiauthor/corpus_60_filtered/9410.epub
96|6346aa|AnnieLaurieandAzalea|0.65|Cluster 1|Elia Wilkinson Peattie|Hildegard G. Frey|corpora/multiauthor/corpus_60_filtered/53975.epub
97|6346aa|TalesoftheEnchantedIslandsoftheAtlantic|0.74|Cluster 1|Thomas Wentworth Higginson|Hildegard G. Frey|corpora/multiauthor/corpus_60_filtered/7098.epub
98|6346aa|TheRanchman|0.81|Cluster 1|Charles Alden Seltzer|Hildegard G. Frey|corpora/multiauthor/corpus_60_filtered/37204.epub
99|6346aa|Bolanyo|0.88|Cluster 1|Opie Percival Read|Hildegard G. Frey|corpora/multiauthor/corpus_60_filtered/38826.epub
100|6346aa|TheBoardedUpHouse|0.6|Cluster 1|Augusta Huiell Seaman|Hildegard G. Frey|corpora/multiauthor/corpus_60_filtered/30905.epub
101|6346aa|SummerCruiseintheMediterraneanonboardanAmericanfrigate|0.32|Cluster 1|Nathaniel Parker Willis|Hildegard G. Frey|corpora/multiauthor/corpus_60_filtered/48264.epub
102|6346aa|TheBrightFaceofDangerBeinganAccountofSomeAdventuresofHenrideLaunaySonoftheSieurdelaTournoire|0.83|Cluster 1|Robert Neilson Stephens|Hildegard G. Frey|corpora/multiauthor/corpus_60_filtered/30417.epub
103|6346aa|MantoMan|0.95|Cluster 1|Jackson Gregory|Hildegard G. Frey|corpora/multiauthor/corpus_60_filtered/18933.epub
104|6346aa|TheSickaBedLadyAndAlsoHickoryDockTheVeryTiredGirlTheHappyDaySomethingThatHappenedinOctoberTheAmateurLoverHeartofTheCityThePinkSashWomansOnlyBusiness|0.29|Cluster 1|Eleanor Hallowell Abbott|Hildegard G. Frey|corpora/multiauthor/corpus_60_filtered/34829.epub
105|6346aa|TheSlipperPointMystery|0.44|Cluster 1|Augusta Huiell Seaman|Hildegard G. Frey|corpora/multiauthor/corpus_60_filtered/50961.epub
106|6346aa|TheEyesoftheWorld|0.41|Cluster 1|Harold Bell Wright|Hildegard G. Frey|corpora/multiauthor/corpus_60_filtered/11715.epub
107|6346aa|TheTwoGunMan|0.65|Cluster 1|Charles Alden Seltzer|Hildegard G. Frey|corpora/multiauthor/corpus_60_filtered/19012.epub
108|6346aa|WaunangeeOrtheMassacreatChicagoARomanceoftheAmericanRevolution|0.65|Cluster 1|Major Richardson|Hildegard G. Frey|corpora/multiauthor/corpus_60_filtered/31745.epub
109|6346aa|Jerry|0.36|Cluster 1|Jean Webster|Hildegard G. Frey|corpora/multiauthor/corpus_60_filtered/20357.epub
110|6346aa|EdisonsConquestofMars|0.82|Cluster 1|Garrett Putman Serviss|Hildegard G. Frey|corpora/multiauthor/corpus_60_filtered/21670.epub
111|6346aa|TheEverlastingWhisper|0.06|Cluster 1|Jackson Gregory|Hildegard G. Frey|corpora/multiauthor/corpus_60_filtered/10213.epub
112|6346aa|MamselleJo|0.41|Cluster 1|Harriet T. Comstock|Hildegard G. Frey|corpora/multiauthor/corpus_60_filtered/49361.epub
113|6346aa|TheLogofaCowboyANarrativeoftheOldTrailDays|0.7|Cluster 1|Andy Adams|Hildegard G. Frey|corpora/multiauthor/corpus_60_filtered/12797.epub
114|6346aa|TheHeadswoman|0.85|Cluster 1|Kenneth Grahame|Hildegard G. Frey|corpora/multiauthor/corpus_60_filtered/34243.epub
115|6346aa|ChristLegends|0.66|Cluster 1|Selma Lagerlöf|Hildegard G. Frey|corpora/multiauthor/corpus_60_filtered/44818.epub
116|6346aa|TheLairoftheWhiteWorm|0.48|Cluster 1|Bram Stoker|Hildegard G. Frey|corpora/multiauthor/corpus_60_filtered/1188.epub
117|6346aa|TheStingyReceiver|0.56|Cluster 1|Eleanor Hallowell Abbott|Hildegard G. Frey|corpora/multiauthor/corpus_60_filtered/49330.epub
118|6346aa|GamePreserve|0.73|Cluster 1|Rog Phillips|Hildegard G. Frey|corpora/multiauthor/corpus_60_filtered/60393.epub
119|6346aa|TheCampFireGirlsonEllensIsleOrTheTrailoftheSevenCedars|0.46|Cluster 1|Hildegard G. Frey|Hildegard G. Frey|corpora/multiauthor/corpus_60_filtered/30825.epub
120|6346aa|TheMoonMetal|0.95|Cluster 1|Garrett Putman Serviss|Hildegard G. Frey|corpora/multiauthor/corpus_60_filtered/8199.epub
121|6346aa|HawaiianSeaHuntMysteryABiffBrewsterMysteryAdventure|0.94|Cluster 1|Andy Adams|Hildegard G. Frey|corpora/multiauthor/corpus_60_filtered/51755.epub
122|6346aa|TheMysteryoftheSea|0.81|Cluster 1|Bram Stoker|Hildegard G. Frey|corpora/multiauthor/corpus_60_filtered/42455.epub
123|6346aa|Impact|0.55|Cluster 1|Irving E. Cox|Hildegard G. Frey|corpora/multiauthor/corpus_60_filtered/25567.epub
124|6346aa|BertrandofBrittany|0.7|Cluster 1|Warwick Deeping|Hildegard G. Frey|corpora/multiauthor/corpus_60_filtered/56707.epub
125|6346aa|ThePrideofPalomar|0.7|Cluster 1|Peter B. Kyne|Hildegard G. Frey|corpora/multiauthor/corpus_60_filtered/16674.epub
126|6346aa|HildaAStoryofCalcutta|0.61|Cluster 1|Sara Jeannette Duncan|Hildegard G. Frey|corpora/multiauthor/corpus_60_filtered/18051.epub
127|6346aa|TheCrimsonPatch|0.28|Cluster 1|Augusta Huiell Seaman|Hildegard G. Frey|corpora/multiauthor/corpus_60_filtered/52509.epub
128|6346aa|TheCampFireGirlsDoTheirBitOrOvertheTopwiththeWinnebagos|0.41|Cluster 1|Hildegard G. Frey|Hildegard G. Frey|corpora/multiauthor/corpus_60_filtered/11664.epub
129|6346aa|TheMysteryofMurrayDavenportAStoryofNewYorkatthePresentDay|0.9|Cluster 1|Robert Neilson Stephens|Hildegard G. Frey|corpora/multiauthor/corpus_60_filtered/9185.epub
130|6346aa|AnArkansasPlanter|0.49|Cluster 1|Opie Percival Read|Hildegard G. Frey|corpora/multiauthor/corpus_60_filtered/19107.epub
131|6346aa|DearEnemy|0.06|Cluster 1|Jean Webster|Hildegard G. Frey|corpora/multiauthor/corpus_60_filtered/238.epub
132|6346aa|WellsBrothersTheYoungCattleKings|0.37|Cluster 1|Andy Adams|Hildegard G. Frey|corpora/multiauthor/corpus_60_filtered/12791.epub
133|6346aa|TheGoldenAge|0.81|Cluster 1|Kenneth Grahame|Hildegard G. Frey|corpora/multiauthor/corpus_60_filtered/53250.epub
134|6346aa|LesliesLoyalty|0.09|Cluster 1|Charles Garvice|Hildegard G. Frey|corpora/multiauthor/corpus_60_filtered/50440.epub
135|6346aa|TheStorybookofScience|0.36|Cluster 1|Jean-Henri Fabre|Hildegard G. Frey|corpora/multiauthor/corpus_60_filtered/56795.epub
136|6346aa|TheInheritors|0.6|Cluster 1|Joseph Conrad|Hildegard G. Frey|corpora/multiauthor/corpus_60_filtered/14888.epub
137|6346aa|TheMiraclesofAntichristANovel|0.15|Cluster 1|Selma Lagerlöf|Hildegard G. Frey|corpora/multiauthor/corpus_60_filtered/54615.epub
138|6346aa|JustPatty|0.7|Cluster 1|Jean Webster|Hildegard G. Frey|corpora/multiauthor/corpus_60_filtered/21048.epub
139|6346aa|AnEnemytotheKingFromtheRecentlyDiscoveredMemoirsoftheSieurdelaTournoire|0.32|Cluster 1|Robert Neilson Stephens|Hildegard G. Frey|corpora/multiauthor/corpus_60_filtered/9965.epub
140|6346aa|SearchtheSky|0.43|Cluster 1|C. M. Kornbluth|Hildegard G. Frey|corpora/multiauthor/corpus_60_filtered/52228.epub
141|6346aa|RainyWeek|0.84|Cluster 1|Eleanor Hallowell Abbott|Hildegard G. Frey|corpora/multiauthor/corpus_60_filtered/43025.epub
142|6346aa|PecksBadBoywiththeCircus|0.69|Cluster 1|George W. Peck|Hildegard G. Frey|corpora/multiauthor/corpus_60_filtered/10212.epub
143|6346aa|KindredoftheDust|0.5|Cluster 1|Peter B. Kyne|Hildegard G. Frey|corpora/multiauthor/corpus_60_filtered/13532.epub
144|6346aa|TheCampFireGirlsLarksandPranksOrTheHouseoftheOpenDoor|0.35|Cluster 1|Hildegard G. Frey|Hildegard G. Frey|corpora/multiauthor/corpus_60_filtered/38934.epub
145|6346aa|WhenaCobblerRuledtheKing|0.62|Cluster 1|Augusta Huiell Seaman|Hildegard G. Frey|corpora/multiauthor/corpus_60_filtered/38570.epub
146|6346aa|ByAdviceofCounsel|0.29|Cluster 1|Arthur Cheney Train|Hildegard G. Frey|corpora/multiauthor/corpus_60_filtered/11987.epub
147|6346aa|BlackForestVillageStories|0.1|Cluster 1|Berthold Auerbach|Hildegard G. Frey|corpora/multiauthor/corpus_60_filtered/32517.epub
148|6346aa|ADealinWheatandOtherStoriesoftheNewandOldWest|0.51|Cluster 1|Frank Norris|Hildegard G. Frey|corpora/multiauthor/corpus_60_filtered/9905.epub
149|6346aa|TheTerrorAMystery|0.17|Cluster 1|Arthur Machen|Hildegard G. Frey|corpora/multiauthor/corpus_60_filtered/35617.epub
150|6346aa|AYankeefromtheWestANovel|0.41|Cluster 1|Opie Percival Read|Hildegard G. Frey|corpora/multiauthor/corpus_60_filtered/33773.epub
151|6346aa|McAllisterandHisDouble|0.69|Cluster 1|Arthur Cheney Train|Hildegard G. Frey|corpora/multiauthor/corpus_60_filtered/34597.epub
152|6346aa|LoveStory|0.67|Cluster 1|Irving E. Cox|Hildegard G. Frey|corpora/multiauthor/corpus_60_filtered/32078.epub
153|6346aa|DragHarlan|0.5|Cluster 1|Charles Alden Seltzer|Hildegard G. Frey|corpora/multiauthor/corpus_60_filtered/25779.epub
154|6346aa|Jerusalem|0.68|Cluster 1|Selma Lagerlöf|Hildegard G. Frey|corpora/multiauthor/corpus_60_filtered/15837.epub
155|6346aa|WildMargaret|0.36|Cluster 1|Charles Garvice|Hildegard G. Frey|corpora/multiauthor/corpus_60_filtered/44828.epub
156|6346aa|TheThreeImpostorsorTheTransmutations|0.34|Cluster 1|Arthur Machen|Hildegard G. Frey|corpora/multiauthor/corpus_60_filtered/35517.epub
157|6346aa|SquareDealSanderson|0.08|Cluster 1|Charles Alden Seltzer|Hildegard G. Frey|corpora/multiauthor/corpus_60_filtered/16597.epub
158|6346aa|MiraclebyPrice|0.0|Cluster 1|Irving E. Cox|Hildegard G. Frey|corpora/multiauthor/corpus_60_filtered/58730.epub
159|6346aa|InsectAdventures|0.16|Cluster 1|Jean-Henri Fabre|Hildegard G. Frey|corpora/multiauthor/corpus_60_filtered/45812.epub
160|6346aa|CappyRicksOrtheSubjugationofMattPeasley|0.24|Cluster 1|Peter B. Kyne|Hildegard G. Frey|corpora/multiauthor/corpus_60_filtered/5738.epub
161|6346aa|McTeagueAStoryofSanFrancisco|0.34|Cluster 1|Frank Norris|Hildegard G. Frey|corpora/multiauthor/corpus_60_filtered/165.epub
162|6346aa|TheShortCut|0.64|Cluster 1|Jackson Gregory|Hildegard G. Frey|corpora/multiauthor/corpus_60_filtered/18950.epub
163|6346aa|TheSapphireSignet|0.44|Cluster 1|Augusta Huiell Seaman|Hildegard G. Frey|corpora/multiauthor/corpus_60_filtered/55964.epub
164|6346aa|StormBoundorAVacationAmongtheSnowDrifts|0.84|Cluster 1|Captain Alan Douglas|Hildegard G. Frey|corpora/multiauthor/corpus_60_filtered/38314.epub
165|6346aa|TheShepherdoftheHills|0.64|Cluster 1|Harold Bell Wright|Hildegard G. Frey|corpora/multiauthor/corpus_60_filtered/4735.epub
166|6346aa|OntheHeightsANovel|0.21|Cluster 1|Berthold Auerbach|Hildegard G. Frey|corpora/multiauthor/corpus_60_filtered/33294.epub
167|6346aa|TheIndiscreetLetter|0.18|Cluster 1|Eleanor Hallowell Abbott|Hildegard G. Frey|corpora/multiauthor/corpus_60_filtered/15728.epub
168|6346aa|IndianHeroesandGreatChieftains|0.77|Cluster 1|Charles A. Eastman|Hildegard G. Frey|corpora/multiauthor/corpus_60_filtered/336.epub
169|6346aa|TheThirdCircle|0.29|Cluster 1|Frank Norris|Hildegard G. Frey|corpora/multiauthor/corpus_60_filtered/48620.epub
170|6346aa|TheWinningofBarbaraWorth|0.36|Cluster 1|Harold Bell Wright|Hildegard G. Frey|corpora/multiauthor/corpus_60_filtered/6997.epub
171|6346aa|TheSilverMaple|0.82|Cluster 1|Mary Esther Miller MacGregor|Hildegard G. Frey|corpora/multiauthor/corpus_60_filtered/28688.epub
172|6346aa|TheGoodSoldier|0.8|Cluster 1|Ford Madox Ford|Hildegard G. Frey|corpora/multiauthor/corpus_60_filtered/2775.epub
173|6346aa|RedHuntersandtheAnimalPeople|0.15|Cluster 1|Charles A. Eastman|Hildegard G. Frey|corpora/multiauthor/corpus_60_filtered/34461.epub
174|6346aa|TheGallery|0.14|Cluster 1|Rog Phillips|Hildegard G. Frey|corpora/multiauthor/corpus_60_filtered/26936.epub
175|6346aa|TheBlackBeardedBarbarianTheLifeofGeorgeLeslieMackayofFormosa|0.43|Cluster 1|Mary Esther Miller MacGregor|Hildegard G. Frey|corpora/multiauthor/corpus_60_filtered/1759.epub
176|6346aa|TheRangeBoss|0.35|Cluster 1|Charles Alden Seltzer|Hildegard G. Frey|corpora/multiauthor/corpus_60_filtered/25754.epub
177|6346aa|DaddyLongLegsAComedyinFourActs|0.05|Cluster 1|Jean Webster|Hildegard G. Frey|corpora/multiauthor/corpus_60_filtered/40426.epub
178|6346aa|TheWondersofInstinctChaptersinthePsychologyofInsects|0.37|Cluster 1|Jean-Henri Fabre|Hildegard G. Frey|corpora/multiauthor/corpus_60_filtered/3754.epub
179|6346aa|TheFourPoolsMystery|0.12|Cluster 1|Jean Webster|Hildegard G. Frey|corpora/multiauthor/corpus_60_filtered/21264.epub
180|6346aa|TheShoesofFortune|0.09|Cluster 1|Neil Munro|Hildegard G. Frey|corpora/multiauthor/corpus_60_filtered/43732.epub
181|6346aa|AtLovesCost|0.59|Cluster 1|Charles Garvice|Hildegard G. Frey|corpora/multiauthor/corpus_60_filtered/10379.epub
182|6346aa|TrueStoriesofCrimeFromtheDistrictAttorneysOffice|0.81|Cluster 1|Arthur Cheney Train|Hildegard G. Frey|corpora/multiauthor/corpus_60_filtered/13172.epub
183|6346aa|NarrativeofWilliamWBrownaFugitiveSlaveSecondEdition|0.87|Cluster 1|William Wells Brown|Hildegard G. Frey|corpora/multiauthor/corpus_60_filtered/59500.epub
184|6346aa|InvisibleLinks|0.46|Cluster 1|Selma Lagerlöf|Hildegard G. Frey|corpora/multiauthor/corpus_60_filtered/14273.epub
185|6346aa|BessoftheWoods|0.48|Cluster 1|Warwick Deeping|Hildegard G. Frey|corpora/multiauthor/corpus_60_filtered/57758.epub
186|6346aa|ThePlaceBeyondtheWinds|0.59|Cluster 1|Harriet T. Comstock|Hildegard G. Frey|corpora/multiauthor/corpus_60_filtered/18488.epub
187|6346aa|SunshineJane|0.22|Cluster 1|Anne Warner|Hildegard G. Frey|corpora/multiauthor/corpus_60_filtered/37972.epub
188|6346aa|TheLongestJourney|0.79|Cluster 1|E. M. Forster|Hildegard G. Frey|corpora/multiauthor/corpus_60_filtered/2604.epub
189|6346aa|WhenAMansAMan|0.64|Cluster 1|Harold Bell Wright|Hildegard G. Frey|corpora/multiauthor/corpus_60_filtered/14367.epub
190|6346aa|DesertDust|0.82|Cluster 1|Edwin L. Sabin|Hildegard G. Frey|corpora/multiauthor/corpus_60_filtered/27437.epub
191|6346aa|Landolin|0.96|Cluster 1|Berthold Auerbach|Hildegard G. Frey|corpora/multiauthor/corpus_60_filtered/33008.epub
192|6346aa|RatintheSkull|0.13|Cluster 1|Rog Phillips|Hildegard G. Frey|corpora/multiauthor/corpus_60_filtered/60614.epub
193|6346aa|Romance|0.75|Cluster 1|Joseph Conrad|Hildegard G. Frey|corpora/multiauthor/corpus_60_filtered/17642.epub
194|6346aa|TheBossoftheLazyY|0.06|Cluster 1|Charles Alden Seltzer|Hildegard G. Frey|corpora/multiauthor/corpus_60_filtered/19026.epub
195|6346aa|"TheConfessionsofArtemasQuibbleBeingtheIngenuousandUnvarnishedHistoryofArtemasQuibbleEsquireOneTimePractitionerintheNewYorkCriminalCourtsTogetherwithanAccountoftheDiversWilesTricksSophistriesTechnicalitiesandSundryArtificesofHimselfandOthersoftheFraternityCommonlyYclept""Shysters""or""ShysterLawyers"""|0.5|Cluster 1|Arthur Cheney Train|Hildegard G. Frey|corpora/multiauthor/corpus_60_filtered/20451.epub
196|6346aa|UnderCanvasorTheHuntfortheCartaretGhost|0.73|Cluster 1|Captain Alan Douglas|Hildegard G. Frey|corpora/multiauthor/corpus_60_filtered/38299.epub
197|6346aa|MysteryoftheChineseRingABiffBrewsterMysteryAdventure|0.14|Cluster 1|Andy Adams|Hildegard G. Frey|corpora/multiauthor/corpus_60_filtered/51608.epub
198|6346aa|PharosandPharillon|0.85|Cluster 1|E. M. Forster|Hildegard G. Frey|corpora/multiauthor/corpus_60_filtered/61116.epub
199|6346aa|CattleBrandsACollectionofWesternCampFireStories|0.63|Cluster 1|Andy Adams|Hildegard G. Frey|corpora/multiauthor/corpus_60_filtered/12281.epub
200|6346aa|TheRejuvenationofAuntMary|0.22|Cluster 1|Anne Warner|Hildegard G. Frey|corpora/multiauthor/corpus_60_filtered/15775.epub
201|6346aa|TheOutlet|0.21|Cluster 1|Andy Adams|Hildegard G. Frey|corpora/multiauthor/corpus_60_filtered/1987.epub
202|6346aa|ASonoftheHills|0.53|Cluster 1|Harriet T. Comstock|Hildegard G. Frey|corpora/multiauthor/corpus_60_filtered/20424.epub
203|6346aa|TheManWhoRockedtheEarth|0.6|Cluster 1|Arthur Cheney Train|Hildegard G. Frey|corpora/multiauthor/corpus_60_filtered/19174.epub
204|6346aa|FastNineorAChallengefromFairfield|0.47|Cluster 1|Captain Alan Douglas|Hildegard G. Frey|corpora/multiauthor/corpus_60_filtered/37493.epub
205|6346aa|BeaufortChums|0.27|Cluster 1|Edwin L. Sabin|Hildegard G. Frey|corpora/multiauthor/corpus_60_filtered/54887.epub
206|6346aa|TheSimpleAdventuresofaMemsahib|0.17|Cluster 1|Sara Jeannette Duncan|Hildegard G. Frey|corpora/multiauthor/corpus_60_filtered/56513.epub
207|6346aa|GilianTheDreamerHisFancyHisLoveandAdventure|0.18|Cluster 1|Neil Munro|Hildegard G. Frey|corpora/multiauthor/corpus_60_filtered/22211.epub
208|6346aa|ThePrecipiceANovel|0.42|Cluster 1|Elia Wilkinson Peattie|Hildegard G. Frey|corpora/multiauthor/corpus_60_filtered/12177.epub
209|6346aa|TheBlueJarStoryBook|0.42|Cluster 1|Maria Edgeworth|Hildegard G. Frey|corpora/multiauthor/corpus_60_filtered/34470.epub
210|6346aa|AdolescentsOnly|0.41|Cluster 1|Irving E. Cox|Hildegard G. Frey|corpora/multiauthor/corpus_60_filtered/32651.epub
211|6346aa|PathfinderorTheMissingTenderfoot|0.37|Cluster 1|Captain Alan Douglas|Hildegard G. Frey|corpora/multiauthor/corpus_60_filtered/22924.epub
212|6346aa|OldIndianDays|0.68|Cluster 1|Charles A. Eastman|Hildegard G. Frey|corpora/multiauthor/corpus_60_filtered/339.epub
213|6346aa|ThePathofaStar|0.47|Cluster 1|Sara Jeannette Duncan|Hildegard G. Frey|corpora/multiauthor/corpus_60_filtered/5102.epub
214|6346aa|StoriesbyAmericanAuthorsVolume4|0.49|Cluster 1|H. C. Bunner|Hildegard G. Frey|corpora/multiauthor/corpus_60_filtered/22401.epub
215|6346aa|AColumbusofSpace|0.4|Cluster 1|Garrett Putman Serviss|Hildegard G. Frey|corpora/multiauthor/corpus_60_filtered/8673.epub
216|6346aa|SusanCleggandHerNeighborsAffairs|0.83|Cluster 1|Anne Warner|Hildegard G. Frey|corpora/multiauthor/corpus_60_filtered/18987.epub
217|6346aa|OnlyaGirlsLove|0.75|Cluster 1|Charles Garvice|Hildegard G. Frey|corpora/multiauthor/corpus_60_filtered/53416.epub
218|6346aa|PaintedWindows|0.0|Cluster 1|Elia Wilkinson Peattie|Hildegard G. Frey|corpora/multiauthor/corpus_60_filtered/1875.epub
219|6346aa|TheGreatGodPan|0.07|Cluster 1|Arthur Machen|Hildegard G. Frey|corpora/multiauthor/corpus_60_filtered/389.epub
220|6346aa|JosephintheSnowandTheClockmakerInThreeVolumesVolI|0.43|Cluster 1|Berthold Auerbach|Hildegard G. Frey|corpora/multiauthor/corpus_60_filtered/33162.epub
221|6346aa|JosephintheSnowandTheClockmakerInThreeVolumesVolIII|0.39|Cluster 1|Berthold Auerbach|Hildegard G. Frey|corpora/multiauthor/corpus_60_filtered/33164.epub
222|6346aa|JauntyJockandOtherStories|0.97|Cluster 1|Neil Munro|Hildegard G. Frey|corpora/multiauthor/corpus_60_filtered/50438.epub
223|6346aa|ThreeSidesofParadiseGreen|0.25|Cluster 1|Augusta Huiell Seaman|Hildegard G. Frey|corpora/multiauthor/corpus_60_filtered/52946.epub
224|6346aa|TheGuardians|0.45|Cluster 1|Irving E. Cox|Hildegard G. Frey|corpora/multiauthor/corpus_60_filtered/24152.epub
225|6346aa|JustaGirl|0.0|Cluster 1|Charles Garvice|Hildegard G. Frey|corpora/multiauthor/corpus_60_filtered/57166.epub
226|6346aa|APassagetoIndia|0.74|Cluster 1|E. M. Forster|Hildegard G. Frey|corpora/multiauthor/corpus_60_filtered/61221.epub
227|6346aa|TheCelestialOmnibusandOtherStories|0.13|Cluster 1|E. M. Forster|Hildegard G. Frey|corpora/multiauthor/corpus_60_filtered/34089.epub
228|6346aa|TheEarthman|0.13|Cluster 1|Irving E. Cox|Hildegard G. Frey|corpora/multiauthor/corpus_60_filtered/59458.epub
229|6346aa|TheTrailHorde|0.29|Cluster 1|Charles Alden Seltzer|Hildegard G. Frey|corpora/multiauthor/corpus_60_filtered/17477.epub
230|6346aa|TheThreeGodfathers|0.55|Cluster 1|Peter B. Kyne|Hildegard G. Frey|corpora/multiauthor/corpus_60_filtered/51942.epub
231|6346aa|PhilipWinwoodASketchoftheDomesticHistoryofanAmericanCaptainintheWarofIndependenceEmbracingEventsthatOccurredbetweenandduringtheYears1763and1786inNewYorkandLondonwrittenbyHisEnemyinWarHerbertRussellLieutenantintheLoyalistForces|0.5|Cluster 1|Robert Neilson Stephens|Hildegard G. Frey|corpora/multiauthor/corpus_60_filtered/15506.epub
232|6346aa|Mortmain|0.19|Cluster 1|Arthur Cheney Train|Hildegard G. Frey|corpora/multiauthor/corpus_60_filtered/37346.epub
233|6346aa|SurvivalKit|0.73|Cluster 1|Frederik Pohl|Hildegard G. Frey|corpora/multiauthor/corpus_60_filtered/51809.epub
234|6346aa|TheStarbucks|0.04|Cluster 1|Opie Percival Read|Hildegard G. Frey|corpora/multiauthor/corpus_60_filtered/18984.epub
235|6346aa|JudgeElbridge|0.8|Cluster 1|Opie Percival Read|Hildegard G. Frey|corpora/multiauthor/corpus_60_filtered/46699.epub
236|6346aa|WaldfriedANovel|0.93|Cluster 1|Berthold Auerbach|Hildegard G. Frey|corpora/multiauthor/corpus_60_filtered/32446.epub
237|6346aa|PecksSunshineBeingaCollectionofArticlesWrittenforPecksSunMilwaukeeWis1882|0.99|Cluster 1|George W. Peck|Hildegard G. Frey|corpora/multiauthor/corpus_60_filtered/25491.epub
238|6346aa|WolfBreed|0.45|Cluster 1|Jackson Gregory|Hildegard G. Frey|corpora/multiauthor/corpus_60_filtered/18964.epub
239|6346aa|ThePitAStoryofChicago|0.9|Cluster 1|Frank Norris|Hildegard G. Frey|corpora/multiauthor/corpus_60_filtered/4382.epub
240|6346aa|TalesfromBohemia|0.18|Cluster 1|Robert Neilson Stephens|Hildegard G. Frey|corpora/multiauthor/corpus_60_filtered/8869.epub
241|6346aa|AWomansWill|0.58|Cluster 1|Anne Warner|Hildegard G. Frey|corpora/multiauthor/corpus_60_filtered/27225.epub
242|6346aa|ArmyLifeinaBlackRegiment|0.88|Cluster 1|Thomas Wentworth Higginson|Hildegard G. Frey|corpora/multiauthor/corpus_60_filtered/6764.epub
243|6346aa|MyYoungMasterANovel|0.7|Cluster 1|Opie Percival Read|Hildegard G. Frey|corpora/multiauthor/corpus_60_filtered/59834.epub
244|6346aa|InOrchardGlen|0.46|Cluster 1|Mary Esther Miller MacGregor|Hildegard G. Frey|corpora/multiauthor/corpus_60_filtered/28235.epub
245|6346aa|TheCampFireGirlsintheMaineWoodsOrTheWinnebagosGoCamping|0.04|Cluster 1|Hildegard G. Frey|Hildegard G. Frey|corpora/multiauthor/corpus_60_filtered/18606.epub
246|6346aa|TheGirlNextDoor|0.84|Cluster 1|Augusta Huiell Seaman|Hildegard G. Frey|corpora/multiauthor/corpus_60_filtered/39896.epub
247|6346aa|TheBrownOwlAFairyStory|0.79|Cluster 1|Ford Madox Ford|Hildegard G. Frey|corpora/multiauthor/corpus_60_filtered/48860.epub
248|6346aa|IndianBoyhood|0.89|Cluster 1|Charles A. Eastman|Hildegard G. Frey|corpora/multiauthor/corpus_60_filtered/337.epub
249|6346aa|ForestRockandStreamAseriesoftwentysteellineengravings|0.5|Cluster 1|Nathaniel Parker Willis|Hildegard G. Frey|corpora/multiauthor/corpus_60_filtered/48283.epub
250|6346aa|PluckontheLongTrailOrBoyScoutsintheRockies|0.18|Cluster 1|Edwin L. Sabin|Hildegard G. Frey|corpora/multiauthor/corpus_60_filtered/20710.epub
251|6346aa|TheOctopusAStoryofCalifornia|0.01|Cluster 1|Frank Norris|Hildegard G. Frey|corpora/multiauthor/corpus_60_filtered/268.epub
252|6346aa|EnduranceTestorHowClearGritWontheDay|0.53|Cluster 1|Captain Alan Douglas|Hildegard G. Frey|corpora/multiauthor/corpus_60_filtered/38305.epub
253|6346aa|SeeingFrancewithUncleJohn|0.85|Cluster 1|Anne Warner|Hildegard G. Frey|corpora/multiauthor/corpus_60_filtered/35574.epub
254|6346aa|Dracula|0.49|Cluster 1|Bram Stoker|Hildegard G. Frey|corpora/multiauthor/corpus_60_filtered/345.epub
255|6346aa|SusanCleggandHerLoveAffairs|0.13|Cluster 1|Anne Warner|Hildegard G. Frey|corpora/multiauthor/corpus_60_filtered/37289.epub
256|6346aa|InaMysteriousWay|0.36|Cluster 1|Anne Warner|Hildegard G. Frey|corpora/multiauthor/corpus_60_filtered/37515.epub
257|6346aa|TheLifeoftheSpider|0.5|Cluster 1|Jean-Henri Fabre|Hildegard G. Frey|corpora/multiauthor/corpus_60_filtered/1887.epub
258|6346aa|TheGreatReturn|0.92|Cluster 1|Arthur Machen|Hildegard G. Frey|corpora/multiauthor/corpus_60_filtered/35611.epub
259|6346aa|IllustratedEditionoftheLifeandEscapeofWmWellsBrownfromAmericanSlaveryWrittenbyHimself|0.92|Cluster 1|William Wells Brown|Hildegard G. Frey|corpora/multiauthor/corpus_60_filtered/50092.epub
260|6346aa|GreatHikeorThePrideoftheKhakiTroop|0.5|Cluster 1|Captain Alan Douglas|Hildegard G. Frey|corpora/multiauthor/corpus_60_filtered/38307.epub
261|6346aa|ALittleDuskyHero|0.9|Cluster 1|Harriet T. Comstock|Hildegard G. Frey|corpora/multiauthor/corpus_60_filtered/31366.epub
262|6346aa|TheTigress|0.33|Cluster 1|Anne Warner|Hildegard G. Frey|corpora/multiauthor/corpus_60_filtered/37236.epub
263|6346aa|TheContinentalDragoonALoveStoryofPhilipseManorHousein1778|0.39|Cluster 1|Robert Neilson Stephens|Hildegard G. Frey|corpora/multiauthor/corpus_60_filtered/30589.epub
264|6346aa|CaptainPeabody|0.53|Cluster 1|Rog Phillips|Hildegard G. Frey|corpora/multiauthor/corpus_60_filtered/60442.epub
265|6346aa|AttheCrossroads|0.78|Cluster 1|Harriet T. Comstock|Hildegard G. Frey|corpora/multiauthor/corpus_60_filtered/30095.epub
266|6346aa|DaughteroftheSunATaleofAdventure|0.04|Cluster 1|Jackson Gregory|Hildegard G. Frey|corpora/multiauthor/corpus_60_filtered/18916.epub
267|6346aa|AMountainWoman|0.78|Cluster 1|Elia Wilkinson Peattie|Hildegard G. Frey|corpora/multiauthor/corpus_60_filtered/1877.epub
268|6346aa|FairyPrinceandOtherStories|0.47|Cluster 1|Eleanor Hallowell Abbott|Hildegard G. Frey|corpora/multiauthor/corpus_60_filtered/26399.epub
269|6346aa|TheShieldofSilence|0.97|Cluster 1|Harriet T. Comstock|Hildegard G. Frey|corpora/multiauthor/corpus_60_filtered/18225.epub
270|6346aa|TheShapeofFear|0.99|Cluster 1|Elia Wilkinson Peattie|Hildegard G. Frey|corpora/multiauthor/corpus_60_filtered/1876.epub
271|6346aa|FirebrandTrevison|0.74|Cluster 1|Charles Alden Seltzer|Hildegard G. Frey|corpora/multiauthor/corpus_60_filtered/26951.epub
272|6346aa|TheCampFireGirlsSolveaMysteryOrTheChristmasAdventureatCarverHouse|0.63|Cluster 1|Hildegard G. Frey|Hildegard G. Frey|corpora/multiauthor/corpus_60_filtered/38983.epub
273|6346aa|TheJewelofSevenStars|0.73|Cluster 1|Bram Stoker|Hildegard G. Frey|corpora/multiauthor/corpus_60_filtered/3781.epub
274|6346aa|ATexasMatchmaker|0.1|Cluster 1|Andy Adams|Hildegard G. Frey|corpora/multiauthor/corpus_60_filtered/12919.epub
275|6346aa|TheOldMartians|0.35|Cluster 1|Rog Phillips|Hildegard G. Frey|corpora/multiauthor/corpus_60_filtered/32590.epub
276|6346aa|AWomansWarANovel|0.82|Cluster 1|Warwick Deeping|Hildegard G. Frey|corpora/multiauthor/corpus_60_filtered/52715.epub
277|6346aa|MemoirsoftheCourtsofLouisXVandXVI—Volume2BeingsecretmemoirsofMadameDuHaussetladysmaidtoMadamedePompadourandofthePrincessLamballe|0.53|Cluster 1|Mme. Du Hausset|Hildegard G. Frey|corpora/multiauthor/corpus_60_filtered/3877.epub
278|6346aa|CaptainRavenshawOrTheMaidofCheapsideARomanceofElizabethanLondon|0.48|Cluster 1|Robert Neilson Stephens|Hildegard G. Frey|corpora/multiauthor/corpus_60_filtered/47738.epub
279|6346aa|OnlyOneLoveorWhoWastheHeir|0.14|Cluster 1|Charles Garvice|Hildegard G. Frey|corpora/multiauthor/corpus_60_filtered/35523.epub
280|6346aa|OldportDays|0.7|Cluster 1|Thomas Wentworth Higginson|Hildegard G. Frey|corpora/multiauthor/corpus_60_filtered/2418.epub
281|6346aa|DraculasGuest|0.18|Cluster 1|Bram Stoker|Hildegard G. Frey|corpora/multiauthor/corpus_60_filtered/10150.epub
282|6346aa|TheRoadtoParisAStoryofAdventure|0.08|Cluster 1|Robert Neilson Stephens|Hildegard G. Frey|corpora/multiauthor/corpus_60_filtered/35488.epub
283|6346aa|TheSpiderandtheFlyorAnUndesiredLove|0.41|Cluster 1|Charles Garvice|Hildegard G. Frey|corpora/multiauthor/corpus_60_filtered/49537.epub
284|6346aa|TheStoryofSonnySahib|0.79|Cluster 1|Sara Jeannette Duncan|Hildegard G. Frey|corpora/multiauthor/corpus_60_filtered/4547.epub
285|6346aa|HardscrabbleorthefallofChicagoataleofIndianwarfare|0.5|Cluster 1|Major Richardson|Hildegard G. Frey|corpora/multiauthor/corpus_60_filtered/5169.epub
286|6346aa|BudANovel|0.66|Cluster 1|Neil Munro|Hildegard G. Frey|corpora/multiauthor/corpus_60_filtered/43731.epub
287|6346aa|MySouthernHomeOrtheSouthandItsPeople|0.33|Cluster 1|William Wells Brown|Hildegard G. Frey|corpora/multiauthor/corpus_60_filtered/59114.epub
288|6346aa|PecksUncleIkeandTheRedHeadedBoy1899|0.06|Cluster 1|George W. Peck|Hildegard G. Frey|corpora/multiauthor/corpus_60_filtered/25490.epub
289|6346aa|TheStoryofGöstaBerling|0.63|Cluster 1|Selma Lagerlöf|Hildegard G. Frey|corpora/multiauthor/corpus_60_filtered/56158.epub
290|6346aa|TheTunnelUndertheWorld|0.58|Cluster 1|Frederik Pohl|Hildegard G. Frey|corpora/multiauthor/corpus_60_filtered/31979.epub
291|6346aa|OnthePlainswithCusterTheWesternLifeandDeedsoftheChiefWiththeYellowHairUnderWhomServedBoyBuglerNedFletcherWhenintheTroublousYears1866–1876theFightingSeventhCavalryHelpedtoWinPioneerKansasNebraskaandDakotaforWhiteCivilizationandTodaysPeace|0.91|Cluster 1|Edwin L. Sabin|Hildegard G. Frey|corpora/multiauthor/corpus_60_filtered/60157.epub
292|6346aa|LizbethoftheDale|0.06|Cluster 1|Mary Esther Miller MacGregor|Hildegard G. Frey|corpora/multiauthor/corpus_60_filtered/28234.epub
293|6346aa|LittleEveEdgarton|0.68|Cluster 1|Eleanor Hallowell Abbott|Hildegard G. Frey|corpora/multiauthor/corpus_60_filtered/15660.epub
294|6346aa|CaptainScraggsOrTheGreenPeaPirates|0.25|Cluster 1|Peter B. Kyne|Hildegard G. Frey|corpora/multiauthor/corpus_60_filtered/18469.epub
295|6346aa|HistoryoftheJohnstownFloodIncludingalltheFearfulRecordtheBreakingoftheSouthForkDamtheSweepingOutoftheConemaughValleytheOverThrowofJohnstowntheMassingoftheWreckattheRailroadBridgeEscapesRescuesSearchesforSurvivorsandtheDeadReliefOrganizationsStupendousCharitiesetcetcWithFullAccountsalsooftheDestructionontheSusquehannaandJuniataRiversandtheBaldEagleCreek|0.21|Cluster 1|Willis Fletcher Johnson|Hildegard G. Frey|corpora/multiauthor/corpus_60_filtered/41271.epub
296|6346aa|TheWhiteLinenNurse|0.93|Cluster 1|Eleanor Hallowell Abbott|Hildegard G. Frey|corpora/multiauthor/corpus_60_filtered/14506.epub
297|6346aa|TheCartelsJungle|0.68|Cluster 1|Irving E. Cox|Hildegard G. Frey|corpora/multiauthor/corpus_60_filtered/31062.epub
298|6346aa|PecksBadBoywiththeCowboys|0.81|Cluster 1|George W. Peck|Hildegard G. Frey|corpora/multiauthor/corpus_60_filtered/6141.epub
299|6346aa|TheEmperorofPortugallia|0.32|Cluster 1|Selma Lagerlöf|Hildegard G. Frey|corpora/multiauthor/corpus_60_filtered/14356.epub
300|6346aa|BoysBookofFrontierFighters|0.81|Cluster 1|Edwin L. Sabin|Hildegard G. Frey|corpora/multiauthor/corpus_60_filtered/31130.epub
301|6346aa|ClotelleATaleoftheSouthernStates|0.39|Cluster 1|William Wells Brown|Hildegard G. Frey|corpora/multiauthor/corpus_60_filtered/2095.epub
302|6346aa|TheLifeoftheFlyWithWhichareInterspersedSomeChaptersofAutobiography|0.15|Cluster 1|Jean-Henri Fabre|Hildegard G. Frey|corpora/multiauthor/corpus_60_filtered/3422.epub
303|6346aa|HisHonourandaLady|0.04|Cluster 1|Sara Jeannette Duncan|Hildegard G. Frey|corpora/multiauthor/corpus_60_filtered/53036.epub
304|6346aa|TheLadyoftheShroud|0.71|Cluster 1|Bram Stoker|Hildegard G. Frey|corpora/multiauthor/corpus_60_filtered/3095.epub
305|6346aa|TheWomansWay|0.89|Cluster 1|Charles Garvice|Hildegard G. Frey|corpora/multiauthor/corpus_60_filtered/19411.epub
306|6346aa|AdrienLeroy|0.09|Cluster 1|Charles Garvice|Hildegard G. Frey|corpora/multiauthor/corpus_60_filtered/16682.epub
307|6346aa|TheSecretGlory|0.11|Cluster 1|Arthur Machen|Hildegard G. Frey|corpora/multiauthor/corpus_60_filtered/35637.epub
308|6346aa|JoyceoftheNorthWoods|0.34|Cluster 1|Harriet T. Comstock|Hildegard G. Frey|corpora/multiauthor/corpus_60_filtered/19225.epub
309|6346aa|TheManThouGavest|0.28|Cluster 1|Harriet T. Comstock|Hildegard G. Frey|corpora/multiauthor/corpus_60_filtered/14858.epub
310|6346aa|TheDayoftheBoomerDukes|0.05|Cluster 1|Frederik Pohl|Hildegard G. Frey|corpora/multiauthor/corpus_60_filtered/22559.epub
311|6346aa|TreasureValley|0.71|Cluster 1|Mary Esther Miller MacGregor|Hildegard G. Frey|corpora/multiauthor/corpus_60_filtered/29023.epub
312|6346aa|TheKingBehindtheKing|0.69|Cluster 1|Warwick Deeping|Hildegard G. Frey|corpora/multiauthor/corpus_60_filtered/48115.epub
313|6346aa|WithCarsonandFrémontBeingtheAdventuresintheYears18424344onTrailOverMountainsandThroughDesertsFromtheEastoftheRockiestotheWestoftheSierrasofScoutChristopherCarsonandLieutenantJohnCharlesFrémontLeadingTheirBraveCompanyIncludingtheBoyOliver|0.52|Cluster 1|Edwin L. Sabin|Hildegard G. Frey|corpora/multiauthor/corpus_60_filtered/59807.epub
314|6346aa|PencillingsbytheWayWrittenDuringSomeYearsofResidenceandTravelinEurope|0.7|Cluster 1|Nathaniel Parker Willis|Hildegard G. Frey|corpora/multiauthor/corpus_60_filtered/39179.epub
315|6346aa|"The""Goldfish""BeingtheConfessionsafaSuccessfulMan"|0.44|Cluster 1|Arthur Cheney Train|Hildegard G. Frey|corpora/multiauthor/corpus_60_filtered/12920.epub
316|6346aa|ADaughterofToDay|0.08|Cluster 1|Sara Jeannette Duncan|Hildegard G. Frey|corpora/multiauthor/corpus_60_filtered/14490.epub
317|6346aa|TheSecondDeluge|0.49|Cluster 1|Garrett Putman Serviss|Hildegard G. Frey|corpora/multiauthor/corpus_60_filtered/9194.epub
318|6346aa|CampFiresoftheWolfPatrol|0.46|Cluster 1|Captain Alan Douglas|Hildegard G. Frey|corpora/multiauthor/corpus_60_filtered/36838.epub
319|6346aa|JacquelineoftheCarrierPigeons|0.1|Cluster 1|Augusta Huiell Seaman|Hildegard G. Frey|corpora/multiauthor/corpus_60_filtered/57466.epub
320|6346aa|HowPrivateGeorgeWPeckPutDowntheRebellionorTheFunnyExperiencesofaRawRecruit1887|0.18|Cluster 1|George W. Peck|Hildegard G. Frey|corpora/multiauthor/corpus_60_filtered/25492.epub
321|6346aa|MollyMakeBelieve|0.28|Cluster 1|Eleanor Hallowell Abbott|Hildegard G. Frey|corpora/multiauthor/corpus_60_filtered/18665.epub
322|6346aa|WoodcraftOrHowaPatrolLeaderMadeGood|0.43|Cluster 1|Captain Alan Douglas|Hildegard G. Frey|corpora/multiauthor/corpus_60_filtered/37167.epub
323|6346aa|CappyRicksRetiresButThatDoesntKeepHimfromComingBackStrongerThanEver|0.92|Cluster 1|Peter B. Kyne|Hildegard G. Frey|corpora/multiauthor/corpus_60_filtered/6020.epub
324|6346aa|ThePrideofEve|0.03|Cluster 1|Warwick Deeping|Hildegard G. Frey|corpora/multiauthor/corpus_60_filtered/50176.epub
325|6346aa|DaddyLongLegs|0.1|Cluster 1|Jean Webster|Hildegard G. Frey|corpora/multiauthor/corpus_60_filtered/157.epub
326|6346aa|AMansWoman|0.21|Cluster 1|Frank Norris|Hildegard G. Frey|corpora/multiauthor/corpus_60_filtered/16096.epub
327|6346aa|PecksBadBoyAbroadBeingaHumorousDescriptionoftheBadBoyandHisDadinTheirJourneysThroughForeignLands1904|0.25|Cluster 1|George W. Peck|Hildegard G. Frey|corpora/multiauthor/corpus_60_filtered/25489.epub
328|6346aa|ClotelleOrTheColoredHeroineataleoftheSouthernStatesOrThePresidentsDaughter|0.04|Cluster 1|William Wells Brown|Hildegard G. Frey|corpora/multiauthor/corpus_60_filtered/241.epub
329|6346aa|BoyScoutsTenderfootSquadorCampingatRaccoonLodge|0.15|Cluster 1|Captain Alan Douglas|Hildegard G. Frey|corpora/multiauthor/corpus_60_filtered/38300.epub
330|6346aa|PecksCompendiumofFunComprisingtheChoicestGemsofWitHumorSarcasmandPathosofAmericasFavoriteHumorist|0.86|Cluster 1|George W. Peck|Hildegard G. Frey|corpora/multiauthor/corpus_60_filtered/14815.epub
331|6346aa|YeofLittleFaith|0.5|Cluster 1|Rog Phillips|Hildegard G. Frey|corpora/multiauthor/corpus_60_filtered/32663.epub
332|6346aa|TheAngelsofMonsTheBowmenandOtherLegendsoftheWar|0.28|Cluster 1|Arthur Machen|Hildegard G. Frey|corpora/multiauthor/corpus_60_filtered/14044.epub
333|6346aa|TheEndoftheRainbow|0.83|Cluster 1|Mary Esther Miller MacGregor|Hildegard G. Frey|corpora/multiauthor/corpus_60_filtered/28276.epub
334|6346aa|GoldSeekersof49|0.9|Cluster 1|Edwin L. Sabin|Hildegard G. Frey|corpora/multiauthor/corpus_60_filtered/23192.epub
335|6346aa|Webster—MansMan|0.62|Cluster 1|Peter B. Kyne|Hildegard G. Frey|corpora/multiauthor/corpus_60_filtered/51987.epub
336|6346aa|TheOntarioReadersFourthBook|0.91|Cluster 1|Ontario. Department of Education|Hildegard G. Frey|corpora/multiauthor/corpus_60_filtered/18702.epub
337|6346aa|OldEbenezer|0.0|Cluster 1|Opie Percival Read|Hildegard G. Frey|corpora/multiauthor/corpus_60_filtered/23215.epub
338|6346aa|OldDad|0.03|Cluster 1|Eleanor Hallowell Abbott|Hildegard G. Frey|corpora/multiauthor/corpus_60_filtered/48990.epub
339|6346aa|AfloatorAdventuresonWateryTrails|0.22|Cluster 1|Captain Alan Douglas|Hildegard G. Frey|corpora/multiauthor/corpus_60_filtered/20499.epub
340|6346aa|TheInstantofNow|0.23|Cluster 1|Irving E. Cox|Hildegard G. Frey|corpora/multiauthor/corpus_60_filtered/31651.epub
341|6346aa|TheGoGetterAStoryThatTellsYouHowtobeOne|0.13|Cluster 1|Peter B. Kyne|Hildegard G. Frey|corpora/multiauthor/corpus_60_filtered/12257.epub
0|6346aa|AMichiganMan1891|100.0|Cluster 2|Elia Wilkinson Peattie|May Byron|corpora/multiauthor/corpus_60_filtered/23176.epub
1|6346aa|TheHillofDreams|0.16|Cluster 2|Arthur Machen|May Byron|corpora/multiauthor/corpus_60_filtered/13969.epub
2|6346aa|ADaywithWaltWhitman|0.58|Cluster 2|May Byron|May Byron|corpora/multiauthor/corpus_60_filtered/36305.epub
3|6346aa|RobinsRambles|0.62|Cluster 2|May Byron|May Byron|corpora/multiauthor/corpus_60_filtered/38504.epub
0|6346aa|TheUncrownedKing|100.0|Cluster 3|Harold Bell Wright|Mary Esther Miller MacGregor|corpora/multiauthor/corpus_60_filtered/12991.epub
1|6346aa|StoriesofKingArthursKnightsToldtotheChildrenbyMaryMacGregor|0.7|Cluster 3|Mary Esther Miller MacGregor|Mary Esther Miller MacGregor|corpora/multiauthor/corpus_60_filtered/25654.epub
2|6346aa|FugitivePoetry|0.94|Cluster 3|Nathaniel Parker Willis|Mary Esther Miller MacGregor|corpora/multiauthor/corpus_60_filtered/32146.epub
3|6346aa|OntarioTeachersManualsLiterature|0.93|Cluster 3|Ontario. Department of Education|Mary Esther Miller MacGregor|corpora/multiauthor/corpus_60_filtered/24974.epub
4|6346aa|TheSurrenderofSantiagoAnAccountoftheHistoricSurrenderofSantiagotoGeneralShafterJuly171898|0.08|Cluster 3|Frank Norris|Mary Esther Miller MacGregor|corpora/multiauthor/corpus_60_filtered/26026.epub
5|6346aa|StoriesofSiegfriedToldtotheChildren|0.8|Cluster 3|Mary Esther Miller MacGregor|Mary Esther Miller MacGregor|corpora/multiauthor/corpus_60_filtered/26181.epub
6|6346aa|ADaywithWilliamShakespeare|0.65|Cluster 3|May Byron|Mary Esther Miller MacGregor|corpora/multiauthor/corpus_60_filtered/40441.epub
7|6346aa|CubeRootofConquest|0.7|Cluster 3|Rog Phillips|Mary Esther Miller MacGregor|corpora/multiauthor/corpus_60_filtered/32712.epub
8|6346aa|PeterParleysVisittoLondonDuringtheCoronationofQueenVictoria|0.93|Cluster 3|Samuel G. Goodrich|Mary Esther Miller MacGregor|corpora/multiauthor/corpus_60_filtered/43995.epub
0|6346aa|IntheGarden|100.0|Cluster 4|R. A. Lafferty|R. A. Lafferty|corpora/multiauthor/corpus_60_filtered/61007.epub
1|6346aa|Aloys|0.95|Cluster 4|R. A. Lafferty|R. A. Lafferty|corpora/multiauthor/corpus_60_filtered/51596.epub
2|6346aa|ThePolitePeopleofPudibundia|0.83|Cluster 4|R. A. Lafferty|R. A. Lafferty|corpora/multiauthor/corpus_60_filtered/60955.epub
3|6346aa|SodomandGomorrahTexas|0.5|Cluster 4|R. A. Lafferty|R. A. Lafferty|corpora/multiauthor/corpus_60_filtered/23161.epub
4|6346aa|AllthePeople|0.43|Cluster 4|R. A. Lafferty|R. A. Lafferty|corpora/multiauthor/corpus_60_filtered/51603.epub
5|6346aa|TheUnthinkingDestroyer|0.13|Cluster 4|Rog Phillips|R. A. Lafferty|corpora/multiauthor/corpus_60_filtered/30683.epub
6|6346aa|SevenDayTerror|0.51|Cluster 4|R. A. Lafferty|R. A. Lafferty|corpora/multiauthor/corpus_60_filtered/61128.epub
7|6346aa|TheWeirdestWorld|0.21|Cluster 4|R. A. Lafferty|R. A. Lafferty|corpora/multiauthor/corpus_60_filtered/51774.epub
8|6346aa|FirthsWorld|0.01|Cluster 4|Irving E. Cox|R. A. Lafferty|corpora/multiauthor/corpus_60_filtered/59252.epub
9|6346aa|McGonigalsWorm|0.97|Cluster 4|R. A. Lafferty|R. A. Lafferty|corpora/multiauthor/corpus_60_filtered/60940.epub
0|6346aa|LAllegroIlPenserosoComusandLycidas|100.0|Cluster 5|John Milton|John Milton|corpora/multiauthor/corpus_60_filtered/397.epub
1|6346aa|TheFifthQueenCrowned|0.12|Cluster 5|Ford Madox Ford|John Milton|corpora/multiauthor/corpus_60_filtered/27432.epub
2|6346aa|MiltonsComus|0.47|Cluster 5|John Milton|John Milton|corpora/multiauthor/corpus_60_filtered/19819.epub
3|6346aa|DalzielsIllustratedGoldsmith|0.22|Cluster 5|Oliver Goldsmith|John Milton|corpora/multiauthor/corpus_60_filtered/49325.epub
4|6346aa|TheYoungLovellARomance|0.1|Cluster 5|Ford Madox Ford|John Milton|corpora/multiauthor/corpus_60_filtered/42801.epub
5|6346aa|ThePoemsofOliverGoldsmith|0.92|Cluster 5|Oliver Goldsmith|John Milton|corpora/multiauthor/corpus_60_filtered/49723.epub
6|6346aa|PoemataLatinGreekandItalianPoemsbyJohnMilton|0.96|Cluster 5|John Milton|John Milton|corpora/multiauthor/corpus_60_filtered/6929.epub
7|6346aa|UtherandIgraine|0.93|Cluster 5|Warwick Deeping|John Milton|corpora/multiauthor/corpus_60_filtered/52139.epub
8|6346aa|MiltonMinorPoems|0.9|Cluster 5|John Milton|John Milton|corpora/multiauthor/corpus_60_filtered/31706.epub
9|6346aa|TalesfromShakespeare|0.23|Cluster 5|Charles Lamb|John Milton|corpora/multiauthor/corpus_60_filtered/1286.epub
10|6346aa|TheWorksofCharlesandMaryLamb—Volume4PoemsandPlays|0.83|Cluster 5|Charles Lamb|John Milton|corpora/multiauthor/corpus_60_filtered/11576.epub
11|6346aa|StoriesfromtheBalladsToldtotheChildren|0.87|Cluster 5|Mary Esther Miller MacGregor|John Milton|corpora/multiauthor/corpus_60_filtered/22175.epub
12|6346aa|ParadiseLost|0.28|Cluster 5|John Milton|John Milton|corpora/multiauthor/corpus_60_filtered/20.epub
13|6346aa|PoemsYouOughttoKnow|0.63|Cluster 5|Elia Wilkinson Peattie|John Milton|corpora/multiauthor/corpus_60_filtered/53415.epub
14|6346aa|ADaywithKeats|0.7|Cluster 5|May Byron|John Milton|corpora/multiauthor/corpus_60_filtered/30451.epub
15|6346aa|TheSevenStreams|0.54|Cluster 5|Warwick Deeping|John Milton|corpora/multiauthor/corpus_60_filtered/59096.epub
16|6346aa|TheCompletePoeticalWorksofOliverGoldsmith|0.53|Cluster 5|Oliver Goldsmith|John Milton|corpora/multiauthor/corpus_60_filtered/3545.epub
17|6346aa|LoveAmongtheRuins|0.55|Cluster 5|Warwick Deeping|John Milton|corpora/multiauthor/corpus_60_filtered/42284.epub
18|6346aa|PrivySealHisLastVenture|0.91|Cluster 5|Ford Madox Ford|John Milton|corpora/multiauthor/corpus_60_filtered/26698.epub
19|6346aa|TheFifthQueenAndHowSheCametoCourt|0.23|Cluster 5|Ford Madox Ford|John Milton|corpora/multiauthor/corpus_60_filtered/30188.epub
20|6346aa|TheMotleyMuseRhymesfortheTimes|0.49|Cluster 5|Harry Graham|John Milton|corpora/multiauthor/corpus_60_filtered/36543.epub
21|6346aa|ParadiseRegained|0.36|Cluster 5|John Milton|John Milton|corpora/multiauthor/corpus_60_filtered/58.epub
22|6346aa|TheWorksofCharlesandMaryLamb—Volume3BooksforChildren|0.88|Cluster 5|Charles Lamb|John Milton|corpora/multiauthor/corpus_60_filtered/10130.epub
23|6346aa|"ChristianGellertsLastChristmasFrom""GermanTales""PublishedbytheAmericanPublishersCorporation"|0.67|Cluster 5|Berthold Auerbach|John Milton|corpora/multiauthor/corpus_60_filtered/22665.epub
24|6346aa|ADaywithSamuelTaylorColeridge|0.21|Cluster 5|May Byron|John Milton|corpora/multiauthor/corpus_60_filtered/36337.epub
25|6346aa|ThePoeticalWorksofJohnMilton|0.24|Cluster 5|John Milton|John Milton|corpora/multiauthor/corpus_60_filtered/1745.epub
26|6346aa|AnIntroductiontotheProseandPoeticalWorksofJohnMiltonComprisingAlltheAutobiographicPassagesinHisWorkstheMoreExplicitPresentationsofHisIdeasofTrueLiberty|0.7|Cluster 5|John Milton|John Milton|corpora/multiauthor/corpus_60_filtered/44733.epub
27|6346aa|TheTwoTwilights|0.27|Cluster 5|Henry A. Beers|John Milton|corpora/multiauthor/corpus_60_filtered/34741.epub
28|6346aa|AGentlemanPlayerHisAdventuresonaSecretMissionforQueenElizabeth|0.47|Cluster 5|Robert Neilson Stephens|John Milton|corpora/multiauthor/corpus_60_filtered/34650.epub
29|6346aa|ADaywithRobertLouisStevenson|0.68|Cluster 5|May Byron|John Milton|corpora/multiauthor/corpus_60_filtered/53165.epub
30|6346aa|TheOntarioReadersTheHighSchoolReader1886|0.57|Cluster 5|Ontario. Department of Education|John Milton|corpora/multiauthor/corpus_60_filtered/19923.epub
31|6346aa|TheAntislaveryHarpACollectionofSongsforAntislaveryMeetings|0.6|Cluster 5|William Wells Brown|John Milton|corpora/multiauthor/corpus_60_filtered/58414.epub
0|6346aa|OntarioTeachersManualsHouseholdScienceinRuralSchools|100.0|Cluster 6|Ontario. Department of Education|Ontario. Department of Education|corpora/multiauthor/corpus_60_filtered/20557.epub
1|6346aa|OntarioTeachersManualsHouseholdManagement|0.72|Cluster 6|Ontario. Department of Education|Ontario. Department of Education|corpora/multiauthor/corpus_60_filtered/24656.epub
2|6346aa|HowtoUsethePopularScienceLibraryHistoryofScienceGeneralIndex|0.37|Cluster 6|Arthur Selwyn-Brown|Ontario. Department of Education|corpora/multiauthor/corpus_60_filtered/51133.epub
3|6346aa|TheHistoryofCubavol5|0.19|Cluster 6|Willis Fletcher Johnson|Ontario. Department of Education|corpora/multiauthor/corpus_60_filtered/41267.epub
4|6346aa|OntarioTeachersManualsHistory|0.52|Cluster 6|Ontario. Department of Education|Ontario. Department of Education|corpora/multiauthor/corpus_60_filtered/17268.epub
5|6346aa|OntarioTeachersManualsNatureStudy|0.71|Cluster 6|Ontario. Department of Education|Ontario. Department of Education|corpora/multiauthor/corpus_60_filtered/26139.epub
0|6346aa|IndexoftheProjectGutenbergWorksofCharlesAEastman|100.0|Cluster 7|Charles A. Eastman|Oliver Goldsmith|corpora/multiauthor/corpus_60_filtered/57696.epub
1|6346aa|AnElegyontheDeathofaMadDog|0.27|Cluster 7|Oliver Goldsmith|Oliver Goldsmith|corpora/multiauthor/corpus_60_filtered/17102.epub
2|6346aa|IndexoftheProjectGutenbergWorksofOliverGoldsmith|0.29|Cluster 7|Oliver Goldsmith|Oliver Goldsmith|corpora/multiauthor/corpus_60_filtered/58029.epub
3|6346aa|ChipsfromaGermanWorkshopVolume4EssaysChieflyontheScienceofLanguage|0.92|Cluster 7|F. Max Müller|Oliver Goldsmith|corpora/multiauthor/corpus_60_filtered/30192.epub
4|6346aa|TheSevenGreatMonarchiesoftheAncientAsianWorldALinkedIndextotheProjectGutenbergEditions|0.73|Cluster 7|George Rawlinson|Oliver Goldsmith|corpora/multiauthor/corpus_60_filtered/28871.epub
5|6346aa|"WorksofGeorgeWPeckALinkedIndextotheProjectGutenbergEditionsofthe""BadBoy""SeriesandOthers"|0.58|Cluster 7|George W. Peck|Oliver Goldsmith|corpora/multiauthor/corpus_60_filtered/28970.epub
6|6346aa|IndexoftheProjectGutenbergWorksofImmanuelKant|0.58|Cluster 7|Immanuel Kant|Oliver Goldsmith|corpora/multiauthor/corpus_60_filtered/59023.epub
7|6346aa|IndexforWorksofNeilMunroHyperlinkstoallChaptersofallIndividualEbooks|0.4|Cluster 7|Neil Munro|Oliver Goldsmith|corpora/multiauthor/corpus_60_filtered/57542.epub
8|6346aa|IndexoftheProjectGutenbergWorksofThomasWentworthHigginson|0.84|Cluster 7|Thomas Wentworth Higginson|Oliver Goldsmith|corpora/multiauthor/corpus_60_filtered/59301.epub
9|6346aa|IndexoftheProjectGutenbergWorksofBramStoker|0.39|Cluster 7|Bram Stoker|Oliver Goldsmith|corpora/multiauthor/corpus_60_filtered/59671.epub
10|6346aa|AnElegyontheGloryofHerSexMrsMaryBlaize|0.64|Cluster 7|Oliver Goldsmith|Oliver Goldsmith|corpora/multiauthor/corpus_60_filtered/17117.epub
0|6346aa|MisrepresentativeMen|100.0|Cluster 8|Harry Graham|Harry Graham|corpora/multiauthor/corpus_60_filtered/36321.epub
1|6346aa|RuthlessRhymesforHeartlessHomes|0.42|Cluster 8|Harry Graham|Harry Graham|corpora/multiauthor/corpus_60_filtered/35051.epub
2|6346aa|TheStoryoftheSiren|0.09|Cluster 8|E. M. Forster|Harry Graham|corpora/multiauthor/corpus_60_filtered/58581.epub
3|6346aa|FamiliarFaces|0.34|Cluster 8|Harry Graham|Harry Graham|corpora/multiauthor/corpus_60_filtered/35059.epub
4|6346aa|MisrepresentativeWomen|0.26|Cluster 8|Harry Graham|Harry Graham|corpora/multiauthor/corpus_60_filtered/42407.epub
5|6346aa|PervertedProverbsAManualofImmoralsfortheMany|0.07|Cluster 8|Harry Graham|Harry Graham|corpora/multiauthor/corpus_60_filtered/34790.epub
6|6346aa|ADaywithLordByron|0.6|Cluster 8|May Byron|Harry Graham|corpora/multiauthor/corpus_60_filtered/32990.epub
7|6346aa|MoreMisrepresentativeMen|0.76|Cluster 8|Harry Graham|Harry Graham|corpora/multiauthor/corpus_60_filtered/36782.epub
0|6346aa|QuotesandImagesFromMemoirsofLouisXVandXVI|100.0|Cluster 9|Mme. Du Hausset|Mme. Du Hausset|corpora/multiauthor/corpus_60_filtered/7561.epub
1|6346aa|DreamWorld|0.51|Cluster 9|R. A. Lafferty|Mme. Du Hausset|corpora/multiauthor/corpus_60_filtered/51668.epub
0|6346aa|TheDesertedVillage|100.0|Cluster 10|Oliver Goldsmith|unknown_11|corpora/multiauthor/corpus_60_filtered/50500.epub
1|6346aa|Poems|0.78|Cluster 10|Samuel G. Goodrich|unknown_11|corpora/multiauthor/corpus_60_filtered/11558.epub
0|6346aa|FiscalBallads|100.0|Cluster 11|Harry Graham|unknown_12|corpora/multiauthor/corpus_60_filtered/36038.epub
0|6346aa|OftheInjusticeofCounterfeitingBooksFromEssaysandTreatiesonMoralPoliticalandvariousPhilosophicalSubjects|100.0|Cluster 12|Immanuel Kant|Immanuel Kant|corpora/multiauthor/corpus_60_filtered/46060.epub
0|6346aa|Pythias|100.0|Cluster 13|Frederik Pohl|Frederik Pohl|corpora/multiauthor/corpus_60_filtered/30399.epub
1|6346aa|TheHated|0.01|Cluster 13|Frederik Pohl|Frederik Pohl|corpora/multiauthor/corpus_60_filtered/29503.epub
0|6346aa|ErchieMyDrollFriend|100.0|Cluster 14|Neil Munro|Neil Munro|corpora/multiauthor/corpus_60_filtered/47991.epub
1|6346aa|TheLostPibrochandotherSheilingStories|0.05|Cluster 14|Neil Munro|Neil Munro|corpora/multiauthor/corpus_60_filtered/43729.epub
2|6346aa|PecksBadBoyandHisPa1883|0.32|Cluster 14|George W. Peck|Neil Munro|corpora/multiauthor/corpus_60_filtered/25487.epub
