threshold;Purity;MutualInformation;Accuracy;Clusters
0.6;0.5961538461538461;0.5942943522843531;0.5961538461538461;5
0.601010101010101;0.5961538461538461;0.5942943522843531;0.5961538461538461;5
0.602020202020202;0.5961538461538461;0.5942943522843531;0.5961538461538461;5
0.603030303030303;0.5961538461538461;0.5942943522843531;0.5961538461538461;5
0.604040404040404;0.6153846153846154;0.6818610888521411;0.6153846153846154;6
0.6050505050505051;0.6923076923076923;0.6781359604889211;0.6923076923076923;6
0.6060606060606061;0.7115384615384616;0.7084767821859053;0.7115384615384616;6
0.6070707070707071;0.7115384615384616;0.7084767821859053;0.7115384615384616;6
0.6080808080808081;0.7115384615384616;0.7084767821859053;0.7115384615384616;6
0.609090909090909;0.7307692307692307;0.7401330754031858;0.7307692307692307;6
0.61010101010101;0.7307692307692307;0.7401330754031858;0.7307692307692307;6
0.611111111111111;0.7307692307692307;0.7401330754031858;0.7307692307692307;6
0.6121212121212121;0.7307692307692307;0.7401330754031858;0.7307692307692307;6
0.6131313131313131;0.7307692307692307;0.7401330754031858;0.7307692307692307;6
0.6141414141414141;0.7307692307692307;0.7401330754031858;0.7307692307692307;6
0.6151515151515151;0.7307692307692307;0.7401330754031858;0.7307692307692307;6
0.6161616161616161;0.7307692307692307;0.7401330754031858;0.7307692307692307;6
0.6171717171717171;0.7307692307692307;0.7401330754031858;0.7307692307692307;6
0.6181818181818182;0.7692307692307693;0.7863266202723755;0.7692307692307693;7
0.6191919191919192;0.8461538461538461;0.8650060611257505;0.8461538461538461;7
0.6202020202020202;0.8461538461538461;0.8650060611257505;0.8461538461538461;7
0.6212121212121212;0.8461538461538461;0.8650060611257505;0.8461538461538461;7
0.6222222222222222;0.8461538461538461;0.8650060611257505;0.8461538461538461;7
0.6232323232323232;0.8461538461538461;0.8650060611257505;0.8461538461538461;7
0.6242424242424243;0.8461538461538461;0.8650060611257505;0.8461538461538461;7
0.6252525252525252;0.8461538461538461;0.8650060611257505;0.8461538461538461;7
0.6262626262626262;0.8461538461538461;0.8650060611257505;0.8461538461538461;7
0.6272727272727272;0.8461538461538461;0.8650060611257505;0.8461538461538461;7
0.6282828282828282;0.8461538461538461;0.8650060611257505;0.8461538461538461;7
0.6292929292929292;0.8653846153846154;0.8928013646485362;0.8653846153846154;7
0.6303030303030303;0.8653846153846154;0.8928013646485362;0.8653846153846154;7
0.6313131313131313;0.8653846153846154;0.8928013646485362;0.8653846153846154;7
0.6323232323232323;0.8653846153846154;0.8928013646485362;0.8653846153846154;7
0.6333333333333333;0.8653846153846154;0.8928013646485362;0.8653846153846154;7
0.6343434343434343;0.8653846153846154;0.8928013646485362;0.8653846153846154;7
0.6353535353535353;0.8653846153846154;0.8928013646485362;0.8653846153846154;7
0.6363636363636364;0.8653846153846154;0.8928013646485362;0.8653846153846154;7
0.6373737373737374;0.8846153846153846;0.8885149731520571;0.8846153846153846;8
0.6383838383838384;0.8653846153846154;0.8721702779559042;0.8461538461538461;8
0.6393939393939394;0.8653846153846154;0.8721702779559042;0.8461538461538461;8
0.6404040404040404;0.8653846153846154;0.8721702779559042;0.8461538461538461;8
0.6414141414141414;0.8653846153846154;0.8721702779559042;0.8461538461538461;8
0.6424242424242423;0.8653846153846154;0.8721702779559042;0.8461538461538461;8
0.6434343434343434;0.8653846153846154;0.8721702779559042;0.8461538461538461;8
0.6444444444444444;0.8653846153846154;0.8721702779559042;0.8461538461538461;8
0.6454545454545454;0.8653846153846154;0.8721702779559042;0.8461538461538461;8
0.6464646464646464;0.8846153846153846;0.8872688710488248;0.8461538461538461;9
0.6474747474747474;0.8846153846153846;0.8872688710488248;0.8461538461538461;9
0.6484848484848484;0.8846153846153846;0.8872688710488248;0.8461538461538461;9
0.6494949494949495;0.8846153846153846;0.8872688710488248;0.8461538461538461;9
0.6505050505050505;0.9230769230769231;0.9446845662778379;0.9038461538461539;8
0.6515151515151515;0.9230769230769231;0.9446845662778379;0.9038461538461539;8
0.6525252525252525;0.9230769230769231;0.9446845662778379;0.9038461538461539;8
0.6535353535353535;0.9230769230769231;0.9446845662778379;0.9038461538461539;8
0.6545454545454545;0.9230769230769231;0.9446845662778379;0.9038461538461539;8
0.6555555555555556;0.9230769230769231;0.9446845662778379;0.9038461538461539;8
0.6565656565656566;0.9230769230769231;0.9335762181106799;0.8846153846153846;9
0.6575757575757576;0.9230769230769231;0.9335762181106799;0.8846153846153846;9
0.6585858585858586;0.9230769230769231;0.9335762181106799;0.8846153846153846;9
0.6595959595959595;0.9230769230769231;0.9335762181106799;0.8846153846153846;9
0.6606060606060605;0.9230769230769231;0.9029774825470811;0.8076923076923077;10
0.6616161616161615;0.9230769230769231;0.9029774825470811;0.8076923076923077;10
0.6626262626262626;0.9230769230769231;0.9029774825470811;0.8076923076923077;10
0.6636363636363636;0.9230769230769231;0.9029774825470811;0.8076923076923077;10
0.6646464646464646;0.9230769230769231;0.9029774825470811;0.8076923076923077;10
0.6656565656565656;0.9230769230769231;0.9029774825470811;0.8076923076923077;10
0.6666666666666666;0.9230769230769231;0.9029774825470811;0.8076923076923077;10
0.6676767676767676;0.9230769230769231;0.9029774825470811;0.8076923076923077;10
0.6686868686868687;0.9807692307692307;0.9224500072375004;0.8653846153846154;11
0.6696969696969697;0.9807692307692307;0.9224500072375004;0.8653846153846154;11
0.6707070707070707;0.9807692307692307;0.9224500072375004;0.8653846153846154;11
0.6717171717171717;0.9807692307692307;0.9224500072375004;0.8653846153846154;11
0.6727272727272727;0.9807692307692307;0.9224500072375004;0.8653846153846154;11
0.6737373737373737;0.9807692307692307;0.9224500072375004;0.8653846153846154;11
0.6747474747474747;0.9807692307692307;0.9224500072375004;0.8653846153846154;11
0.6757575757575758;0.9807692307692307;0.9224500072375004;0.8653846153846154;11
0.6767676767676767;0.9807692307692307;0.9224500072375004;0.8653846153846154;11
0.6777777777777777;0.9807692307692307;0.9224500072375004;0.8653846153846154;11
0.6787878787878787;0.9807692307692307;0.9224500072375004;0.8653846153846154;11
0.6797979797979797;0.9807692307692307;0.9224500072375004;0.8653846153846154;11
0.6808080808080808;0.9807692307692307;0.9224500072375004;0.8653846153846154;11
0.6818181818181818;0.9807692307692307;0.9224500072375004;0.8653846153846154;11
0.6828282828282828;0.9807692307692307;0.9224500072375004;0.8653846153846154;11
0.6838383838383838;0.9807692307692307;0.9224500072375004;0.8653846153846154;11
0.6848484848484848;0.9807692307692307;0.9224500072375004;0.8653846153846154;11
0.6858585858585858;0.9807692307692307;0.9224500072375004;0.8653846153846154;11
0.6868686868686869;0.9807692307692307;0.9224500072375004;0.8653846153846154;11
0.6878787878787879;0.9807692307692307;0.9224500072375004;0.8653846153846154;11
0.6888888888888889;0.9807692307692307;0.9224500072375004;0.8653846153846154;11
0.6898989898989899;0.9807692307692307;0.9224500072375004;0.8653846153846154;11
0.6909090909090909;0.9807692307692307;0.9224500072375004;0.8653846153846154;11
0.6919191919191918;0.9807692307692307;0.9224500072375004;0.8653846153846154;11
0.6929292929292928;0.9807692307692307;0.9107754959649492;0.8461538461538461;12
0.6939393939393939;0.9807692307692307;0.9107754959649492;0.8461538461538461;12
0.6949494949494949;0.9807692307692307;0.9107754959649492;0.8461538461538461;12
0.6959595959595959;0.9807692307692307;0.9031723948688453;0.8076923076923077;12
0.6969696969696969;0.9807692307692307;0.9031723948688453;0.8076923076923077;12
0.6979797979797979;1.0;0.9249730535688072;0.8269230769230769;12
0.6989898989898989;1.0;0.9249730535688072;0.8269230769230769;12
0.7;1.0;0.9249730535688072;0.8269230769230769;12
