idnum|extra|percent|title|clusterid|real_author|label|filename
5|||NorthandSouth|Cluster 5|Elizabeth Cleghorn Gaskell|Jane Austen|corpora/baseline/corpus4/pg4276.epub
5|||Emma|Cluster 5|Jane Austen|Jane Austen|corpora/baseline/corpus4/pg158.epub
5|||MaryBarton|Cluster 5|Elizabeth Cleghorn Gaskell|Jane Austen|corpora/baseline/corpus4/pg2153.epub
5|||Persuasion|Cluster 5|Jane Austen|Jane Austen|corpora/baseline/corpus4/pg105.epub
5|||SenseandSensibility|Cluster 5|Jane Austen|Jane Austen|corpora/baseline/corpus4/pg161.epub
5|||Ruth|Cluster 5|Elizabeth Cleghorn Gaskell|Jane Austen|corpora/baseline/corpus4/pg4275.epub
5|||PrideandPrejudice|Cluster 5|Jane Austen|Jane Austen|corpora/baseline/corpus4/pg42671.epub
5|||MansfieldPark|Cluster 5|Jane Austen|Jane Austen|corpora/baseline/corpus4/pg141.epub
5|||Cranford|Cluster 5|Elizabeth Cleghorn Gaskell|Jane Austen|corpora/baseline/corpus4/pg394.epub
5|||NorthangerAbbey|Cluster 5|Jane Austen|Jane Austen|corpora/baseline/corpus4/pg121.epub
2|||OliverTwist|Cluster 2|Charles Dickens|Charles Dickens|corpora/baseline/corpus4/pg730.epub
2|||NicholasNickleby|Cluster 2|Charles Dickens|Charles Dickens|corpora/baseline/corpus4/pg967.epub
2|||BarnabyRudgeATaleoftheRiotsofEighty|Cluster 2|Charles Dickens|Charles Dickens|corpora/baseline/corpus4/pg917.epub
2|||SylviasLovers—Complete|Cluster 2|Elizabeth Cleghorn Gaskell|Charles Dickens|corpora/baseline/corpus4/pg4537.epub
2|||DombeyandSon|Cluster 2|Charles Dickens|Charles Dickens|corpora/baseline/corpus4/pg821.epub
2|||ATaleofTwoCities|Cluster 2|Charles Dickens|Charles Dickens|corpora/baseline/corpus4/pg98.epub
2|||ThePickwickPapers|Cluster 2|Charles Dickens|Charles Dickens|corpora/baseline/corpus4/pg580.epub
0|||Smoke|Cluster 0|Ivan Sergeevich Turgenev|Ivan Sergeevich Turgenev|corpora/baseline/corpus4/pg40813.epub
0|||TheBrothersKaramazov|Cluster 0|Fyodor Dostoyevsky|Ivan Sergeevich Turgenev|corpora/baseline/corpus4/pg28054.epub
0|||FathersandChildren|Cluster 0|Ivan Sergeevich Turgenev|Ivan Sergeevich Turgenev|corpora/baseline/corpus4/pg30723.epub
0|||TheIdiot|Cluster 0|Fyodor Dostoyevsky|Ivan Sergeevich Turgenev|corpora/baseline/corpus4/pg2638.epub
0|||ThePossessedTheDevils|Cluster 0|Fyodor Dostoyevsky|Ivan Sergeevich Turgenev|corpora/baseline/corpus4/pg8117.epub
0|||RudinANovel|Cluster 0|Ivan Sergeevich Turgenev|Ivan Sergeevich Turgenev|corpora/baseline/corpus4/pg6900.epub
0|||OntheEveANovel|Cluster 0|Ivan Sergeevich Turgenev|Ivan Sergeevich Turgenev|corpora/baseline/corpus4/pg6902.epub
0|||AHouseofGentlefolk|Cluster 0|Ivan Sergeevich Turgenev|Ivan Sergeevich Turgenev|corpora/baseline/corpus4/pg5721.epub
3|||FelixHolttheRadical|Cluster 3|George Eliot|George Eliot|corpora/baseline/corpus4/pg40882.epub
3|||Middlemarch|Cluster 3|George Eliot|George Eliot|corpora/baseline/corpus4/pg145.epub
3|||TheMillontheFloss|Cluster 3|George Eliot|George Eliot|corpora/baseline/corpus4/pg6688.epub
3|||DanielDeronda|Cluster 3|George Eliot|George Eliot|corpora/baseline/corpus4/pg7469.epub
3|||AdamBede|Cluster 3|George Eliot|George Eliot|corpora/baseline/corpus4/pg507.epub
3|||SilasMarner|Cluster 3|George Eliot|George Eliot|corpora/baseline/corpus4/pg550.epub
3|||Romola|Cluster 3|George Eliot|George Eliot|corpora/baseline/corpus4/pg24020.epub
1|||CrimeandPunishment|Cluster 1|Fyodor Dostoyevsky|J.K. Rowling|corpora/baseline/corpus4/pg2554.epub
1|||HarryPotterandtheOrderofthePhoenix|Cluster 1|J.K. Rowling|J.K. Rowling|corpora/baseline/corpus4/Harry Potter and the Order of the Phoenix - J.K. Rowling.epub
1|||HarryPotterandtheDeathlyHallows|Cluster 1|J.K. Rowling|J.K. Rowling|corpora/baseline/corpus4/Harry Potter and the Deathly Hallows - J.K. Rowling.epub
1|||VirginSoil|Cluster 1|Ivan Sergeevich Turgenev|J.K. Rowling|corpora/baseline/corpus4/pg2466.epub
1|||HarryPotterandthePrisonerofAzkaban|Cluster 1|J.K. Rowling|J.K. Rowling|corpora/baseline/corpus4/Harry Potter and the Prisoner of Azkaban - J.K. Rowling.epub
1|||HarryPotterandtheGobletofFire|Cluster 1|J.K. Rowling|J.K. Rowling|corpora/baseline/corpus4/Harry Potter and the Goblet of Fire - J.K. Rowling.epub
1|||HarryPotterandtheChamberofSecrets|Cluster 1|J.K. Rowling|J.K. Rowling|corpora/baseline/corpus4/Harry Potter and the Chamber of Secrets - J.K. Rowling.epub
1|||HarryPotterandthePhilosophersStone|Cluster 1|J.K. Rowling|J.K. Rowling|corpora/baseline/corpus4/Harry Potter and the Philosopher's Stone - J.K. Rowling.epub
1|||HarryPotterandtheHalfBloodPrince|Cluster 1|J.K. Rowling|J.K. Rowling|corpora/baseline/corpus4/Harry Potter and the Half-Blood Prince - J.K. Rowling.epub
4|||TheHistoryofPendennis|Cluster 4|William Makepeace Thackeray|William Makepeace Thackeray|corpora/baseline/corpus4/pg7265.epub
4|||TheNewcomesMemoirsofaMostRespectableFamily|Cluster 4|William Makepeace Thackeray|William Makepeace Thackeray|corpora/baseline/corpus4/pg7467.epub
4|||TheHistoryofHenryEsmondEsqaColonelintheServiceofHerMajestyQueenAnne|Cluster 4|William Makepeace Thackeray|William Makepeace Thackeray|corpora/baseline/corpus4/pg2511.epub
4|||CatherineAStory|Cluster 4|William Makepeace Thackeray|William Makepeace Thackeray|corpora/baseline/corpus4/pg1969.epub
4|||TheVirginians|Cluster 4|William Makepeace Thackeray|William Makepeace Thackeray|corpora/baseline/corpus4/pg8123.epub
4|||VanityFair|Cluster 4|William Makepeace Thackeray|William Makepeace Thackeray|corpora/baseline/corpus4/pg599.epub
6|||LittleDorrit|Cluster 6|Charles Dickens|unknown_7|corpora/baseline/corpus4/pg963.epub
6|||OurMutualFriend|Cluster 6|Charles Dickens|unknown_7|corpora/baseline/corpus4/pg883.epub
6|||HardTimes|Cluster 6|Charles Dickens|unknown_7|corpora/baseline/corpus4/pg786.epub
6|||MartinChuzzlewit|Cluster 6|Charles Dickens|unknown_7|corpora/baseline/corpus4/pg968.epub
6|||TheMysteryofEdwinDrood|Cluster 6|Charles Dickens|unknown_7|corpora/baseline/corpus4/pg564.epub
