Title,Author,Year published,References
Robinson Crusoe,Daniel Defoe,1719,[1][3][12]
Gulliver's Travels,Jonathan Swift,1726,[1][13]
Tales of Mother Goose,Charles Perrault,1729 (English),[3][2][14]
Little Pretty Pocket-book,John Newbery,1744,[15]
Little Goody Two Shoes,Oliver Goldsmith,1765,[16]
Lessons for Children,Anna Laetitia Barbauld,1778-9,The first series of age-adapted reading primers for children printed with large text and wide margins; in print for over a century.[17]
The History of Sandford and Merton,Thomas Day,1783-9,"A bestseller for over a century, it embodied Rousseau's educational ideals.[18]"
