idnum|extra|percent|title|clusterid|real_author|label|filename
5|||Romola|Cluster 5|George Eliot|George Eliot|corpora/baseline/corpus1/pg24020.epub
5|||SilasMarner|Cluster 5|George Eliot|George Eliot|corpora/baseline/corpus1/pg550.epub
5|||AdamBede|Cluster 5|George Eliot|George Eliot|corpora/baseline/corpus1/pg507.epub
5|||Middlemarch|Cluster 5|George Eliot|George Eliot|corpora/baseline/corpus1/pg145.epub
5|||DanielDeronda|Cluster 5|George Eliot|George Eliot|corpora/baseline/corpus1/pg7469.epub
5|||TheMillontheFloss|Cluster 5|George Eliot|George Eliot|corpora/baseline/corpus1/pg6688.epub
5|||FelixHolttheRadical|Cluster 5|George Eliot|George Eliot|corpora/baseline/corpus1/pg40882.epub
2|||LittleDorrit|Cluster 2|Charles Dickens|unknown_2|corpora/baseline/corpus1/pg963.epub
2|||TheMysteryofEdwinDrood|Cluster 2|Charles Dickens|unknown_2|corpora/baseline/corpus1/pg564.epub
2|||HardTimes|Cluster 2|Charles Dickens|unknown_2|corpora/baseline/corpus1/pg786.epub
2|||MartinChuzzlewit|Cluster 2|Charles Dickens|unknown_2|corpora/baseline/corpus1/pg968.epub
2|||OurMutualFriend|Cluster 2|Charles Dickens|unknown_2|corpora/baseline/corpus1/pg883.epub
0|||TheNewcomesMemoirsofaMostRespectableFamily|Cluster 0|William Makepeace Thackeray|William Makepeace Thackeray|corpora/baseline/corpus1/pg7467.epub
0|||TheVirginians|Cluster 0|William Makepeace Thackeray|William Makepeace Thackeray|corpora/baseline/corpus1/pg8123.epub
0|||VanityFair|Cluster 0|William Makepeace Thackeray|William Makepeace Thackeray|corpora/baseline/corpus1/pg599.epub
0|||TheHistoryofPendennis|Cluster 0|William Makepeace Thackeray|William Makepeace Thackeray|corpora/baseline/corpus1/pg7265.epub
0|||CatherineAStory|Cluster 0|William Makepeace Thackeray|William Makepeace Thackeray|corpora/baseline/corpus1/pg1969.epub
0|||TheHistoryofHenryEsmondEsqaColonelintheServiceofHerMajestyQueenAnne|Cluster 0|William Makepeace Thackeray|William Makepeace Thackeray|corpora/baseline/corpus1/pg2511.epub
3|||MansfieldPark|Cluster 3|Jane Austen|Jane Austen|corpora/baseline/corpus1/pg141.epub
3|||NorthangerAbbey|Cluster 3|Jane Austen|Jane Austen|corpora/baseline/corpus1/pg121.epub
3|||SenseandSensibility|Cluster 3|Jane Austen|Jane Austen|corpora/baseline/corpus1/pg161.epub
3|||PrideandPrejudice|Cluster 3|Jane Austen|Jane Austen|corpora/baseline/corpus1/pg42671.epub
3|||Emma|Cluster 3|Jane Austen|Jane Austen|corpora/baseline/corpus1/pg158.epub
3|||Persuasion|Cluster 3|Jane Austen|Jane Austen|corpora/baseline/corpus1/pg105.epub
1|||Ruth|Cluster 1|Elizabeth Cleghorn Gaskell|Elizabeth Cleghorn Gaskell|corpora/baseline/corpus1/pg4275.epub
1|||Cranford|Cluster 1|Elizabeth Cleghorn Gaskell|Elizabeth Cleghorn Gaskell|corpora/baseline/corpus1/pg394.epub
1|||SylviasLovers—Complete|Cluster 1|Elizabeth Cleghorn Gaskell|Elizabeth Cleghorn Gaskell|corpora/baseline/corpus1/pg4537.epub
1|||NorthandSouth|Cluster 1|Elizabeth Cleghorn Gaskell|Elizabeth Cleghorn Gaskell|corpora/baseline/corpus1/pg4276.epub
1|||MaryBarton|Cluster 1|Elizabeth Cleghorn Gaskell|Elizabeth Cleghorn Gaskell|corpora/baseline/corpus1/pg2153.epub
4|||ThePickwickPapers|Cluster 4|Charles Dickens|Charles Dickens|corpora/baseline/corpus1/pg580.epub
4|||NicholasNickleby|Cluster 4|Charles Dickens|Charles Dickens|corpora/baseline/corpus1/pg967.epub
4|||ATaleofTwoCities|Cluster 4|Charles Dickens|Charles Dickens|corpora/baseline/corpus1/pg98.epub
4|||DombeyandSon|Cluster 4|Charles Dickens|Charles Dickens|corpora/baseline/corpus1/pg821.epub
4|||BarnabyRudgeATaleoftheRiotsofEighty|Cluster 4|Charles Dickens|Charles Dickens|corpora/baseline/corpus1/pg917.epub
4|||OliverTwist|Cluster 4|Charles Dickens|Charles Dickens|corpora/baseline/corpus1/pg730.epub
