idnum|extra|percent|title|clusterid|real_author|label|filename
81|||WolfBreed|Cluster 81|Jackson Gregory|Jackson Gregory|corpora/multiauthor/corpus_70_filtered/18964.epub
81|||TheBellsofSanJuan|Cluster 81|Jackson Gregory|Jackson Gregory|corpora/multiauthor/corpus_70_filtered/15438.epub
81|||DaughteroftheSunATaleofAdventure|Cluster 81|Jackson Gregory|Jackson Gregory|corpora/multiauthor/corpus_70_filtered/18916.epub
81|||TheDesertValley|Cluster 81|Jackson Gregory|Jackson Gregory|corpora/multiauthor/corpus_70_filtered/15502.epub
81|||TheEverlastingWhisper|Cluster 81|Jackson Gregory|Jackson Gregory|corpora/multiauthor/corpus_70_filtered/10213.epub
81|||JudithofBlueLakeRanch|Cluster 81|Jackson Gregory|Jackson Gregory|corpora/multiauthor/corpus_70_filtered/18926.epub
5|||TheWorksofCharlesandMaryLamb—Volume2EliaandTheLastEssaysofElia|Cluster 5|Charles Lamb|unknown_2|corpora/multiauthor/corpus_70_filtered/10343.epub
5|||TheWorksofCharlesandMaryLamb—Volume1MiscellaneousProse|Cluster 5|Charles Lamb|unknown_2|corpora/multiauthor/corpus_70_filtered/40988.epub
5|||SketchesinCanadaandramblesamongtheredmen|Cluster 5|Mrs. Jameson|unknown_2|corpora/multiauthor/corpus_70_filtered/35224.epub
5|||VisitsandSketchesatHomeandAbroadVol1of3WithTalesandMiscellaniesNowFirstCollected|Cluster 5|Mrs. Jameson|unknown_2|corpora/multiauthor/corpus_70_filtered/36818.epub
5|||TheOntarioReadersTheHighSchoolReader1886|Cluster 5|Ontario. Department of Education|unknown_2|corpora/multiauthor/corpus_70_filtered/19923.epub
27|||SunshineJane|Cluster 27|Anne Warner|Eleanor Hallowell Abbott|corpora/multiauthor/corpus_70_filtered/37972.epub
27|||SusanCleggandaManintheHouse|Cluster 27|Anne Warner|Eleanor Hallowell Abbott|corpora/multiauthor/corpus_70_filtered/22872.epub
27|||SusanCleggandHerNeighborsAffairs|Cluster 27|Anne Warner|Eleanor Hallowell Abbott|corpora/multiauthor/corpus_70_filtered/18987.epub
27|||RainyWeek|Cluster 27|Eleanor Hallowell Abbott|Eleanor Hallowell Abbott|corpora/multiauthor/corpus_70_filtered/43025.epub
27|||SusanCleggandHerFriendMrsLathrop|Cluster 27|Anne Warner|Eleanor Hallowell Abbott|corpora/multiauthor/corpus_70_filtered/15899.epub
27|||PeaceonEarthGoodwilltoDogs|Cluster 27|Eleanor Hallowell Abbott|Eleanor Hallowell Abbott|corpora/multiauthor/corpus_70_filtered/20213.epub
27|||TheStarbucks|Cluster 27|Opie Percival Read|Eleanor Hallowell Abbott|corpora/multiauthor/corpus_70_filtered/18984.epub
27|||MollyMakeBelieve|Cluster 27|Eleanor Hallowell Abbott|Eleanor Hallowell Abbott|corpora/multiauthor/corpus_70_filtered/18665.epub
27|||TheWhiteLinenNurse|Cluster 27|Eleanor Hallowell Abbott|Eleanor Hallowell Abbott|corpora/multiauthor/corpus_70_filtered/14506.epub
27|||OldDad|Cluster 27|Eleanor Hallowell Abbott|Eleanor Hallowell Abbott|corpora/multiauthor/corpus_70_filtered/48990.epub
84|||TheWorksofCharlesandMaryLamb—Volume5TheLettersofCharlesandMaryLamb17961820|Cluster 84|Charles Lamb|Charles Lamb|corpora/multiauthor/corpus_70_filtered/9365.epub
84|||TheWorksofCharlesandMaryLamb—Volume6Letters18211842|Cluster 84|Charles Lamb|Charles Lamb|corpora/multiauthor/corpus_70_filtered/10851.epub
84|||TheWorksofCharlesandMaryLamb—Volume3BooksforChildren|Cluster 84|Charles Lamb|Charles Lamb|corpora/multiauthor/corpus_70_filtered/10130.epub
90|||TheSilesianHorseherdQuestionsoftheHour|Cluster 90|F. Max Müller|F. Max Müller|corpora/multiauthor/corpus_70_filtered/24315.epub
90|||LecturesontheScienceofLanguage|Cluster 90|F. Max Müller|F. Max Müller|corpora/multiauthor/corpus_70_filtered/32856.epub
90|||TheHistoricalJesusASurveyofPositions|Cluster 90|J. M. Robertson|F. Max Müller|corpora/multiauthor/corpus_70_filtered/51655.epub
90|||TheSympathyofReligions|Cluster 90|Thomas Wentworth Higginson|F. Max Müller|corpora/multiauthor/corpus_70_filtered/25792.epub
90|||MontaigneandShakspere|Cluster 90|J. M. Robertson|F. Max Müller|corpora/multiauthor/corpus_70_filtered/25535.epub
90|||AnEssayonSlaveryandAbolitionismWithreferencetothedutyofAmericanfemales|Cluster 90|Catharine Esther Beecher|F. Max Müller|corpora/multiauthor/corpus_70_filtered/26123.epub
90|||LiteraryandPhilosophicalEssaysFrenchGermanandItalian|Cluster 90|Immanuel Kant|F. Max Müller|corpora/multiauthor/corpus_70_filtered/5637.epub
70|||TheTwoTwilights|Cluster 70|Henry A. Beers|unknown_6|corpora/multiauthor/corpus_70_filtered/34741.epub
70|||AMichiganMan1891|Cluster 70|Elia Wilkinson Peattie|unknown_6|corpora/multiauthor/corpus_70_filtered/23176.epub
70|||RuthlessRhymesforHeartlessHomes|Cluster 70|Harry Graham|unknown_6|corpora/multiauthor/corpus_70_filtered/35051.epub
70|||OMayIJointheChoirInvisible!andOtherFavoritePoems|Cluster 70|Elizabeth Barrett Browning|unknown_6|corpora/multiauthor/corpus_70_filtered/20742.epub
108|||Unthinkable|Cluster 108|Rog Phillips|unknown_7|corpora/multiauthor/corpus_70_filtered/27491.epub
108|||TheInstantofNow|Cluster 108|Irving E. Cox|unknown_7|corpora/multiauthor/corpus_70_filtered/31651.epub
108|||TheAlmostMen|Cluster 108|Irving E. Cox|unknown_7|corpora/multiauthor/corpus_70_filtered/59356.epub
108|||RatintheSkull|Cluster 108|Rog Phillips|unknown_7|corpora/multiauthor/corpus_70_filtered/60614.epub
108|||TheUndetected|Cluster 108|George O. Smith|unknown_7|corpora/multiauthor/corpus_70_filtered/51810.epub
109|||ADaughterofToDay|Cluster 109|Sara Jeannette Duncan|unknown_8|corpora/multiauthor/corpus_70_filtered/14490.epub
109|||TheColossusANovel|Cluster 109|Opie Percival Read|unknown_8|corpora/multiauthor/corpus_70_filtered/15073.epub
109|||TheGirlfromtheMarshCroft|Cluster 109|Selma Lagerlöf|unknown_8|corpora/multiauthor/corpus_70_filtered/41414.epub
109|||ThePlaceBeyondtheWinds|Cluster 109|Harriet T. Comstock|unknown_8|corpora/multiauthor/corpus_70_filtered/18488.epub
16|||StormBoundorAVacationAmongtheSnowDrifts|Cluster 16|Captain Alan Douglas|Captain Alan Douglas|corpora/multiauthor/corpus_70_filtered/38314.epub
16|||BoyScoutsTenderfootSquadorCampingatRaccoonLodge|Cluster 16|Captain Alan Douglas|Captain Alan Douglas|corpora/multiauthor/corpus_70_filtered/38300.epub
16|||CampFiresoftheWolfPatrol|Cluster 16|Captain Alan Douglas|Captain Alan Douglas|corpora/multiauthor/corpus_70_filtered/36838.epub
16|||AfloatorAdventuresonWateryTrails|Cluster 16|Captain Alan Douglas|Captain Alan Douglas|corpora/multiauthor/corpus_70_filtered/20499.epub
16|||UnderCanvasorTheHuntfortheCartaretGhost|Cluster 16|Captain Alan Douglas|Captain Alan Douglas|corpora/multiauthor/corpus_70_filtered/38299.epub
94|||BeaufortChums|Cluster 94|Edwin L. Sabin|Edwin L. Sabin|corpora/multiauthor/corpus_70_filtered/54887.epub
94|||CaptainScraggsOrTheGreenPeaPirates|Cluster 94|Peter B. Kyne|Edwin L. Sabin|corpora/multiauthor/corpus_70_filtered/18469.epub
94|||Wolfbane|Cluster 94|C. M. Kornbluth|Edwin L. Sabin|corpora/multiauthor/corpus_70_filtered/51845.epub
94|||GoldSeekersof49|Cluster 94|Edwin L. Sabin|Edwin L. Sabin|corpora/multiauthor/corpus_70_filtered/23192.epub
94|||TheCartelsJungle|Cluster 94|Irving E. Cox|Edwin L. Sabin|corpora/multiauthor/corpus_70_filtered/31062.epub
94|||OperationInterstellar|Cluster 94|George O. Smith|Edwin L. Sabin|corpora/multiauthor/corpus_70_filtered/50406.epub
106|||PrivySealHisLastVenture|Cluster 106|Ford Madox Ford|unknown_11|corpora/multiauthor/corpus_70_filtered/26698.epub
106|||BorisGodunovadramainverse|Cluster 106|Aleksandr Sergeevich Pushkin|unknown_11|corpora/multiauthor/corpus_70_filtered/5089.epub
106|||TheSevenStreams|Cluster 106|Warwick Deeping|unknown_11|corpora/multiauthor/corpus_70_filtered/59096.epub
106|||LoveAmongtheRuins|Cluster 106|Warwick Deeping|unknown_11|corpora/multiauthor/corpus_70_filtered/42284.epub
106|||StoriesfromtheBalladsToldtotheChildren|Cluster 106|Mary Esther Miller MacGregor|unknown_11|corpora/multiauthor/corpus_70_filtered/22175.epub
11|||FourAmericansRooseveltHawthorneEmersonWhitman|Cluster 11|Henry A. Beers|unknown_12|corpora/multiauthor/corpus_70_filtered/24435.epub
11|||SummerCruiseintheMediterraneanonboardanAmericanfrigate|Cluster 11|Nathaniel Parker Willis|unknown_12|corpora/multiauthor/corpus_70_filtered/48264.epub
11|||TheirYesterdays|Cluster 11|Harold Bell Wright|unknown_12|corpora/multiauthor/corpus_70_filtered/6105.epub
11|||TheHillofDreams|Cluster 11|Arthur Machen|unknown_12|corpora/multiauthor/corpus_70_filtered/13969.epub
11|||Hieroglyphics|Cluster 11|Arthur Machen|unknown_12|corpora/multiauthor/corpus_70_filtered/40241.epub
11|||HistoryoftheJohnstownFloodIncludingalltheFearfulRecordtheBreakingoftheSouthForkDamtheSweepingOutoftheConemaughValleytheOverThro|Cluster 11|Willis Fletcher Johnson|unknown_12|corpora/multiauthor/corpus_70_filtered/41271.epub
98|||AWomansWill|Cluster 98|Anne Warner|Kenneth Grahame|corpora/multiauthor/corpus_70_filtered/27225.epub
98|||DreamDays|Cluster 98|Kenneth Grahame|Kenneth Grahame|corpora/multiauthor/corpus_70_filtered/1288.epub
98|||TheGoldenAge|Cluster 98|Kenneth Grahame|Kenneth Grahame|corpora/multiauthor/corpus_70_filtered/53250.epub
98|||TheGoodSoldier|Cluster 98|Ford Madox Ford|Kenneth Grahame|corpora/multiauthor/corpus_70_filtered/2775.epub
98|||AnAmericanGirlinLondon|Cluster 98|Sara Jeannette Duncan|Kenneth Grahame|corpora/multiauthor/corpus_70_filtered/45925.epub
98|||MalboneAnOldportRomance|Cluster 98|Thomas Wentworth Higginson|Kenneth Grahame|corpora/multiauthor/corpus_70_filtered/993.epub
64|||MyAutobiographyAFragment|Cluster 64|F. Max Müller|unknown_14|corpora/multiauthor/corpus_70_filtered/30269.epub
64|||BywaysofGhostLand|Cluster 64|Elliott O'Donnell|unknown_14|corpora/multiauthor/corpus_70_filtered/30440.epub
64|||WomenandtheAlphabetASeriesofEssays|Cluster 64|Thomas Wentworth Higginson|unknown_14|corpora/multiauthor/corpus_70_filtered/13474.epub
64|||MemoirsoftheCourtsofLouisXVandXVI—Volume7BeingsecretmemoirsofMadameDuHaussetladysmaidtoMadamedePompadourandofthePrincessLamba|Cluster 64|Mme. Du Hausset|unknown_14|corpora/multiauthor/corpus_70_filtered/3882.epub
35|||PerpetualPeaceAPhilosophicalEssay|Cluster 35|Immanuel Kant|comte de Georges Louis Leclerc Buffon|corpora/multiauthor/corpus_70_filtered/50922.epub
35|||BuffonsNaturalHistoryVolume07of10ContainingaTheoryoftheEarthaGeneralHistoryofManoftheBruteCreationandofVegetablesMinerals&c&c|Cluster 35|comte de Georges Louis Leclerc Buffon|comte de Georges Louis Leclerc Buffon|corpora/multiauthor/corpus_70_filtered/45820.epub
35|||BuffonsNaturalHistoryVolume06of10ContainingaTheoryoftheEarthaGeneralHistoryofManoftheBruteCreationandofVegetablesMinerals&c&c|Cluster 35|comte de Georges Louis Leclerc Buffon|comte de Georges Louis Leclerc Buffon|corpora/multiauthor/corpus_70_filtered/45731.epub
35|||CommonSenseAppliedtoReligionOrTheBibleandthePeople|Cluster 35|Catharine Esther Beecher|comte de Georges Louis Leclerc Buffon|corpora/multiauthor/corpus_70_filtered/55531.epub
35|||BuffonsNaturalHistoryVolume05of10ContainingaTheoryoftheEarthaGeneralHistoryofManoftheBruteCreationandofVegetablesMinerals&c&c|Cluster 35|comte de Georges Louis Leclerc Buffon|comte de Georges Louis Leclerc Buffon|corpora/multiauthor/corpus_70_filtered/45730.epub
35|||BuffonsNaturalHistoryVolume04of10ContainingaTheoryoftheEarthaGeneralHistoryofManoftheBruteCreationandofVegetablesMinerals&c&c|Cluster 35|comte de Georges Louis Leclerc Buffon|comte de Georges Louis Leclerc Buffon|corpora/multiauthor/corpus_70_filtered/45729.epub
65|||OntarioTeachersManualsLiterature|Cluster 65|Ontario. Department of Education|Jean-Henri Fabre|corpora/multiauthor/corpus_70_filtered/24974.epub
65|||TheWondersofInstinctChaptersinthePsychologyofInsects|Cluster 65|Jean-Henri Fabre|Jean-Henri Fabre|corpora/multiauthor/corpus_70_filtered/3754.epub
65|||TheStorybookofScience|Cluster 65|Jean-Henri Fabre|Jean-Henri Fabre|corpora/multiauthor/corpus_70_filtered/56795.epub
65|||TheGlowWormandOtherBeetles|Cluster 65|Jean-Henri Fabre|Jean-Henri Fabre|corpora/multiauthor/corpus_70_filtered/27868.epub
65|||EdisonsConquestofMars|Cluster 65|Garrett Putman Serviss|Jean-Henri Fabre|corpora/multiauthor/corpus_70_filtered/21670.epub
65|||IndianScoutTalksAGuideforBoyScoutsandCampFireGirls|Cluster 65|Charles A. Eastman|Jean-Henri Fabre|corpora/multiauthor/corpus_70_filtered/37373.epub
65|||MoreHuntingWasps|Cluster 65|Jean-Henri Fabre|Jean-Henri Fabre|corpora/multiauthor/corpus_70_filtered/3462.epub
65|||TheLifeoftheSpider|Cluster 65|Jean-Henri Fabre|Jean-Henri Fabre|corpora/multiauthor/corpus_70_filtered/1887.epub
92|||Rationalism|Cluster 92|J. M. Robertson|unknown_17|corpora/multiauthor/corpus_70_filtered/31941.epub
92|||TheologicoPoliticalTreatise—Part1|Cluster 92|Benedictus de Spinoza|unknown_17|corpora/multiauthor/corpus_70_filtered/989.epub
92|||TheologicoPoliticalTreatise—Part2|Cluster 92|Benedictus de Spinoza|unknown_17|corpora/multiauthor/corpus_70_filtered/990.epub
92|||BuffonsNaturalHistoryVolume03of10ContainingaTheoryoftheEarthaGeneralHistoryofManoftheBruteCreationandofVegetablesMinerals&c&c|Cluster 92|comte de Georges Louis Leclerc Buffon|unknown_17|corpora/multiauthor/corpus_70_filtered/45639.epub
92|||ThePhilosophyofSpinoza|Cluster 92|Benedictus de Spinoza|unknown_17|corpora/multiauthor/corpus_70_filtered/31205.epub
68|||HegelsLecturesontheHistoryofPhilosophyVolume2of3|Cluster 68|Georg Wilhelm Friedrich Hegel|Georg Wilhelm Friedrich Hegel|corpora/multiauthor/corpus_70_filtered/51636.epub
68|||HegelsLecturesontheHistoryofPhilosophyVolume1of3|Cluster 68|Georg Wilhelm Friedrich Hegel|Georg Wilhelm Friedrich Hegel|corpora/multiauthor/corpus_70_filtered/51635.epub
68|||KantsProlegomenatoAnyFutureMetaphysics|Cluster 68|Immanuel Kant|Georg Wilhelm Friedrich Hegel|corpora/multiauthor/corpus_70_filtered/52821.epub
68|||TheLogicofHegel|Cluster 68|Georg Wilhelm Friedrich Hegel|Georg Wilhelm Friedrich Hegel|corpora/multiauthor/corpus_70_filtered/55108.epub
68|||HegelsLecturesontheHistoryofPhilosophyVolume3of3|Cluster 68|Georg Wilhelm Friedrich Hegel|Georg Wilhelm Friedrich Hegel|corpora/multiauthor/corpus_70_filtered/58169.epub
68|||ThePhilosophyofFineArtvolume4of4HegelsAesthetik|Cluster 68|Georg Wilhelm Friedrich Hegel|Georg Wilhelm Friedrich Hegel|corpora/multiauthor/corpus_70_filtered/55731.epub
12|||IndexforWorksofNeilMunroHyperlinkstoallChaptersofallIndividualEbooks|Cluster 12|Neil Munro|Aleksandr Sergeevich Pushkin|corpora/multiauthor/corpus_70_filtered/57542.epub
12|||IndexoftheProjectGutenbergWorksofBramStoker|Cluster 12|Bram Stoker|Aleksandr Sergeevich Pushkin|corpora/multiauthor/corpus_70_filtered/59671.epub
12|||IndexoftheProjectGutenbergWorksofImmanuelKant|Cluster 12|Immanuel Kant|Aleksandr Sergeevich Pushkin|corpora/multiauthor/corpus_70_filtered/59023.epub
12|||IndexoftheProjectGutenbergWorksofThomasWentworthHigginson|Cluster 12|Thomas Wentworth Higginson|Aleksandr Sergeevich Pushkin|corpora/multiauthor/corpus_70_filtered/59301.epub
12|||IndexoftheProjectGutenbergWorksofAleksandrPushkin|Cluster 12|Aleksandr Sergeevich Pushkin|Aleksandr Sergeevich Pushkin|corpora/multiauthor/corpus_70_filtered/58272.epub
12|||IndexoftheProjectGutenbergWorksofAlexanderPushkin|Cluster 12|Aleksandr Sergeevich Pushkin|Aleksandr Sergeevich Pushkin|corpora/multiauthor/corpus_70_filtered/59194.epub
79|||TheBrightFaceofDangerBeinganAccountofSomeAdventuresofHenrideLaunaySonoftheSieurdelaTournoire|Cluster 79|Robert Neilson Stephens|unknown_20|corpora/multiauthor/corpus_70_filtered/30417.epub
79|||ByAdviceofCounsel|Cluster 79|Arthur Cheney Train|unknown_20|corpora/multiauthor/corpus_70_filtered/11987.epub
79|||AVoyageofConsolationbeinginthenatureofasequeltotheexperiencesofAnAmericangirlinLondon|Cluster 79|Sara Jeannette Duncan|unknown_20|corpora/multiauthor/corpus_70_filtered/15966.epub
79|||TheMysteryofMurrayDavenportAStoryofNewYorkatthePresentDay|Cluster 79|Robert Neilson Stephens|unknown_20|corpora/multiauthor/corpus_70_filtered/9185.epub
79|||ThePoolintheDesert|Cluster 79|Sara Jeannette Duncan|unknown_20|corpora/multiauthor/corpus_70_filtered/1168.epub
82|||TheStoryofSonnySahib|Cluster 82|Sara Jeannette Duncan|unknown_21|corpora/multiauthor/corpus_70_filtered/4547.epub
82|||TheWindintheWillows|Cluster 82|Kenneth Grahame|unknown_21|corpora/multiauthor/corpus_70_filtered/27805.epub
82|||JustPatty|Cluster 82|Jean Webster|unknown_21|corpora/multiauthor/corpus_70_filtered/21048.epub
82|||ThenMarchedtheBrave|Cluster 82|Harriet T. Comstock|unknown_21|corpora/multiauthor/corpus_70_filtered/16156.epub
82|||PecksSunshineBeingaCollectionofArticlesWrittenforPecksSunMilwaukeeWis1882|Cluster 82|George W. Peck|unknown_21|corpora/multiauthor/corpus_70_filtered/25491.epub
82|||MyYoungMasterANovel|Cluster 82|Opie Percival Read|unknown_21|corpora/multiauthor/corpus_70_filtered/59834.epub
82|||PecksCompendiumofFunComprisingtheChoicestGemsofWitHumorSarcasmandPathosofAmericasFavoriteHumorist|Cluster 82|George W. Peck|unknown_21|corpora/multiauthor/corpus_70_filtered/14815.epub
82|||FromaSwedishHomestead|Cluster 82|Selma Lagerlöf|unknown_21|corpora/multiauthor/corpus_70_filtered/44630.epub
82|||PaintedWindows|Cluster 82|Elia Wilkinson Peattie|unknown_21|corpora/multiauthor/corpus_70_filtered/1875.epub
82|||HowPrivateGeorgeWPeckPutDowntheRebellionorTheFunnyExperiencesofaRawRecruit1887|Cluster 82|George W. Peck|unknown_21|corpora/multiauthor/corpus_70_filtered/25492.epub
89|||TheHistoryofCubavol4|Cluster 89|Willis Fletcher Johnson|Willis Fletcher Johnson|corpora/multiauthor/corpus_70_filtered/33848.epub
89|||AShortHistoryofFreethoughtAncientandModernVolume2of2ThirdeditionRevisedandExpandedintwovolumes|Cluster 89|J. M. Robertson|Willis Fletcher Johnson|corpora/multiauthor/corpus_70_filtered/52160.epub
89|||TheHistoryofCubavol2|Cluster 89|Willis Fletcher Johnson|Willis Fletcher Johnson|corpora/multiauthor/corpus_70_filtered/37676.epub
89|||TheHistoryofCubavol1|Cluster 89|Willis Fletcher Johnson|Willis Fletcher Johnson|corpora/multiauthor/corpus_70_filtered/33847.epub
89|||TheEvolutionofStates|Cluster 89|J. M. Robertson|Willis Fletcher Johnson|corpora/multiauthor/corpus_70_filtered/39860.epub
71|||TheBigFix|Cluster 71|George O. Smith|George O. Smith|corpora/multiauthor/corpus_70_filtered/23599.epub
71|||JamesPethel|Cluster 71|Sir Max Beerbohm|George O. Smith|corpora/multiauthor/corpus_70_filtered/759.epub
22|||TheNegrointheAmericanRebellionHisHeroismandHisFidelity|Cluster 22|William Wells Brown|Henry A. Beers|corpora/multiauthor/corpus_70_filtered/50130.epub
22|||FromChaucertoTennysonWithTwentyNinePortraitsandSelectionsfromThirtyAuthors|Cluster 22|Henry A. Beers|Henry A. Beers|corpora/multiauthor/corpus_70_filtered/11618.epub
22|||AHistoryofEnglishRomanticismintheEighteenthCentury|Cluster 22|Henry A. Beers|Henry A. Beers|corpora/multiauthor/corpus_70_filtered/15447.epub
22|||ThreeYearsinEuropePlacesIHaveSeenandPeopleIHaveMet|Cluster 22|William Wells Brown|Henry A. Beers|corpora/multiauthor/corpus_70_filtered/15830.epub
22|||NathanielParkerWillis|Cluster 22|Henry A. Beers|Henry A. Beers|corpora/multiauthor/corpus_70_filtered/53876.epub
22|||InitialStudiesinAmericanLetters|Cluster 22|Henry A. Beers|Henry A. Beers|corpora/multiauthor/corpus_70_filtered/15854.epub
74|||WithCarsonandFrémontBeingtheAdventuresintheYears18424344onTrailOverMountainsandThroughDesertsFromtheEastoftheRockiestotheWesto|Cluster 74|Edwin L. Sabin|unknown_25|corpora/multiauthor/corpus_70_filtered/59807.epub
74|||TheBlackBeardedBarbarianTheLifeofGeorgeLeslieMackayofFormosa|Cluster 74|Mary Esther Miller MacGregor|unknown_25|corpora/multiauthor/corpus_70_filtered/1759.epub
74|||TheLogofaCowboyANarrativeoftheOldTrailDays|Cluster 74|Andy Adams|unknown_25|corpora/multiauthor/corpus_70_filtered/12797.epub
74|||TheOutlet|Cluster 74|Andy Adams|unknown_25|corpora/multiauthor/corpus_70_filtered/1987.epub
44|||Poems|Cluster 44|John Milton|unknown_26|corpora/multiauthor/corpus_70_filtered/6929.epub
34|||CanadianSceneryVolume1of2|Cluster 34|Nathaniel Parker Willis|Nathaniel Parker Willis|corpora/multiauthor/corpus_70_filtered/47690.epub
34|||HistoryofPhoenicia|Cluster 34|George Rawlinson|Nathaniel Parker Willis|corpora/multiauthor/corpus_70_filtered/2331.epub
34|||BriefHistoryofEnglishandAmericanLiterature|Cluster 34|Henry A. Beers|Nathaniel Parker Willis|corpora/multiauthor/corpus_70_filtered/21090.epub
34|||LegendsoftheMadonnaasRepresentedintheFineArts|Cluster 34|Mrs. Jameson|Nathaniel Parker Willis|corpora/multiauthor/corpus_70_filtered/12047.epub
117|||TheTigress|Cluster 117|Anne Warner|unknown_28|corpora/multiauthor/corpus_70_filtered/37236.epub
117|||OnlyaGirlsLove|Cluster 117|Charles Garvice|unknown_28|corpora/multiauthor/corpus_70_filtered/53416.epub
117|||OnlyOneLoveorWhoWastheHeir|Cluster 117|Charles Garvice|unknown_28|corpora/multiauthor/corpus_70_filtered/35523.epub
46|||TheLostPibrochandotherSheilingStories|Cluster 46|Neil Munro|unknown_29|corpora/multiauthor/corpus_70_filtered/43729.epub
46|||StoriesofKingArthursKnightsToldtotheChildrenbyMaryMacGregor|Cluster 46|Mary Esther Miller MacGregor|unknown_29|corpora/multiauthor/corpus_70_filtered/25654.epub
105|||TheBanshee|Cluster 105|Elliott O'Donnell|Elliott O'Donnell|corpora/multiauthor/corpus_70_filtered/34263.epub
105|||AnimalGhostsOrAnimalHauntingsandtheHereafter|Cluster 105|Elliott O'Donnell|Elliott O'Donnell|corpora/multiauthor/corpus_70_filtered/18233.epub
105|||ScottishGhostStories|Cluster 105|Elliott O'Donnell|Elliott O'Donnell|corpora/multiauthor/corpus_70_filtered/20034.epub
105|||SomeHauntedHousesofEngland&Wales|Cluster 105|Elliott O'Donnell|Elliott O'Donnell|corpora/multiauthor/corpus_70_filtered/51568.epub
102|||TalesfromShakespeare|Cluster 102|Charles Lamb|unknown_31|corpora/multiauthor/corpus_70_filtered/1286.epub
102|||TheSecretGlory|Cluster 102|Arthur Machen|unknown_31|corpora/multiauthor/corpus_70_filtered/35637.epub
102|||TheContinentalDragoonALoveStoryofPhilipseManorHousein1778|Cluster 102|Robert Neilson Stephens|unknown_31|corpora/multiauthor/corpus_70_filtered/30589.epub
102|||TheRoadtoParisAStoryofAdventure|Cluster 102|Robert Neilson Stephens|unknown_31|corpora/multiauthor/corpus_70_filtered/35488.epub
102|||Werwolves|Cluster 102|Elliott O'Donnell|unknown_31|corpora/multiauthor/corpus_70_filtered/26629.epub
102|||AGentlemanPlayerHisAdventuresonaSecretMissionforQueenElizabeth|Cluster 102|Robert Neilson Stephens|unknown_31|corpora/multiauthor/corpus_70_filtered/34650.epub
96|||TheReCreationofBrianKent|Cluster 96|Harold Bell Wright|unknown_32|corpora/multiauthor/corpus_70_filtered/3265.epub
96|||WhenPattyWenttoCollege|Cluster 96|Jean Webster|unknown_32|corpora/multiauthor/corpus_70_filtered/21639.epub
96|||Blix|Cluster 96|Frank Norris|unknown_32|corpora/multiauthor/corpus_70_filtered/401.epub
96|||ThatPrinterofUdellsAStoryoftheMiddleWest|Cluster 96|Harold Bell Wright|unknown_32|corpora/multiauthor/corpus_70_filtered/6384.epub
96|||TheEmperorofPortugallia|Cluster 96|Selma Lagerlöf|unknown_32|corpora/multiauthor/corpus_70_filtered/14356.epub
96|||ASonoftheHills|Cluster 96|Harriet T. Comstock|unknown_32|corpora/multiauthor/corpus_70_filtered/20424.epub
96|||TheManThouGavest|Cluster 96|Harriet T. Comstock|unknown_32|corpora/multiauthor/corpus_70_filtered/14858.epub
96|||JoyceoftheNorthWoods|Cluster 96|Harriet T. Comstock|unknown_32|corpora/multiauthor/corpus_70_filtered/19225.epub
96|||AMansWoman|Cluster 96|Frank Norris|unknown_32|corpora/multiauthor/corpus_70_filtered/16096.epub
96|||Jerusalem|Cluster 96|Selma Lagerlöf|unknown_32|corpora/multiauthor/corpus_70_filtered/15837.epub
69|||GamePreserve|Cluster 69|Rog Phillips|unknown_33|corpora/multiauthor/corpus_70_filtered/60393.epub
20|||TheJesusProblemARestatementoftheMythTheory|Cluster 20|J. M. Robertson|unknown_34|corpora/multiauthor/corpus_70_filtered/53616.epub
20|||ChipsfromaGermanWorkshopVolume1EssaysontheScienceofReligion|Cluster 20|F. Max Müller|unknown_34|corpora/multiauthor/corpus_70_filtered/24686.epub
56|||FarOffThings|Cluster 56|Arthur Machen|Arthur Machen|corpora/multiauthor/corpus_70_filtered/35153.epub
56|||TheGreatReturn|Cluster 56|Arthur Machen|Arthur Machen|corpora/multiauthor/corpus_70_filtered/35611.epub
56|||TheSecondDeluge|Cluster 56|Garrett Putman Serviss|Arthur Machen|corpora/multiauthor/corpus_70_filtered/9194.epub
56|||TheTerrorAMystery|Cluster 56|Arthur Machen|Arthur Machen|corpora/multiauthor/corpus_70_filtered/35617.epub
56|||WigwamEveningsSiouxFolkTalesRetold|Cluster 56|Charles A. Eastman|Arthur Machen|corpora/multiauthor/corpus_70_filtered/28099.epub
56|||TheAngelsofMonsTheBowmenandOtherLegendsoftheWar|Cluster 56|Arthur Machen|Arthur Machen|corpora/multiauthor/corpus_70_filtered/14044.epub
56|||TheManWhoRockedtheEarth|Cluster 56|Arthur Cheney Train|Arthur Machen|corpora/multiauthor/corpus_70_filtered/19174.epub
31|||ZuleikaDobsonOrAnOxfordLoveStory|Cluster 31|Sir Max Beerbohm|Berthold Auerbach|corpora/multiauthor/corpus_70_filtered/1845.epub
31|||EdelweissAStory|Cluster 31|Berthold Auerbach|Berthold Auerbach|corpora/multiauthor/corpus_70_filtered/33007.epub
31|||AdrienLeroy|Cluster 31|Charles Garvice|Berthold Auerbach|corpora/multiauthor/corpus_70_filtered/16682.epub
31|||TheLongestJourney|Cluster 31|E. M. Forster|Berthold Auerbach|corpora/multiauthor/corpus_70_filtered/2604.epub
31|||Dracula|Cluster 31|Bram Stoker|Berthold Auerbach|corpora/multiauthor/corpus_70_filtered/10150.epub
31|||JosephintheSnowandTheClockmakerInThreeVolumesVolI|Cluster 31|Berthold Auerbach|Berthold Auerbach|corpora/multiauthor/corpus_70_filtered/33162.epub
31|||TheMan|Cluster 31|Bram Stoker|Berthold Auerbach|corpora/multiauthor/corpus_70_filtered/2520.epub
1|||TheSevenGreatMonarchiesoftheAncientAsianWorldALinkedIndextotheProjectGutenbergEditions|Cluster 1|George Rawlinson|unknown_37|corpora/multiauthor/corpus_70_filtered/28871.epub
1|||ACatalogueofBooksandAnnouncementsofMethuenandCompanyOctober1902|Cluster 1|Methuen & Co.|unknown_37|corpora/multiauthor/corpus_70_filtered/46506.epub
1|||AListofEducationalWorksPublishedbyMethuen&CompanyJune1900|Cluster 1|Methuen & Co.|unknown_37|corpora/multiauthor/corpus_70_filtered/47779.epub
1|||ChipsfromaGermanWorkshopVolume4EssaysChieflyontheScienceofLanguage|Cluster 1|F. Max Müller|unknown_37|corpora/multiauthor/corpus_70_filtered/30192.epub
1|||HeGivethHisBelovedSleep|Cluster 1|Elizabeth Barrett Browning|unknown_37|corpora/multiauthor/corpus_70_filtered/25643.epub
1|||IndexoftheProjectGutenbergWorksofCharlesAEastman|Cluster 1|Charles A. Eastman|unknown_37|corpora/multiauthor/corpus_70_filtered/57696.epub
1|||OftheInjusticeofCounterfeitingBooksFromEssaysandTreatiesonMoralPoliticalandvariousPhilosophicalSubjects|Cluster 1|Immanuel Kant|unknown_37|corpora/multiauthor/corpus_70_filtered/46060.epub
1|||AnElegyontheDeathofaMadDog|Cluster 1|Oliver Goldsmith|unknown_37|corpora/multiauthor/corpus_70_filtered/17102.epub
14|||TheDesertedVillage|Cluster 14|Oliver Goldsmith|unknown_38|corpora/multiauthor/corpus_70_filtered/50500.epub
14|||"WorksofGeorgeWPeckALinkedIndextotheProjectGutenbergEditionsofthe""BadBoy""SeriesandOthers"|Cluster 14|George W. Peck|unknown_38|corpora/multiauthor/corpus_70_filtered/28970.epub
14|||QuotesandImagesFromMemoirsofLouisXVandXVI|Cluster 14|Mme. Du Hausset|unknown_38|corpora/multiauthor/corpus_70_filtered/7561.epub
14|||Pythias|Cluster 14|Frederik Pohl|unknown_38|corpora/multiauthor/corpus_70_filtered/30399.epub
10|||TheSevenGreatMonarchiesOfTheAncientEasternWorldVol6ParthiaTheHistoryGeographyAndAntiquitiesOfChaldaeaAssyriaBabylonMediaPersiaP|Cluster 10|George Rawlinson|George Rawlinson|corpora/multiauthor/corpus_70_filtered/16166.epub
10|||TheSevenGreatMonarchiesOfTheAncientEasternWorldVol3MediaTheHistoryGeographyAndAntiquitiesOfChaldaeaAssyriaBabylonMediaPersiaPar|Cluster 10|George Rawlinson|George Rawlinson|corpora/multiauthor/corpus_70_filtered/16163.epub
10|||PinnocksimprovededitionofDrGoldsmithsHistoryofRometowhichisprefixedanintroductiontothestudyofRomanhistoryandagreatvarietyofvalu|Cluster 10|Oliver Goldsmith|George Rawlinson|corpora/multiauthor/corpus_70_filtered/16387.epub
10|||TheSevenGreatMonarchiesOfTheAncientEasternWorldVol2AssyriaTheHistoryGeographyAndAntiquitiesOfChaldaeaAssyriaBabylonMediaPersiaP|Cluster 10|George Rawlinson|George Rawlinson|corpora/multiauthor/corpus_70_filtered/16162.epub
10|||TheSevenGreatMonarchiesOfTheAncientEasternWorldVol5PersiaTheHistoryGeographyAndAntiquitiesOfChaldaeaAssyriaBabylonMediaPersiaPa|Cluster 10|George Rawlinson|George Rawlinson|corpora/multiauthor/corpus_70_filtered/16165.epub
10|||TheSevenGreatMonarchiesOfTheAncientEasternWorldVol7TheSassanianorNewPersianEmpireTheHistoryGeographyAndAntiquitiesOfChaldaeaAss|Cluster 10|George Rawlinson|George Rawlinson|corpora/multiauthor/corpus_70_filtered/16167.epub
10|||TheSevenGreatMonarchiesOfTheAncientEasternWorldVol4BabylonTheHistoryGeographyAndAntiquitiesOfChaldaeaAssyriaBabylonMediaPersiaP|Cluster 10|George Rawlinson|George Rawlinson|corpora/multiauthor/corpus_70_filtered/16164.epub
10|||ColonelHenryLudingtonAMemoir|Cluster 10|Willis Fletcher Johnson|George Rawlinson|corpora/multiauthor/corpus_70_filtered/58125.epub
10|||OntarioTeachersManualsHistory|Cluster 10|Ontario. Department of Education|George Rawlinson|corpora/multiauthor/corpus_70_filtered/17268.epub
50|||APassagetoIndia|Cluster 50|E. M. Forster|E. M. Forster|corpora/multiauthor/corpus_70_filtered/61221.epub
50|||TheCelestialOmnibusandOtherStories|Cluster 50|E. M. Forster|E. M. Forster|corpora/multiauthor/corpus_70_filtered/34089.epub
50|||ARoomwithaView|Cluster 50|E. M. Forster|E. M. Forster|corpora/multiauthor/corpus_70_filtered/2641.epub
50|||Romance|Cluster 50|Thomas Wentworth Higginson|E. M. Forster|corpora/multiauthor/corpus_70_filtered/993.epub
50|||HowardsEnd|Cluster 50|E. M. Forster|E. M. Forster|corpora/multiauthor/corpus_70_filtered/2946.epub
50|||TheWomansWay|Cluster 50|Charles Garvice|E. M. Forster|corpora/multiauthor/corpus_70_filtered/19411.epub
15|||AmateurinChancery|Cluster 15|George O. Smith|Rog Phillips|corpora/multiauthor/corpus_70_filtered/51681.epub
15|||SurvivalKit|Cluster 15|Frederik Pohl|Rog Phillips|corpora/multiauthor/corpus_70_filtered/51809.epub
15|||CaptainPeabody|Cluster 15|Rog Phillips|Rog Phillips|corpora/multiauthor/corpus_70_filtered/60442.epub
15|||Tillie|Cluster 15|Rog Phillips|Rog Phillips|corpora/multiauthor/corpus_70_filtered/32802.epub
15|||TheKnightsofArthur|Cluster 15|Frederik Pohl|Rog Phillips|corpora/multiauthor/corpus_70_filtered/32004.epub
15|||TheWeirdestWorld|Cluster 15|R. A. Lafferty|Rog Phillips|corpora/multiauthor/corpus_70_filtered/51774.epub
15|||TheOldMartians|Cluster 15|Rog Phillips|Rog Phillips|corpora/multiauthor/corpus_70_filtered/32590.epub
15|||Instinct|Cluster 15|Jean-Henri Fabre|Rog Phillips|corpora/multiauthor/corpus_70_filtered/3754.epub
15|||TheGallery|Cluster 15|Rog Phillips|Rog Phillips|corpora/multiauthor/corpus_70_filtered/26936.epub
15|||StopLookandDig|Cluster 15|George O. Smith|Rog Phillips|corpora/multiauthor/corpus_70_filtered/19963.epub
32|||TheHappyHypocriteAFairyTaleforTiredMen|Cluster 32|Sir Max Beerbohm|Warwick Deeping|corpora/multiauthor/corpus_70_filtered/36497.epub
32|||TheFifthQueenAndHowSheCametoCourt|Cluster 32|Ford Madox Ford|Warwick Deeping|corpora/multiauthor/corpus_70_filtered/30188.epub
32|||UtherandIgraine|Cluster 32|Warwick Deeping|Warwick Deeping|corpora/multiauthor/corpus_70_filtered/52139.epub
32|||TheSlanderers|Cluster 32|Warwick Deeping|Warwick Deeping|corpora/multiauthor/corpus_70_filtered/58287.epub
32|||TheKingBehindtheKing|Cluster 32|Warwick Deeping|Warwick Deeping|corpora/multiauthor/corpus_70_filtered/48115.epub
32|||TheFifthQueenCrowned|Cluster 32|Ford Madox Ford|Warwick Deeping|corpora/multiauthor/corpus_70_filtered/27432.epub
32|||BertrandofBrittany|Cluster 32|Warwick Deeping|Warwick Deeping|corpora/multiauthor/corpus_70_filtered/56707.epub
32|||AWomansWarANovel|Cluster 32|Warwick Deeping|Warwick Deeping|corpora/multiauthor/corpus_70_filtered/52715.epub
32|||BessoftheWoods|Cluster 32|Warwick Deeping|Warwick Deeping|corpora/multiauthor/corpus_70_filtered/57758.epub
32|||TheYoungLovellARomance|Cluster 32|Ford Madox Ford|Warwick Deeping|corpora/multiauthor/corpus_70_filtered/42801.epub
110|||TheFeather|Cluster 110|Ford Madox Ford|Ford Madox Ford|corpora/multiauthor/corpus_70_filtered/50658.epub
48|||HighwaysinHiding|Cluster 48|George O. Smith|unknown_44|corpora/multiauthor/corpus_70_filtered/20519.epub
48|||PluckontheLongTrailOrBoyScoutsintheRockies|Cluster 48|Edwin L. Sabin|unknown_44|corpora/multiauthor/corpus_70_filtered/20710.epub
48|||PlagueofPythons|Cluster 48|Frederik Pohl|unknown_44|corpora/multiauthor/corpus_70_filtered/51804.epub
48|||PecksUncleIkeandTheRedHeadedBoy1899|Cluster 48|George W. Peck|unknown_44|corpora/multiauthor/corpus_70_filtered/25490.epub
48|||CaptainJune|Cluster 48|Alice Caldwell Hegan Rice|unknown_44|corpora/multiauthor/corpus_70_filtered/38228.epub
48|||SearchtheSky|Cluster 48|C. M. Kornbluth|unknown_44|corpora/multiauthor/corpus_70_filtered/52228.epub
114|||TheWheatPrincess|Cluster 114|Jean Webster|unknown_45|corpora/multiauthor/corpus_70_filtered/46761.epub
111|||TheCampFireGirlsintheMaineWoodsOrTheWinnebagosGoCamping|Cluster 111|Hildegard G. Frey|unknown_46|corpora/multiauthor/corpus_70_filtered/18606.epub
111|||TheCampFireGirlsatSchoolOrTheWoheloWeavers|Cluster 111|Hildegard G. Frey|unknown_46|corpora/multiauthor/corpus_70_filtered/11718.epub
80|||Sandy|Cluster 80|Alice Caldwell Hegan Rice|Alice Caldwell Hegan Rice|corpora/multiauthor/corpus_70_filtered/14079.epub
80|||MissMinksSoldierandOtherStories|Cluster 80|Alice Caldwell Hegan Rice|Alice Caldwell Hegan Rice|corpora/multiauthor/corpus_70_filtered/15230.epub
80|||LoveyMary|Cluster 80|Alice Caldwell Hegan Rice|Alice Caldwell Hegan Rice|corpora/multiauthor/corpus_70_filtered/5970.epub
80|||MrsWiggsoftheCabbagePatch|Cluster 80|Alice Caldwell Hegan Rice|Alice Caldwell Hegan Rice|corpora/multiauthor/corpus_70_filtered/4377.epub
80|||MoranoftheLadyLetty|Cluster 80|Frank Norris|Alice Caldwell Hegan Rice|corpora/multiauthor/corpus_70_filtered/321.epub
53|||HardscrabbleorthefallofChicagoataleofIndianwarfare|Cluster 53|Major Richardson|unknown_48|corpora/multiauthor/corpus_70_filtered/5169.epub
53|||FamousPersonsandPlaces|Cluster 53|Nathaniel Parker Willis|unknown_48|corpora/multiauthor/corpus_70_filtered/49841.epub
53|||TheOntarioReadersThirdReader|Cluster 53|Ontario. Department of Education|unknown_48|corpora/multiauthor/corpus_70_filtered/51707.epub
53|||TheOntarioReadersFourthBook|Cluster 53|Ontario. Department of Education|unknown_48|corpora/multiauthor/corpus_70_filtered/18702.epub
53|||WaunangeeOrtheMassacreatChicagoARomanceoftheAmericanRevolution|Cluster 53|Major Richardson|unknown_48|corpora/multiauthor/corpus_70_filtered/31745.epub
53|||ArmyLifeinaBlackRegiment|Cluster 53|Thomas Wentworth Higginson|unknown_48|corpora/multiauthor/corpus_70_filtered/6764.epub
53|||VisitsandSketchesatHomeandAbroadVol3of3WithTalesandMiscellaniesNowFirstCollected|Cluster 53|Mrs. Jameson|unknown_48|corpora/multiauthor/corpus_70_filtered/36820.epub
118|||TheEndoftheRainbow|Cluster 118|Mary Esther Miller MacGregor|Mary Esther Miller MacGregor|corpora/multiauthor/corpus_70_filtered/28276.epub
118|||McTeagueAStoryofSanFrancisco|Cluster 118|Frank Norris|Mary Esther Miller MacGregor|corpora/multiauthor/corpus_70_filtered/165.epub
118|||TreasureValley|Cluster 118|Mary Esther Miller MacGregor|Mary Esther Miller MacGregor|corpora/multiauthor/corpus_70_filtered/29023.epub
118|||TheShepherdoftheHills|Cluster 118|Harold Bell Wright|Mary Esther Miller MacGregor|corpora/multiauthor/corpus_70_filtered/4735.epub
118|||InOrchardGlen|Cluster 118|Mary Esther Miller MacGregor|Mary Esther Miller MacGregor|corpora/multiauthor/corpus_70_filtered/28235.epub
118|||MuchAdoAboutPeter|Cluster 118|Jean Webster|Mary Esther Miller MacGregor|corpora/multiauthor/corpus_70_filtered/42768.epub
55|||TheGreatGodPan|Cluster 55|Arthur Machen|unknown_50|corpora/multiauthor/corpus_70_filtered/389.epub
55|||AChristmasGarland|Cluster 55|Sir Max Beerbohm|unknown_50|corpora/multiauthor/corpus_70_filtered/14667.epub
55|||JacquelineoftheCarrierPigeons|Cluster 55|Augusta Huiell Seaman|unknown_50|corpora/multiauthor/corpus_70_filtered/57466.epub
55|||OldportDays|Cluster 55|Thomas Wentworth Higginson|unknown_50|corpora/multiauthor/corpus_70_filtered/2418.epub
54|||JohnSplendidTheTaleofaPoorGentlemanandtheLittleWarsofLorn|Cluster 54|Neil Munro|Neil Munro|corpora/multiauthor/corpus_70_filtered/22321.epub
54|||JauntyJockandOtherStories|Cluster 54|Neil Munro|Neil Munro|corpora/multiauthor/corpus_70_filtered/50438.epub
54|||DoomCastle|Cluster 54|Neil Munro|Neil Munro|corpora/multiauthor/corpus_70_filtered/21333.epub
54|||TheShoesofFortune|Cluster 54|Neil Munro|Neil Munro|corpora/multiauthor/corpus_70_filtered/43732.epub
57|||LetterstoPersonsWhoAreEngagedinDomesticService|Cluster 57|Catharine Esther Beecher|unknown_52|corpora/multiauthor/corpus_70_filtered/57985.epub
57|||ABookofAmericanExplorers|Cluster 57|Thomas Wentworth Higginson|unknown_52|corpora/multiauthor/corpus_70_filtered/56346.epub
57|||MemoirsoftheCourtsofLouisXVandXVI—Volume3BeingsecretmemoirsofMadameDuHaussetladysmaidtoMadamedePompadourandofthePrincessLamba|Cluster 57|Mme. Du Hausset|unknown_52|corpora/multiauthor/corpus_70_filtered/3878.epub
57|||GhostlyPhenomena|Cluster 57|Elliott O'Donnell|unknown_52|corpora/multiauthor/corpus_70_filtered/40823.epub
57|||ThoughtsonLifeandReligionAnAftermathfromtheWritingsofTheRightHonourableProfessorMaxMüller|Cluster 57|F. Max Müller|unknown_52|corpora/multiauthor/corpus_70_filtered/45122.epub
25|||MisrepresentativeMen|Cluster 25|Harry Graham|Harry Graham|corpora/multiauthor/corpus_70_filtered/36782.epub
25|||MoreMisrepresentativeMen|Cluster 25|Harry Graham|Harry Graham|corpora/multiauthor/corpus_70_filtered/36782.epub
25|||ErchieMyDrollFriend|Cluster 25|Neil Munro|Harry Graham|corpora/multiauthor/corpus_70_filtered/47991.epub
25|||FiscalBallads|Cluster 25|Harry Graham|Harry Graham|corpora/multiauthor/corpus_70_filtered/36038.epub
25|||TheSurrenderofSantiagoAnAccountoftheHistoricSurrenderofSantiagotoGeneralShafterJuly171898|Cluster 25|Frank Norris|Harry Graham|corpora/multiauthor/corpus_70_filtered/26026.epub
25|||SonnetsfromthePortuguese|Cluster 25|Elizabeth Barrett Browning|Harry Graham|corpora/multiauthor/corpus_70_filtered/2002.epub
25|||TheAntislaveryHarpACollectionofSongsforAntislaveryMeetings|Cluster 25|William Wells Brown|Harry Graham|corpora/multiauthor/corpus_70_filtered/58414.epub
13|||ThePhilosophyofFineArtvolume2of4HegelsAesthetik|Cluster 13|Georg Wilhelm Friedrich Hegel|unknown_54|corpora/multiauthor/corpus_70_filtered/55445.epub
13|||TheSevenGreatMonarchiesOfTheAncientEasternWorldVol1ChaldaeaTheHistoryGeographyAndAntiquitiesOfChaldaeaAssyriaBabylonMediaPersia|Cluster 13|George Rawlinson|unknown_54|corpora/multiauthor/corpus_70_filtered/16161.epub
13|||HegelsPhilosophyofMind|Cluster 13|Georg Wilhelm Friedrich Hegel|unknown_54|corpora/multiauthor/corpus_70_filtered/39064.epub
13|||OntarioNormalSchoolManualsScienceofEducation|Cluster 13|Ontario. Department of Education|unknown_54|corpora/multiauthor/corpus_70_filtered/18451.epub
13|||ThePhilosophyofFineArtvolume3of4HegelsAesthetik|Cluster 13|Georg Wilhelm Friedrich Hegel|unknown_54|corpora/multiauthor/corpus_70_filtered/55623.epub
13|||BuffonsNaturalHistoryVolume08of10ContainingaTheoryoftheEarthaGeneralHistoryofManoftheBruteCreationandofVegetablesMinerals&c&c|Cluster 13|comte de Georges Louis Leclerc Buffon|unknown_54|corpora/multiauthor/corpus_70_filtered/45821.epub
13|||AnAppealtothePeopleinBehalfofTheirRightsasAuthorizedInterpretersoftheBible|Cluster 13|Catharine Esther Beecher|unknown_54|corpora/multiauthor/corpus_70_filtered/56354.epub
13|||BuffonsNaturalHistoryVolume10of10ContainingaTheoryoftheEarthaGeneralHistoryofManoftheBruteCreationandofVegetablesMinerals&c&c|Cluster 13|comte de Georges Louis Leclerc Buffon|unknown_54|corpora/multiauthor/corpus_70_filtered/45868.epub
13|||BuffonsNaturalHistoryVolume09of10ContainingaTheoryoftheEarthaGeneralHistoryofManoftheBruteCreationandofVegetablesMinerals&c&c|Cluster 13|comte de Georges Louis Leclerc Buffon|unknown_54|corpora/multiauthor/corpus_70_filtered/45867.epub
13|||ThePhilosophyofFineArtvolume1of4HegelsAesthetik|Cluster 13|Georg Wilhelm Friedrich Hegel|unknown_54|corpora/multiauthor/corpus_70_filtered/55334.epub
112|||OntheHeightsANovel|Cluster 112|Berthold Auerbach|unknown_55|corpora/multiauthor/corpus_70_filtered/33294.epub
112|||WhenaCobblerRuledtheKing|Cluster 112|Augusta Huiell Seaman|unknown_55|corpora/multiauthor/corpus_70_filtered/38570.epub
112|||ChristLegends|Cluster 112|Selma Lagerlöf|unknown_55|corpora/multiauthor/corpus_70_filtered/44818.epub
112|||TheOntarioReadersThirdBook|Cluster 112|Ontario. Department of Education|unknown_55|corpora/multiauthor/corpus_70_filtered/18561.epub
112|||VillaEdenTheCountryHouseontheRhine|Cluster 112|Berthold Auerbach|unknown_55|corpora/multiauthor/corpus_70_filtered/32902.epub
88|||PeterParleysVisittoLondonDuringtheCoronationofQueenVictoria|Cluster 88|Samuel G. Goodrich|unknown_56|corpora/multiauthor/corpus_70_filtered/43995.epub
88|||WellsBrothersTheYoungCattleKings|Cluster 88|Andy Adams|unknown_56|corpora/multiauthor/corpus_70_filtered/12791.epub
88|||BlancheTheMaidofLille|Cluster 88|Ossip Schubin|unknown_56|corpora/multiauthor/corpus_70_filtered/35385.epub
88|||ReedAnthonyCowmanAnAutobiography|Cluster 88|Andy Adams|unknown_56|corpora/multiauthor/corpus_70_filtered/12884.epub
115|||Jerry|Cluster 115|Jean Webster|Harriet T. Comstock|corpora/multiauthor/corpus_70_filtered/20357.epub
115|||JanetoftheDunes|Cluster 115|Harriet T. Comstock|Harriet T. Comstock|corpora/multiauthor/corpus_70_filtered/22998.epub
115|||TheShieldofSilence|Cluster 115|Harriet T. Comstock|Harriet T. Comstock|corpora/multiauthor/corpus_70_filtered/18225.epub
115|||JerryJunior|Cluster 115|Jean Webster|Harriet T. Comstock|corpora/multiauthor/corpus_70_filtered/20358.epub
115|||MamselleJo|Cluster 115|Harriet T. Comstock|Harriet T. Comstock|corpora/multiauthor/corpus_70_filtered/49361.epub
115|||TheFourPoolsMystery|Cluster 115|Jean Webster|Harriet T. Comstock|corpora/multiauthor/corpus_70_filtered/21264.epub
115|||AttheCrossroads|Cluster 115|Harriet T. Comstock|Harriet T. Comstock|corpora/multiauthor/corpus_70_filtered/30095.epub
115|||OldEbenezer|Cluster 115|Opie Percival Read|Harriet T. Comstock|corpora/multiauthor/corpus_70_filtered/23215.epub
99|||VandoverandtheBrute|Cluster 99|Frank Norris|Frank Norris|corpora/multiauthor/corpus_70_filtered/14712.epub
99|||WhenAMansAMan|Cluster 99|Harold Bell Wright|Frank Norris|corpora/multiauthor/corpus_70_filtered/14367.epub
99|||TheWonderfulAdventuresofNils|Cluster 99|Selma Lagerlöf|Frank Norris|corpora/multiauthor/corpus_70_filtered/10935.epub
99|||MrOpp|Cluster 99|Alice Caldwell Hegan Rice|Frank Norris|corpora/multiauthor/corpus_70_filtered/25070.epub
99|||McAllisterandHisDouble|Cluster 99|Arthur Cheney Train|Frank Norris|corpora/multiauthor/corpus_70_filtered/34597.epub
99|||TheHonorablePercival|Cluster 99|Alice Caldwell Hegan Rice|Frank Norris|corpora/multiauthor/corpus_70_filtered/15180.epub
99|||ADealinWheatandOtherStoriesoftheNewandOldWest|Cluster 99|Frank Norris|Frank Norris|corpora/multiauthor/corpus_70_filtered/9905.epub
99|||AnArkansasPlanter|Cluster 99|Opie Percival Read|Frank Norris|corpora/multiauthor/corpus_70_filtered/19107.epub
18|||TheHeadswoman|Cluster 18|Kenneth Grahame|unknown_59|corpora/multiauthor/corpus_70_filtered/34243.epub
18|||TheBlueJarStoryBook|Cluster 18|Maria Edgeworth|unknown_59|corpora/multiauthor/corpus_70_filtered/34470.epub
18|||MarieastoryofRussianlove|Cluster 18|Aleksandr Sergeevich Pushkin|unknown_59|corpora/multiauthor/corpus_70_filtered/4344.epub
18|||VerseandWorse|Cluster 18|Harry Graham|unknown_59|corpora/multiauthor/corpus_70_filtered/36702.epub
49|||NellofShorneMillsorOneHeartsBurden|Cluster 49|Charles Garvice|Charles Garvice|corpora/multiauthor/corpus_70_filtered/22961.epub
49|||Landolin|Cluster 49|Berthold Auerbach|Charles Garvice|corpora/multiauthor/corpus_70_filtered/33008.epub
49|||LesliesLoyalty|Cluster 49|Charles Garvice|Charles Garvice|corpora/multiauthor/corpus_70_filtered/50440.epub
49|||JustaGirl|Cluster 49|Charles Garvice|Charles Garvice|corpora/multiauthor/corpus_70_filtered/57166.epub
49|||WildMargaret|Cluster 49|Charles Garvice|Charles Garvice|corpora/multiauthor/corpus_70_filtered/44828.epub
91|||TheRomanceofBiographyVol1of2orMemoirsofWomenLovedandCelebratedbyPoetsfromtheDaysoftheTroubadourstothePresentAge3rded2Vols|Cluster 91|Mrs. Jameson|Mrs. Jameson|corpora/multiauthor/corpus_70_filtered/35382.epub
91|||TheRomanceofBiographyVol2of2orMemoirsofWomenLovedandCelebratedbyPoetsfromtheDaysoftheTroubadourstothePresentAge3rded2Vols|Cluster 91|Mrs. Jameson|Mrs. Jameson|corpora/multiauthor/corpus_70_filtered/35416.epub
91|||LivesofCelebratedWomen|Cluster 91|Samuel G. Goodrich|Mrs. Jameson|corpora/multiauthor/corpus_70_filtered/33273.epub
104|||TheQueenofSpadesandotherstories|Cluster 104|Aleksandr Sergeevich Pushkin|unknown_62|corpora/multiauthor/corpus_70_filtered/55024.epub
104|||TheProseTalesofAlexanderPushkin|Cluster 104|Aleksandr Sergeevich Pushkin|unknown_62|corpora/multiauthor/corpus_70_filtered/55219.epub
29|||TheDaftDays|Cluster 29|Neil Munro|unknown_63|corpora/multiauthor/corpus_70_filtered/49906.epub
29|||BudANovel|Cluster 29|Neil Munro|unknown_63|corpora/multiauthor/corpus_70_filtered/43731.epub
33|||ThePoeticalWorksofElizabethBarrettBrowningVolume2|Cluster 33|Elizabeth Barrett Browning|Elizabeth Barrett Browning|corpora/multiauthor/corpus_70_filtered/33363.epub
33|||ThePoemsofOliverGoldsmith|Cluster 33|Oliver Goldsmith|Elizabeth Barrett Browning|corpora/multiauthor/corpus_70_filtered/49723.epub
33|||ThePoeticalWorksofElizabethBarrettBrowningVolume1|Cluster 33|Elizabeth Barrett Browning|Elizabeth Barrett Browning|corpora/multiauthor/corpus_70_filtered/37452.epub
33|||ThePoeticalWorksofElizabethBarrettBrowningVolume4|Cluster 33|Elizabeth Barrett Browning|Elizabeth Barrett Browning|corpora/multiauthor/corpus_70_filtered/31015.epub
33|||TheMotleyMuseRhymesfortheTimes|Cluster 33|Harry Graham|Elizabeth Barrett Browning|corpora/multiauthor/corpus_70_filtered/36543.epub
33|||FamiliarFaces|Cluster 33|Harry Graham|Elizabeth Barrett Browning|corpora/multiauthor/corpus_70_filtered/35059.epub
33|||EugeneOneguine[Onegin]ARomanceofRussianLifeinVerse|Cluster 33|Aleksandr Sergeevich Pushkin|Elizabeth Barrett Browning|corpora/multiauthor/corpus_70_filtered/23997.epub
47|||DaddyLongLegsAComedyinFourActs|Cluster 47|Jean Webster|Jean Webster|corpora/multiauthor/corpus_70_filtered/40426.epub
47|||DaddyLongLegs|Cluster 47|Jean Webster|Jean Webster|corpora/multiauthor/corpus_70_filtered/40426.epub
47|||TheStingyReceiver|Cluster 47|Eleanor Hallowell Abbott|Jean Webster|corpora/multiauthor/corpus_70_filtered/49330.epub
95|||TheImperialist|Cluster 95|Sara Jeannette Duncan|Sara Jeannette Duncan|corpora/multiauthor/corpus_70_filtered/5301.epub
95|||TheHouseofSouls|Cluster 95|Arthur Machen|Sara Jeannette Duncan|corpora/multiauthor/corpus_70_filtered/25016.epub
95|||TheStoryofaGenius|Cluster 95|Ossip Schubin|Sara Jeannette Duncan|corpora/multiauthor/corpus_70_filtered/35590.epub
95|||ThePrecipiceANovel|Cluster 95|Elia Wilkinson Peattie|Sara Jeannette Duncan|corpora/multiauthor/corpus_70_filtered/12177.epub
95|||HildaAStoryofCalcutta|Cluster 95|Sara Jeannette Duncan|Sara Jeannette Duncan|corpora/multiauthor/corpus_70_filtered/18051.epub
95|||StoriesbyAmericanAuthorsVolume4|Cluster 95|H. C. Bunner|Sara Jeannette Duncan|corpora/multiauthor/corpus_70_filtered/22401.epub
95|||BlackForestVillageStories|Cluster 95|Berthold Auerbach|Sara Jeannette Duncan|corpora/multiauthor/corpus_70_filtered/32517.epub
95|||ThePathofaStar|Cluster 95|Sara Jeannette Duncan|Sara Jeannette Duncan|corpora/multiauthor/corpus_70_filtered/5102.epub
97|||AzaleaatSunsetGap|Cluster 97|Elia Wilkinson Peattie|unknown_67|corpora/multiauthor/corpus_70_filtered/54813.epub
97|||TheRejuvenationofAuntMary|Cluster 97|Anne Warner|unknown_67|corpora/multiauthor/corpus_70_filtered/15775.epub
97|||TheCrimsonPatch|Cluster 97|Augusta Huiell Seaman|unknown_67|corpora/multiauthor/corpus_70_filtered/52509.epub
97|||TheBoardedUpHouse|Cluster 97|Augusta Huiell Seaman|unknown_67|corpora/multiauthor/corpus_70_filtered/30905.epub
97|||TheSapphireSignet|Cluster 97|Augusta Huiell Seaman|unknown_67|corpora/multiauthor/corpus_70_filtered/55964.epub
97|||InaMysteriousWay|Cluster 97|Anne Warner|unknown_67|corpora/multiauthor/corpus_70_filtered/37515.epub
97|||DearEnemy|Cluster 97|Jean Webster|unknown_67|corpora/multiauthor/corpus_70_filtered/238.epub
97|||AnnieLaurieandAzalea|Cluster 97|Elia Wilkinson Peattie|unknown_67|corpora/multiauthor/corpus_70_filtered/53975.epub
107|||TheCanadianBrothersOrTheProphecyFulfilledATaleoftheLateAmericanWar—Volume1|Cluster 107|Major Richardson|Major Richardson|corpora/multiauthor/corpus_70_filtered/5106.epub
107|||TheCanadianBrothersOrTheProphecyFulfilledATaleoftheLateAmericanWar—Complete|Cluster 107|Major Richardson|Major Richardson|corpora/multiauthor/corpus_70_filtered/5108.epub
107|||WacoustaataleofthePontiacconspiracyComplete|Cluster 107|Major Richardson|Major Richardson|corpora/multiauthor/corpus_70_filtered/4912.epub
107|||WacoustaataleofthePontiacconspiracy—Volume2|Cluster 107|Major Richardson|Major Richardson|corpora/multiauthor/corpus_70_filtered/4720.epub
107|||MatildaMontgomerieOrTheProphecyFulfilled|Cluster 107|Major Richardson|Major Richardson|corpora/multiauthor/corpus_70_filtered/39758.epub
107|||TheCanadianBrothersOrTheProphecyFulfilledATaleoftheLateAmericanWar—Volume2|Cluster 107|Major Richardson|Major Richardson|corpora/multiauthor/corpus_70_filtered/5107.epub
107|||TalesoftheEnchantedIslandsoftheAtlantic|Cluster 107|Thomas Wentworth Higginson|Major Richardson|corpora/multiauthor/corpus_70_filtered/7098.epub
107|||WacoustaataleofthePontiacconspiracy—Volume1|Cluster 107|Major Richardson|Major Richardson|corpora/multiauthor/corpus_70_filtered/4719.epub
107|||WacoustaataleofthePontiacconspiracy—Volume3|Cluster 107|Major Richardson|Major Richardson|corpora/multiauthor/corpus_70_filtered/4911.epub
30|||EnduranceTestorHowClearGritWontheDay|Cluster 30|Captain Alan Douglas|unknown_69|corpora/multiauthor/corpus_70_filtered/38305.epub
30|||GreatHikeorThePrideoftheKhakiTroop|Cluster 30|Captain Alan Douglas|unknown_69|corpora/multiauthor/corpus_70_filtered/38307.epub
30|||WoodcraftOrHowaPatrolLeaderMadeGood|Cluster 30|Captain Alan Douglas|unknown_69|corpora/multiauthor/corpus_70_filtered/37167.epub
30|||PathfinderorTheMissingTenderfoot|Cluster 30|Captain Alan Douglas|unknown_69|corpora/multiauthor/corpus_70_filtered/22924.epub
30|||FastNineorAChallengefromFairfield|Cluster 30|Captain Alan Douglas|unknown_69|corpora/multiauthor/corpus_70_filtered/37493.epub
19|||ADaywithKeats|Cluster 19|May Byron|May Byron|corpora/multiauthor/corpus_70_filtered/30451.epub
19|||ADaywithWaltWhitman|Cluster 19|May Byron|May Byron|corpora/multiauthor/corpus_70_filtered/36305.epub
19|||ADaywithLudwigBeethoven|Cluster 19|May Byron|May Byron|corpora/multiauthor/corpus_70_filtered/59672.epub
19|||ADaywithLordByron|Cluster 19|May Byron|May Byron|corpora/multiauthor/corpus_70_filtered/32990.epub
19|||ADaywithRobertLouisStevenson|Cluster 19|May Byron|May Byron|corpora/multiauthor/corpus_70_filtered/53165.epub
19|||ADaywithWilliamShakespeare|Cluster 19|May Byron|May Byron|corpora/multiauthor/corpus_70_filtered/40441.epub
19|||StoriesofSiegfriedToldtotheChildren|Cluster 19|Mary Esther Miller MacGregor|May Byron|corpora/multiauthor/corpus_70_filtered/26181.epub
19|||ADaywithJohnMilton|Cluster 19|May Byron|May Byron|corpora/multiauthor/corpus_70_filtered/40130.epub
19|||MiltonsComus|Cluster 19|John Milton|May Byron|corpora/multiauthor/corpus_70_filtered/19819.epub
28|||TheTrailtoYesterday|Cluster 28|Charles Alden Seltzer|Charles Alden Seltzer|corpora/multiauthor/corpus_70_filtered/27051.epub
28|||TheTwoGunMan|Cluster 28|Charles Alden Seltzer|Charles Alden Seltzer|corpora/multiauthor/corpus_70_filtered/19012.epub
28|||DragHarlan|Cluster 28|Charles Alden Seltzer|Charles Alden Seltzer|corpora/multiauthor/corpus_70_filtered/25779.epub
28|||TheTrailHorde|Cluster 28|Charles Alden Seltzer|Charles Alden Seltzer|corpora/multiauthor/corpus_70_filtered/17477.epub
28|||TheRanchman|Cluster 28|Charles Alden Seltzer|Charles Alden Seltzer|corpora/multiauthor/corpus_70_filtered/37204.epub
28|||TheComingoftheLaw|Cluster 28|Charles Alden Seltzer|Charles Alden Seltzer|corpora/multiauthor/corpus_70_filtered/31512.epub
28|||TheRangeBoss|Cluster 28|Charles Alden Seltzer|Charles Alden Seltzer|corpora/multiauthor/corpus_70_filtered/25754.epub
28|||TheBossoftheLazyY|Cluster 28|Charles Alden Seltzer|Charles Alden Seltzer|corpora/multiauthor/corpus_70_filtered/19026.epub
28|||SquareDealSanderson|Cluster 28|Charles Alden Seltzer|Charles Alden Seltzer|corpora/multiauthor/corpus_70_filtered/16597.epub
39|||CharlesBradlaughaRecordofHisLifeandWorkVolume2of2WithanAccountofhisParliamentaryStrugglePoliticsandTeachingsSeventhEdition|Cluster 39|Hypatia Bradlaugh Bonner|Hypatia Bradlaugh Bonner|corpora/multiauthor/corpus_70_filtered/45131.epub
39|||ThePrisonerattheBarSidelightsontheAdministrationofCriminalJustice|Cluster 39|Arthur Cheney Train|Hypatia Bradlaugh Bonner|corpora/multiauthor/corpus_70_filtered/58534.epub
39|||CourtsandCriminals|Cluster 39|Arthur Cheney Train|Hypatia Bradlaugh Bonner|corpora/multiauthor/corpus_70_filtered/5268.epub
39|||CharlesBradlaughaRecordofHisLifeandWorkVolume1of2WithanAccountofhisParliamentaryStrugglePoliticsandTeachingsSeventhEdition|Cluster 39|Hypatia Bradlaugh Bonner|Hypatia Bradlaugh Bonner|corpora/multiauthor/corpus_70_filtered/45130.epub
39|||TheConnecticutWitsandOtherEssays|Cluster 39|Henry A. Beers|Hypatia Bradlaugh Bonner|corpora/multiauthor/corpus_70_filtered/50915.epub
93|||ThePikesPeakRushOrTerryintheNewGoldFields|Cluster 93|Edwin L. Sabin|unknown_73|corpora/multiauthor/corpus_70_filtered/37943.epub
93|||CappyRicksOrtheSubjugationofMattPeasley|Cluster 93|Peter B. Kyne|unknown_73|corpora/multiauthor/corpus_70_filtered/5738.epub
21|||PoemsYouOughttoKnow|Cluster 21|Elia Wilkinson Peattie|Mme. Du Hausset|corpora/multiauthor/corpus_70_filtered/53415.epub
21|||MemoirsoftheCourtsofLouisXVandXVI—Volume2BeingsecretmemoirsofMadameDuHaussetladysmaidtoMadamedePompadourandofthePrincessLamba|Cluster 21|Mme. Du Hausset|Mme. Du Hausset|corpora/multiauthor/corpus_70_filtered/3877.epub
21|||MemoirsoftheCourtsofLouisXVandXVI—Volume1BeingsecretmemoirsofMadameDuHaussetladysmaidtoMadamedePompadourandofthePrincessLamba|Cluster 21|Mme. Du Hausset|Mme. Du Hausset|corpora/multiauthor/corpus_70_filtered/3876.epub
21|||MemoirsoftheCourtsofLouisXVandXVI—Volume4BeingsecretmemoirsofMadameDuHaussetladysmaidtoMadamedePompadourandofthePrincessLamba|Cluster 21|Mme. Du Hausset|Mme. Du Hausset|corpora/multiauthor/corpus_70_filtered/3879.epub
21|||ADaywithSamuelTaylorColeridge|Cluster 21|May Byron|Mme. Du Hausset|corpora/multiauthor/corpus_70_filtered/36337.epub
21|||ForestRockandStreamAseriesoftwentysteellineengravings|Cluster 21|Nathaniel Parker Willis|Mme. Du Hausset|corpora/multiauthor/corpus_70_filtered/48283.epub
21|||MemoriesAStoryofGermanLove|Cluster 21|F. Max Müller|Mme. Du Hausset|corpora/multiauthor/corpus_70_filtered/14521.epub
61|||MissBeechersHousekeeperandHealthkeeperContainingFiveHundredReceipesforEconomicalandHealthfulCookingalsoManyDirectionsforSecurin|Cluster 61|Catharine Esther Beecher|Catharine Esther Beecher|corpora/multiauthor/corpus_70_filtered/55734.epub
61|||OtherWorldsTheirNaturePossibilitiesandHabitabilityintheLightoftheLatestDiscoveries|Cluster 61|Garrett Putman Serviss|Catharine Esther Beecher|corpora/multiauthor/corpus_70_filtered/18431.epub
61|||PleasuresofthetelescopeAnIllustratedGuideforAmateurAstronomersandaPopularDescriptionoftheChiefWondersoftheHeavensforGeneralRead|Cluster 61|Garrett Putman Serviss|Catharine Esther Beecher|corpora/multiauthor/corpus_70_filtered/28752.epub
61|||ATreatiseonDomesticEconomyFortheUseofYoungLadiesatHomeandatSchool|Cluster 61|Catharine Esther Beecher|Catharine Esther Beecher|corpora/multiauthor/corpus_70_filtered/21829.epub
61|||AmericanWomansHomeOrPrinciplesofDomesticScienceBeingaGuidetotheFormationandMaintenanceofEconomicalHealthfulBeautifulandChristia|Cluster 61|Catharine Esther Beecher|Catharine Esther Beecher|corpora/multiauthor/corpus_70_filtered/6598.epub
61|||CuriositiesoftheSky|Cluster 61|Garrett Putman Serviss|Catharine Esther Beecher|corpora/multiauthor/corpus_70_filtered/6630.epub
61|||WomansProfessionasMotherandEducatorwithViewsinOppositiontoWomanSuffrage|Cluster 61|Catharine Esther Beecher|Catharine Esther Beecher|corpora/multiauthor/corpus_70_filtered/56090.epub
6|||ACatalogueofBooksPublishedbyMethuenandCompanyNovember1907|Cluster 6|Methuen & Co.|Methuen & Co.|corpora/multiauthor/corpus_70_filtered/55595.epub
6|||ACatalogueofBooksPublishedbyMethuenandCoOctober1909|Cluster 6|Methuen & Co.|Methuen & Co.|corpora/multiauthor/corpus_70_filtered/37796.epub
6|||ASelectionofBooksPublishedbyMethuen&CoSeptember1913|Cluster 6|Methuen & Co.|Methuen & Co.|corpora/multiauthor/corpus_70_filtered/42977.epub
6|||ASelectionofBooksPublishedbyMethuenandCoLtdOctober1910|Cluster 6|Methuen & Co.|Methuen & Co.|corpora/multiauthor/corpus_70_filtered/15751.epub
6|||ASelectionofBooksPublishedbyMethuenandCoLtdLondonJune1919|Cluster 6|Methuen & Co.|Methuen & Co.|corpora/multiauthor/corpus_70_filtered/59969.epub
6|||AnElegyontheGloryofHerSexMrsMaryBlaize|Cluster 6|Oliver Goldsmith|Methuen & Co.|corpora/multiauthor/corpus_70_filtered/17117.epub
6|||ACatalogueofBooksPublishedbyMethuenandCompanyFebruary1908|Cluster 6|Methuen & Co.|Methuen & Co.|corpora/multiauthor/corpus_70_filtered/36569.epub
6|||ASelectionofBookspublishedbyMethuenandCoLtdLondon36EssexStreetWCSeptember1911|Cluster 6|Methuen & Co.|Methuen & Co.|corpora/multiauthor/corpus_70_filtered/17247.epub
6|||IndexoftheProjectGutenbergWorksofOliverGoldsmith|Cluster 6|Oliver Goldsmith|Methuen & Co.|corpora/multiauthor/corpus_70_filtered/58029.epub
58|||PoemataLatinGreekandItalianPoemsbyJohnMilton|Cluster 58|John Milton|John Milton|corpora/multiauthor/corpus_70_filtered/6929.epub
58|||ThePoeticalWorksofJohnMilton|Cluster 58|John Milton|John Milton|corpora/multiauthor/corpus_70_filtered/1745.epub
58|||AreopagiticaASpeechfortheLibertyofUnlicensedPrintingtotheParliamentofEngland|Cluster 58|John Milton|John Milton|corpora/multiauthor/corpus_70_filtered/608.epub
58|||LAllegroIlPenserosoComusandLycidas|Cluster 58|John Milton|John Milton|corpora/multiauthor/corpus_70_filtered/397.epub
52|||ThePrideofPalomar|Cluster 52|Peter B. Kyne|Peter B. Kyne|corpora/multiauthor/corpus_70_filtered/16674.epub
52|||TuttandMrTutt|Cluster 52|Arthur Cheney Train|Peter B. Kyne|corpora/multiauthor/corpus_70_filtered/10440.epub
52|||CappyRicksRetiresButThatDoesntKeepHimfromComingBackStrongerThanEver|Cluster 52|Peter B. Kyne|Peter B. Kyne|corpora/multiauthor/corpus_70_filtered/6020.epub
52|||Webster—MansMan|Cluster 52|Peter B. Kyne|Peter B. Kyne|corpora/multiauthor/corpus_70_filtered/51987.epub
52|||TheLongChance|Cluster 52|Peter B. Kyne|Peter B. Kyne|corpora/multiauthor/corpus_70_filtered/6115.epub
52|||WhenYouWereaBoy|Cluster 52|Edwin L. Sabin|Peter B. Kyne|corpora/multiauthor/corpus_70_filtered/58165.epub
52|||TheValleyoftheGiants|Cluster 52|Peter B. Kyne|Peter B. Kyne|corpora/multiauthor/corpus_70_filtered/5735.epub
52|||KindredoftheDust|Cluster 52|Peter B. Kyne|Peter B. Kyne|corpora/multiauthor/corpus_70_filtered/13532.epub
52|||"TheFourth""R"""|Cluster 52|George O. Smith|Peter B. Kyne|corpora/multiauthor/corpus_70_filtered/18602.epub
38|||LifeofWmTecumsehShermanLateRetiredGeneralUSA|Cluster 38|Willis Fletcher Johnson|unknown_79|corpora/multiauthor/corpus_70_filtered/44686.epub
38|||"PeterParleysOwnStoryFromthePersonalNarrativeoftheLateSamuelGGoodrich""PeterParley"""|Cluster 38|Samuel G. Goodrich|unknown_79|corpora/multiauthor/corpus_70_filtered/45165.epub
38|||TrueStoriesofCrimeFromtheDistrictAttorneysOffice|Cluster 38|Arthur Cheney Train|unknown_79|corpora/multiauthor/corpus_70_filtered/13172.epub
38|||IndianHeroesandGreatChieftains|Cluster 38|Charles A. Eastman|unknown_79|corpora/multiauthor/corpus_70_filtered/336.epub
103|||WaldfriedANovel|Cluster 103|Berthold Auerbach|Robert Neilson Stephens|corpora/multiauthor/corpus_70_filtered/32446.epub
103|||CaptainRavenshawOrTheMaidofCheapsideARomanceofElizabethanLondon|Cluster 103|Robert Neilson Stephens|Robert Neilson Stephens|corpora/multiauthor/corpus_70_filtered/47738.epub
103|||TheFlightofGeorgianaAStoryofLoveandPerilinEnglandin1746|Cluster 103|Robert Neilson Stephens|Robert Neilson Stephens|corpora/multiauthor/corpus_70_filtered/56364.epub
103|||TheSimpleAdventuresofaMemsahib|Cluster 103|Sara Jeannette Duncan|Robert Neilson Stephens|corpora/multiauthor/corpus_70_filtered/56513.epub
103|||AnEnemytotheKingFromtheRecentlyDiscoveredMemoirsoftheSieurdelaTournoire|Cluster 103|Robert Neilson Stephens|Robert Neilson Stephens|corpora/multiauthor/corpus_70_filtered/9965.epub
103|||PhilipWinwoodASketchoftheDomesticHistoryofanAmericanCaptainintheWarofIndependenceEmbracingEventsthatOccurredbetweenandduringthe|Cluster 103|Robert Neilson Stephens|Robert Neilson Stephens|corpora/multiauthor/corpus_70_filtered/15506.epub
63|||MemoirsandHistoricalChroniclesoftheCourtsofEuropeMemoirsofMargueritedeValoisQueenofFranceWifeofHenriIVofMadamedePompadouroftheC|Cluster 63|Pierre de Bourdeille Brantôme|unknown_81|corpora/multiauthor/corpus_70_filtered/12967.epub
63|||ClotelleATaleoftheSouthernStates|Cluster 63|William Wells Brown|unknown_81|corpora/multiauthor/corpus_70_filtered/2095.epub
63|||MemoirsoftheCourtsofLouisXVandXVI—CompleteBeingsecretmemoirsofMadameDuHaussetladysmaidtoMadamedePompadourandofthePrincessLamb|Cluster 63|Mme. Du Hausset|unknown_81|corpora/multiauthor/corpus_70_filtered/3883.epub
63|||MemoirsoftheCourtsofLouisXVandXVI—Volume6BeingsecretmemoirsofMadameDuHaussetladysmaidtoMadamedePompadourandofthePrincessLamba|Cluster 63|Mme. Du Hausset|unknown_81|corpora/multiauthor/corpus_70_filtered/3881.epub
63|||ClotelleOrTheColoredHeroineataleoftheSouthernStatesOrThePresidentsDaughter|Cluster 63|William Wells Brown|unknown_81|corpora/multiauthor/corpus_70_filtered/241.epub
63|||TheLifeofBenjaminFranklinIllustratedbyTalesSketchesandAnecdotes|Cluster 63|Samuel G. Goodrich|unknown_81|corpora/multiauthor/corpus_70_filtered/38469.epub
113|||TheJewelofSevenStars|Cluster 113|Bram Stoker|Bram Stoker|corpora/multiauthor/corpus_70_filtered/3781.epub
113|||TwentyYearsExperienceasaGhostHunter|Cluster 113|Elliott O'Donnell|Bram Stoker|corpora/multiauthor/corpus_70_filtered/50775.epub
113|||TheLairoftheWhiteWorm|Cluster 113|Bram Stoker|Bram Stoker|corpora/multiauthor/corpus_70_filtered/1188.epub
113|||TheLadyoftheShroud|Cluster 113|Bram Stoker|Bram Stoker|corpora/multiauthor/corpus_70_filtered/3095.epub
113|||TheSorceryClub|Cluster 113|Elliott O'Donnell|Bram Stoker|corpora/multiauthor/corpus_70_filtered/14317.epub
113|||HauntedPlacesinEngland|Cluster 113|Elliott O'Donnell|Bram Stoker|corpora/multiauthor/corpus_70_filtered/44397.epub
113|||TheMysteryoftheSea|Cluster 113|Bram Stoker|Bram Stoker|corpora/multiauthor/corpus_70_filtered/42455.epub
36|||VisitsandSketchesatHomeandAbroadVol2of3WithTalesandMiscellaniesNowFirstCollected|Cluster 36|Mrs. Jameson|unknown_83|corpora/multiauthor/corpus_70_filtered/36819.epub
43|||SevenDayTerror|Cluster 43|R. A. Lafferty|unknown_84|corpora/multiauthor/corpus_70_filtered/61128.epub
43|||TheHated|Cluster 43|Frederik Pohl|unknown_84|corpora/multiauthor/corpus_70_filtered/29503.epub
43|||SodomandGomorrahTexas|Cluster 43|R. A. Lafferty|unknown_84|corpora/multiauthor/corpus_70_filtered/23161.epub
43|||DreamWorld|Cluster 43|R. A. Lafferty|unknown_84|corpora/multiauthor/corpus_70_filtered/51668.epub
43|||RobinsRambles|Cluster 43|May Byron|unknown_84|corpora/multiauthor/corpus_70_filtered/38504.epub
59|||TheMotherofParliaments|Cluster 59|Harry Graham|unknown_85|corpora/multiauthor/corpus_70_filtered/41304.epub
100|||BoysBookofFrontierFighters|Cluster 100|Edwin L. Sabin|unknown_86|corpora/multiauthor/corpus_70_filtered/31130.epub
100|||OnthePlainswithCusterTheWesternLifeandDeedsoftheChiefWiththeYellowHairUnderWhomServedBoyBuglerNedFletcherWhenintheTroublousYear|Cluster 100|Edwin L. Sabin|unknown_86|corpora/multiauthor/corpus_70_filtered/60157.epub
100|||ATexasMatchmaker|Cluster 100|Andy Adams|unknown_86|corpora/multiauthor/corpus_70_filtered/12919.epub
100|||CattleBrandsACollectionofWesternCampFireStories|Cluster 100|Andy Adams|unknown_86|corpora/multiauthor/corpus_70_filtered/12281.epub
87|||AColumbusofSpace|Cluster 87|Garrett Putman Serviss|Garrett Putman Serviss|corpora/multiauthor/corpus_70_filtered/8673.epub
87|||TheMoonMetal|Cluster 87|Garrett Putman Serviss|Garrett Putman Serviss|corpora/multiauthor/corpus_70_filtered/8199.epub
8|||TheSixFingersofTime|Cluster 8|R. A. Lafferty|Sir Max Beerbohm|corpora/multiauthor/corpus_70_filtered/31663.epub
8|||TheTroublemakers|Cluster 8|George O. Smith|Sir Max Beerbohm|corpora/multiauthor/corpus_70_filtered/51868.epub
8|||DesertDust|Cluster 8|Edwin L. Sabin|Sir Max Beerbohm|corpora/multiauthor/corpus_70_filtered/27437.epub
8|||SevenMen[Excerpts]|Cluster 8|Sir Max Beerbohm|Sir Max Beerbohm|corpora/multiauthor/corpus_70_filtered/1306.epub
8|||TheTreasure|Cluster 8|Selma Lagerlöf|Sir Max Beerbohm|corpora/multiauthor/corpus_70_filtered/5161.epub
8|||EnochSoamesAMemoryoftheEighteenNineties|Cluster 8|Sir Max Beerbohm|Sir Max Beerbohm|corpora/multiauthor/corpus_70_filtered/760.epub
8|||SheStoopstoConquerOrTheMistakesofaNightAComedy|Cluster 8|Oliver Goldsmith|Sir Max Beerbohm|corpora/multiauthor/corpus_70_filtered/383.epub
8|||AuroraLeigh|Cluster 8|Elizabeth Barrett Browning|Sir Max Beerbohm|corpora/multiauthor/corpus_70_filtered/56621.epub
8|||AVLaider|Cluster 8|Sir Max Beerbohm|Sir Max Beerbohm|corpora/multiauthor/corpus_70_filtered/761.epub
8|||"ChristianGellertsLastChristmasFrom""GermanTales""PublishedbytheAmericanPublishersCorporation"|Cluster 8|Berthold Auerbach|Sir Max Beerbohm|corpora/multiauthor/corpus_70_filtered/22665.epub
78|||Bolanyo|Cluster 78|Opie Percival Read|Opie Percival Read|corpora/multiauthor/corpus_70_filtered/38826.epub
78|||TheJucklinsANovel|Cluster 78|Opie Percival Read|Opie Percival Read|corpora/multiauthor/corpus_70_filtered/26499.epub
78|||JudgeElbridge|Cluster 78|Opie Percival Read|Opie Percival Read|corpora/multiauthor/corpus_70_filtered/46699.epub
78|||TheSickaBedLadyAndAlsoHickoryDockTheVeryTiredGirlTheHappyDaySomethingThatHappenedinOctoberTheAmateurLoverHeartofTheCityThePinkS|Cluster 78|Eleanor Hallowell Abbott|Opie Percival Read|corpora/multiauthor/corpus_70_filtered/34829.epub
78|||AYankeefromtheWestANovel|Cluster 78|Opie Percival Read|Opie Percival Read|corpora/multiauthor/corpus_70_filtered/33773.epub
78|||TheInheritors|Cluster 78|Joseph Conrad|Opie Percival Read|corpora/multiauthor/corpus_70_filtered/14888.epub
41|||AShortHistoryofFreethoughtAncientandModernVolume1of2ThirdeditionRevisedandExpandedintwovolumes|Cluster 41|J. M. Robertson|J. M. Robertson|corpora/multiauthor/corpus_70_filtered/51793.epub
41|||AShortHistoryofChristianitySecondEditionRevisedWithAdditions|Cluster 41|J. M. Robertson|J. M. Robertson|corpora/multiauthor/corpus_70_filtered/52550.epub
83|||NarrativeofWilliamWBrownaFugitiveSlave|Cluster 83|William Wells Brown|William Wells Brown|corpora/multiauthor/corpus_70_filtered/15132.epub
83|||IllustratedEditionoftheLifeandEscapeofWmWellsBrownfromAmericanSlaveryWrittenbyHimself|Cluster 83|William Wells Brown|William Wells Brown|corpora/multiauthor/corpus_70_filtered/50092.epub
83|||NarrativeofWilliamWBrownaFugitiveSlaveSecondEdition|Cluster 83|William Wells Brown|William Wells Brown|corpora/multiauthor/corpus_70_filtered/59500.epub
45|||PecksBadBoyAbroadBeingaHumorousDescriptionoftheBadBoyandHisDadinTheirJourneysThroughForeignLands1904|Cluster 45|George W. Peck|George W. Peck|corpora/multiauthor/corpus_70_filtered/25489.epub
45|||TheGroceryManAndPecksBadBoyPecksBadBoyandHisPaNo21883|Cluster 45|George W. Peck|George W. Peck|corpora/multiauthor/corpus_70_filtered/25488.epub
45|||PecksBadBoyandHisPa1883|Cluster 45|George W. Peck|George W. Peck|corpora/multiauthor/corpus_70_filtered/25487.epub
45|||PecksBadBoywiththeCowboys|Cluster 45|George W. Peck|George W. Peck|corpora/multiauthor/corpus_70_filtered/6141.epub
45|||PecksBadBoywiththeCircus|Cluster 45|George W. Peck|George W. Peck|corpora/multiauthor/corpus_70_filtered/10212.epub
2|||CubeRootofConquest|Cluster 2|Rog Phillips|unknown_93|corpora/multiauthor/corpus_70_filtered/32712.epub
2|||FugitivePoetry|Cluster 2|Nathaniel Parker Willis|unknown_93|corpora/multiauthor/corpus_70_filtered/32146.epub
2|||HistoryRepeats|Cluster 2|George O. Smith|unknown_93|corpora/multiauthor/corpus_70_filtered/23884.epub
2|||ADaywithRobertSchumann|Cluster 2|May Byron|unknown_93|corpora/multiauthor/corpus_70_filtered/36472.epub
2|||TheQueenOfSpades|Cluster 2|Aleksandr Sergeevich Pushkin|unknown_93|corpora/multiauthor/corpus_70_filtered/23058.epub
2|||MissBeechersDomesticReceiptBookDesignedasaSupplementtoHerTreatiseonDomesticEconomy|Cluster 2|Catharine Esther Beecher|unknown_93|corpora/multiauthor/corpus_70_filtered/54965.epub
2|||TheStoryoftheSiren|Cluster 2|E. M. Forster|unknown_93|corpora/multiauthor/corpus_70_filtered/58581.epub
2|||MisrepresentativeWomen|Cluster 2|Harry Graham|unknown_93|corpora/multiauthor/corpus_70_filtered/42407.epub
9|||StanleysAdventuresintheWildsofAfricaAGraphicAccountoftheSeveralExpeditionsofHenryMStanleyintotheHeartoftheDarkContinent|Cluster 9|Joel Tyler Headley|Charles A. Eastman|corpora/multiauthor/corpus_70_filtered/38389.epub
9|||IndianChildLife|Cluster 9|Charles A. Eastman|Charles A. Eastman|corpora/multiauthor/corpus_70_filtered/25907.epub
9|||MySouthernHomeOrtheSouthandItsPeople|Cluster 9|William Wells Brown|Charles A. Eastman|corpora/multiauthor/corpus_70_filtered/59114.epub
9|||OldIndianDays|Cluster 9|Charles A. Eastman|Charles A. Eastman|corpora/multiauthor/corpus_70_filtered/339.epub
9|||InsectAdventures|Cluster 9|Jean-Henri Fabre|Charles A. Eastman|corpora/multiauthor/corpus_70_filtered/45812.epub
9|||RedHuntersandtheAnimalPeople|Cluster 9|Charles A. Eastman|Charles A. Eastman|corpora/multiauthor/corpus_70_filtered/34461.epub
9|||IndianBoyhood|Cluster 9|Charles A. Eastman|Charles A. Eastman|corpora/multiauthor/corpus_70_filtered/337.epub
9|||PencillingsbytheWayWrittenDuringSomeYearsofResidenceandTravelinEurope|Cluster 9|Nathaniel Parker Willis|Charles A. Eastman|corpora/multiauthor/corpus_70_filtered/39179.epub
9|||BoysBookofIndianWarriorsandHeroicIndianWomen|Cluster 9|Edwin L. Sabin|Charles A. Eastman|corpora/multiauthor/corpus_70_filtered/31131.epub
9|||TalesfromBohemia|Cluster 9|Robert Neilson Stephens|Charles A. Eastman|corpora/multiauthor/corpus_70_filtered/8869.epub
37|||TheCompletePoeticalWorksofOliverGoldsmith|Cluster 37|Oliver Goldsmith|Oliver Goldsmith|corpora/multiauthor/corpus_70_filtered/3545.epub
37|||AnIntroductiontotheProseandPoeticalWorksofJohnMiltonComprisingAlltheAutobiographicPassagesinHisWorkstheMoreExplicitPresentation|Cluster 37|John Milton|Oliver Goldsmith|corpora/multiauthor/corpus_70_filtered/44733.epub
37|||PaganPapers|Cluster 37|Kenneth Grahame|Oliver Goldsmith|corpora/multiauthor/corpus_70_filtered/5319.epub
37|||TheWorksofCharlesandMaryLamb—Volume4PoemsandPlays|Cluster 37|Charles Lamb|Oliver Goldsmith|corpora/multiauthor/corpus_70_filtered/11576.epub
37|||PoemsWithIntroductionandNotes|Cluster 37|Aleksandr Sergeevich Pushkin|Oliver Goldsmith|corpora/multiauthor/corpus_70_filtered/54991.epub
37|||MiltonMinorPoems|Cluster 37|John Milton|Oliver Goldsmith|corpora/multiauthor/corpus_70_filtered/31706.epub
37|||TheVicarofWakefield|Cluster 37|Oliver Goldsmith|Oliver Goldsmith|corpora/multiauthor/corpus_70_filtered/2667.epub
37|||CharacteristicsofWomenMoralPoeticalandHistorical|Cluster 37|Mrs. Jameson|Oliver Goldsmith|corpora/multiauthor/corpus_70_filtered/26152.epub
72|||TheQueenWhoFlewAFairyTale|Cluster 72|Ford Madox Ford|unknown_96|corpora/multiauthor/corpus_70_filtered/52636.epub
66|||IllustrativeAnecdotesoftheAnimalKingdom|Cluster 66|Samuel G. Goodrich|Samuel G. Goodrich|corpora/multiauthor/corpus_70_filtered/33687.epub
66|||AmericanSceneryVol1of2orLandlakeandriverillustrationsoftransatlanticnature|Cluster 66|Nathaniel Parker Willis|Samuel G. Goodrich|corpora/multiauthor/corpus_70_filtered/49042.epub
66|||CuriositiesofHumanNature|Cluster 66|Samuel G. Goodrich|Samuel G. Goodrich|corpora/multiauthor/corpus_70_filtered/39333.epub
66|||PeterParleysTalesAboutAmericaandAustralia|Cluster 66|Samuel G. Goodrich|Samuel G. Goodrich|corpora/multiauthor/corpus_70_filtered/16891.epub
66|||AmericanSceneryVol2of2orLandlakeandriverillustrationsoftransatlanticnature|Cluster 66|Nathaniel Parker Willis|Samuel G. Goodrich|corpora/multiauthor/corpus_70_filtered/49043.epub
66|||FamousMenofAncientTimes|Cluster 66|Samuel G. Goodrich|Samuel G. Goodrich|corpora/multiauthor/corpus_70_filtered/52400.epub
4|||ThePitAStoryofChicago|Cluster 4|Frank Norris|Harold Bell Wright|corpora/multiauthor/corpus_70_filtered/4382.epub
4|||TheCallingofDanMatthews|Cluster 4|Harold Bell Wright|Harold Bell Wright|corpora/multiauthor/corpus_70_filtered/9314.epub
4|||TheSpiderandtheFlyorAnUndesiredLove|Cluster 4|Charles Garvice|Harold Bell Wright|corpora/multiauthor/corpus_70_filtered/49537.epub
4|||AMountainWoman|Cluster 4|Elia Wilkinson Peattie|Harold Bell Wright|corpora/multiauthor/corpus_70_filtered/1877.epub
4|||HelenoftheOldHouse|Cluster 4|Harold Bell Wright|Harold Bell Wright|corpora/multiauthor/corpus_70_filtered/9410.epub
4|||HisHonourandaLady|Cluster 4|Sara Jeannette Duncan|Harold Bell Wright|corpora/multiauthor/corpus_70_filtered/53036.epub
24|||ParadiseLost|Cluster 24|John Milton|unknown_99|corpora/multiauthor/corpus_70_filtered/20.epub
24|||ParadiseRegained|Cluster 24|John Milton|unknown_99|corpora/multiauthor/corpus_70_filtered/58.epub
77|||Quin|Cluster 77|Alice Caldwell Hegan Rice|unknown_100|corpora/multiauthor/corpus_70_filtered/20033.epub
77|||ARomanceofBillyGoatHill|Cluster 77|Alice Caldwell Hegan Rice|unknown_100|corpora/multiauthor/corpus_70_filtered/6635.epub
60|||TheHistoryofCubavol3|Cluster 60|Willis Fletcher Johnson|unknown_101|corpora/multiauthor/corpus_70_filtered/38139.epub
60|||FamousImpostors|Cluster 60|Bram Stoker|unknown_101|corpora/multiauthor/corpus_70_filtered/51391.epub
60|||TheIndianTodayThePastandFutureoftheFirstAmerican|Cluster 60|Charles A. Eastman|unknown_101|corpora/multiauthor/corpus_70_filtered/27448.epub
60|||HistoryoftheIndiansofNorthandSouthAmerica|Cluster 60|Samuel G. Goodrich|unknown_101|corpora/multiauthor/corpus_70_filtered/54266.epub
60|||AlexandriaAHistoryandaGuide|Cluster 60|E. M. Forster|unknown_101|corpora/multiauthor/corpus_70_filtered/57010.epub
60|||AHistoryofEnglishRomanticismintheNineteenthCentury|Cluster 60|Henry A. Beers|unknown_101|corpora/multiauthor/corpus_70_filtered/15931.epub
60|||TheSouloftheIndianAnInterpretation|Cluster 60|Charles A. Eastman|unknown_101|corpora/multiauthor/corpus_70_filtered/340.epub
60|||AncientEgypt|Cluster 60|Arthur Gilman|unknown_101|corpora/multiauthor/corpus_70_filtered/15663.epub
60|||MemoirsoftheCourtsofLouisXVandXVI—Volume5BeingsecretmemoirsofMadameDuHaussetladysmaidtoMadamedePompadourandofthePrincessLamba|Cluster 60|Mme. Du Hausset|unknown_101|corpora/multiauthor/corpus_70_filtered/3880.epub
60|||AstronomywithanOperaglassAPopularIntroductiontotheStudyoftheStarryHeavenswiththeSimplestofOpticalInstruments|Cluster 60|Garrett Putman Serviss|unknown_101|corpora/multiauthor/corpus_70_filtered/36741.epub
73|||TheDragonsSecret|Cluster 73|Augusta Huiell Seaman|Augusta Huiell Seaman|corpora/multiauthor/corpus_70_filtered/25770.epub
73|||TheGirlNextDoor|Cluster 73|Augusta Huiell Seaman|Augusta Huiell Seaman|corpora/multiauthor/corpus_70_filtered/39896.epub
73|||AzaleaTheStoryofaLittleGirlintheBlueRidgeMountains|Cluster 73|Elia Wilkinson Peattie|Augusta Huiell Seaman|corpora/multiauthor/corpus_70_filtered/53727.epub
73|||SusanCleggandHerLoveAffairs|Cluster 73|Anne Warner|Augusta Huiell Seaman|corpora/multiauthor/corpus_70_filtered/37289.epub
73|||TheSlipperPointMystery|Cluster 73|Augusta Huiell Seaman|Augusta Huiell Seaman|corpora/multiauthor/corpus_70_filtered/50961.epub
73|||AzaleasSilverWeb|Cluster 73|Elia Wilkinson Peattie|Augusta Huiell Seaman|corpora/multiauthor/corpus_70_filtered/55304.epub
73|||ThreeSidesofParadiseGreen|Cluster 73|Augusta Huiell Seaman|Augusta Huiell Seaman|corpora/multiauthor/corpus_70_filtered/52946.epub
73|||SeeingFrancewithUncleJohn|Cluster 73|Anne Warner|Augusta Huiell Seaman|corpora/multiauthor/corpus_70_filtered/35574.epub
116|||LizbethoftheDale|Cluster 116|Mary Esther Miller MacGregor|unknown_103|corpora/multiauthor/corpus_70_filtered/28234.epub
40|||TheCritiqueofPureReason|Cluster 40|Immanuel Kant|Immanuel Kant|corpora/multiauthor/corpus_70_filtered/4280.epub
40|||TheCritiqueofPracticalReason|Cluster 40|Immanuel Kant|Immanuel Kant|corpora/multiauthor/corpus_70_filtered/5683.epub
40|||KantsCritiqueofJudgement|Cluster 40|Immanuel Kant|Immanuel Kant|corpora/multiauthor/corpus_70_filtered/48433.epub
40|||TheIntroductiontoHegelsPhilosophyofFineArtsTranslatedfromtheGermanwithNotesandPrefatoryEssay|Cluster 40|Georg Wilhelm Friedrich Hegel|Immanuel Kant|corpora/multiauthor/corpus_70_filtered/46330.epub
26|||TheGoGetterAStoryThatTellsYouHowtobeOne|Cluster 26|Peter B. Kyne|Andy Adams|corpora/multiauthor/corpus_70_filtered/12257.epub
26|||MysteryoftheChineseRingABiffBrewsterMysteryAdventure|Cluster 26|Andy Adams|Andy Adams|corpora/multiauthor/corpus_70_filtered/51608.epub
26|||BrazilianGoldMineMysteryABiffBrewsterMysteryAdventure|Cluster 26|Andy Adams|Andy Adams|corpora/multiauthor/corpus_70_filtered/51538.epub
26|||Impact|Cluster 26|Irving E. Cox|Andy Adams|corpora/multiauthor/corpus_70_filtered/25567.epub
26|||MysteryoftheAmbushinIndiaABiffBrewsterMysteryAdventure|Cluster 26|Andy Adams|Andy Adams|corpora/multiauthor/corpus_70_filtered/51830.epub
26|||AdolescentsOnly|Cluster 26|Irving E. Cox|Andy Adams|corpora/multiauthor/corpus_70_filtered/32651.epub
26|||TheDayoftheBoomerDukes|Cluster 26|Frederik Pohl|Andy Adams|corpora/multiauthor/corpus_70_filtered/22559.epub
26|||LoveStory|Cluster 26|Sir Max Beerbohm|Andy Adams|corpora/multiauthor/corpus_70_filtered/1845.epub
26|||TheThreeGodfathers|Cluster 26|Peter B. Kyne|Andy Adams|corpora/multiauthor/corpus_70_filtered/51942.epub
26|||TheEarthman|Cluster 26|Irving E. Cox|Andy Adams|corpora/multiauthor/corpus_70_filtered/59458.epub
85|||CountessErikasApprenticeship|Cluster 85|Ossip Schubin|Ossip Schubin|corpora/multiauthor/corpus_70_filtered/35531.epub
85|||TheThreeImpostorsorTheTransmutations|Cluster 85|Arthur Machen|Ossip Schubin|corpora/multiauthor/corpus_70_filtered/35517.epub
85|||GloriaVictis!ARomance|Cluster 85|Ossip Schubin|Ossip Schubin|corpora/multiauthor/corpus_70_filtered/35672.epub
85|||TheDaughteroftheCommandant|Cluster 85|Aleksandr Sergeevich Pushkin|Ossip Schubin|corpora/multiauthor/corpus_70_filtered/13511.epub
85|||DraculasGuest|Cluster 85|Bram Stoker|Ossip Schubin|corpora/multiauthor/corpus_70_filtered/10150.epub
85|||FelixLanzbergsExpiation|Cluster 85|Ossip Schubin|Ossip Schubin|corpora/multiauthor/corpus_70_filtered/35571.epub
85|||ErlachCourt|Cluster 85|Ossip Schubin|Ossip Schubin|corpora/multiauthor/corpus_70_filtered/35541.epub
85|||"""OThouMyAustria!"""|Cluster 85|Ossip Schubin|Ossip Schubin|corpora/multiauthor/corpus_70_filtered/35454.epub
85|||OurOwnSetANovel|Cluster 85|Ossip Schubin|Ossip Schubin|corpora/multiauthor/corpus_70_filtered/35673.epub
0|||YeofLittleFaith|Cluster 0|Rog Phillips|unknown_107|corpora/multiauthor/corpus_70_filtered/32663.epub
0|||TheTunnelUndertheWorld|Cluster 0|Frederik Pohl|unknown_107|corpora/multiauthor/corpus_70_filtered/31979.epub
0|||MyLadyGreensleeves|Cluster 0|Frederik Pohl|unknown_107|corpora/multiauthor/corpus_70_filtered/51310.epub
0|||LittleEveEdgarton|Cluster 0|Eleanor Hallowell Abbott|unknown_107|corpora/multiauthor/corpus_70_filtered/15660.epub
0|||TheIndiscreetLetter|Cluster 0|Eleanor Hallowell Abbott|unknown_107|corpora/multiauthor/corpus_70_filtered/15728.epub
0|||HawaiianSeaHuntMysteryABiffBrewsterMysteryAdventure|Cluster 0|Andy Adams|unknown_107|corpora/multiauthor/corpus_70_filtered/51755.epub
0|||FairyPrinceandOtherStories|Cluster 0|Eleanor Hallowell Abbott|unknown_107|corpora/multiauthor/corpus_70_filtered/26399.epub
3|||TheBotanicalMagazineVol05OrFlowerGardenDisplayed|Cluster 3|William Curtis|William Curtis|corpora/multiauthor/corpus_70_filtered/19123.epub
3|||TheBotanicalMagazineVol06OrFlowerGardenDisplayed|Cluster 3|William Curtis|William Curtis|corpora/multiauthor/corpus_70_filtered/21843.epub
3|||HowtoUsethePopularScienceLibraryHistoryofScienceGeneralIndex|Cluster 3|Arthur Selwyn-Brown|William Curtis|corpora/multiauthor/corpus_70_filtered/51133.epub
3|||TheBotanicalMagazineVol03OrFlowerGardenDisplayed|Cluster 3|William Curtis|William Curtis|corpora/multiauthor/corpus_70_filtered/17672.epub
3|||TheBotanicalMagazineVol07OrFlowerGardenDisplayed|Cluster 3|William Curtis|William Curtis|corpora/multiauthor/corpus_70_filtered/23579.epub
3|||TheBotanicalMagazineVol09OrFlowerGardenDisplayed|Cluster 3|William Curtis|William Curtis|corpora/multiauthor/corpus_70_filtered/38382.epub
3|||TheBotanicalMagazineVol02OrFlowerGardenDisplayed|Cluster 3|William Curtis|William Curtis|corpora/multiauthor/corpus_70_filtered/17531.epub
3|||TheBotanicalMagazineVol01OrFlowerGardenDisplayed|Cluster 3|William Curtis|William Curtis|corpora/multiauthor/corpus_70_filtered/17198.epub
3|||ACatalogueofBooksandAnnouncementsofMethuenandCompanyMarch1897|Cluster 3|Methuen & Co.|William Curtis|corpora/multiauthor/corpus_70_filtered/46507.epub
3|||TheBotanicalMagazineVol04OrFlowerGardenDisplayed|Cluster 3|William Curtis|William Curtis|corpora/multiauthor/corpus_70_filtered/17979.epub
42|||BuffonsNaturalHistoryVolume02of10ContainingaTheoryoftheEarthaGeneralHistoryofManoftheBruteCreationandofVegetablesMineral&c&c|Cluster 42|comte de Georges Louis Leclerc Buffon|Ontario. Department of Education|corpora/multiauthor/corpus_70_filtered/45602.epub
42|||TheHistoryofCubavol5|Cluster 42|Willis Fletcher Johnson|Ontario. Department of Education|corpora/multiauthor/corpus_70_filtered/41267.epub
42|||TheUncrownedKing|Cluster 42|Harold Bell Wright|Ontario. Department of Education|corpora/multiauthor/corpus_70_filtered/12991.epub
42|||TheBotanicalMagazineVol08OrFlowerGardenDisplayed|Cluster 42|William Curtis|Ontario. Department of Education|corpora/multiauthor/corpus_70_filtered/24670.epub
42|||OntarioTeachersManualsHouseholdManagement|Cluster 42|Ontario. Department of Education|Ontario. Department of Education|corpora/multiauthor/corpus_70_filtered/24656.epub
42|||OntarioTeachersManualsNatureStudy|Cluster 42|Ontario. Department of Education|Ontario. Department of Education|corpora/multiauthor/corpus_70_filtered/26139.epub
42|||MiltonsTercentenaryAnaddressdeliveredbeforetheModernLanguageClubofYaleUniversityonMiltonsThreeHundredthBirthday|Cluster 42|Henry A. Beers|Ontario. Department of Education|corpora/multiauthor/corpus_70_filtered/33248.epub
42|||TheBotanicalMagazineVol13OrFlowerGardenDisplayed|Cluster 42|William Curtis|Ontario. Department of Education|corpora/multiauthor/corpus_70_filtered/43858.epub
42|||BuffonsNaturalHistoryVolume01of10ContainingaTheoryoftheEarthaGeneralHistoryofManoftheBruteCreationandofVegetablesMineral&c&c|Cluster 42|comte de Georges Louis Leclerc Buffon|Ontario. Department of Education|corpora/multiauthor/corpus_70_filtered/44792.epub
42|||OntarioTeachersManualsHouseholdScienceinRuralSchools|Cluster 42|Ontario. Department of Education|Ontario. Department of Education|corpora/multiauthor/corpus_70_filtered/20557.epub
67|||"""Mycountrytisofthee!""OrtheUnitedStatesofAmericapastpresentandfutureAphilosophicviewofAmericanhistoryandofourpresentstatustobese"|Cluster 67|Willis Fletcher Johnson|unknown_110|corpora/multiauthor/corpus_70_filtered/50036.epub
67|||SocialLifeintheInsectWorld|Cluster 67|Jean-Henri Fabre|unknown_110|corpora/multiauthor/corpus_70_filtered/18350.epub
67|||TheDutyofAmericanWomentoTheirCountry|Cluster 67|Catharine Esther Beecher|unknown_110|corpora/multiauthor/corpus_70_filtered/53739.epub
67|||BrambleBeesandOthers|Cluster 67|Jean-Henri Fabre|unknown_110|corpora/multiauthor/corpus_70_filtered/3421.epub
67|||CanadianSceneryVolume2of2|Cluster 67|Nathaniel Parker Willis|unknown_110|corpora/multiauthor/corpus_70_filtered/47691.epub
67|||ChipsfromaGermanWorkshopVolume5MiscellaneousLaterEssays|Cluster 67|F. Max Müller|unknown_110|corpora/multiauthor/corpus_70_filtered/27810.epub
67|||BlackRebellionFiveSlaveRevolts|Cluster 67|Thomas Wentworth Higginson|unknown_110|corpora/multiauthor/corpus_70_filtered/8432.epub
67|||IndiaWhatcanitteachus?ACourseofLecturesDeliveredbeforetheUniversityOfCambridge|Cluster 67|F. Max Müller|unknown_110|corpora/multiauthor/corpus_70_filtered/20847.epub
7|||Aloys|Cluster 7|R. A. Lafferty|R. A. Lafferty|corpora/multiauthor/corpus_70_filtered/51596.epub
7|||MiraclebyPrice|Cluster 7|Irving E. Cox|R. A. Lafferty|corpora/multiauthor/corpus_70_filtered/58730.epub
7|||TheGuardians|Cluster 7|Irving E. Cox|R. A. Lafferty|corpora/multiauthor/corpus_70_filtered/24152.epub
7|||McGonigalsWorm|Cluster 7|R. A. Lafferty|R. A. Lafferty|corpora/multiauthor/corpus_70_filtered/60940.epub
7|||PervertedProverbsAManualofImmoralsfortheMany|Cluster 7|Harry Graham|R. A. Lafferty|corpora/multiauthor/corpus_70_filtered/34790.epub
7|||IntheGarden|Cluster 7|R. A. Lafferty|R. A. Lafferty|corpora/multiauthor/corpus_70_filtered/61007.epub
7|||TheUnthinkingDestroyer|Cluster 7|Rog Phillips|R. A. Lafferty|corpora/multiauthor/corpus_70_filtered/30683.epub
7|||FirthsWorld|Cluster 7|Irving E. Cox|R. A. Lafferty|corpora/multiauthor/corpus_70_filtered/59252.epub
7|||ThePolitePeopleofPudibundia|Cluster 7|R. A. Lafferty|R. A. Lafferty|corpora/multiauthor/corpus_70_filtered/60955.epub
7|||AllthePeople|Cluster 7|R. A. Lafferty|R. A. Lafferty|corpora/multiauthor/corpus_70_filtered/51603.epub
101|||TheConfessionsofArtemasQuibbleBeingtheIngenuousandUnvarnishedHistoryofArtemasQuibbleEsquireOneTimePractitionerintheNewYorkCrimi|Cluster 101|Arthur Cheney Train|Arthur Cheney Train|corpora/multiauthor/corpus_70_filtered/20451.epub
51|||UnderHandicapANovel|Cluster 51|Jackson Gregory|unknown_113|corpora/multiauthor/corpus_70_filtered/17981.epub
51|||MantoMan|Cluster 51|Jackson Gregory|unknown_113|corpora/multiauthor/corpus_70_filtered/18933.epub
51|||SixFeetFour|Cluster 51|Jackson Gregory|unknown_113|corpora/multiauthor/corpus_70_filtered/15148.epub
51|||CalvaryAlley|Cluster 51|Alice Caldwell Hegan Rice|unknown_113|corpora/multiauthor/corpus_70_filtered/9794.epub
51|||FirebrandTrevison|Cluster 51|Charles Alden Seltzer|unknown_113|corpora/multiauthor/corpus_70_filtered/26951.epub
51|||TheShortCut|Cluster 51|Jackson Gregory|unknown_113|corpora/multiauthor/corpus_70_filtered/18950.epub
86|||JosephintheSnowandTheClockmakerInThreeVolumesVolIII|Cluster 86|Berthold Auerbach|unknown_114|corpora/multiauthor/corpus_70_filtered/33164.epub
86|||TheLettersofRobertBrowningandElizabethBarrettBarrettVol1of218451846|Cluster 86|Elizabeth Barrett Browning|unknown_114|corpora/multiauthor/corpus_70_filtered/16182.epub
86|||"The""Goldfish""BeingtheConfessionsafaSuccessfulMan"|Cluster 86|Arthur Cheney Train|unknown_114|corpora/multiauthor/corpus_70_filtered/12920.epub
86|||DalzielsIllustratedGoldsmith|Cluster 86|Oliver Goldsmith|unknown_114|corpora/multiauthor/corpus_70_filtered/49325.epub
86|||YetAgain|Cluster 86|Sir Max Beerbohm|unknown_114|corpora/multiauthor/corpus_70_filtered/2292.epub
86|||JosephintheSnowandTheClockmakerInThreeVolumesVolII|Cluster 86|Berthold Auerbach|unknown_114|corpora/multiauthor/corpus_70_filtered/33163.epub
86|||TheLettersofElizabethBarrettBrowningVolume2of2|Cluster 86|Elizabeth Barrett Browning|unknown_114|corpora/multiauthor/corpus_70_filtered/16646.epub
86|||TheLettersofElizabethBarrettBrowningVolume1of2|Cluster 86|Elizabeth Barrett Browning|unknown_114|corpora/multiauthor/corpus_70_filtered/13018.epub
86|||AndEvenNow|Cluster 86|Sir Max Beerbohm|unknown_114|corpora/multiauthor/corpus_70_filtered/1956.epub
17|||TheSilverMaple|Cluster 17|Mary Esther Miller MacGregor|unknown_115|corpora/multiauthor/corpus_70_filtered/28688.epub
17|||TheOctopusAStoryofCalifornia|Cluster 17|Frank Norris|unknown_115|corpora/multiauthor/corpus_70_filtered/268.epub
17|||AsbeïnFromtheLifeofaVirtuoso|Cluster 17|Ossip Schubin|unknown_115|corpora/multiauthor/corpus_70_filtered/35396.epub
17|||MadBarbara|Cluster 17|Warwick Deeping|unknown_115|corpora/multiauthor/corpus_70_filtered/50995.epub
17|||TheThirdCircle|Cluster 17|Frank Norris|unknown_115|corpora/multiauthor/corpus_70_filtered/48620.epub
17|||Mortmain|Cluster 17|Arthur Cheney Train|unknown_115|corpora/multiauthor/corpus_70_filtered/37346.epub
17|||TheShapeofFear|Cluster 17|Elia Wilkinson Peattie|unknown_115|corpora/multiauthor/corpus_70_filtered/1876.epub
17|||TheEyesoftheWorld|Cluster 17|Harold Bell Wright|unknown_115|corpora/multiauthor/corpus_70_filtered/11715.epub
17|||DuncanPolitetheWatchmanofGlenoro|Cluster 17|Mary Esther Miller MacGregor|unknown_115|corpora/multiauthor/corpus_70_filtered/28689.epub
17|||TheWinningofBarbaraWorth|Cluster 17|Harold Bell Wright|unknown_115|corpora/multiauthor/corpus_70_filtered/6997.epub
62|||TheWorksofMaxBeerbohm|Cluster 62|Sir Max Beerbohm|unknown_116|corpora/multiauthor/corpus_70_filtered/1859.epub
62|||TheDiaryofanEnnuyée|Cluster 62|Mrs. Jameson|unknown_116|corpora/multiauthor/corpus_70_filtered/18049.epub
62|||HenryWadsworthLongfellow|Cluster 62|Thomas Wentworth Higginson|unknown_116|corpora/multiauthor/corpus_70_filtered/33402.epub
62|||PharosandPharillon|Cluster 62|E. M. Forster|unknown_116|corpora/multiauthor/corpus_70_filtered/61116.epub
62|||ChipsfromaGermanWorkshopVolume3EssaysonLiteratureBiographyandAntiquities|Cluster 62|F. Max Müller|unknown_116|corpora/multiauthor/corpus_70_filtered/26572.epub
62|||ACommonplaceBookofThoughtsMemoriesandFancies2nded|Cluster 62|Mrs. Jameson|unknown_116|corpora/multiauthor/corpus_70_filtered/39680.epub
62|||TheLifeoftheFlyWithWhichareInterspersedSomeChaptersofAutobiography|Cluster 62|Jean-Henri Fabre|unknown_116|corpora/multiauthor/corpus_70_filtered/3422.epub
62|||TheMasonBees|Cluster 62|Jean-Henri Fabre|unknown_116|corpora/multiauthor/corpus_70_filtered/2884.epub
76|||AtLovesCost|Cluster 76|Charles Garvice|Selma Lagerlöf|corpora/multiauthor/corpus_70_filtered/10379.epub
76|||TheMiraclesofAntichristANovel|Cluster 76|Selma Lagerlöf|Selma Lagerlöf|corpora/multiauthor/corpus_70_filtered/54615.epub
76|||TheStoryofGöstaBerling|Cluster 76|Selma Lagerlöf|Selma Lagerlöf|corpora/multiauthor/corpus_70_filtered/56158.epub
76|||GilianTheDreamerHisFancyHisLoveandAdventure|Cluster 76|Neil Munro|Selma Lagerlöf|corpora/multiauthor/corpus_70_filtered/22211.epub
76|||WhereAngelsFeartoTread|Cluster 76|E. M. Forster|Selma Lagerlöf|corpora/multiauthor/corpus_70_filtered/2948.epub
76|||TheBrownOwlAFairyStory|Cluster 76|Ford Madox Ford|Selma Lagerlöf|corpora/multiauthor/corpus_70_filtered/48860.epub
76|||InvisibleLinks|Cluster 76|Selma Lagerlöf|Selma Lagerlöf|corpora/multiauthor/corpus_70_filtered/14273.epub
76|||BorisLensky|Cluster 76|Ossip Schubin|Selma Lagerlöf|corpora/multiauthor/corpus_70_filtered/35491.epub
76|||ThePrideofEve|Cluster 76|Warwick Deeping|Selma Lagerlöf|corpora/multiauthor/corpus_70_filtered/50176.epub
23|||Ethics—Part4|Cluster 23|Benedictus de Spinoza|Benedictus de Spinoza|corpora/multiauthor/corpus_70_filtered/971.epub
23|||OntheImprovementoftheUnderstanding|Cluster 23|Benedictus de Spinoza|Benedictus de Spinoza|corpora/multiauthor/corpus_70_filtered/1016.epub
23|||Ethics—Part3|Cluster 23|Benedictus de Spinoza|Benedictus de Spinoza|corpora/multiauthor/corpus_70_filtered/948.epub
23|||Ethics—Part5|Cluster 23|Benedictus de Spinoza|Benedictus de Spinoza|corpora/multiauthor/corpus_70_filtered/975.epub
23|||Ethics—Part1|Cluster 23|Benedictus de Spinoza|Benedictus de Spinoza|corpora/multiauthor/corpus_70_filtered/919.epub
23|||Ethics—Part2|Cluster 23|Benedictus de Spinoza|Benedictus de Spinoza|corpora/multiauthor/corpus_70_filtered/920.epub
23|||FundamentalPrinciplesoftheMetaphysicofMorals|Cluster 23|Immanuel Kant|Benedictus de Spinoza|corpora/multiauthor/corpus_70_filtered/5682.epub
23|||Ethics|Cluster 23|Benedictus de Spinoza|Benedictus de Spinoza|corpora/multiauthor/corpus_70_filtered/919.epub
23|||TheMetaphysicalElementsofEthics|Cluster 23|Immanuel Kant|Benedictus de Spinoza|corpora/multiauthor/corpus_70_filtered/5684.epub
75|||TheCampFireGirlsLarksandPranksOrTheHouseoftheOpenDoor|Cluster 75|Hildegard G. Frey|Hildegard G. Frey|corpora/multiauthor/corpus_70_filtered/38934.epub
75|||TheCampFireGirlsDoTheirBitOrOvertheTopwiththeWinnebagos|Cluster 75|Hildegard G. Frey|Hildegard G. Frey|corpora/multiauthor/corpus_70_filtered/11664.epub
75|||TheCampFireGirlsontheOpenRoadOrGlorifyWork|Cluster 75|Hildegard G. Frey|Hildegard G. Frey|corpora/multiauthor/corpus_70_filtered/36485.epub
75|||TheCampFireGirlsatOnowayHouseOrTheMagicGarden|Cluster 75|Hildegard G. Frey|Hildegard G. Frey|corpora/multiauthor/corpus_70_filtered/36833.epub
75|||TheCampFireGirlsSolveaMysteryOrTheChristmasAdventureatCarverHouse|Cluster 75|Hildegard G. Frey|Hildegard G. Frey|corpora/multiauthor/corpus_70_filtered/38983.epub
75|||TheCampFireGirlsonEllensIsleOrTheTrailoftheSevenCedars|Cluster 75|Hildegard G. Frey|Hildegard G. Frey|corpora/multiauthor/corpus_70_filtered/30825.epub
75|||TheCampFireGirlsatCampKeewaydinOrPaddlesDown|Cluster 75|Hildegard G. Frey|Hildegard G. Frey|corpora/multiauthor/corpus_70_filtered/10688.epub
75|||TheCampFireGirlsGoMotoringOrAlongtheRoadThatLeadstheWay|Cluster 75|Hildegard G. Frey|Hildegard G. Frey|corpora/multiauthor/corpus_70_filtered/6895.epub
75|||ALittleDuskyHero|Cluster 75|Harriet T. Comstock|Hildegard G. Frey|corpora/multiauthor/corpus_70_filtered/31366.epub
75|||UpTerrapinRiver|Cluster 75|Opie Percival Read|Hildegard G. Frey|corpora/multiauthor/corpus_70_filtered/44879.epub
